DATA_TYPE Graph
VERSION Tekscan Pressure Measurement System 6.70-03
HARDWARE 00114-3443
MAP_VERSION 6.5
HW_TYPE 4
VersaPogoFsx 0
FILENAME C:\Users\User\Desktop\Subject01\plantar pressure\EVA_STAND_LEFT_SUPPORT_3.fsx
SENSOR_TYPE FSCAN
ROWS 60
COLS 21
ROW_SPACING 0.508 centimeters
COL_SPACING 0.508 centimeters
SENSEL_AREA 0.258064 cm2
NOISE_THRESHOLD 3
SECONDS_PER_FRAME 0.005
SECONDS_PER_FRAME 0
MICRO_SECOND 0
TIME 2017/11/14 06:18:14.079下午
SATURATION_PRESSURE 2976.18 KPa 
CALIBRATION_POINT_1 59.0001 (Kilograms) 1921 (Raw Sum) 193 (Number of Loaded Cells)
CALIBRATION_MODE_1 Step
CALIBRATION_INFO C:\Users\User\Desktop\Subject01\plantar pressure\EVA_STAND_LEFT_SUPPORT_3.fsx
SENSITIVITY Custom
MAP_INDEX 1
SUBMAP 1
Patient ID: 

Speed of Gait: 

Weight: 

Gender: 

Physician: 

Technician: 

Shoe: 

START_FRAME 1
END_FRAME 600
UNITS cm2
ASCII_DATA @@
Frames(X), Time(X), Absolute Time(X), Raw Sum, Area(Y:blue), Area(Y), Area(Y), Area(Y)
1, 0, 2017/11/14 06:18:14.079下午, 432.0, 9.55, 9.81, 6.71, 26.06
2, 0.005, 2017/11/14 06:18:14.084下午, 432.0, 10.32, 9.55, 6.45, 26.32
3, 0.01, 2017/11/14 06:18:14.089下午, 419.0, 9.81, 9.55, 5.94, 25.29
4, 0.015, 2017/11/14 06:18:14.094下午, 456.0, 11.10, 9.81, 7.48, 28.39
5, 0.02, 2017/11/14 06:18:14.099下午, 448.0, 10.58, 10.06, 6.97, 27.61
6, 0.025, 2017/11/14 06:18:14.104下午, 435.0, 9.55, 10.06, 7.48, 27.10
7, 0.03, 2017/11/14 06:18:14.109下午, 437.0, 9.55, 10.06, 7.48, 27.10
8, 0.035, 2017/11/14 06:18:14.114下午, 429.0, 9.03, 10.06, 7.48, 26.58
9, 0.04, 2017/11/14 06:18:14.119下午, 456.0, 10.32, 10.06, 7.74, 28.13
10, 0.045, 2017/11/14 06:18:14.124下午, 414.0, 9.81, 9.29, 5.94, 25.03
11, 0.05, 2017/11/14 06:18:14.129下午, 436.0, 10.32, 9.29, 7.23, 26.84
12, 0.055, 2017/11/14 06:18:14.134下午, 448.0, 10.32, 9.81, 7.48, 27.61
13, 0.06, 2017/11/14 06:18:14.139下午, 449.0, 10.32, 9.81, 7.48, 27.61
14, 0.065, 2017/11/14 06:18:14.144下午, 421.0, 9.55, 9.55, 6.45, 25.55
15, 0.07, 2017/11/14 06:18:14.149下午, 446.0, 10.06, 9.81, 8.00, 27.87
16, 0.075, 2017/11/14 06:18:14.154下午, 445.0, 9.03, 10.06, 8.00, 27.10
17, 0.08, 2017/11/14 06:18:14.159下午, 431.0, 9.81, 8.77, 7.74, 26.32
18, 0.085, 2017/11/14 06:18:14.164下午, 416.0, 9.03, 9.55, 6.45, 25.03
19, 0.09, 2017/11/14 06:18:14.169下午, 420.0, 9.29, 9.03, 6.71, 25.03
20, 0.095, 2017/11/14 06:18:14.174下午, 419.0, 9.81, 9.29, 5.94, 25.03
21, 0.1, 2017/11/14 06:18:14.179下午, 426.0, 10.06, 9.55, 6.19, 25.81
22, 0.105, 2017/11/14 06:18:14.184下午, 446.0, 9.55, 9.81, 7.74, 27.10
23, 0.11, 2017/11/14 06:18:14.189下午, 432.0, 10.06, 9.81, 6.45, 26.32
24, 0.115, 2017/11/14 06:18:14.194下午, 455.0, 10.06, 10.06, 8.26, 28.39
25, 0.12, 2017/11/14 06:18:14.199下午, 464.0, 11.35, 10.06, 7.48, 28.90
26, 0.125, 2017/11/14 06:18:14.204下午, 439.0, 10.58, 9.81, 6.97, 27.35
27, 0.13, 2017/11/14 06:18:14.209下午, 427.0, 9.81, 9.55, 6.97, 26.32
28, 0.135, 2017/11/14 06:18:14.214下午, 427.0, 9.81, 9.29, 6.19, 25.29
29, 0.14, 2017/11/14 06:18:14.219下午, 428.0, 10.06, 9.29, 6.45, 25.81
30, 0.145, 2017/11/14 06:18:14.224下午, 445.0, 10.58, 9.55, 7.23, 27.35
31, 0.15, 2017/11/14 06:18:14.229下午, 446.0, 11.10, 9.81, 6.97, 27.87
32, 0.155, 2017/11/14 06:18:14.234下午, 443.0, 10.06, 9.81, 8.00, 27.87
33, 0.16, 2017/11/14 06:18:14.239下午, 430.0, 9.03, 9.29, 7.48, 25.81
34, 0.165, 2017/11/14 06:18:14.244下午, 433.0, 9.03, 9.03, 8.00, 26.06
35, 0.17, 2017/11/14 06:18:14.249下午, 416.0, 9.29, 9.03, 6.71, 25.03
36, 0.175, 2017/11/14 06:18:14.254下午, 445.0, 9.55, 10.06, 7.48, 27.10
37, 0.18, 2017/11/14 06:18:14.259下午, 445.0, 10.58, 10.06, 6.97, 27.61
38, 0.185, 2017/11/14 06:18:14.264下午, 436.0, 10.06, 9.55, 7.23, 26.84
39, 0.19, 2017/11/14 06:18:14.269下午, 446.0, 10.58, 10.06, 7.48, 28.13
40, 0.195, 2017/11/14 06:18:14.274下午, 433.0, 9.29, 10.06, 7.48, 26.84
41, 0.2, 2017/11/14 06:18:14.279下午, 440.0, 9.81, 10.06, 7.48, 27.35
42, 0.205, 2017/11/14 06:18:14.284下午, 439.0, 10.06, 9.81, 7.23, 27.10
43, 0.21, 2017/11/14 06:18:14.289下午, 434.0, 9.29, 10.06, 7.48, 26.84
44, 0.215, 2017/11/14 06:18:14.294下午, 437.0, 9.55, 9.29, 7.74, 26.58
45, 0.22, 2017/11/14 06:18:14.299下午, 425.0, 9.29, 8.77, 7.48, 25.55
46, 0.225, 2017/11/14 06:18:14.304下午, 406.0, 9.55, 9.29, 5.42, 24.26
47, 0.23, 2017/11/14 06:18:14.309下午, 406.0, 9.29, 9.03, 5.42, 23.74
48, 0.235, 2017/11/14 06:18:14.314下午, 444.0, 10.06, 9.29, 8.00, 27.35
49, 0.24, 2017/11/14 06:18:14.319下午, 461.0, 11.10, 10.06, 8.26, 29.42
50, 0.245, 2017/11/14 06:18:14.324下午, 439.0, 9.81, 10.32, 7.23, 27.35
51, 0.25, 2017/11/14 06:18:14.329下午, 448.0, 9.81, 9.55, 8.26, 27.61
52, 0.255, 2017/11/14 06:18:14.334下午, 436.0, 9.29, 9.03, 8.00, 26.32
53, 0.26, 2017/11/14 06:18:14.339下午, 455.0, 10.06, 9.29, 8.52, 27.87
54, 0.265, 2017/11/14 06:18:14.344下午, 426.0, 10.32, 9.29, 6.19, 25.81
55, 0.27, 2017/11/14 06:18:14.349下午, 430.0, 9.81, 9.55, 7.23, 26.58
56, 0.275, 2017/11/14 06:18:14.354下午, 432.0, 9.03, 10.06, 7.48, 26.58
57, 0.28, 2017/11/14 06:18:14.359下午, 446.0, 10.84, 10.06, 7.23, 28.13
58, 0.285, 2017/11/14 06:18:14.364下午, 423.0, 9.55, 8.77, 7.23, 25.55
59, 0.29, 2017/11/14 06:18:14.369下午, 439.0, 9.81, 9.81, 7.48, 27.10
60, 0.295, 2017/11/14 06:18:14.374下午, 429.0, 8.77, 9.03, 8.00, 25.81
61, 0.3, 2017/11/14 06:18:14.379下午, 438.0, 9.81, 9.29, 8.00, 27.10
62, 0.305, 2017/11/14 06:18:14.384下午, 412.0, 9.81, 9.29, 5.68, 24.77
63, 0.31, 2017/11/14 06:18:14.389下午, 429.0, 10.06, 9.03, 7.23, 26.32
64, 0.315, 2017/11/14 06:18:14.394下午, 433.0, 9.55, 9.29, 7.48, 26.32
65, 0.32, 2017/11/14 06:18:14.399下午, 450.0, 10.06, 9.55, 8.00, 27.61
66, 0.325, 2017/11/14 06:18:14.404下午, 450.0, 10.84, 9.55, 7.23, 27.61
67, 0.33, 2017/11/14 06:18:14.409下午, 454.0, 10.58, 10.06, 7.48, 28.13
68, 0.335, 2017/11/14 06:18:14.414下午, 446.0, 9.55, 10.58, 7.48, 27.61
69, 0.34, 2017/11/14 06:18:14.419下午, 439.0, 9.55, 10.06, 7.23, 26.84
70, 0.345, 2017/11/14 06:18:14.424下午, 431.0, 9.81, 8.77, 7.74, 26.32
71, 0.35, 2017/11/14 06:18:14.429下午, 434.0, 9.81, 9.29, 7.23, 26.32
72, 0.355, 2017/11/14 06:18:14.434下午, 447.0, 10.06, 10.06, 7.48, 27.61
73, 0.36, 2017/11/14 06:18:14.439下午, 450.0, 10.58, 10.06, 7.48, 28.13
74, 0.365, 2017/11/14 06:18:14.444下午, 465.0, 10.84, 10.06, 8.52, 29.42
75, 0.37, 2017/11/14 06:18:14.449下午, 442.0, 9.81, 10.06, 7.23, 27.10
76, 0.375, 2017/11/14 06:18:14.454下午, 428.0, 9.81, 9.29, 7.23, 26.32
77, 0.38, 2017/11/14 06:18:14.459下午, 418.0, 9.29, 9.55, 6.19, 25.03
78, 0.385, 2017/11/14 06:18:14.464下午, 464.0, 10.58, 10.06, 8.52, 29.16
79, 0.39, 2017/11/14 06:18:14.469下午, 450.0, 10.84, 9.55, 7.23, 27.61
80, 0.395, 2017/11/14 06:18:14.474下午, 450.0, 9.55, 10.06, 8.26, 27.87
81, 0.4, 2017/11/14 06:18:14.479下午, 459.0, 10.06, 10.06, 8.52, 28.65
82, 0.405, 2017/11/14 06:18:14.484下午, 451.0, 10.84, 10.32, 7.48, 28.65
83, 0.41, 2017/11/14 06:18:14.489下午, 438.0, 9.55, 9.29, 8.00, 26.84
84, 0.415, 2017/11/14 06:18:14.494下午, 437.0, 9.03, 10.06, 7.74, 26.84
85, 0.42, 2017/11/14 06:18:14.499下午, 436.0, 10.06, 8.77, 7.74, 26.58
86, 0.425, 2017/11/14 06:18:14.504下午, 431.0, 9.81, 9.29, 6.97, 26.06
87, 0.43, 2017/11/14 06:18:14.509下午, 427.0, 9.81, 9.29, 6.97, 26.06
88, 0.435, 2017/11/14 06:18:14.514下午, 443.0, 9.81, 9.03, 8.26, 27.10
89, 0.44, 2017/11/14 06:18:14.519下午, 458.0, 10.32, 9.81, 8.26, 28.39
90, 0.445, 2017/11/14 06:18:14.524下午, 442.0, 10.32, 9.55, 7.23, 27.10
91, 0.45, 2017/11/14 06:18:14.529下午, 458.0, 9.81, 10.32, 8.77, 28.90
92, 0.455, 2017/11/14 06:18:14.534下午, 458.0, 9.55, 10.32, 8.52, 28.39
93, 0.46, 2017/11/14 06:18:14.539下午, 416.0, 9.03, 9.29, 6.97, 25.29
94, 0.465, 2017/11/14 06:18:14.544下午, 430.0, 9.81, 9.03, 7.23, 26.06
95, 0.47, 2017/11/14 06:18:14.549下午, 447.0, 10.32, 9.81, 7.48, 27.61
96, 0.475, 2017/11/14 06:18:14.554下午, 441.0, 10.32, 9.55, 7.23, 27.10
97, 0.48, 2017/11/14 06:18:14.559下午, 434.0, 9.55, 9.81, 7.48, 26.84
98, 0.485, 2017/11/14 06:18:14.564下午, 449.0, 9.55, 10.06, 8.26, 27.87
99, 0.49, 2017/11/14 06:18:14.569下午, 421.0, 9.03, 9.55, 7.48, 26.06
100, 0.495, 2017/11/14 06:18:14.574下午, 447.0, 9.55, 10.06, 8.00, 27.61
101, 0.5, 2017/11/14 06:18:14.579下午, 435.0, 9.03, 9.29, 8.00, 26.32
102, 0.505, 2017/11/14 06:18:14.584下午, 411.0, 9.55, 9.29, 6.19, 25.03
103, 0.51, 2017/11/14 06:18:14.589下午, 447.0, 10.06, 9.03, 8.00, 27.10
104, 0.515, 2017/11/14 06:18:14.594下午, 451.0, 10.32, 9.55, 8.00, 27.87
105, 0.52, 2017/11/14 06:18:14.599下午, 452.0, 9.81, 9.81, 8.52, 28.13
106, 0.525, 2017/11/14 06:18:14.604下午, 441.0, 10.58, 9.55, 7.23, 27.35
107, 0.53, 2017/11/14 06:18:14.609下午, 463.0, 10.06, 10.06, 8.77, 28.90
108, 0.535, 2017/11/14 06:18:14.614下午, 449.0, 9.81, 10.06, 7.74, 27.61
109, 0.54, 2017/11/14 06:18:14.619下午, 417.0, 10.32, 8.52, 5.94, 24.77
110, 0.545, 2017/11/14 06:18:14.624下午, 447.0, 10.58, 9.55, 7.48, 27.61
111, 0.55, 2017/11/14 06:18:14.629下午, 430.0, 9.55, 9.55, 7.23, 26.32
112, 0.555, 2017/11/14 06:18:14.634下午, 431.0, 9.29, 9.55, 7.23, 26.06
113, 0.56, 2017/11/14 06:18:14.639下午, 446.0, 9.55, 9.55, 8.77, 27.87
114, 0.565, 2017/11/14 06:18:14.644下午, 418.0, 9.81, 8.52, 6.97, 25.29
115, 0.57, 2017/11/14 06:18:14.649下午, 410.0, 10.06, 8.77, 5.68, 24.52
116, 0.575, 2017/11/14 06:18:14.654下午, 461.0, 10.32, 10.06, 8.26, 28.65
117, 0.58, 2017/11/14 06:18:14.659下午, 436.0, 9.55, 10.06, 7.48, 27.10
118, 0.585, 2017/11/14 06:18:14.664下午, 455.0, 10.58, 10.06, 7.48, 28.13
119, 0.59, 2017/11/14 06:18:14.669下午, 447.0, 10.32, 10.06, 7.48, 27.87
120, 0.595, 2017/11/14 06:18:14.674下午, 450.0, 9.55, 10.06, 8.26, 27.87
121, 0.6, 2017/11/14 06:18:14.679下午, 430.0, 10.84, 10.06, 5.94, 26.84
122, 0.605, 2017/11/14 06:18:14.684下午, 424.0, 10.06, 9.03, 6.97, 26.06
123, 0.61, 2017/11/14 06:18:14.689下午, 441.0, 9.03, 10.06, 8.52, 27.61
124, 0.615, 2017/11/14 06:18:14.694下午, 429.0, 8.77, 9.55, 7.74, 26.06
125, 0.62, 2017/11/14 06:18:14.699下午, 411.0, 9.81, 8.77, 5.94, 24.52
126, 0.625, 2017/11/14 06:18:14.704下午, 423.0, 10.32, 8.77, 6.45, 25.55
127, 0.63, 2017/11/14 06:18:14.709下午, 420.0, 9.29, 10.06, 5.94, 25.29
128, 0.635, 2017/11/14 06:18:14.714下午, 445.0, 10.06, 10.06, 7.48, 27.61
129, 0.64, 2017/11/14 06:18:14.719下午, 436.0, 9.55, 10.32, 7.48, 27.35
130, 0.645, 2017/11/14 06:18:14.724下午, 437.0, 10.06, 9.29, 7.74, 27.10
131, 0.65, 2017/11/14 06:18:14.729下午, 455.0, 10.06, 10.06, 8.26, 28.39
132, 0.655, 2017/11/14 06:18:14.734下午, 434.0, 9.03, 9.55, 8.00, 26.58
133, 0.66, 2017/11/14 06:18:14.739下午, 431.0, 9.29, 8.77, 8.00, 26.06
134, 0.665, 2017/11/14 06:18:14.744下午, 424.0, 10.06, 9.29, 6.19, 25.55
135, 0.67, 2017/11/14 06:18:14.749下午, 425.0, 10.06, 9.29, 6.19, 25.55
136, 0.675, 2017/11/14 06:18:14.754下午, 453.0, 10.32, 9.55, 8.00, 27.87
137, 0.68, 2017/11/14 06:18:14.759下午, 450.0, 10.32, 10.06, 7.48, 27.87
138, 0.685, 2017/11/14 06:18:14.764下午, 453.0, 9.55, 10.06, 8.52, 28.13
139, 0.69, 2017/11/14 06:18:14.769下午, 454.0, 9.81, 10.32, 8.26, 28.39
140, 0.695, 2017/11/14 06:18:14.774下午, 435.0, 8.77, 9.29, 8.26, 26.32
141, 0.7, 2017/11/14 06:18:14.779下午, 441.0, 9.55, 9.55, 8.00, 27.10
142, 0.705, 2017/11/14 06:18:14.784下午, 446.0, 9.81, 9.29, 8.00, 27.10
143, 0.71, 2017/11/14 06:18:14.789下午, 462.0, 10.58, 9.55, 8.26, 28.39
144, 0.715, 2017/11/14 06:18:14.794下午, 444.0, 10.06, 9.55, 7.23, 26.84
145, 0.72, 2017/11/14 06:18:14.799下午, 448.0, 10.06, 10.06, 7.48, 27.61
146, 0.725, 2017/11/14 06:18:14.804下午, 451.0, 9.55, 10.06, 8.52, 28.13
147, 0.73, 2017/11/14 06:18:14.809下午, 439.0, 8.77, 9.81, 8.52, 27.10
148, 0.735, 2017/11/14 06:18:14.814下午, 428.0, 9.81, 9.03, 7.23, 26.06
149, 0.74, 2017/11/14 06:18:14.819下午, 451.0, 10.32, 9.81, 7.48, 27.61
150, 0.745, 2017/11/14 06:18:14.824下午, 443.0, 9.81, 10.06, 7.48, 27.35
151, 0.75, 2017/11/14 06:18:14.829下午, 429.0, 9.81, 9.81, 6.97, 26.58
152, 0.755, 2017/11/14 06:18:14.834下午, 445.0, 9.03, 9.81, 8.77, 27.61
153, 0.76, 2017/11/14 06:18:14.839下午, 429.0, 8.77, 9.29, 8.00, 26.06
154, 0.765, 2017/11/14 06:18:14.844下午, 424.0, 9.29, 9.55, 6.71, 25.55
155, 0.77, 2017/11/14 06:18:14.849下午, 441.0, 9.55, 10.06, 7.48, 27.10
156, 0.775, 2017/11/14 06:18:14.854下午, 435.0, 10.32, 9.81, 6.97, 27.10
157, 0.78, 2017/11/14 06:18:14.859下午, 431.0, 9.03, 9.29, 7.74, 26.06
158, 0.785, 2017/11/14 06:18:14.864下午, 415.0, 9.29, 9.03, 6.19, 24.52
159, 0.79, 2017/11/14 06:18:14.869下午, 444.0, 10.58, 9.29, 7.48, 27.35
160, 0.795, 2017/11/14 06:18:14.874下午, 412.0, 9.29, 9.55, 5.68, 24.52
161, 0.8, 2017/11/14 06:18:14.879下午, 454.0, 9.55, 10.06, 8.26, 27.87
162, 0.805, 2017/11/14 06:18:14.884下午, 459.0, 10.32, 10.06, 8.26, 28.65
163, 0.81, 2017/11/14 06:18:14.889下午, 444.0, 10.06, 10.06, 7.48, 27.61
164, 0.815, 2017/11/14 06:18:14.894下午, 461.0, 9.55, 10.06, 8.77, 28.39
165, 0.82, 2017/11/14 06:18:14.899下午, 436.0, 9.55, 10.06, 7.23, 26.84
166, 0.825, 2017/11/14 06:18:14.904下午, 425.0, 9.03, 8.77, 8.00, 25.81
167, 0.83, 2017/11/14 06:18:14.909下午, 435.0, 10.32, 8.77, 6.97, 26.06
168, 0.835, 2017/11/14 06:18:14.914下午, 451.0, 10.32, 10.06, 7.48, 27.87
169, 0.84, 2017/11/14 06:18:14.919下午, 452.0, 10.06, 10.06, 7.48, 27.61
170, 0.845, 2017/11/14 06:18:14.924下午, 447.0, 9.03, 10.32, 8.26, 27.61
171, 0.85, 2017/11/14 06:18:14.929下午, 437.0, 9.81, 8.77, 8.00, 26.58
172, 0.855, 2017/11/14 06:18:14.934下午, 402.0, 9.81, 8.77, 5.42, 24.00
173, 0.86, 2017/11/14 06:18:14.939下午, 457.0, 10.58, 10.06, 7.48, 28.13
174, 0.865, 2017/11/14 06:18:14.944下午, 455.0, 9.55, 10.06, 8.52, 28.13
175, 0.87, 2017/11/14 06:18:14.949下午, 459.0, 9.55, 10.06, 8.52, 28.13
176, 0.875, 2017/11/14 06:18:14.954下午, 444.0, 9.29, 10.32, 7.74, 27.35
177, 0.88, 2017/11/14 06:18:14.959下午, 408.0, 10.06, 8.77, 5.42, 24.26
178, 0.885, 2017/11/14 06:18:14.964下午, 449.0, 10.06, 9.55, 7.74, 27.35
179, 0.89, 2017/11/14 06:18:14.969下午, 432.0, 10.32, 10.06, 5.94, 26.32
180, 0.895, 2017/11/14 06:18:14.974下午, 450.0, 10.06, 10.06, 7.48, 27.61
181, 0.9, 2017/11/14 06:18:14.979下午, 457.0, 10.58, 9.55, 8.00, 28.13
182, 0.905, 2017/11/14 06:18:14.984下午, 451.0, 10.58, 9.55, 7.23, 27.35
183, 0.91, 2017/11/14 06:18:14.989下午, 448.0, 10.58, 9.55, 7.23, 27.35
184, 0.915, 2017/11/14 06:18:14.994下午, 431.0, 10.84, 9.81, 5.94, 26.58
185, 0.92, 2017/11/14 06:18:14.999下午, 457.0, 9.55, 10.06, 8.26, 27.87
186, 0.925, 2017/11/14 06:18:15.004下午, 427.0, 10.32, 10.06, 5.68, 26.06
187, 0.93, 2017/11/14 06:18:15.009下午, 419.0, 9.55, 9.29, 6.45, 25.29
188, 0.935, 2017/11/14 06:18:15.014下午, 408.0, 9.29, 9.29, 5.68, 24.26
189, 0.94, 2017/11/14 06:18:15.019下午, 458.0, 10.32, 10.06, 7.48, 27.87
190, 0.945, 2017/11/14 06:18:15.024下午, 454.0, 10.32, 10.06, 7.48, 27.87
191, 0.95, 2017/11/14 06:18:15.029下午, 449.0, 10.32, 10.06, 7.48, 27.87
192, 0.955, 2017/11/14 06:18:15.034下午, 460.0, 10.06, 10.32, 8.52, 28.90
193, 0.96, 2017/11/14 06:18:15.039下午, 449.0, 10.06, 9.55, 7.74, 27.35
194, 0.965, 2017/11/14 06:18:15.044下午, 434.0, 10.58, 8.77, 7.23, 26.58
195, 0.97, 2017/11/14 06:18:15.049下午, 406.0, 9.29, 9.29, 5.94, 24.52
196, 0.975, 2017/11/14 06:18:15.054下午, 452.0, 10.32, 9.55, 8.26, 28.13
197, 0.98, 2017/11/14 06:18:15.059下午, 461.0, 10.58, 10.06, 7.48, 28.13
198, 0.985, 2017/11/14 06:18:15.064下午, 448.0, 9.29, 10.06, 8.26, 27.61
199, 0.99, 2017/11/14 06:18:15.069下午, 443.0, 10.32, 9.55, 7.23, 27.10
200, 0.995, 2017/11/14 06:18:15.074下午, 439.0, 9.81, 9.55, 7.23, 26.58
201, 1, 2017/11/14 06:18:15.079下午, 444.0, 9.55, 10.06, 7.48, 27.10
202, 1.005, 2017/11/14 06:18:15.084下午, 457.0, 10.58, 10.32, 7.48, 28.39
203, 1.01, 2017/11/14 06:18:15.089下午, 444.0, 9.81, 10.06, 7.48, 27.35
204, 1.015, 2017/11/14 06:18:15.094下午, 444.0, 10.32, 10.06, 7.23, 27.61
205, 1.02, 2017/11/14 06:18:15.099下午, 435.0, 9.03, 9.81, 7.74, 26.58
206, 1.025, 2017/11/14 06:18:15.104下午, 436.0, 10.06, 9.81, 6.97, 26.84
207, 1.03, 2017/11/14 06:18:15.109下午, 447.0, 10.06, 8.77, 8.00, 26.84
208, 1.035, 2017/11/14 06:18:15.114下午, 434.0, 10.06, 9.81, 5.94, 25.81
209, 1.04, 2017/11/14 06:18:15.119下午, 448.0, 10.58, 10.06, 6.71, 27.35
210, 1.045, 2017/11/14 06:18:15.124下午, 464.0, 10.58, 10.06, 8.26, 28.90
211, 1.05, 2017/11/14 06:18:15.129下午, 436.0, 10.84, 9.81, 5.94, 26.58
212, 1.055, 2017/11/14 06:18:15.134下午, 445.0, 10.06, 10.06, 7.23, 27.35
213, 1.06, 2017/11/14 06:18:15.139下午, 446.0, 9.29, 9.55, 8.26, 27.10
214, 1.065, 2017/11/14 06:18:15.144下午, 435.0, 9.29, 9.55, 7.48, 26.32
215, 1.07, 2017/11/14 06:18:15.149下午, 425.0, 9.81, 9.55, 6.19, 25.55
216, 1.075, 2017/11/14 06:18:15.154下午, 444.0, 10.32, 9.55, 7.23, 27.10
217, 1.08, 2017/11/14 06:18:15.159下午, 465.0, 10.32, 10.06, 8.26, 28.65
218, 1.085, 2017/11/14 06:18:15.164下午, 450.0, 10.06, 10.06, 7.48, 27.61
219, 1.09, 2017/11/14 06:18:15.169下午, 443.0, 10.32, 9.55, 7.23, 27.10
220, 1.095, 2017/11/14 06:18:15.174下午, 426.0, 10.32, 9.81, 5.94, 26.06
221, 1.1, 2017/11/14 06:18:15.179下午, 451.0, 10.06, 10.06, 7.48, 27.61
222, 1.105, 2017/11/14 06:18:15.184下午, 455.0, 10.58, 10.06, 7.48, 28.13
223, 1.11, 2017/11/14 06:18:15.189下午, 429.0, 10.58, 9.29, 5.68, 25.55
224, 1.115, 2017/11/14 06:18:15.194下午, 450.0, 10.32, 10.06, 7.48, 27.87
225, 1.12, 2017/11/14 06:18:15.199下午, 456.0, 10.32, 9.81, 8.26, 28.39
226, 1.125, 2017/11/14 06:18:15.204下午, 459.0, 10.58, 10.06, 8.26, 28.90
227, 1.13, 2017/11/14 06:18:15.209下午, 453.0, 9.55, 9.55, 8.77, 27.87
228, 1.135, 2017/11/14 06:18:15.214下午, 423.0, 9.55, 9.03, 6.71, 25.29
229, 1.14, 2017/11/14 06:18:15.219下午, 445.0, 9.29, 9.29, 8.00, 26.58
230, 1.145, 2017/11/14 06:18:15.224下午, 425.0, 9.55, 10.06, 6.19, 25.81
231, 1.15, 2017/11/14 06:18:15.229下午, 459.0, 10.32, 9.55, 8.26, 28.13
232, 1.155, 2017/11/14 06:18:15.234下午, 453.0, 10.32, 10.06, 7.48, 27.87
233, 1.16, 2017/11/14 06:18:15.239下午, 441.0, 9.81, 10.32, 6.71, 26.84
234, 1.165, 2017/11/14 06:18:15.244下午, 454.0, 10.32, 9.81, 8.00, 28.13
235, 1.17, 2017/11/14 06:18:15.249下午, 447.0, 9.55, 9.29, 8.26, 27.10
236, 1.175, 2017/11/14 06:18:15.254下午, 428.0, 9.55, 9.81, 6.19, 25.55
237, 1.18, 2017/11/14 06:18:15.259下午, 438.0, 9.55, 9.55, 7.23, 26.32
238, 1.185, 2017/11/14 06:18:15.264下午, 442.0, 10.32, 10.06, 6.97, 27.35
239, 1.19, 2017/11/14 06:18:15.269下午, 456.0, 10.58, 10.06, 7.48, 28.13
240, 1.195, 2017/11/14 06:18:15.274下午, 409.0, 10.06, 9.03, 5.68, 24.77
241, 1.2, 2017/11/14 06:18:15.279下午, 434.0, 9.81, 9.29, 6.97, 26.06
242, 1.205, 2017/11/14 06:18:15.284下午, 438.0, 9.03, 9.29, 8.00, 26.32
243, 1.21, 2017/11/14 06:18:15.289下午, 436.0, 10.84, 9.55, 5.94, 26.32
244, 1.215, 2017/11/14 06:18:15.294下午, 459.0, 10.32, 9.81, 8.26, 28.39
245, 1.22, 2017/11/14 06:18:15.299下午, 457.0, 10.32, 10.06, 7.48, 27.87
246, 1.225, 2017/11/14 06:18:15.304下午, 444.0, 9.29, 10.06, 7.48, 26.84
247, 1.23, 2017/11/14 06:18:15.309下午, 455.0, 10.32, 10.06, 7.48, 27.87
248, 1.235, 2017/11/14 06:18:15.314下午, 445.0, 10.32, 9.81, 7.23, 27.35
249, 1.24, 2017/11/14 06:18:15.319下午, 447.0, 9.03, 9.55, 8.52, 27.10
250, 1.245, 2017/11/14 06:18:15.324下午, 448.0, 10.06, 9.29, 7.74, 27.10
251, 1.25, 2017/11/14 06:18:15.329下午, 456.0, 10.32, 9.55, 8.00, 27.87
252, 1.255, 2017/11/14 06:18:15.334下午, 452.0, 10.58, 10.06, 7.48, 28.13
253, 1.26, 2017/11/14 06:18:15.339下午, 453.0, 10.84, 10.06, 7.23, 28.13
254, 1.265, 2017/11/14 06:18:15.344下午, 448.0, 10.06, 9.03, 8.00, 27.10
255, 1.27, 2017/11/14 06:18:15.349下午, 450.0, 10.06, 9.03, 8.00, 27.10
256, 1.275, 2017/11/14 06:18:15.354下午, 447.0, 10.58, 9.55, 6.71, 26.84
257, 1.28, 2017/11/14 06:18:15.359下午, 450.0, 10.32, 9.55, 7.23, 27.10
258, 1.285, 2017/11/14 06:18:15.364下午, 451.0, 10.58, 9.81, 7.48, 27.87
259, 1.29, 2017/11/14 06:18:15.369下午, 455.0, 10.58, 10.06, 7.48, 28.13
260, 1.295, 2017/11/14 06:18:15.374下午, 443.0, 10.32, 10.06, 7.23, 27.61
261, 1.3, 2017/11/14 06:18:15.379下午, 447.0, 9.81, 8.77, 8.26, 26.84
262, 1.305, 2017/11/14 06:18:15.384下午, 444.0, 10.06, 9.29, 6.97, 26.32
263, 1.31, 2017/11/14 06:18:15.389下午, 430.0, 9.81, 9.55, 6.45, 25.81
264, 1.315, 2017/11/14 06:18:15.394下午, 455.0, 10.32, 10.06, 7.48, 27.87
265, 1.32, 2017/11/14 06:18:15.399下午, 453.0, 9.81, 10.06, 7.48, 27.35
266, 1.325, 2017/11/14 06:18:15.404下午, 455.0, 10.84, 9.55, 7.23, 27.61
267, 1.33, 2017/11/14 06:18:15.409下午, 462.0, 10.84, 10.06, 8.26, 29.16
268, 1.335, 2017/11/14 06:18:15.414下午, 465.0, 10.06, 10.06, 8.26, 28.39
269, 1.34, 2017/11/14 06:18:15.419下午, 430.0, 9.81, 8.77, 6.71, 25.29
270, 1.345, 2017/11/14 06:18:15.424下午, 460.0, 10.58, 9.81, 7.48, 27.87
271, 1.35, 2017/11/14 06:18:15.429下午, 460.0, 10.58, 10.06, 7.48, 28.13
272, 1.355, 2017/11/14 06:18:15.434下午, 458.0, 10.32, 10.58, 6.97, 27.87
273, 1.36, 2017/11/14 06:18:15.439下午, 440.0, 10.58, 8.77, 6.71, 26.06
274, 1.365, 2017/11/14 06:18:15.444下午, 449.0, 10.32, 9.29, 7.48, 27.10
275, 1.37, 2017/11/14 06:18:15.449下午, 445.0, 10.58, 9.55, 7.23, 27.35
276, 1.375, 2017/11/14 06:18:15.454下午, 453.0, 9.55, 10.06, 8.00, 27.61
277, 1.38, 2017/11/14 06:18:15.459下午, 443.0, 9.81, 9.03, 7.74, 26.58
278, 1.385, 2017/11/14 06:18:15.464下午, 457.0, 10.84, 9.29, 7.23, 27.35
279, 1.39, 2017/11/14 06:18:15.469下午, 458.0, 10.06, 10.06, 8.26, 28.39
280, 1.395, 2017/11/14 06:18:15.474下午, 431.0, 10.58, 9.55, 5.68, 25.81
281, 1.4, 2017/11/14 06:18:15.479下午, 454.0, 10.32, 10.06, 7.48, 27.87
282, 1.405, 2017/11/14 06:18:15.484下午, 456.0, 10.84, 9.55, 7.23, 27.61
283, 1.41, 2017/11/14 06:18:15.489下午, 458.0, 10.84, 10.06, 7.48, 28.39
284, 1.415, 2017/11/14 06:18:15.494下午, 458.0, 10.06, 10.06, 8.00, 28.13
285, 1.42, 2017/11/14 06:18:15.499下午, 462.0, 10.32, 10.32, 8.00, 28.65
286, 1.425, 2017/11/14 06:18:15.504下午, 479.0, 10.84, 10.32, 8.52, 29.68
287, 1.43, 2017/11/14 06:18:15.509下午, 433.0, 10.58, 9.03, 6.45, 26.06
288, 1.435, 2017/11/14 06:18:15.514下午, 454.0, 10.06, 9.03, 8.52, 27.61
289, 1.44, 2017/11/14 06:18:15.519下午, 456.0, 10.58, 9.81, 7.48, 27.87
290, 1.445, 2017/11/14 06:18:15.524下午, 467.0, 10.84, 10.06, 7.48, 28.39
291, 1.45, 2017/11/14 06:18:15.529下午, 465.0, 10.06, 10.06, 8.52, 28.65
292, 1.455, 2017/11/14 06:18:15.534下午, 425.0, 9.81, 9.29, 6.45, 25.55
293, 1.46, 2017/11/14 06:18:15.539下午, 452.0, 10.58, 10.06, 6.71, 27.35
294, 1.465, 2017/11/14 06:18:15.544下午, 449.0, 10.32, 9.55, 7.23, 27.10
295, 1.47, 2017/11/14 06:18:15.549下午, 461.0, 10.06, 10.06, 8.52, 28.65
296, 1.475, 2017/11/14 06:18:15.554下午, 448.0, 10.06, 9.55, 7.74, 27.35
297, 1.48, 2017/11/14 06:18:15.559下午, 417.0, 10.32, 8.77, 5.42, 24.52
298, 1.485, 2017/11/14 06:18:15.564下午, 431.0, 10.06, 9.55, 6.19, 25.81
299, 1.49, 2017/11/14 06:18:15.569下午, 445.0, 10.58, 9.55, 7.48, 27.61
300, 1.495, 2017/11/14 06:18:15.574下午, 456.0, 11.10, 9.55, 7.23, 27.87
301, 1.5, 2017/11/14 06:18:15.579下午, 457.0, 10.58, 10.06, 7.48, 28.13
302, 1.505, 2017/11/14 06:18:15.584下午, 462.0, 10.32, 10.32, 8.00, 28.65
303, 1.51, 2017/11/14 06:18:15.589下午, 465.0, 10.32, 10.06, 8.77, 29.16
304, 1.515, 2017/11/14 06:18:15.594下午, 446.0, 9.55, 9.29, 7.74, 26.58
305, 1.52, 2017/11/14 06:18:15.599下午, 463.0, 10.84, 9.29, 8.26, 28.39
306, 1.525, 2017/11/14 06:18:15.604下午, 445.0, 10.58, 9.03, 6.71, 26.32
307, 1.53, 2017/11/14 06:18:15.609下午, 458.0, 10.58, 10.06, 7.48, 28.13
308, 1.535, 2017/11/14 06:18:15.614下午, 432.0, 10.06, 9.81, 6.71, 26.58
309, 1.54, 2017/11/14 06:18:15.619下午, 463.0, 10.06, 9.81, 8.52, 28.39
310, 1.545, 2017/11/14 06:18:15.624下午, 446.0, 10.06, 9.29, 7.23, 26.58
311, 1.55, 2017/11/14 06:18:15.629下午, 451.0, 10.58, 9.55, 7.48, 27.61
312, 1.555, 2017/11/14 06:18:15.634下午, 460.0, 10.84, 10.06, 7.48, 28.39
313, 1.56, 2017/11/14 06:18:15.639下午, 459.0, 10.84, 10.06, 8.00, 28.90
314, 1.565, 2017/11/14 06:18:15.644下午, 452.0, 10.58, 9.29, 7.74, 27.61
315, 1.57, 2017/11/14 06:18:15.649下午, 440.0, 9.81, 9.29, 7.23, 26.32
316, 1.575, 2017/11/14 06:18:15.654下午, 461.0, 10.32, 10.06, 7.48, 27.87
317, 1.58, 2017/11/14 06:18:15.659下午, 451.0, 10.58, 10.06, 7.48, 28.13
318, 1.585, 2017/11/14 06:18:15.664下午, 473.0, 10.84, 10.06, 8.52, 29.42
319, 1.59, 2017/11/14 06:18:15.669下午, 448.0, 10.58, 9.81, 7.23, 27.61
320, 1.595, 2017/11/14 06:18:15.674下午, 463.0, 10.06, 9.55, 8.77, 28.39
321, 1.6, 2017/11/14 06:18:15.679下午, 447.0, 10.58, 9.29, 6.97, 26.84
322, 1.605, 2017/11/14 06:18:15.684下午, 458.0, 10.84, 9.55, 7.23, 27.61
323, 1.61, 2017/11/14 06:18:15.689下午, 439.0, 10.32, 9.29, 6.97, 26.58
324, 1.615, 2017/11/14 06:18:15.694下午, 460.0, 10.58, 10.06, 7.48, 28.13
325, 1.62, 2017/11/14 06:18:15.699下午, 461.0, 11.35, 10.32, 7.23, 28.90
326, 1.625, 2017/11/14 06:18:15.704下午, 465.0, 10.84, 10.06, 8.00, 28.90
327, 1.63, 2017/11/14 06:18:15.709下午, 455.0, 10.58, 8.77, 8.00, 27.35
328, 1.635, 2017/11/14 06:18:15.714下午, 462.0, 10.84, 10.06, 7.48, 28.39
329, 1.64, 2017/11/14 06:18:15.719下午, 461.0, 10.84, 10.06, 7.48, 28.39
330, 1.645, 2017/11/14 06:18:15.724下午, 453.0, 10.58, 10.06, 7.48, 28.13
331, 1.65, 2017/11/14 06:18:15.729下午, 458.0, 10.32, 9.03, 8.26, 27.61
332, 1.655, 2017/11/14 06:18:15.734下午, 444.0, 10.84, 9.29, 6.45, 26.58
333, 1.66, 2017/11/14 06:18:15.739下午, 437.0, 10.58, 9.55, 6.19, 26.32
334, 1.665, 2017/11/14 06:18:15.744下午, 465.0, 11.10, 10.06, 7.48, 28.65
335, 1.67, 2017/11/14 06:18:15.749下午, 448.0, 11.10, 9.29, 6.97, 27.35
336, 1.675, 2017/11/14 06:18:15.754下午, 458.0, 10.58, 8.77, 8.00, 27.35
337, 1.68, 2017/11/14 06:18:15.759下午, 453.0, 11.10, 9.55, 6.71, 27.35
338, 1.685, 2017/11/14 06:18:15.764下午, 467.0, 11.35, 9.55, 7.23, 28.13
339, 1.69, 2017/11/14 06:18:15.769下午, 465.0, 10.84, 9.55, 8.00, 28.39
340, 1.695, 2017/11/14 06:18:15.774下午, 455.0, 11.10, 9.55, 7.48, 28.13
341, 1.7, 2017/11/14 06:18:15.779下午, 470.0, 11.10, 10.06, 8.00, 29.16
342, 1.705, 2017/11/14 06:18:15.784下午, 452.0, 10.58, 9.03, 7.74, 27.35
343, 1.71, 2017/11/14 06:18:15.789下午, 429.0, 10.58, 9.29, 5.42, 25.29
344, 1.715, 2017/11/14 06:18:15.794下午, 423.0, 10.32, 9.03, 5.16, 24.52
345, 1.72, 2017/11/14 06:18:15.799下午, 453.0, 10.84, 10.06, 6.97, 27.87
346, 1.725, 2017/11/14 06:18:15.804下午, 451.0, 10.32, 9.55, 7.23, 27.10
347, 1.73, 2017/11/14 06:18:15.809下午, 449.0, 10.58, 10.06, 6.97, 27.61
348, 1.735, 2017/11/14 06:18:15.814下午, 461.0, 10.84, 9.03, 8.26, 28.13
349, 1.74, 2017/11/14 06:18:15.819下午, 459.0, 10.58, 8.77, 8.52, 27.87
350, 1.745, 2017/11/14 06:18:15.824下午, 461.0, 10.58, 9.29, 7.74, 27.61
351, 1.75, 2017/11/14 06:18:15.829下午, 451.0, 10.58, 9.29, 7.23, 27.10
352, 1.755, 2017/11/14 06:18:15.834下午, 464.0, 10.58, 10.06, 7.74, 28.39
353, 1.76, 2017/11/14 06:18:15.839下午, 476.0, 11.35, 10.06, 8.00, 29.42
354, 1.765, 2017/11/14 06:18:15.844下午, 468.0, 10.84, 9.29, 8.26, 28.39
355, 1.77, 2017/11/14 06:18:15.849下午, 462.0, 11.10, 9.55, 7.23, 27.87
356, 1.775, 2017/11/14 06:18:15.854下午, 453.0, 11.10, 9.55, 6.71, 27.35
357, 1.78, 2017/11/14 06:18:15.859下午, 446.0, 10.58, 10.06, 6.97, 27.61
358, 1.785, 2017/11/14 06:18:15.864下午, 465.0, 10.06, 9.81, 8.52, 28.39
359, 1.79, 2017/11/14 06:18:15.869下午, 479.0, 10.84, 10.06, 8.26, 29.16
360, 1.795, 2017/11/14 06:18:15.874下午, 450.0, 10.84, 8.77, 6.71, 26.32
361, 1.8, 2017/11/14 06:18:15.879下午, 429.0, 10.06, 8.77, 6.97, 25.81
362, 1.805, 2017/11/14 06:18:15.884下午, 441.0, 10.84, 9.29, 5.94, 26.06
363, 1.81, 2017/11/14 06:18:15.889下午, 463.0, 10.58, 9.55, 8.00, 28.13
364, 1.815, 2017/11/14 06:18:15.894下午, 469.0, 10.58, 9.55, 8.00, 28.13
365, 1.82, 2017/11/14 06:18:15.899下午, 462.0, 10.84, 10.32, 6.97, 28.13
366, 1.825, 2017/11/14 06:18:15.904下午, 465.0, 11.35, 10.06, 6.97, 28.39
367, 1.83, 2017/11/14 06:18:15.909下午, 473.0, 11.10, 9.55, 8.26, 28.90
368, 1.835, 2017/11/14 06:18:15.914下午, 459.0, 10.84, 9.03, 8.00, 27.87
369, 1.84, 2017/11/14 06:18:15.919下午, 437.0, 10.84, 9.81, 5.42, 26.06
370, 1.845, 2017/11/14 06:18:15.924下午, 463.0, 10.58, 10.32, 7.48, 28.39
371, 1.85, 2017/11/14 06:18:15.929下午, 459.0, 11.10, 9.81, 7.23, 28.13
372, 1.855, 2017/11/14 06:18:15.934下午, 466.0, 11.10, 9.55, 7.48, 28.13
373, 1.86, 2017/11/14 06:18:15.939下午, 466.0, 10.84, 9.29, 8.26, 28.39
374, 1.865, 2017/11/14 06:18:15.944下午, 464.0, 10.32, 9.55, 8.00, 27.87
375, 1.87, 2017/11/14 06:18:15.949下午, 469.0, 11.35, 10.06, 7.48, 28.90
376, 1.875, 2017/11/14 06:18:15.954下午, 480.0, 11.10, 10.06, 8.52, 29.68
377, 1.88, 2017/11/14 06:18:15.959下午, 460.0, 10.84, 9.29, 7.74, 27.87
378, 1.885, 2017/11/14 06:18:15.964下午, 459.0, 10.84, 9.81, 7.23, 27.87
379, 1.89, 2017/11/14 06:18:15.969下午, 416.0, 10.06, 8.77, 5.42, 24.26
380, 1.895, 2017/11/14 06:18:15.974下午, 458.0, 10.32, 10.06, 7.48, 27.87
381, 1.9, 2017/11/14 06:18:15.979下午, 429.0, 10.84, 9.81, 5.42, 26.06
382, 1.905, 2017/11/14 06:18:15.984下午, 440.0, 11.35, 10.06, 5.42, 26.84
383, 1.91, 2017/11/14 06:18:15.989下午, 451.0, 10.84, 9.03, 6.97, 26.84
384, 1.915, 2017/11/14 06:18:15.994下午, 438.0, 11.10, 9.03, 5.68, 25.81
385, 1.92, 2017/11/14 06:18:15.999下午, 434.0, 11.10, 8.77, 5.68, 25.55
386, 1.925, 2017/11/14 06:18:16.004下午, 472.0, 10.32, 10.06, 8.52, 28.90
387, 1.93, 2017/11/14 06:18:16.009下午, 464.0, 11.35, 10.06, 6.97, 28.39
388, 1.935, 2017/11/14 06:18:16.014下午, 463.0, 10.58, 10.32, 6.97, 27.87
389, 1.94, 2017/11/14 06:18:16.019下午, 451.0, 11.10, 9.55, 6.45, 27.10
390, 1.945, 2017/11/14 06:18:16.024下午, 453.0, 10.32, 9.29, 7.48, 27.10
391, 1.95, 2017/11/14 06:18:16.029下午, 481.0, 11.61, 10.06, 8.00, 29.68
392, 1.955, 2017/11/14 06:18:16.034下午, 463.0, 10.58, 9.29, 8.00, 27.87
393, 1.96, 2017/11/14 06:18:16.039下午, 446.0, 10.32, 9.29, 7.48, 27.10
394, 1.965, 2017/11/14 06:18:16.044下午, 459.0, 10.84, 9.81, 7.23, 27.87
395, 1.97, 2017/11/14 06:18:16.049下午, 482.0, 11.10, 10.06, 9.03, 30.19
396, 1.975, 2017/11/14 06:18:16.054下午, 467.0, 10.58, 10.06, 8.00, 28.65
397, 1.98, 2017/11/14 06:18:16.059下午, 452.0, 10.84, 9.29, 6.71, 26.84
398, 1.985, 2017/11/14 06:18:16.064下午, 450.0, 10.84, 9.55, 6.45, 26.84
399, 1.99, 2017/11/14 06:18:16.069下午, 463.0, 10.32, 9.55, 8.00, 27.87
400, 1.995, 2017/11/14 06:18:16.074下午, 454.0, 10.84, 9.55, 6.97, 27.35
401, 2, 2017/11/14 06:18:16.079下午, 465.0, 11.10, 10.32, 7.23, 28.65
402, 2.005, 2017/11/14 06:18:16.084下午, 452.0, 10.58, 8.77, 7.74, 27.10
403, 2.01, 2017/11/14 06:18:16.089下午, 485.0, 10.58, 10.32, 8.52, 29.42
404, 2.015, 2017/11/14 06:18:16.094下午, 436.0, 10.58, 9.81, 5.16, 25.55
405, 2.02, 2017/11/14 06:18:16.099下午, 461.0, 10.32, 9.81, 7.48, 27.61
406, 2.025, 2017/11/14 06:18:16.104下午, 444.0, 10.06, 9.55, 6.97, 26.58
407, 2.03, 2017/11/14 06:18:16.109下午, 449.0, 10.84, 10.06, 6.97, 27.87
408, 2.035, 2017/11/14 06:18:16.114下午, 451.0, 10.58, 8.77, 8.26, 27.61
409, 2.04, 2017/11/14 06:18:16.119下午, 446.0, 10.84, 9.03, 6.71, 26.58
410, 2.045, 2017/11/14 06:18:16.124下午, 470.0, 11.35, 9.81, 7.48, 28.65
411, 2.05, 2017/11/14 06:18:16.129下午, 453.0, 11.10, 9.55, 7.23, 27.87
412, 2.055, 2017/11/14 06:18:16.134下午, 489.0, 10.84, 10.32, 9.03, 30.19
413, 2.06, 2017/11/14 06:18:16.139下午, 453.0, 10.58, 9.29, 6.97, 26.84
414, 2.065, 2017/11/14 06:18:16.144下午, 433.0, 10.84, 9.29, 5.68, 25.81
415, 2.07, 2017/11/14 06:18:16.149下午, 460.0, 10.58, 9.55, 7.74, 27.87
416, 2.075, 2017/11/14 06:18:16.154下午, 458.0, 11.10, 9.55, 6.97, 27.61
417, 2.08, 2017/11/14 06:18:16.159下午, 473.0, 10.06, 10.32, 8.52, 28.90
418, 2.085, 2017/11/14 06:18:16.164下午, 470.0, 10.84, 9.29, 8.26, 28.39
419, 2.09, 2017/11/14 06:18:16.169下午, 457.0, 10.58, 9.03, 7.74, 27.35
420, 2.095, 2017/11/14 06:18:16.174下午, 443.0, 10.84, 9.55, 6.19, 26.58
421, 2.1, 2017/11/14 06:18:16.179下午, 452.0, 10.32, 9.81, 7.23, 27.35
422, 2.105, 2017/11/14 06:18:16.184下午, 455.0, 10.58, 10.06, 6.97, 27.61
423, 2.11, 2017/11/14 06:18:16.189下午, 468.0, 11.35, 9.81, 7.23, 28.39
424, 2.115, 2017/11/14 06:18:16.194下午, 461.0, 11.35, 10.32, 6.71, 28.39
425, 2.12, 2017/11/14 06:18:16.199下午, 475.0, 11.10, 10.58, 7.74, 29.42
426, 2.125, 2017/11/14 06:18:16.204下午, 466.0, 11.10, 9.81, 7.74, 28.65
427, 2.13, 2017/11/14 06:18:16.209下午, 451.0, 10.58, 9.29, 7.23, 27.10
428, 2.135, 2017/11/14 06:18:16.214下午, 414.0, 10.06, 8.77, 5.16, 24.00
429, 2.14, 2017/11/14 06:18:16.219下午, 433.0, 10.32, 9.55, 5.68, 25.55
430, 2.145, 2017/11/14 06:18:16.224下午, 456.0, 10.32, 10.06, 7.48, 27.87
431, 2.15, 2017/11/14 06:18:16.229下午, 472.0, 10.84, 10.06, 8.00, 28.90
432, 2.155, 2017/11/14 06:18:16.234下午, 454.0, 10.58, 9.29, 7.74, 27.61
433, 2.16, 2017/11/14 06:18:16.239下午, 431.0, 10.32, 9.03, 5.94, 25.29
434, 2.165, 2017/11/14 06:18:16.244下午, 456.0, 10.32, 9.81, 7.23, 27.35
435, 2.17, 2017/11/14 06:18:16.249下午, 470.0, 10.84, 10.32, 8.00, 29.16
436, 2.175, 2017/11/14 06:18:16.254下午, 455.0, 10.58, 10.06, 7.23, 27.87
437, 2.18, 2017/11/14 06:18:16.259下午, 475.0, 10.84, 9.29, 8.26, 28.39
438, 2.185, 2017/11/14 06:18:16.264下午, 461.0, 10.58, 9.55, 7.74, 27.87
439, 2.19, 2017/11/14 06:18:16.269下午, 446.0, 10.84, 9.29, 6.45, 26.58
440, 2.195, 2017/11/14 06:18:16.274下午, 472.0, 11.10, 10.06, 7.48, 28.65
441, 2.2, 2017/11/14 06:18:16.279下午, 459.0, 10.58, 9.81, 7.23, 27.61
442, 2.205, 2017/11/14 06:18:16.284下午, 448.0, 10.32, 10.06, 6.97, 27.35
443, 2.21, 2017/11/14 06:18:16.289下午, 466.0, 10.84, 10.06, 7.48, 28.39
444, 2.215, 2017/11/14 06:18:16.294下午, 475.0, 11.10, 10.32, 8.00, 29.42
445, 2.22, 2017/11/14 06:18:16.299下午, 463.0, 10.06, 9.55, 8.26, 27.87
446, 2.225, 2017/11/14 06:18:16.304下午, 485.0, 10.84, 10.32, 8.52, 29.68
447, 2.23, 2017/11/14 06:18:16.309下午, 468.0, 10.84, 9.29, 8.52, 28.65
448, 2.235, 2017/11/14 06:18:16.314下午, 449.0, 10.32, 9.03, 6.97, 26.32
449, 2.24, 2017/11/14 06:18:16.319下午, 441.0, 10.32, 9.29, 6.45, 26.06
450, 2.245, 2017/11/14 06:18:16.324下午, 453.0, 10.32, 9.81, 7.23, 27.35
451, 2.25, 2017/11/14 06:18:16.329下午, 463.0, 11.35, 10.32, 6.97, 28.65
452, 2.255, 2017/11/14 06:18:16.334下午, 465.0, 11.10, 10.58, 7.23, 28.90
453, 2.26, 2017/11/14 06:18:16.339下午, 472.0, 11.10, 10.32, 7.23, 28.65
454, 2.265, 2017/11/14 06:18:16.344下午, 455.0, 10.58, 9.29, 7.23, 27.10
455, 2.27, 2017/11/14 06:18:16.349下午, 442.0, 9.81, 9.29, 7.23, 26.32
456, 2.275, 2017/11/14 06:18:16.354下午, 458.0, 10.06, 9.81, 7.74, 27.61
457, 2.28, 2017/11/14 06:18:16.359下午, 467.0, 10.32, 10.06, 8.26, 28.65
458, 2.285, 2017/11/14 06:18:16.364下午, 456.0, 10.84, 10.06, 6.97, 27.87
459, 2.29, 2017/11/14 06:18:16.369下午, 463.0, 11.35, 9.81, 7.23, 28.39
460, 2.295, 2017/11/14 06:18:16.374下午, 456.0, 10.84, 10.06, 7.23, 28.13
461, 2.3, 2017/11/14 06:18:16.379下午, 477.0, 10.32, 10.58, 7.74, 28.65
462, 2.305, 2017/11/14 06:18:16.384下午, 465.0, 10.58, 9.29, 8.26, 28.13
463, 2.31, 2017/11/14 06:18:16.389下午, 457.0, 10.32, 9.29, 7.48, 27.10
464, 2.315, 2017/11/14 06:18:16.394下午, 450.0, 10.06, 9.55, 7.23, 26.84
465, 2.32, 2017/11/14 06:18:16.399下午, 458.0, 10.58, 10.32, 6.45, 27.35
466, 2.325, 2017/11/14 06:18:16.404下午, 466.0, 10.58, 10.06, 7.48, 28.13
467, 2.33, 2017/11/14 06:18:16.409下午, 447.0, 10.32, 9.55, 6.97, 26.84
468, 2.335, 2017/11/14 06:18:16.414下午, 454.0, 10.84, 10.06, 6.97, 27.87
469, 2.34, 2017/11/14 06:18:16.419下午, 471.0, 10.84, 10.06, 8.00, 28.90
470, 2.345, 2017/11/14 06:18:16.424下午, 455.0, 9.81, 9.29, 8.26, 27.35
471, 2.35, 2017/11/14 06:18:16.429下午, 451.0, 10.32, 8.77, 7.48, 26.58
472, 2.355, 2017/11/14 06:18:16.434下午, 444.0, 9.55, 9.81, 6.97, 26.32
473, 2.36, 2017/11/14 06:18:16.439下午, 450.0, 10.06, 9.81, 6.97, 26.84
474, 2.365, 2017/11/14 06:18:16.444下午, 458.0, 10.84, 10.06, 7.48, 28.39
475, 2.37, 2017/11/14 06:18:16.449下午, 483.0, 10.58, 10.58, 8.26, 29.42
476, 2.375, 2017/11/14 06:18:16.454下午, 473.0, 10.06, 10.06, 8.52, 28.65
477, 2.38, 2017/11/14 06:18:16.459下午, 458.0, 10.58, 9.29, 7.48, 27.35
478, 2.385, 2017/11/14 06:18:16.464下午, 453.0, 10.32, 10.32, 6.19, 26.84
479, 2.39, 2017/11/14 06:18:16.469下午, 459.0, 10.06, 9.55, 7.74, 27.35
480, 2.395, 2017/11/14 06:18:16.474下午, 456.0, 10.32, 9.81, 7.23, 27.35
481, 2.4, 2017/11/14 06:18:16.479下午, 466.0, 10.32, 10.58, 7.74, 28.65
482, 2.405, 2017/11/14 06:18:16.484下午, 482.0, 11.10, 10.06, 8.26, 29.42
483, 2.41, 2017/11/14 06:18:16.489下午, 467.0, 10.32, 10.58, 8.00, 28.90
484, 2.415, 2017/11/14 06:18:16.494下午, 462.0, 10.06, 10.06, 7.74, 27.87
485, 2.42, 2017/11/14 06:18:16.499下午, 472.0, 10.32, 10.06, 8.52, 28.90
486, 2.425, 2017/11/14 06:18:16.504下午, 454.0, 10.06, 9.29, 7.74, 27.10
487, 2.43, 2017/11/14 06:18:16.509下午, 416.0, 9.29, 9.29, 5.68, 24.26
488, 2.435, 2017/11/14 06:18:16.514下午, 439.0, 10.06, 9.03, 6.97, 26.06
489, 2.44, 2017/11/14 06:18:16.519下午, 450.0, 10.06, 9.81, 7.23, 27.10
490, 2.445, 2017/11/14 06:18:16.524下午, 454.0, 10.06, 9.81, 8.00, 27.87
491, 2.45, 2017/11/14 06:18:16.529下午, 458.0, 9.81, 9.81, 8.00, 27.61
492, 2.455, 2017/11/14 06:18:16.534下午, 437.0, 10.06, 9.55, 6.71, 26.32
493, 2.46, 2017/11/14 06:18:16.539下午, 449.0, 10.58, 9.55, 7.23, 27.35
494, 2.465, 2017/11/14 06:18:16.544下午, 463.0, 10.06, 10.06, 8.26, 28.39
495, 2.47, 2017/11/14 06:18:16.549下午, 447.0, 10.06, 9.81, 6.97, 26.84
496, 2.475, 2017/11/14 06:18:16.554下午, 449.0, 10.06, 9.29, 8.00, 27.35
497, 2.48, 2017/11/14 06:18:16.559下午, 464.0, 10.58, 10.32, 7.48, 28.39
498, 2.485, 2017/11/14 06:18:16.564下午, 469.0, 10.06, 10.32, 8.26, 28.65
499, 2.49, 2017/11/14 06:18:16.569下午, 452.0, 10.58, 10.06, 6.97, 27.61
500, 2.495, 2017/11/14 06:18:16.574下午, 479.0, 9.81, 10.32, 9.03, 29.16
501, 2.5, 2017/11/14 06:18:16.579下午, 480.0, 10.32, 10.84, 8.52, 29.68
502, 2.505, 2017/11/14 06:18:16.584下午, 442.0, 9.29, 9.29, 7.74, 26.32
503, 2.51, 2017/11/14 06:18:16.589下午, 440.0, 9.81, 9.55, 6.97, 26.32
504, 2.515, 2017/11/14 06:18:16.594下午, 452.0, 9.81, 10.32, 7.48, 27.61
505, 2.52, 2017/11/14 06:18:16.599下午, 460.0, 10.58, 10.06, 7.48, 28.13
506, 2.525, 2017/11/14 06:18:16.604下午, 448.0, 10.06, 9.81, 7.23, 27.10
507, 2.53, 2017/11/14 06:18:16.609下午, 458.0, 10.58, 10.06, 6.97, 27.61
508, 2.535, 2017/11/14 06:18:16.614下午, 457.0, 9.55, 9.81, 8.52, 27.87
509, 2.54, 2017/11/14 06:18:16.619下午, 453.0, 9.03, 9.55, 8.52, 27.10
510, 2.545, 2017/11/14 06:18:16.624下午, 434.0, 9.81, 9.55, 5.94, 25.29
511, 2.55, 2017/11/14 06:18:16.629下午, 424.0, 9.55, 9.81, 5.68, 25.03
512, 2.555, 2017/11/14 06:18:16.634下午, 450.0, 10.58, 10.06, 6.97, 27.61
513, 2.56, 2017/11/14 06:18:16.639下午, 460.0, 9.29, 10.84, 8.00, 28.13
514, 2.565, 2017/11/14 06:18:16.644下午, 470.0, 9.81, 10.06, 8.77, 28.65
515, 2.57, 2017/11/14 06:18:16.649下午, 419.0, 9.29, 9.03, 5.68, 24.00
516, 2.575, 2017/11/14 06:18:16.654下午, 417.0, 9.03, 9.81, 6.19, 25.03
517, 2.58, 2017/11/14 06:18:16.659下午, 460.0, 10.32, 10.32, 7.48, 28.13
518, 2.585, 2017/11/14 06:18:16.664下午, 456.0, 10.06, 10.06, 7.74, 27.87
519, 2.59, 2017/11/14 06:18:16.669下午, 483.0, 10.58, 10.58, 9.03, 30.19
520, 2.595, 2017/11/14 06:18:16.674下午, 440.0, 9.55, 8.77, 7.74, 26.06
521, 2.6, 2017/11/14 06:18:16.679下午, 428.0, 9.55, 9.03, 6.19, 24.77
522, 2.605, 2017/11/14 06:18:16.684下午, 438.0, 9.55, 9.29, 7.23, 26.06
523, 2.61, 2017/11/14 06:18:16.689下午, 423.0, 9.81, 9.55, 5.68, 25.03
524, 2.615, 2017/11/14 06:18:16.694下午, 472.0, 10.06, 10.32, 8.52, 28.90
525, 2.62, 2017/11/14 06:18:16.699下午, 469.0, 10.58, 10.06, 8.26, 28.90
526, 2.625, 2017/11/14 06:18:16.704下午, 470.0, 10.32, 10.32, 8.26, 28.90
527, 2.63, 2017/11/14 06:18:16.709下午, 472.0, 10.32, 10.58, 8.26, 29.16
528, 2.635, 2017/11/14 06:18:16.714下午, 452.0, 10.06, 9.29, 8.26, 27.61
529, 2.64, 2017/11/14 06:18:16.719下午, 449.0, 9.29, 9.29, 8.52, 27.10
530, 2.645, 2017/11/14 06:18:16.724下午, 428.0, 9.29, 9.81, 6.45, 25.55
531, 2.65, 2017/11/14 06:18:16.729下午, 460.0, 10.06, 10.58, 7.48, 28.13
532, 2.655, 2017/11/14 06:18:16.734下午, 459.0, 10.58, 10.58, 7.23, 28.39
533, 2.66, 2017/11/14 06:18:16.739下午, 452.0, 9.29, 9.81, 8.52, 27.61
534, 2.665, 2017/11/14 06:18:16.744下午, 443.0, 9.03, 9.29, 7.74, 26.06
535, 2.67, 2017/11/14 06:18:16.749下午, 435.0, 9.55, 9.29, 6.97, 25.81
536, 2.675, 2017/11/14 06:18:16.754下午, 448.0, 10.06, 9.81, 7.23, 27.10
537, 2.68, 2017/11/14 06:18:16.759下午, 463.0, 10.84, 10.58, 7.23, 28.65
538, 2.685, 2017/11/14 06:18:16.764下午, 463.0, 9.29, 10.32, 8.26, 27.87
539, 2.69, 2017/11/14 06:18:16.769下午, 456.0, 9.03, 9.81, 8.52, 27.35
540, 2.695, 2017/11/14 06:18:16.774下午, 463.0, 10.06, 9.29, 8.52, 27.87
541, 2.7, 2017/11/14 06:18:16.779下午, 428.0, 8.52, 9.29, 7.23, 25.03
542, 2.705, 2017/11/14 06:18:16.784下午, 425.0, 9.03, 9.03, 7.23, 25.29
543, 2.71, 2017/11/14 06:18:16.789下午, 463.0, 10.32, 10.32, 7.74, 28.39
544, 2.715, 2017/11/14 06:18:16.794下午, 475.0, 10.32, 10.32, 8.52, 29.16
545, 2.72, 2017/11/14 06:18:16.799下午, 481.0, 10.06, 10.58, 8.52, 29.16
546, 2.725, 2017/11/14 06:18:16.804下午, 430.0, 9.03, 8.77, 7.23, 25.03
547, 2.73, 2017/11/14 06:18:16.809下午, 446.0, 9.29, 8.77, 8.26, 26.32
548, 2.735, 2017/11/14 06:18:16.814下午, 462.0, 10.32, 10.32, 7.48, 28.13
549, 2.74, 2017/11/14 06:18:16.819下午, 453.0, 10.32, 10.32, 6.97, 27.61
550, 2.745, 2017/11/14 06:18:16.824下午, 470.0, 9.55, 10.32, 8.77, 28.65
551, 2.75, 2017/11/14 06:18:16.829下午, 426.0, 9.55, 8.77, 6.45, 24.77
552, 2.755, 2017/11/14 06:18:16.834下午, 435.0, 9.29, 9.55, 6.97, 25.81
553, 2.76, 2017/11/14 06:18:16.839下午, 454.0, 9.81, 10.32, 7.48, 27.61
554, 2.765, 2017/11/14 06:18:16.844下午, 482.0, 10.58, 10.32, 8.52, 29.42
555, 2.77, 2017/11/14 06:18:16.849下午, 457.0, 8.52, 10.32, 8.77, 27.61
556, 2.775, 2017/11/14 06:18:16.854下午, 452.0, 8.77, 10.06, 8.00, 26.84
557, 2.78, 2017/11/14 06:18:16.859下午, 444.0, 9.29, 9.55, 7.74, 26.58
558, 2.785, 2017/11/14 06:18:16.864下午, 457.0, 10.06, 9.81, 8.00, 27.87
559, 2.79, 2017/11/14 06:18:16.869下午, 452.0, 9.55, 10.32, 7.48, 27.35
560, 2.795, 2017/11/14 06:18:16.874下午, 448.0, 9.55, 10.32, 7.48, 27.35
561, 2.8, 2017/11/14 06:18:16.879下午, 450.0, 9.81, 9.29, 8.00, 27.10
562, 2.805, 2017/11/14 06:18:16.884下午, 467.0, 9.81, 10.32, 8.52, 28.65
563, 2.81, 2017/11/14 06:18:16.889下午, 446.0, 8.77, 9.55, 8.00, 26.32
564, 2.815, 2017/11/14 06:18:16.894下午, 442.0, 9.55, 9.03, 7.23, 25.81
565, 2.82, 2017/11/14 06:18:16.899下午, 458.0, 9.55, 9.55, 8.00, 27.10
566, 2.825, 2017/11/14 06:18:16.904下午, 447.0, 9.55, 10.06, 7.23, 26.84
567, 2.83, 2017/11/14 06:18:16.909下午, 451.0, 10.06, 9.55, 7.48, 27.10
568, 2.835, 2017/11/14 06:18:16.914下午, 460.0, 9.55, 10.32, 8.26, 28.13
569, 2.84, 2017/11/14 06:18:16.919下午, 457.0, 10.32, 9.81, 7.74, 27.87
570, 2.845, 2017/11/14 06:18:16.924下午, 458.0, 9.03, 10.32, 8.26, 27.61
571, 2.85, 2017/11/14 06:18:16.929下午, 451.0, 8.52, 10.32, 8.52, 27.35
572, 2.855, 2017/11/14 06:18:16.934下午, 459.0, 9.55, 10.32, 7.74, 27.61
573, 2.86, 2017/11/14 06:18:16.939下午, 437.0, 9.55, 9.03, 6.97, 25.55
574, 2.865, 2017/11/14 06:18:16.944下午, 448.0, 10.06, 9.55, 7.48, 27.10
575, 2.87, 2017/11/14 06:18:16.949下午, 458.0, 10.06, 9.81, 8.00, 27.87
576, 2.875, 2017/11/14 06:18:16.954下午, 472.0, 10.32, 9.81, 8.52, 28.65
577, 2.88, 2017/11/14 06:18:16.959下午, 463.0, 9.03, 10.32, 8.77, 28.13
578, 2.885, 2017/11/14 06:18:16.964下午, 467.0, 10.06, 9.81, 8.26, 28.13
579, 2.89, 2017/11/14 06:18:16.969下午, 439.0, 9.29, 9.55, 6.97, 25.81
580, 2.895, 2017/11/14 06:18:16.974下午, 426.0, 9.55, 9.29, 5.68, 24.52
581, 2.9, 2017/11/14 06:18:16.979下午, 443.0, 9.29, 9.81, 7.23, 26.32
582, 2.905, 2017/11/14 06:18:16.984下午, 462.0, 9.55, 10.32, 8.26, 28.13
583, 2.91, 2017/11/14 06:18:16.989下午, 456.0, 10.06, 9.81, 7.74, 27.61
584, 2.915, 2017/11/14 06:18:16.994下午, 462.0, 10.06, 10.06, 8.26, 28.39
585, 2.92, 2017/11/14 06:18:16.999下午, 466.0, 9.03, 10.84, 8.52, 28.39
586, 2.925, 2017/11/14 06:18:17.004下午, 476.0, 10.06, 10.32, 8.26, 28.65
587, 2.93, 2017/11/14 06:18:17.009下午, 453.0, 10.06, 9.55, 7.74, 27.35
588, 2.935, 2017/11/14 06:18:17.014下午, 476.0, 10.58, 10.32, 8.52, 29.42
589, 2.94, 2017/11/14 06:18:17.019下午, 472.0, 10.32, 10.32, 8.52, 29.16
590, 2.945, 2017/11/14 06:18:17.024下午, 456.0, 9.03, 9.55, 8.52, 27.10
591, 2.95, 2017/11/14 06:18:17.029下午, 455.0, 10.32, 9.55, 7.23, 27.10
592, 2.955, 2017/11/14 06:18:17.034下午, 480.0, 10.58, 10.32, 8.52, 29.42
593, 2.96, 2017/11/14 06:18:17.039下午, 475.0, 10.32, 10.32, 8.52, 29.16
594, 2.965, 2017/11/14 06:18:17.044下午, 469.0, 10.06, 10.06, 8.00, 28.13
595, 2.97, 2017/11/14 06:18:17.049下午, 461.0, 9.55, 9.55, 8.00, 27.10
596, 2.975, 2017/11/14 06:18:17.054下午, 418.0, 8.52, 10.32, 5.68, 24.52
597, 2.98, 2017/11/14 06:18:17.059下午, 454.0, 10.32, 9.81, 7.23, 27.35
598, 2.985, 2017/11/14 06:18:17.064下午, 464.0, 9.81, 10.32, 8.26, 28.39
599, 2.99, 2017/11/14 06:18:17.069下午, 472.0, 10.58, 10.32, 8.00, 28.90
600, 2.995, 2017/11/14 06:18:17.074下午, 482.0, 10.58, 10.32, 8.26, 29.16
@@
