DATA_TYPE Graph
VERSION Tekscan Pressure Measurement System 6.70-03
HARDWARE 00114-3447
MAP_VERSION 6.5
HW_TYPE 4
VersaPogoFsx 0
FILENAME C:\Users\User\Desktop\Subject01\plantar pressure\EVA_STAND_RIGHT_SUPPORT_3.fsx
SENSOR_TYPE FSCAN
ROWS 60
COLS 21
ROW_SPACING 0.508 centimeters
COL_SPACING 0.508 centimeters
SENSEL_AREA 0.258064 cm2
NOISE_THRESHOLD 3
SECONDS_PER_FRAME 0.005
SECONDS_PER_FRAME 0
MICRO_SECOND 0
TIME 2017/11/14 06:18:14.079下午
SATURATION_PRESSURE 2514.18 KPa 
CALIBRATION_POINT_1 59.0001 (Kilograms) 2274 (Raw Sum) 286 (Number of Loaded Cells)
CALIBRATION_MODE_1 Step
CALIBRATION_INFO C:\Users\User\Desktop\Subject01\plantar pressure\EVA_STAND_RIGHT_SUPPORT_3.fsx
SENSITIVITY Custom
MAP_INDEX 0
SUBMAP 0
Patient ID: 

Speed of Gait: 

Weight: 

Gender: 

Physician: 

Technician: 

Shoe: 

START_FRAME 1
END_FRAME 600
UNITS cm2
ASCII_DATA @@
Frames(X), Time(X), Absolute Time(X), Raw Sum, Area(Y:dark-blue), Area(Y), Area(Y), Area(Y)
1, 0, 2017/11/14 06:18:14.079下午, 223.0, 0.00, 8.26, 4.65, 12.90
2, 0.005, 2017/11/14 06:18:14.084下午, 217.0, 0.00, 8.26, 4.39, 12.65
3, 0.01, 2017/11/14 06:18:14.089下午, 229.0, 0.77, 7.74, 4.65, 13.16
4, 0.015, 2017/11/14 06:18:14.094下午, 214.0, 0.00, 7.74, 4.65, 12.39
5, 0.02, 2017/11/14 06:18:14.099下午, 226.0, 0.00, 8.52, 4.65, 13.16
6, 0.025, 2017/11/14 06:18:14.104下午, 232.0, 0.00, 7.74, 5.16, 13.16
7, 0.03, 2017/11/14 06:18:14.109下午, 231.0, 0.00, 8.26, 4.90, 13.16
8, 0.035, 2017/11/14 06:18:14.114下午, 239.0, 0.00, 7.74, 5.16, 13.16
9, 0.04, 2017/11/14 06:18:14.119下午, 228.0, 0.00, 8.00, 5.16, 13.16
10, 0.045, 2017/11/14 06:18:14.124下午, 230.0, 0.00, 8.00, 5.16, 13.16
11, 0.05, 2017/11/14 06:18:14.129下午, 238.0, 0.00, 8.52, 5.42, 13.94
12, 0.055, 2017/11/14 06:18:14.134下午, 233.0, 0.00, 8.52, 4.90, 13.42
13, 0.06, 2017/11/14 06:18:14.139下午, 230.0, 0.00, 8.52, 4.90, 13.42
14, 0.065, 2017/11/14 06:18:14.144下午, 226.0, 0.00, 8.00, 4.90, 12.90
15, 0.07, 2017/11/14 06:18:14.149下午, 239.0, 0.00, 8.00, 5.16, 13.42
16, 0.075, 2017/11/14 06:18:14.154下午, 237.0, 0.00, 7.74, 5.16, 13.16
17, 0.08, 2017/11/14 06:18:14.159下午, 244.0, 0.00, 9.03, 5.68, 14.71
18, 0.085, 2017/11/14 06:18:14.164下午, 231.0, 0.00, 8.26, 5.16, 13.42
19, 0.09, 2017/11/14 06:18:14.169下午, 238.0, 0.00, 8.52, 5.16, 13.68
20, 0.095, 2017/11/14 06:18:14.174下午, 227.0, 0.00, 8.00, 5.16, 13.16
21, 0.1, 2017/11/14 06:18:14.179下午, 235.0, 0.00, 8.26, 5.16, 13.42
22, 0.105, 2017/11/14 06:18:14.184下午, 241.0, 0.00, 8.26, 5.94, 14.19
23, 0.11, 2017/11/14 06:18:14.189下午, 240.0, 0.00, 8.26, 5.68, 13.94
24, 0.115, 2017/11/14 06:18:14.194下午, 214.0, 0.00, 7.74, 4.65, 12.39
25, 0.12, 2017/11/14 06:18:14.199下午, 225.0, 0.00, 8.00, 4.90, 12.90
26, 0.125, 2017/11/14 06:18:14.204下午, 222.0, 0.00, 7.74, 5.16, 12.90
27, 0.13, 2017/11/14 06:18:14.209下午, 236.0, 0.00, 8.52, 5.16, 13.68
28, 0.135, 2017/11/14 06:18:14.214下午, 229.0, 0.00, 8.00, 5.16, 13.16
29, 0.14, 2017/11/14 06:18:14.219下午, 245.0, 0.00, 8.52, 5.68, 14.19
30, 0.145, 2017/11/14 06:18:14.224下午, 219.0, 0.00, 7.74, 4.90, 12.65
31, 0.15, 2017/11/14 06:18:14.229下午, 240.0, 0.00, 7.74, 5.16, 13.16
32, 0.155, 2017/11/14 06:18:14.234下午, 243.0, 0.00, 8.52, 5.16, 13.94
33, 0.16, 2017/11/14 06:18:14.239下午, 236.0, 0.00, 8.26, 5.42, 13.68
34, 0.165, 2017/11/14 06:18:14.244下午, 237.0, 0.00, 8.52, 5.16, 13.68
35, 0.17, 2017/11/14 06:18:14.249下午, 229.0, 0.00, 7.74, 5.68, 13.42
36, 0.175, 2017/11/14 06:18:14.254下午, 227.0, 0.00, 8.00, 4.90, 12.90
37, 0.18, 2017/11/14 06:18:14.259下午, 219.0, 0.00, 7.74, 4.90, 12.65
38, 0.185, 2017/11/14 06:18:14.264下午, 242.0, 0.00, 8.52, 5.68, 14.19
39, 0.19, 2017/11/14 06:18:14.269下午, 230.0, 0.00, 8.52, 5.16, 13.68
40, 0.195, 2017/11/14 06:18:14.274下午, 228.0, 0.00, 7.74, 5.68, 13.42
41, 0.2, 2017/11/14 06:18:14.279下午, 224.0, 0.00, 7.74, 5.42, 13.16
42, 0.205, 2017/11/14 06:18:14.284下午, 251.0, 0.00, 9.03, 5.16, 14.45
43, 0.21, 2017/11/14 06:18:14.289下午, 252.0, 0.00, 8.26, 5.68, 14.19
44, 0.215, 2017/11/14 06:18:14.294下午, 235.0, 0.00, 8.52, 5.16, 13.68
45, 0.22, 2017/11/14 06:18:14.299下午, 231.0, 0.00, 8.26, 4.90, 13.16
46, 0.225, 2017/11/14 06:18:14.304下午, 251.0, 0.00, 8.52, 5.42, 14.19
47, 0.23, 2017/11/14 06:18:14.309下午, 245.0, 0.00, 8.52, 5.42, 13.94
48, 0.235, 2017/11/14 06:18:14.314下午, 220.0, 0.00, 8.26, 4.39, 12.65
49, 0.24, 2017/11/14 06:18:14.319下午, 216.0, 0.00, 7.74, 4.90, 12.65
50, 0.245, 2017/11/14 06:18:14.324下午, 251.0, 0.00, 8.00, 5.94, 14.19
51, 0.25, 2017/11/14 06:18:14.329下午, 256.0, 0.00, 8.52, 5.68, 14.45
52, 0.255, 2017/11/14 06:18:14.334下午, 230.0, 0.00, 8.00, 5.16, 13.16
53, 0.26, 2017/11/14 06:18:14.339下午, 236.0, 0.00, 8.52, 5.16, 13.68
54, 0.265, 2017/11/14 06:18:14.344下午, 225.0, 0.00, 8.26, 4.90, 13.16
55, 0.27, 2017/11/14 06:18:14.349下午, 226.0, 0.00, 8.52, 4.65, 13.16
56, 0.275, 2017/11/14 06:18:14.354下午, 226.0, 0.00, 8.00, 5.16, 13.16
57, 0.28, 2017/11/14 06:18:14.359下午, 251.0, 0.00, 8.00, 5.94, 14.19
58, 0.285, 2017/11/14 06:18:14.364下午, 255.0, 0.00, 8.52, 5.68, 14.45
59, 0.29, 2017/11/14 06:18:14.369下午, 249.0, 0.00, 8.26, 5.68, 14.19
60, 0.295, 2017/11/14 06:18:14.374下午, 252.0, 0.00, 8.52, 5.42, 14.19
61, 0.3, 2017/11/14 06:18:14.379下午, 234.0, 0.00, 7.48, 5.94, 13.42
62, 0.305, 2017/11/14 06:18:14.384下午, 239.0, 0.00, 8.52, 5.42, 13.94
63, 0.31, 2017/11/14 06:18:14.389下午, 240.0, 0.00, 8.26, 5.68, 13.94
64, 0.315, 2017/11/14 06:18:14.394下午, 225.0, 0.00, 7.74, 5.42, 13.16
65, 0.32, 2017/11/14 06:18:14.399下午, 239.0, 0.00, 8.52, 5.42, 13.94
66, 0.325, 2017/11/14 06:18:14.404下午, 237.0, 0.00, 8.00, 5.68, 13.68
67, 0.33, 2017/11/14 06:18:14.409下午, 238.0, 0.00, 8.52, 5.42, 13.94
68, 0.335, 2017/11/14 06:18:14.414下午, 242.0, 0.00, 8.00, 5.16, 13.42
69, 0.34, 2017/11/14 06:18:14.419下午, 246.0, 0.00, 8.26, 5.42, 13.94
70, 0.345, 2017/11/14 06:18:14.424下午, 242.0, 0.00, 8.52, 5.42, 13.94
71, 0.35, 2017/11/14 06:18:14.429下午, 241.0, 0.00, 8.52, 5.68, 14.19
72, 0.355, 2017/11/14 06:18:14.434下午, 227.0, 0.00, 8.26, 5.16, 13.42
73, 0.36, 2017/11/14 06:18:14.439下午, 229.0, 0.00, 8.00, 5.16, 13.16
74, 0.365, 2017/11/14 06:18:14.444下午, 232.0, 0.00, 7.74, 5.68, 13.42
75, 0.37, 2017/11/14 06:18:14.449下午, 246.0, 0.00, 8.26, 5.16, 13.68
76, 0.375, 2017/11/14 06:18:14.454下午, 233.0, 0.00, 8.00, 5.42, 13.42
77, 0.38, 2017/11/14 06:18:14.459下午, 239.0, 0.00, 8.52, 5.16, 13.68
78, 0.385, 2017/11/14 06:18:14.464下午, 221.0, 0.00, 8.00, 4.90, 12.90
79, 0.39, 2017/11/14 06:18:14.469下午, 246.0, 0.00, 8.52, 5.94, 14.45
80, 0.395, 2017/11/14 06:18:14.474下午, 232.0, 0.00, 8.00, 5.68, 13.68
81, 0.4, 2017/11/14 06:18:14.479下午, 245.0, 0.00, 8.00, 5.16, 13.42
82, 0.405, 2017/11/14 06:18:14.484下午, 246.0, 0.00, 7.74, 5.94, 13.94
83, 0.41, 2017/11/14 06:18:14.489下午, 236.0, 0.00, 8.26, 5.16, 13.42
84, 0.415, 2017/11/14 06:18:14.494下午, 257.0, 0.00, 8.26, 5.94, 14.45
85, 0.42, 2017/11/14 06:18:14.499下午, 230.0, 0.00, 8.26, 5.16, 13.42
86, 0.425, 2017/11/14 06:18:14.504下午, 240.0, 0.00, 8.26, 5.68, 13.94
87, 0.43, 2017/11/14 06:18:14.509下午, 256.0, 0.00, 8.26, 5.68, 14.19
88, 0.435, 2017/11/14 06:18:14.514下午, 237.0, 0.00, 8.52, 5.42, 13.94
89, 0.44, 2017/11/14 06:18:14.519下午, 250.0, 0.00, 8.52, 6.19, 14.71
90, 0.445, 2017/11/14 06:18:14.524下午, 230.0, 0.00, 8.00, 5.16, 13.16
91, 0.45, 2017/11/14 06:18:14.529下午, 246.0, 0.00, 7.74, 5.94, 13.94
92, 0.455, 2017/11/14 06:18:14.534下午, 255.0, 0.00, 8.00, 6.19, 14.45
93, 0.46, 2017/11/14 06:18:14.539下午, 238.0, 0.00, 8.26, 5.42, 13.68
94, 0.465, 2017/11/14 06:18:14.544下午, 233.0, 0.00, 8.26, 5.16, 13.42
95, 0.47, 2017/11/14 06:18:14.549下午, 224.0, 0.00, 8.26, 4.90, 13.16
96, 0.475, 2017/11/14 06:18:14.554下午, 229.0, 0.00, 8.00, 5.42, 13.42
97, 0.48, 2017/11/14 06:18:14.559下午, 239.0, 0.00, 8.00, 5.16, 13.42
98, 0.485, 2017/11/14 06:18:14.564下午, 262.0, 0.00, 9.03, 5.68, 14.97
99, 0.49, 2017/11/14 06:18:14.569下午, 245.0, 0.00, 8.52, 5.68, 14.19
100, 0.495, 2017/11/14 06:18:14.574下午, 262.0, 0.00, 8.52, 6.45, 15.23
101, 0.5, 2017/11/14 06:18:14.579下午, 240.0, 0.00, 8.52, 5.42, 13.94
102, 0.505, 2017/11/14 06:18:14.584下午, 255.0, 0.00, 8.52, 5.42, 14.19
103, 0.51, 2017/11/14 06:18:14.589下午, 243.0, 0.00, 8.52, 5.68, 14.19
104, 0.515, 2017/11/14 06:18:14.594下午, 231.0, 0.00, 7.74, 5.68, 13.42
105, 0.52, 2017/11/14 06:18:14.599下午, 244.0, 0.00, 8.26, 5.68, 13.94
106, 0.525, 2017/11/14 06:18:14.604下午, 227.0, 0.00, 8.00, 5.16, 13.16
107, 0.53, 2017/11/14 06:18:14.609下午, 239.0, 0.00, 8.00, 5.68, 13.68
108, 0.535, 2017/11/14 06:18:14.614下午, 239.0, 0.00, 8.00, 5.68, 13.68
109, 0.54, 2017/11/14 06:18:14.619下午, 243.0, 0.00, 8.52, 5.42, 13.94
110, 0.545, 2017/11/14 06:18:14.624下午, 230.0, 0.00, 8.26, 5.16, 13.42
111, 0.55, 2017/11/14 06:18:14.629下午, 242.0, 0.00, 8.00, 5.68, 13.68
112, 0.555, 2017/11/14 06:18:14.634下午, 253.0, 0.00, 8.00, 5.94, 14.19
113, 0.56, 2017/11/14 06:18:14.639下午, 270.0, 0.00, 9.03, 6.19, 15.48
114, 0.565, 2017/11/14 06:18:14.644下午, 240.0, 0.00, 8.52, 5.16, 13.68
115, 0.57, 2017/11/14 06:18:14.649下午, 246.0, 0.00, 8.52, 5.68, 14.19
116, 0.575, 2017/11/14 06:18:14.654下午, 232.0, 0.00, 8.26, 5.16, 13.42
117, 0.58, 2017/11/14 06:18:14.659下午, 250.0, 0.00, 8.00, 5.94, 14.19
118, 0.585, 2017/11/14 06:18:14.664下午, 230.0, 0.00, 8.00, 5.16, 13.16
119, 0.59, 2017/11/14 06:18:14.669下午, 221.0, 0.00, 7.74, 4.90, 12.65
120, 0.595, 2017/11/14 06:18:14.674下午, 252.0, 0.00, 8.00, 5.94, 14.19
121, 0.6, 2017/11/14 06:18:14.679下午, 236.0, 0.00, 7.74, 5.68, 13.42
122, 0.605, 2017/11/14 06:18:14.684下午, 257.0, 0.00, 8.52, 5.68, 14.45
123, 0.61, 2017/11/14 06:18:14.689下午, 262.0, 0.00, 8.00, 6.45, 14.71
124, 0.615, 2017/11/14 06:18:14.694下午, 259.0, 0.00, 8.26, 5.94, 14.45
125, 0.62, 2017/11/14 06:18:14.699下午, 247.0, 0.00, 9.03, 5.68, 14.71
126, 0.625, 2017/11/14 06:18:14.704下午, 249.0, 0.00, 9.03, 5.42, 14.45
127, 0.63, 2017/11/14 06:18:14.709下午, 244.0, 0.00, 8.26, 6.19, 14.45
128, 0.635, 2017/11/14 06:18:14.714下午, 215.0, 0.00, 7.74, 4.39, 12.13
129, 0.64, 2017/11/14 06:18:14.719下午, 222.0, 0.00, 7.74, 5.16, 12.90
130, 0.645, 2017/11/14 06:18:14.724下午, 258.0, 0.00, 9.03, 5.16, 14.45
131, 0.65, 2017/11/14 06:18:14.729下午, 253.0, 0.00, 8.26, 5.68, 14.19
132, 0.655, 2017/11/14 06:18:14.734下午, 259.0, 0.00, 8.26, 5.94, 14.45
133, 0.66, 2017/11/14 06:18:14.739下午, 250.0, 0.00, 8.00, 5.68, 13.94
134, 0.665, 2017/11/14 06:18:14.744下午, 241.0, 0.00, 8.52, 5.42, 13.94
135, 0.67, 2017/11/14 06:18:14.749下午, 246.0, 0.00, 8.26, 5.94, 14.19
136, 0.675, 2017/11/14 06:18:14.754下午, 246.0, 0.00, 8.00, 6.19, 14.19
137, 0.68, 2017/11/14 06:18:14.759下午, 226.0, 0.00, 8.00, 5.16, 13.16
138, 0.685, 2017/11/14 06:18:14.764下午, 254.0, 0.00, 9.03, 5.94, 14.97
139, 0.69, 2017/11/14 06:18:14.769下午, 253.0, 0.00, 8.26, 5.16, 13.68
140, 0.695, 2017/11/14 06:18:14.774下午, 240.0, 0.00, 8.00, 5.68, 13.68
141, 0.7, 2017/11/14 06:18:14.779下午, 238.0, 0.00, 8.52, 5.16, 13.68
142, 0.705, 2017/11/14 06:18:14.784下午, 250.0, 0.00, 8.52, 5.68, 14.19
143, 0.71, 2017/11/14 06:18:14.789下午, 233.0, 0.00, 8.52, 4.90, 13.42
144, 0.715, 2017/11/14 06:18:14.794下午, 236.0, 0.00, 8.26, 5.42, 13.68
145, 0.72, 2017/11/14 06:18:14.799下午, 229.0, 0.00, 8.00, 5.16, 13.16
146, 0.725, 2017/11/14 06:18:14.804下午, 238.0, 0.00, 7.74, 5.68, 13.42
147, 0.73, 2017/11/14 06:18:14.809下午, 255.0, 0.00, 8.26, 5.68, 14.19
148, 0.735, 2017/11/14 06:18:14.814下午, 265.0, 0.00, 9.03, 5.94, 15.23
149, 0.74, 2017/11/14 06:18:14.819下午, 249.0, 0.00, 8.26, 6.19, 14.45
150, 0.745, 2017/11/14 06:18:14.824下午, 230.0, 0.00, 8.00, 5.42, 13.42
151, 0.75, 2017/11/14 06:18:14.829下午, 257.0, 0.00, 8.00, 5.94, 14.19
152, 0.755, 2017/11/14 06:18:14.834下午, 251.0, 0.00, 8.26, 5.42, 13.94
153, 0.76, 2017/11/14 06:18:14.839下午, 257.0, 0.00, 8.00, 5.94, 14.19
154, 0.765, 2017/11/14 06:18:14.844下午, 246.0, 0.00, 8.52, 5.68, 14.19
155, 0.77, 2017/11/14 06:18:14.849下午, 230.0, 0.00, 8.00, 5.16, 13.16
156, 0.775, 2017/11/14 06:18:14.854下午, 268.0, 0.00, 8.77, 6.19, 15.23
157, 0.78, 2017/11/14 06:18:14.859下午, 242.0, 0.00, 8.26, 5.68, 13.94
158, 0.785, 2017/11/14 06:18:14.864下午, 250.0, 0.00, 8.52, 5.94, 14.45
159, 0.79, 2017/11/14 06:18:14.869下午, 249.0, 0.00, 8.52, 5.94, 14.45
160, 0.795, 2017/11/14 06:18:14.874下午, 248.0, 0.00, 8.52, 5.68, 14.19
161, 0.8, 2017/11/14 06:18:14.879下午, 227.0, 0.00, 8.00, 4.90, 12.90
162, 0.805, 2017/11/14 06:18:14.884下午, 225.0, 0.00, 8.00, 4.90, 12.90
163, 0.81, 2017/11/14 06:18:14.889下午, 231.0, 0.00, 8.00, 5.42, 13.42
164, 0.815, 2017/11/14 06:18:14.894下午, 246.0, 0.00, 8.00, 5.42, 13.68
165, 0.82, 2017/11/14 06:18:14.899下午, 258.0, 0.00, 9.03, 5.16, 14.45
166, 0.825, 2017/11/14 06:18:14.904下午, 242.0, 0.00, 8.26, 5.68, 13.94
167, 0.83, 2017/11/14 06:18:14.909下午, 245.0, 0.00, 8.52, 5.68, 14.19
168, 0.835, 2017/11/14 06:18:14.914下午, 250.0, 0.00, 8.52, 5.94, 14.45
169, 0.84, 2017/11/14 06:18:14.919下午, 231.0, 0.00, 8.00, 5.16, 13.16
170, 0.845, 2017/11/14 06:18:14.924下午, 248.0, 0.00, 7.74, 5.42, 13.42
171, 0.85, 2017/11/14 06:18:14.929下午, 242.0, 0.00, 8.26, 5.68, 13.94
172, 0.855, 2017/11/14 06:18:14.934下午, 234.0, 0.00, 8.00, 5.42, 13.42
173, 0.86, 2017/11/14 06:18:14.939下午, 228.0, 0.00, 7.74, 5.42, 13.16
174, 0.865, 2017/11/14 06:18:14.944下午, 241.0, 0.00, 8.00, 5.68, 13.68
175, 0.87, 2017/11/14 06:18:14.949下午, 245.0, 0.00, 8.00, 5.16, 13.42
176, 0.875, 2017/11/14 06:18:14.954下午, 260.0, 0.00, 8.26, 5.94, 14.45
177, 0.88, 2017/11/14 06:18:14.959下午, 233.0, 0.00, 8.00, 5.16, 13.16
178, 0.885, 2017/11/14 06:18:14.964下午, 238.0, 0.00, 8.52, 5.16, 13.68
179, 0.89, 2017/11/14 06:18:14.969下午, 237.0, 0.00, 8.52, 5.16, 13.68
180, 0.895, 2017/11/14 06:18:14.974下午, 248.0, 0.00, 8.52, 5.42, 13.94
181, 0.9, 2017/11/14 06:18:14.979下午, 238.0, 0.00, 8.52, 5.42, 13.94
182, 0.905, 2017/11/14 06:18:14.984下午, 247.0, 0.00, 8.00, 6.45, 14.45
183, 0.91, 2017/11/14 06:18:14.989下午, 239.0, 0.77, 8.00, 5.16, 13.94
184, 0.915, 2017/11/14 06:18:14.994下午, 258.0, 0.00, 8.26, 5.94, 14.45
185, 0.92, 2017/11/14 06:18:14.999下午, 231.0, 0.00, 8.00, 4.90, 12.90
186, 0.925, 2017/11/14 06:18:15.004下午, 257.0, 0.00, 9.03, 5.16, 14.45
187, 0.93, 2017/11/14 06:18:15.009下午, 241.0, 0.00, 8.26, 5.68, 13.94
188, 0.935, 2017/11/14 06:18:15.014下午, 228.0, 0.00, 8.00, 5.16, 13.16
189, 0.94, 2017/11/14 06:18:15.019下午, 241.0, 0.00, 8.52, 5.42, 13.94
190, 0.945, 2017/11/14 06:18:15.024下午, 231.0, 0.00, 8.52, 4.90, 13.42
191, 0.95, 2017/11/14 06:18:15.029下午, 229.0, 0.00, 8.00, 4.90, 12.90
192, 0.955, 2017/11/14 06:18:15.034下午, 257.0, 0.00, 8.26, 5.68, 14.19
193, 0.96, 2017/11/14 06:18:15.039下午, 243.0, 0.00, 9.03, 5.16, 14.19
194, 0.965, 2017/11/14 06:18:15.044下午, 242.0, 0.00, 8.26, 5.42, 13.68
195, 0.97, 2017/11/14 06:18:15.049下午, 241.0, 0.00, 8.52, 5.42, 13.94
196, 0.975, 2017/11/14 06:18:15.054下午, 247.0, 0.00, 8.52, 5.68, 14.19
197, 0.98, 2017/11/14 06:18:15.059下午, 232.0, 0.00, 8.00, 5.42, 13.42
198, 0.985, 2017/11/14 06:18:15.064下午, 229.0, 0.00, 8.52, 4.65, 13.16
199, 0.99, 2017/11/14 06:18:15.069下午, 245.0, 0.00, 8.52, 5.68, 14.19
200, 0.995, 2017/11/14 06:18:15.074下午, 248.0, 0.00, 8.52, 5.94, 14.45
201, 1, 2017/11/14 06:18:15.079下午, 221.0, 0.00, 8.00, 4.65, 12.65
202, 1.005, 2017/11/14 06:18:15.084下午, 257.0, 0.00, 8.26, 5.94, 14.45
203, 1.01, 2017/11/14 06:18:15.089下午, 230.0, 0.00, 8.00, 5.16, 13.16
204, 1.015, 2017/11/14 06:18:15.094下午, 234.0, 0.00, 8.00, 4.90, 12.90
205, 1.02, 2017/11/14 06:18:15.099下午, 241.0, 0.00, 8.26, 5.68, 13.94
206, 1.025, 2017/11/14 06:18:15.104下午, 249.0, 0.00, 8.26, 5.16, 13.68
207, 1.03, 2017/11/14 06:18:15.109下午, 237.0, 0.00, 8.00, 5.68, 13.68
208, 1.035, 2017/11/14 06:18:15.114下午, 246.0, 0.00, 8.52, 5.42, 13.94
209, 1.04, 2017/11/14 06:18:15.119下午, 238.0, 0.00, 8.26, 5.42, 13.68
210, 1.045, 2017/11/14 06:18:15.124下午, 236.0, 0.00, 8.00, 5.94, 13.94
211, 1.05, 2017/11/14 06:18:15.129下午, 255.0, 0.00, 8.77, 5.16, 14.19
212, 1.055, 2017/11/14 06:18:15.134下午, 253.0, 0.00, 8.26, 5.68, 14.19
213, 1.06, 2017/11/14 06:18:15.139下午, 243.0, 0.00, 8.52, 5.42, 13.94
214, 1.065, 2017/11/14 06:18:15.144下午, 243.0, 0.00, 8.52, 5.68, 14.19
215, 1.07, 2017/11/14 06:18:15.149下午, 242.0, 0.00, 8.52, 5.42, 13.94
216, 1.075, 2017/11/14 06:18:15.154下午, 243.0, 0.00, 8.52, 5.68, 14.19
217, 1.08, 2017/11/14 06:18:15.159下午, 222.0, 0.00, 8.00, 4.65, 12.65
218, 1.085, 2017/11/14 06:18:15.164下午, 245.0, 0.00, 8.52, 5.68, 14.19
219, 1.09, 2017/11/14 06:18:15.169下午, 234.0, 0.00, 8.00, 5.68, 13.68
220, 1.095, 2017/11/14 06:18:15.174下午, 227.0, 0.00, 7.74, 4.90, 12.65
221, 1.1, 2017/11/14 06:18:15.179下午, 234.0, 0.00, 8.52, 4.90, 13.42
222, 1.105, 2017/11/14 06:18:15.184下午, 228.0, 0.00, 7.74, 5.42, 13.16
223, 1.11, 2017/11/14 06:18:15.189下午, 240.0, 0.00, 8.00, 5.68, 13.68
224, 1.115, 2017/11/14 06:18:15.194下午, 244.0, 0.00, 8.52, 5.68, 14.19
225, 1.12, 2017/11/14 06:18:15.199下午, 247.0, 0.00, 8.52, 5.94, 14.45
226, 1.125, 2017/11/14 06:18:15.204下午, 228.0, 0.00, 7.74, 4.90, 12.65
227, 1.13, 2017/11/14 06:18:15.209下午, 249.0, 0.00, 8.52, 5.94, 14.45
228, 1.135, 2017/11/14 06:18:15.214下午, 236.0, 0.00, 8.00, 5.68, 13.68
229, 1.14, 2017/11/14 06:18:15.219下午, 238.0, 0.00, 8.52, 5.42, 13.94
230, 1.145, 2017/11/14 06:18:15.224下午, 248.0, 0.00, 8.52, 5.68, 14.19
231, 1.15, 2017/11/14 06:18:15.229下午, 230.0, 0.00, 8.00, 5.16, 13.16
232, 1.155, 2017/11/14 06:18:15.234下午, 226.0, 0.00, 8.00, 4.90, 12.90
233, 1.16, 2017/11/14 06:18:15.239下午, 236.0, 0.00, 8.00, 5.68, 13.68
234, 1.165, 2017/11/14 06:18:15.244下午, 254.0, 0.00, 8.26, 5.68, 14.19
235, 1.17, 2017/11/14 06:18:15.249下午, 238.0, 0.00, 8.52, 5.42, 13.94
236, 1.175, 2017/11/14 06:18:15.254下午, 245.0, 0.00, 8.52, 5.42, 13.94
237, 1.18, 2017/11/14 06:18:15.259下午, 248.0, 0.00, 8.52, 5.94, 14.45
238, 1.185, 2017/11/14 06:18:15.264下午, 237.0, 0.00, 8.00, 5.68, 13.68
239, 1.19, 2017/11/14 06:18:15.269下午, 229.0, 0.00, 8.00, 5.16, 13.16
240, 1.195, 2017/11/14 06:18:15.274下午, 256.0, 0.00, 8.26, 5.68, 14.19
241, 1.2, 2017/11/14 06:18:15.279下午, 249.0, 0.00, 9.03, 5.68, 14.71
242, 1.205, 2017/11/14 06:18:15.284下午, 239.0, 0.00, 8.26, 5.16, 13.42
243, 1.21, 2017/11/14 06:18:15.289下午, 251.0, 0.00, 8.52, 6.19, 14.71
244, 1.215, 2017/11/14 06:18:15.294下午, 248.0, 0.00, 8.52, 5.68, 14.19
245, 1.22, 2017/11/14 06:18:15.299下午, 233.0, 0.00, 8.00, 5.42, 13.42
246, 1.225, 2017/11/14 06:18:15.304下午, 236.0, 0.00, 8.52, 5.16, 13.68
247, 1.23, 2017/11/14 06:18:15.309下午, 225.0, 0.00, 8.00, 5.16, 13.16
248, 1.235, 2017/11/14 06:18:15.314下午, 236.0, 0.00, 8.26, 5.42, 13.68
249, 1.24, 2017/11/14 06:18:15.319下午, 243.0, 0.00, 8.26, 5.68, 13.94
250, 1.245, 2017/11/14 06:18:15.324下午, 242.0, 0.00, 8.52, 5.42, 13.94
251, 1.25, 2017/11/14 06:18:15.329下午, 246.0, 0.00, 8.52, 5.94, 14.45
252, 1.255, 2017/11/14 06:18:15.334下午, 227.0, 0.00, 7.74, 5.16, 12.90
253, 1.26, 2017/11/14 06:18:15.339下午, 246.0, 0.00, 8.77, 5.68, 14.45
254, 1.265, 2017/11/14 06:18:15.344下午, 244.0, 0.00, 8.26, 5.94, 14.19
255, 1.27, 2017/11/14 06:18:15.349下午, 235.0, 0.00, 8.52, 5.16, 13.68
256, 1.275, 2017/11/14 06:18:15.354下午, 248.0, 0.00, 8.52, 5.68, 14.19
257, 1.28, 2017/11/14 06:18:15.359下午, 244.0, 0.00, 8.00, 5.94, 13.94
258, 1.285, 2017/11/14 06:18:15.364下午, 235.0, 0.00, 7.74, 5.68, 13.42
259, 1.29, 2017/11/14 06:18:15.369下午, 230.0, 0.00, 8.00, 5.16, 13.16
260, 1.295, 2017/11/14 06:18:15.374下午, 256.0, 0.00, 8.52, 5.94, 14.71
261, 1.3, 2017/11/14 06:18:15.379下午, 237.0, 0.00, 8.26, 5.42, 13.68
262, 1.305, 2017/11/14 06:18:15.384下午, 237.0, 0.00, 8.26, 5.42, 13.68
263, 1.31, 2017/11/14 06:18:15.389下午, 241.0, 0.00, 8.52, 5.42, 13.94
264, 1.315, 2017/11/14 06:18:15.394下午, 237.0, 0.00, 8.26, 5.68, 13.94
265, 1.32, 2017/11/14 06:18:15.399下午, 229.0, 0.00, 8.26, 4.90, 13.16
266, 1.325, 2017/11/14 06:18:15.404下午, 226.0, 0.00, 8.00, 4.90, 12.90
267, 1.33, 2017/11/14 06:18:15.409下午, 237.0, 0.00, 8.00, 5.68, 13.68
268, 1.335, 2017/11/14 06:18:15.414下午, 252.0, 0.00, 8.26, 5.68, 14.19
269, 1.34, 2017/11/14 06:18:15.419下午, 239.0, 0.00, 8.26, 5.42, 13.68
270, 1.345, 2017/11/14 06:18:15.424下午, 248.0, 0.00, 8.52, 5.68, 14.19
271, 1.35, 2017/11/14 06:18:15.429下午, 239.0, 0.00, 8.00, 5.94, 13.94
272, 1.355, 2017/11/14 06:18:15.434下午, 253.0, 0.00, 7.74, 6.19, 14.19
273, 1.36, 2017/11/14 06:18:15.439下午, 234.0, 0.00, 8.26, 5.16, 13.42
274, 1.365, 2017/11/14 06:18:15.444下午, 243.0, 0.00, 9.03, 5.16, 14.19
275, 1.37, 2017/11/14 06:18:15.449下午, 238.0, 0.00, 8.00, 5.68, 13.68
276, 1.375, 2017/11/14 06:18:15.454下午, 247.0, 0.00, 7.74, 5.68, 13.68
277, 1.38, 2017/11/14 06:18:15.459下午, 236.0, 0.00, 8.26, 5.42, 13.68
278, 1.385, 2017/11/14 06:18:15.464下午, 231.0, 0.00, 8.00, 5.16, 13.16
279, 1.39, 2017/11/14 06:18:15.469下午, 242.0, 0.00, 8.52, 5.42, 13.94
280, 1.395, 2017/11/14 06:18:15.474下午, 247.0, 0.00, 8.52, 5.94, 14.45
281, 1.4, 2017/11/14 06:18:15.479下午, 222.0, 0.00, 8.00, 4.90, 12.90
282, 1.405, 2017/11/14 06:18:15.484下午, 241.0, 0.00, 8.00, 5.68, 13.68
283, 1.41, 2017/11/14 06:18:15.489下午, 233.0, 0.00, 8.00, 5.42, 13.42
284, 1.415, 2017/11/14 06:18:15.494下午, 252.0, 0.00, 8.52, 5.68, 14.45
285, 1.42, 2017/11/14 06:18:15.499下午, 255.0, 0.00, 8.00, 5.94, 14.19
286, 1.425, 2017/11/14 06:18:15.504下午, 254.0, 0.00, 8.26, 5.94, 14.45
287, 1.43, 2017/11/14 06:18:15.509下午, 232.0, 0.00, 8.26, 4.90, 13.16
288, 1.435, 2017/11/14 06:18:15.514下午, 241.0, 0.00, 8.52, 5.68, 14.19
289, 1.44, 2017/11/14 06:18:15.519下午, 234.0, 0.00, 8.52, 5.16, 13.68
290, 1.445, 2017/11/14 06:18:15.524下午, 243.0, 0.00, 8.52, 5.68, 14.19
291, 1.45, 2017/11/14 06:18:15.529下午, 247.0, 0.00, 8.26, 6.19, 14.45
292, 1.455, 2017/11/14 06:18:15.534下午, 237.0, 0.00, 8.26, 5.42, 13.68
293, 1.46, 2017/11/14 06:18:15.539下午, 243.0, 0.00, 8.00, 5.94, 13.94
294, 1.465, 2017/11/14 06:18:15.544下午, 239.0, 0.00, 8.00, 5.68, 13.68
295, 1.47, 2017/11/14 06:18:15.549下午, 235.0, 0.00, 8.00, 5.16, 13.16
296, 1.475, 2017/11/14 06:18:15.554下午, 237.0, 0.00, 8.52, 5.16, 13.68
297, 1.48, 2017/11/14 06:18:15.559下午, 249.0, 0.00, 8.52, 5.94, 14.45
298, 1.485, 2017/11/14 06:18:15.564下午, 242.0, 0.00, 8.52, 5.42, 13.94
299, 1.49, 2017/11/14 06:18:15.569下午, 244.0, 0.00, 8.52, 5.68, 14.19
300, 1.495, 2017/11/14 06:18:15.574下午, 229.0, 0.00, 8.52, 4.39, 12.90
301, 1.5, 2017/11/14 06:18:15.579下午, 231.0, 0.00, 8.00, 5.42, 13.42
302, 1.505, 2017/11/14 06:18:15.584下午, 250.0, 0.00, 9.03, 5.68, 14.71
303, 1.51, 2017/11/14 06:18:15.589下午, 235.0, 0.00, 7.74, 5.68, 13.42
304, 1.515, 2017/11/14 06:18:15.594下午, 235.0, 0.00, 8.00, 5.42, 13.42
305, 1.52, 2017/11/14 06:18:15.599下午, 237.0, 0.00, 8.00, 5.42, 13.42
306, 1.525, 2017/11/14 06:18:15.604下午, 247.0, 0.00, 8.52, 5.68, 14.19
307, 1.53, 2017/11/14 06:18:15.609下午, 231.0, 0.00, 8.00, 5.42, 13.42
308, 1.535, 2017/11/14 06:18:15.614下午, 252.0, 0.00, 8.26, 5.16, 13.68
309, 1.54, 2017/11/14 06:18:15.619下午, 233.0, 0.00, 8.26, 5.16, 13.42
310, 1.545, 2017/11/14 06:18:15.624下午, 245.0, 0.00, 8.26, 5.68, 13.94
311, 1.55, 2017/11/14 06:18:15.629下午, 241.0, 0.00, 8.52, 5.68, 14.19
312, 1.555, 2017/11/14 06:18:15.634下午, 249.0, 0.00, 7.74, 6.19, 14.19
313, 1.56, 2017/11/14 06:18:15.639下午, 252.0, 0.00, 8.26, 5.68, 14.19
314, 1.565, 2017/11/14 06:18:15.644下午, 234.0, 0.00, 8.00, 5.42, 13.42
315, 1.57, 2017/11/14 06:18:15.649下午, 247.0, 0.00, 8.52, 5.68, 14.19
316, 1.575, 2017/11/14 06:18:15.654下午, 233.0, 0.00, 8.52, 5.16, 13.68
317, 1.58, 2017/11/14 06:18:15.659下午, 216.0, 0.00, 7.74, 4.39, 12.13
318, 1.585, 2017/11/14 06:18:15.664下午, 224.0, 0.00, 7.74, 4.90, 12.65
319, 1.59, 2017/11/14 06:18:15.669下午, 233.0, 0.00, 8.00, 5.42, 13.42
320, 1.595, 2017/11/14 06:18:15.674下午, 231.0, 0.00, 8.26, 5.16, 13.42
321, 1.6, 2017/11/14 06:18:15.679下午, 235.0, 0.00, 8.26, 5.16, 13.42
322, 1.605, 2017/11/14 06:18:15.684下午, 242.0, 0.00, 8.52, 5.42, 13.94
323, 1.61, 2017/11/14 06:18:15.689下午, 241.0, 0.00, 8.52, 5.68, 14.19
324, 1.615, 2017/11/14 06:18:15.694下午, 236.0, 0.00, 8.52, 5.42, 13.94
325, 1.62, 2017/11/14 06:18:15.699下午, 255.0, 0.00, 8.52, 5.42, 14.19
326, 1.625, 2017/11/14 06:18:15.704下午, 235.0, 0.00, 8.00, 5.68, 13.68
327, 1.63, 2017/11/14 06:18:15.709下午, 237.0, 0.00, 8.52, 5.16, 13.68
328, 1.635, 2017/11/14 06:18:15.714下午, 238.0, 0.00, 8.26, 5.42, 13.68
329, 1.64, 2017/11/14 06:18:15.719下午, 227.0, 0.00, 8.00, 5.16, 13.16
330, 1.645, 2017/11/14 06:18:15.724下午, 238.0, 0.00, 8.26, 5.68, 13.94
331, 1.65, 2017/11/14 06:18:15.729下午, 233.0, 0.00, 8.26, 5.16, 13.42
332, 1.655, 2017/11/14 06:18:15.734下午, 239.0, 0.00, 8.52, 5.42, 13.94
333, 1.66, 2017/11/14 06:18:15.739下午, 236.0, 0.00, 8.26, 5.16, 13.42
334, 1.665, 2017/11/14 06:18:15.744下午, 220.0, 0.00, 8.00, 4.65, 12.65
335, 1.67, 2017/11/14 06:18:15.749下午, 242.0, 0.00, 8.26, 4.90, 13.42
336, 1.675, 2017/11/14 06:18:15.754下午, 239.0, 0.00, 8.00, 5.94, 13.94
337, 1.68, 2017/11/14 06:18:15.759下午, 242.0, 0.00, 8.26, 5.68, 13.94
338, 1.685, 2017/11/14 06:18:15.764下午, 239.0, 0.00, 8.26, 5.94, 14.19
339, 1.69, 2017/11/14 06:18:15.769下午, 229.0, 0.00, 8.52, 4.90, 13.42
340, 1.695, 2017/11/14 06:18:15.774下午, 253.0, 0.00, 8.00, 5.94, 14.19
341, 1.7, 2017/11/14 06:18:15.779下午, 239.0, 0.00, 7.74, 4.90, 12.90
342, 1.705, 2017/11/14 06:18:15.784下午, 246.0, 0.00, 8.26, 5.42, 13.94
343, 1.71, 2017/11/14 06:18:15.789下午, 245.0, 0.77, 8.26, 5.42, 14.45
344, 1.715, 2017/11/14 06:18:15.794下午, 237.0, 0.00, 8.26, 5.42, 13.68
345, 1.72, 2017/11/14 06:18:15.799下午, 225.0, 0.00, 8.00, 5.42, 13.42
346, 1.725, 2017/11/14 06:18:15.804下午, 234.0, 0.00, 8.52, 5.42, 13.94
347, 1.73, 2017/11/14 06:18:15.809下午, 224.0, 0.00, 7.74, 5.16, 12.90
348, 1.735, 2017/11/14 06:18:15.814下午, 255.0, 0.00, 8.26, 6.19, 14.71
349, 1.74, 2017/11/14 06:18:15.819下午, 231.0, 0.00, 8.26, 5.16, 13.42
350, 1.745, 2017/11/14 06:18:15.824下午, 245.0, 0.00, 8.52, 5.68, 14.19
351, 1.75, 2017/11/14 06:18:15.829下午, 234.0, 0.00, 8.00, 5.68, 13.68
352, 1.755, 2017/11/14 06:18:15.834下午, 222.0, 0.00, 8.00, 5.16, 13.16
353, 1.76, 2017/11/14 06:18:15.839下午, 249.0, 0.00, 8.52, 5.16, 13.94
354, 1.765, 2017/11/14 06:18:15.844下午, 239.0, 0.00, 8.52, 5.42, 13.94
355, 1.77, 2017/11/14 06:18:15.849下午, 237.0, 0.00, 8.52, 5.16, 13.68
356, 1.775, 2017/11/14 06:18:15.854下午, 242.0, 0.77, 8.00, 5.68, 14.45
357, 1.78, 2017/11/14 06:18:15.859下午, 226.0, 0.00, 8.00, 5.16, 13.16
358, 1.785, 2017/11/14 06:18:15.864下午, 236.0, 0.00, 7.74, 5.94, 13.68
359, 1.79, 2017/11/14 06:18:15.869下午, 261.0, 0.00, 8.52, 5.94, 14.71
360, 1.795, 2017/11/14 06:18:15.874下午, 233.0, 0.00, 8.00, 5.16, 13.16
361, 1.8, 2017/11/14 06:18:15.879下午, 222.0, 0.00, 8.26, 4.65, 12.90
362, 1.805, 2017/11/14 06:18:15.884下午, 246.0, 0.00, 8.52, 5.68, 14.19
363, 1.81, 2017/11/14 06:18:15.889下午, 233.0, 0.00, 8.52, 5.16, 13.68
364, 1.815, 2017/11/14 06:18:15.894下午, 235.0, 0.77, 8.52, 4.65, 13.94
365, 1.82, 2017/11/14 06:18:15.899下午, 243.0, 0.00, 8.00, 5.16, 13.42
366, 1.825, 2017/11/14 06:18:15.904下午, 227.0, 0.00, 8.00, 5.16, 13.16
367, 1.83, 2017/11/14 06:18:15.909下午, 253.0, 0.00, 8.26, 5.94, 14.45
368, 1.835, 2017/11/14 06:18:15.914下午, 238.0, 0.00, 8.52, 5.16, 13.68
369, 1.84, 2017/11/14 06:18:15.919下午, 240.0, 0.00, 8.26, 5.68, 13.94
370, 1.845, 2017/11/14 06:18:15.924下午, 243.0, 0.77, 8.00, 5.68, 14.45
371, 1.85, 2017/11/14 06:18:15.929下午, 238.0, 0.00, 8.26, 5.68, 13.94
372, 1.855, 2017/11/14 06:18:15.934下午, 249.0, 0.00, 8.26, 5.42, 13.94
373, 1.86, 2017/11/14 06:18:15.939下午, 234.0, 0.00, 8.00, 5.42, 13.42
374, 1.865, 2017/11/14 06:18:15.944下午, 241.0, 0.00, 8.26, 5.68, 13.94
375, 1.87, 2017/11/14 06:18:15.949下午, 219.0, 0.00, 7.74, 4.90, 12.65
376, 1.875, 2017/11/14 06:18:15.954下午, 260.0, 0.00, 8.52, 5.94, 14.71
377, 1.88, 2017/11/14 06:18:15.959下午, 236.0, 0.00, 8.00, 5.42, 13.42
378, 1.885, 2017/11/14 06:18:15.964下午, 239.0, 0.00, 8.00, 5.42, 13.42
379, 1.89, 2017/11/14 06:18:15.969下午, 244.0, 0.00, 8.52, 5.68, 14.19
380, 1.895, 2017/11/14 06:18:15.974下午, 243.0, 0.00, 8.52, 5.68, 14.19
381, 1.9, 2017/11/14 06:18:15.979下午, 239.0, 0.00, 7.74, 5.94, 13.68
382, 1.905, 2017/11/14 06:18:15.984下午, 235.0, 0.00, 8.00, 5.68, 13.68
383, 1.91, 2017/11/14 06:18:15.989下午, 241.0, 0.00, 8.26, 5.68, 13.94
384, 1.915, 2017/11/14 06:18:15.994下午, 234.0, 0.00, 8.26, 5.16, 13.42
385, 1.92, 2017/11/14 06:18:15.999下午, 236.0, 0.00, 8.26, 5.42, 13.68
386, 1.925, 2017/11/14 06:18:16.004下午, 223.0, 0.00, 8.00, 4.90, 12.90
387, 1.93, 2017/11/14 06:18:16.009下午, 234.0, 0.00, 8.52, 5.16, 13.68
388, 1.935, 2017/11/14 06:18:16.014下午, 236.0, 0.00, 8.00, 5.42, 13.42
389, 1.94, 2017/11/14 06:18:16.019下午, 235.0, 0.00, 8.26, 5.16, 13.42
390, 1.945, 2017/11/14 06:18:16.024下午, 241.0, 0.00, 8.52, 5.42, 13.94
391, 1.95, 2017/11/14 06:18:16.029下午, 244.0, 0.00, 8.52, 5.68, 14.19
392, 1.955, 2017/11/14 06:18:16.034下午, 233.0, 0.00, 8.52, 4.90, 13.42
393, 1.96, 2017/11/14 06:18:16.039下午, 227.0, 0.00, 8.00, 4.90, 12.90
394, 1.965, 2017/11/14 06:18:16.044下午, 231.0, 0.00, 8.00, 5.68, 13.68
395, 1.97, 2017/11/14 06:18:16.049下午, 254.0, 0.00, 8.52, 5.68, 14.45
396, 1.975, 2017/11/14 06:18:16.054下午, 235.0, 0.00, 8.26, 5.42, 13.68
397, 1.98, 2017/11/14 06:18:16.059下午, 238.0, 0.00, 8.00, 5.68, 13.68
398, 1.985, 2017/11/14 06:18:16.064下午, 243.0, 0.00, 8.52, 5.16, 13.68
399, 1.99, 2017/11/14 06:18:16.069下午, 236.0, 0.00, 8.52, 5.68, 14.19
400, 1.995, 2017/11/14 06:18:16.074下午, 238.0, 0.77, 8.00, 5.16, 13.94
401, 2, 2017/11/14 06:18:16.079下午, 242.0, 0.00, 8.26, 5.68, 13.94
402, 2.005, 2017/11/14 06:18:16.084下午, 237.0, 0.00, 8.26, 5.42, 13.68
403, 2.01, 2017/11/14 06:18:16.089下午, 248.0, 0.00, 8.52, 5.16, 13.94
404, 2.015, 2017/11/14 06:18:16.094下午, 242.0, 0.00, 8.52, 5.42, 13.94
405, 2.02, 2017/11/14 06:18:16.099下午, 241.0, 0.00, 8.52, 5.42, 13.94
406, 2.025, 2017/11/14 06:18:16.104下午, 233.0, 0.00, 8.52, 5.16, 13.68
407, 2.03, 2017/11/14 06:18:16.109下午, 257.0, 0.00, 8.26, 5.94, 14.45
408, 2.035, 2017/11/14 06:18:16.114下午, 236.0, 0.00, 8.26, 5.16, 13.42
409, 2.04, 2017/11/14 06:18:16.119下午, 243.0, 0.00, 8.26, 5.68, 13.94
410, 2.045, 2017/11/14 06:18:16.124下午, 229.0, 0.00, 8.26, 4.90, 13.16
411, 2.05, 2017/11/14 06:18:16.129下午, 231.0, 0.00, 8.00, 5.42, 13.42
412, 2.055, 2017/11/14 06:18:16.134下午, 251.0, 0.00, 8.26, 5.42, 13.94
413, 2.06, 2017/11/14 06:18:16.139下午, 239.0, 0.00, 8.26, 5.42, 13.68
414, 2.065, 2017/11/14 06:18:16.144下午, 235.0, 0.00, 8.26, 5.42, 13.68
415, 2.07, 2017/11/14 06:18:16.149下午, 240.0, 0.00, 8.52, 5.68, 14.19
416, 2.075, 2017/11/14 06:18:16.154下午, 235.0, 0.00, 8.00, 5.42, 13.42
417, 2.08, 2017/11/14 06:18:16.159下午, 237.0, 0.00, 8.26, 5.16, 13.42
418, 2.085, 2017/11/14 06:18:16.164下午, 232.0, 0.00, 8.26, 5.16, 13.42
419, 2.09, 2017/11/14 06:18:16.169下午, 235.0, 0.00, 8.00, 5.16, 13.16
420, 2.095, 2017/11/14 06:18:16.174下午, 234.0, 0.00, 8.00, 5.16, 13.16
421, 2.1, 2017/11/14 06:18:16.179下午, 244.0, 0.00, 8.52, 5.42, 13.94
422, 2.105, 2017/11/14 06:18:16.184下午, 226.0, 0.00, 8.00, 4.90, 12.90
423, 2.11, 2017/11/14 06:18:16.189下午, 241.0, 0.00, 8.52, 5.68, 14.19
424, 2.115, 2017/11/14 06:18:16.194下午, 253.0, 0.00, 7.74, 6.19, 14.19
425, 2.12, 2017/11/14 06:18:16.199下午, 251.0, 0.00, 8.26, 5.42, 13.94
426, 2.125, 2017/11/14 06:18:16.204下午, 244.0, 0.00, 8.26, 4.90, 13.42
427, 2.13, 2017/11/14 06:18:16.209下午, 252.0, 0.00, 8.00, 5.68, 13.94
428, 2.135, 2017/11/14 06:18:16.214下午, 245.0, 0.00, 8.52, 5.68, 14.19
429, 2.14, 2017/11/14 06:18:16.219下午, 239.0, 0.00, 8.26, 5.68, 13.94
430, 2.145, 2017/11/14 06:18:16.224下午, 234.0, 0.00, 7.74, 5.68, 13.42
431, 2.15, 2017/11/14 06:18:16.229下午, 239.0, 0.00, 8.26, 5.42, 13.68
432, 2.155, 2017/11/14 06:18:16.234下午, 234.0, 0.00, 8.00, 5.16, 13.16
433, 2.16, 2017/11/14 06:18:16.239下午, 241.0, 0.00, 8.52, 5.42, 13.94
434, 2.165, 2017/11/14 06:18:16.244下午, 236.0, 0.00, 8.26, 5.42, 13.68
435, 2.17, 2017/11/14 06:18:16.249下午, 248.0, 0.00, 8.26, 5.16, 13.68
436, 2.175, 2017/11/14 06:18:16.254下午, 245.0, 0.00, 7.74, 5.42, 13.42
437, 2.18, 2017/11/14 06:18:16.259下午, 243.0, 0.00, 8.00, 5.16, 13.42
438, 2.185, 2017/11/14 06:18:16.264下午, 243.0, 0.00, 8.52, 5.42, 13.94
439, 2.19, 2017/11/14 06:18:16.269下午, 249.0, 0.00, 8.00, 5.68, 13.94
440, 2.195, 2017/11/14 06:18:16.274下午, 232.0, 0.00, 8.52, 4.90, 13.42
441, 2.2, 2017/11/14 06:18:16.279下午, 235.0, 0.00, 8.52, 5.42, 13.94
442, 2.205, 2017/11/14 06:18:16.284下午, 245.0, 0.00, 7.74, 5.68, 13.68
443, 2.21, 2017/11/14 06:18:16.289下午, 251.0, 0.00, 8.00, 5.68, 13.94
444, 2.215, 2017/11/14 06:18:16.294下午, 239.0, 0.00, 7.74, 4.90, 12.90
445, 2.22, 2017/11/14 06:18:16.299下午, 233.0, 0.00, 8.26, 4.90, 13.16
446, 2.225, 2017/11/14 06:18:16.304下午, 258.0, 0.00, 8.52, 5.68, 14.45
447, 2.23, 2017/11/14 06:18:16.309下午, 239.0, 0.00, 8.26, 5.68, 13.94
448, 2.235, 2017/11/14 06:18:16.314下午, 237.0, 0.00, 8.26, 5.42, 13.68
449, 2.24, 2017/11/14 06:18:16.319下午, 244.0, 0.00, 8.52, 5.42, 13.94
450, 2.245, 2017/11/14 06:18:16.324下午, 235.0, 0.00, 8.00, 5.68, 13.68
451, 2.25, 2017/11/14 06:18:16.329下午, 237.0, 0.00, 8.00, 5.16, 13.42
452, 2.255, 2017/11/14 06:18:16.334下午, 250.0, 0.00, 8.52, 5.16, 13.94
453, 2.26, 2017/11/14 06:18:16.339下午, 254.0, 0.00, 8.26, 5.42, 13.94
454, 2.265, 2017/11/14 06:18:16.344下午, 259.0, 0.00, 8.26, 5.94, 14.45
455, 2.27, 2017/11/14 06:18:16.349下午, 252.0, 0.00, 8.52, 5.68, 14.19
456, 2.275, 2017/11/14 06:18:16.354下午, 244.0, 0.00, 8.52, 5.42, 13.94
457, 2.28, 2017/11/14 06:18:16.359下午, 233.0, 0.00, 8.00, 5.42, 13.42
458, 2.285, 2017/11/14 06:18:16.364下午, 249.0, 0.00, 8.00, 5.68, 13.94
459, 2.29, 2017/11/14 06:18:16.369下午, 227.0, 0.00, 8.00, 5.16, 13.16
460, 2.295, 2017/11/14 06:18:16.374下午, 261.0, 0.00, 8.52, 5.94, 14.71
461, 2.3, 2017/11/14 06:18:16.379下午, 243.0, 0.00, 7.74, 5.16, 13.16
462, 2.305, 2017/11/14 06:18:16.384下午, 257.0, 0.00, 8.26, 5.68, 14.19
463, 2.31, 2017/11/14 06:18:16.389下午, 245.0, 0.00, 8.00, 5.16, 13.42
464, 2.315, 2017/11/14 06:18:16.394下午, 242.0, 0.00, 8.52, 5.42, 13.94
465, 2.32, 2017/11/14 06:18:16.399下午, 241.0, 0.00, 8.26, 5.42, 13.68
466, 2.325, 2017/11/14 06:18:16.404下午, 243.0, 0.00, 8.52, 5.68, 14.19
467, 2.33, 2017/11/14 06:18:16.409下午, 240.0, 0.00, 8.52, 5.42, 13.94
468, 2.335, 2017/11/14 06:18:16.414下午, 247.0, 0.00, 7.74, 5.68, 13.68
469, 2.34, 2017/11/14 06:18:16.419下午, 247.0, 0.00, 8.26, 4.90, 13.42
470, 2.345, 2017/11/14 06:18:16.424下午, 252.0, 0.00, 8.26, 5.42, 13.94
471, 2.35, 2017/11/14 06:18:16.429下午, 245.0, 0.00, 8.52, 5.68, 14.19
472, 2.355, 2017/11/14 06:18:16.434下午, 248.0, 0.00, 8.52, 5.42, 13.94
473, 2.36, 2017/11/14 06:18:16.439下午, 251.0, 0.77, 8.52, 5.68, 14.97
474, 2.365, 2017/11/14 06:18:16.444下午, 224.0, 0.00, 7.74, 5.16, 12.90
475, 2.37, 2017/11/14 06:18:16.449下午, 262.0, 0.00, 8.26, 5.94, 14.45
476, 2.375, 2017/11/14 06:18:16.454下午, 261.0, 0.00, 8.52, 5.68, 14.45
477, 2.38, 2017/11/14 06:18:16.459下午, 239.0, 0.00, 8.26, 5.16, 13.42
478, 2.385, 2017/11/14 06:18:16.464下午, 250.0, 0.00, 8.52, 5.68, 14.19
479, 2.39, 2017/11/14 06:18:16.469下午, 247.0, 0.00, 8.52, 5.68, 14.19
480, 2.395, 2017/11/14 06:18:16.474下午, 253.0, 0.00, 8.52, 5.94, 14.45
481, 2.4, 2017/11/14 06:18:16.479下午, 229.0, 0.00, 7.74, 5.16, 12.90
482, 2.405, 2017/11/14 06:18:16.484下午, 242.0, 0.00, 8.00, 5.94, 13.94
483, 2.41, 2017/11/14 06:18:16.489下午, 255.0, 0.00, 8.52, 5.16, 13.94
484, 2.415, 2017/11/14 06:18:16.494下午, 244.0, 0.00, 8.52, 5.42, 13.94
485, 2.42, 2017/11/14 06:18:16.499下午, 244.0, 0.00, 8.52, 5.16, 13.68
486, 2.425, 2017/11/14 06:18:16.504下午, 240.0, 0.00, 8.00, 5.42, 13.42
487, 2.43, 2017/11/14 06:18:16.509下午, 240.0, 0.00, 8.26, 5.16, 13.42
488, 2.435, 2017/11/14 06:18:16.514下午, 245.0, 0.00, 8.52, 5.68, 14.19
489, 2.44, 2017/11/14 06:18:16.519下午, 242.0, 0.00, 8.52, 5.16, 13.68
490, 2.445, 2017/11/14 06:18:16.524下午, 259.0, 0.00, 8.52, 5.42, 14.19
491, 2.45, 2017/11/14 06:18:16.529下午, 253.0, 0.00, 8.52, 5.16, 13.94
492, 2.455, 2017/11/14 06:18:16.534下午, 241.0, 0.00, 8.00, 5.42, 13.42
493, 2.46, 2017/11/14 06:18:16.539下午, 227.0, 0.00, 7.74, 4.90, 12.65
494, 2.465, 2017/11/14 06:18:16.544下午, 268.0, 0.00, 8.52, 5.94, 14.71
495, 2.47, 2017/11/14 06:18:16.549下午, 251.0, 0.00, 9.29, 5.16, 14.45
496, 2.475, 2017/11/14 06:18:16.554下午, 242.0, 0.00, 8.00, 5.68, 13.68
497, 2.48, 2017/11/14 06:18:16.559下午, 237.0, 0.00, 8.52, 4.90, 13.42
498, 2.485, 2017/11/14 06:18:16.564下午, 239.0, 0.00, 8.00, 5.68, 13.68
499, 2.49, 2017/11/14 06:18:16.569下午, 235.0, 0.00, 7.74, 5.16, 12.90
500, 2.495, 2017/11/14 06:18:16.574下午, 248.0, 0.00, 7.74, 5.16, 13.16
501, 2.5, 2017/11/14 06:18:16.579下午, 265.0, 0.00, 8.52, 5.68, 14.45
502, 2.505, 2017/11/14 06:18:16.584下午, 240.0, 0.00, 8.26, 5.42, 13.68
503, 2.51, 2017/11/14 06:18:16.589下午, 245.0, 0.00, 8.26, 5.42, 13.68
504, 2.515, 2017/11/14 06:18:16.594下午, 249.0, 0.00, 8.52, 5.42, 13.94
505, 2.52, 2017/11/14 06:18:16.599下午, 249.0, 0.00, 8.52, 5.68, 14.19
506, 2.525, 2017/11/14 06:18:16.604下午, 242.0, 0.00, 8.26, 5.42, 13.68
507, 2.53, 2017/11/14 06:18:16.609下午, 230.0, 0.00, 7.74, 5.16, 12.90
508, 2.535, 2017/11/14 06:18:16.614下午, 255.0, 0.00, 7.74, 5.68, 13.68
509, 2.54, 2017/11/14 06:18:16.619下午, 259.0, 0.00, 8.26, 5.42, 13.94
510, 2.545, 2017/11/14 06:18:16.624下午, 261.0, 0.00, 8.26, 5.94, 14.45
511, 2.55, 2017/11/14 06:18:16.629下午, 246.0, 0.00, 8.26, 5.68, 13.94
512, 2.555, 2017/11/14 06:18:16.634下午, 234.0, 0.00, 7.74, 5.42, 13.16
513, 2.56, 2017/11/14 06:18:16.639下午, 265.0, 0.00, 8.26, 5.94, 14.45
514, 2.565, 2017/11/14 06:18:16.644下午, 255.0, 0.00, 8.26, 5.16, 13.68
515, 2.57, 2017/11/14 06:18:16.649下午, 235.0, 0.00, 8.00, 5.16, 13.16
516, 2.575, 2017/11/14 06:18:16.654下午, 248.0, 0.00, 8.26, 5.68, 13.94
517, 2.58, 2017/11/14 06:18:16.659下午, 246.0, 0.00, 7.74, 5.42, 13.42
518, 2.585, 2017/11/14 06:18:16.664下午, 247.0, 0.00, 7.74, 5.16, 13.16
519, 2.59, 2017/11/14 06:18:16.669下午, 256.0, 0.00, 7.74, 5.94, 13.94
520, 2.595, 2017/11/14 06:18:16.674下午, 246.0, 0.00, 8.00, 5.68, 13.68
521, 2.6, 2017/11/14 06:18:16.679下午, 260.0, 0.00, 8.26, 5.68, 14.19
522, 2.605, 2017/11/14 06:18:16.684下午, 262.0, 0.00, 8.00, 5.94, 14.19
523, 2.61, 2017/11/14 06:18:16.689下午, 253.0, 0.00, 8.26, 6.19, 14.45
524, 2.615, 2017/11/14 06:18:16.694下午, 253.0, 0.00, 8.52, 5.94, 14.45
525, 2.62, 2017/11/14 06:18:16.699下午, 226.0, 0.00, 8.00, 4.65, 12.65
526, 2.625, 2017/11/14 06:18:16.704下午, 251.0, 0.00, 8.26, 5.94, 14.19
527, 2.63, 2017/11/14 06:18:16.709下午, 257.0, 0.00, 8.00, 5.94, 14.19
528, 2.635, 2017/11/14 06:18:16.714下午, 257.0, 0.00, 8.26, 5.42, 13.94
529, 2.64, 2017/11/14 06:18:16.719下午, 238.0, 0.00, 8.00, 5.16, 13.16
530, 2.645, 2017/11/14 06:18:16.724下午, 247.0, 0.00, 8.26, 5.68, 13.94
531, 2.65, 2017/11/14 06:18:16.729下午, 233.0, 0.00, 8.00, 5.16, 13.16
532, 2.655, 2017/11/14 06:18:16.734下午, 252.0, 0.00, 8.26, 5.94, 14.19
533, 2.66, 2017/11/14 06:18:16.739下午, 253.0, 0.00, 8.00, 5.42, 13.68
534, 2.665, 2017/11/14 06:18:16.744下午, 235.0, 0.00, 8.00, 5.16, 13.16
535, 2.67, 2017/11/14 06:18:16.749下午, 247.0, 0.00, 8.52, 5.42, 13.94
536, 2.675, 2017/11/14 06:18:16.754下午, 254.0, 0.00, 8.52, 5.94, 14.45
537, 2.68, 2017/11/14 06:18:16.759下午, 242.0, 0.00, 7.74, 5.94, 13.68
538, 2.685, 2017/11/14 06:18:16.764下午, 247.0, 0.00, 8.52, 5.42, 13.94
539, 2.69, 2017/11/14 06:18:16.769下午, 264.0, 0.00, 8.26, 5.94, 14.45
540, 2.695, 2017/11/14 06:18:16.774下午, 241.0, 0.00, 8.00, 5.42, 13.42
541, 2.7, 2017/11/14 06:18:16.779下午, 247.0, 0.00, 8.00, 6.19, 14.19
542, 2.705, 2017/11/14 06:18:16.784下午, 250.0, 0.00, 8.26, 5.68, 13.94
543, 2.71, 2017/11/14 06:18:16.789下午, 247.0, 0.00, 7.74, 5.68, 13.68
544, 2.715, 2017/11/14 06:18:16.794下午, 251.0, 0.00, 7.74, 5.42, 13.42
545, 2.72, 2017/11/14 06:18:16.799下午, 258.0, 0.00, 8.26, 5.16, 13.68
546, 2.725, 2017/11/14 06:18:16.804下午, 251.0, 0.00, 8.26, 5.68, 13.94
547, 2.73, 2017/11/14 06:18:16.809下午, 251.0, 0.00, 8.00, 5.42, 13.68
548, 2.735, 2017/11/14 06:18:16.814下午, 251.0, 0.00, 8.52, 5.68, 14.19
549, 2.74, 2017/11/14 06:18:16.819下午, 233.0, 0.00, 7.74, 5.16, 12.90
550, 2.745, 2017/11/14 06:18:16.824下午, 272.0, 0.00, 8.26, 6.19, 14.71
551, 2.75, 2017/11/14 06:18:16.829下午, 244.0, 0.00, 8.26, 5.42, 13.68
552, 2.755, 2017/11/14 06:18:16.834下午, 253.0, 0.00, 8.52, 5.94, 14.45
553, 2.76, 2017/11/14 06:18:16.839下午, 253.0, 0.00, 8.26, 5.94, 14.19
554, 2.765, 2017/11/14 06:18:16.844下午, 236.0, 0.00, 7.74, 5.42, 13.16
555, 2.77, 2017/11/14 06:18:16.849下午, 272.0, 0.00, 8.52, 6.19, 14.97
556, 2.775, 2017/11/14 06:18:16.854下午, 269.0, 0.00, 8.52, 5.68, 14.45
557, 2.78, 2017/11/14 06:18:16.859下午, 261.0, 0.00, 8.26, 5.42, 13.94
558, 2.785, 2017/11/14 06:18:16.864下午, 244.0, 0.00, 7.74, 5.94, 13.68
559, 2.79, 2017/11/14 06:18:16.869下午, 251.0, 0.00, 8.26, 5.94, 14.19
560, 2.795, 2017/11/14 06:18:16.874下午, 236.0, 0.00, 7.74, 5.42, 13.16
561, 2.8, 2017/11/14 06:18:16.879下午, 266.0, 0.00, 8.52, 5.68, 14.45
562, 2.805, 2017/11/14 06:18:16.884下午, 264.0, 0.00, 8.26, 5.94, 14.45
563, 2.81, 2017/11/14 06:18:16.889下午, 264.0, 0.00, 8.00, 5.94, 14.19
564, 2.815, 2017/11/14 06:18:16.894下午, 242.0, 0.00, 8.00, 5.42, 13.42
565, 2.82, 2017/11/14 06:18:16.899下午, 241.0, 0.00, 8.00, 5.16, 13.16
566, 2.825, 2017/11/14 06:18:16.904下午, 252.0, 0.00, 8.52, 5.68, 14.19
567, 2.83, 2017/11/14 06:18:16.909下午, 249.0, 0.00, 8.26, 5.68, 13.94
568, 2.835, 2017/11/14 06:18:16.914下午, 249.0, 0.00, 8.26, 5.68, 13.94
569, 2.84, 2017/11/14 06:18:16.919下午, 245.0, 0.00, 8.00, 5.68, 13.68
570, 2.845, 2017/11/14 06:18:16.924下午, 250.0, 0.00, 7.74, 5.16, 13.16
571, 2.85, 2017/11/14 06:18:16.929下午, 261.0, 0.00, 8.26, 5.94, 14.45
572, 2.855, 2017/11/14 06:18:16.934下午, 267.0, 0.00, 8.52, 5.68, 14.45
573, 2.86, 2017/11/14 06:18:16.939下午, 238.0, 0.00, 8.00, 5.16, 13.16
574, 2.865, 2017/11/14 06:18:16.944下午, 244.0, 0.00, 8.26, 5.42, 13.68
575, 2.87, 2017/11/14 06:18:16.949下午, 251.0, 0.00, 8.52, 5.68, 14.19
576, 2.875, 2017/11/14 06:18:16.954下午, 268.0, 0.00, 8.52, 6.19, 14.97
577, 2.88, 2017/11/14 06:18:16.959下午, 258.0, 0.00, 7.74, 5.94, 13.94
578, 2.885, 2017/11/14 06:18:16.964下午, 266.0, 0.00, 8.52, 5.68, 14.45
579, 2.89, 2017/11/14 06:18:16.969下午, 248.0, 0.00, 8.26, 5.42, 13.68
580, 2.895, 2017/11/14 06:18:16.974下午, 238.0, 0.00, 8.00, 5.16, 13.16
581, 2.9, 2017/11/14 06:18:16.979下午, 246.0, 0.00, 7.74, 5.94, 13.68
582, 2.905, 2017/11/14 06:18:16.984下午, 265.0, 0.00, 8.26, 6.19, 14.71
583, 2.91, 2017/11/14 06:18:16.989下午, 241.0, 0.00, 8.26, 5.16, 13.42
584, 2.915, 2017/11/14 06:18:16.994下午, 256.0, 0.00, 8.52, 5.16, 13.94
585, 2.92, 2017/11/14 06:18:16.999下午, 257.0, 0.00, 8.52, 4.90, 13.68
586, 2.925, 2017/11/14 06:18:17.004下午, 253.0, 0.00, 8.26, 5.94, 14.19
587, 2.93, 2017/11/14 06:18:17.009下午, 252.0, 0.00, 8.26, 5.42, 13.68
588, 2.935, 2017/11/14 06:18:17.014下午, 245.0, 0.00, 8.52, 5.68, 14.19
589, 2.94, 2017/11/14 06:18:17.019下午, 263.0, 0.00, 8.00, 6.19, 14.45
590, 2.945, 2017/11/14 06:18:17.024下午, 254.0, 0.00, 8.52, 5.68, 14.19
591, 2.95, 2017/11/14 06:18:17.029下午, 251.0, 0.00, 8.26, 5.68, 13.94
592, 2.955, 2017/11/14 06:18:17.034下午, 249.0, 0.00, 8.52, 5.68, 14.19
593, 2.96, 2017/11/14 06:18:17.039下午, 252.0, 0.00, 7.74, 5.42, 13.42
594, 2.965, 2017/11/14 06:18:17.044下午, 238.0, 0.00, 8.26, 4.90, 13.16
595, 2.97, 2017/11/14 06:18:17.049下午, 244.0, 0.00, 8.00, 5.42, 13.42
596, 2.975, 2017/11/14 06:18:17.054下午, 251.0, 0.00, 8.52, 5.94, 14.45
597, 2.98, 2017/11/14 06:18:17.059下午, 251.0, 0.00, 8.52, 5.68, 14.19
598, 2.985, 2017/11/14 06:18:17.064下午, 252.0, 0.00, 8.52, 5.94, 14.45
599, 2.99, 2017/11/14 06:18:17.069下午, 241.0, 0.00, 8.00, 5.68, 13.68
600, 2.995, 2017/11/14 06:18:17.074下午, 262.0, 0.00, 8.00, 6.19, 14.45
@@
