DATA_TYPE Graph
VERSION Tekscan Pressure Measurement System 6.70-03
HARDWARE 00114-3447
MAP_VERSION 6.5
HW_TYPE 4
VersaPogoFsx 0
檔案名 C:\Users\asus\Desktop\工研院_計畫\收案資料\Subject02\Plantar Pressure\FOAM_STAND_RIGHT_1.fsx
SENSOR_TYPE FSCAN
ROWS 60
COLS 21
ROW_SPACING 0.508 centimeters
COL_SPACING 0.508 centimeters
SENSEL_AREA 0.258064 cm2
NOISE_THRESHOLD 3
SECONDS_PER_FRAME 0.005
SECONDS_PER_FRAME 0
MICRO_SECOND 0
TIME 2017/11/15 11:58:57.964上午
SATURATION_PRESSURE 2347.96 KPa 
CALIBRATION_POINT_1 48.0001 (Kilograms) 1981 (Raw Sum) 199 (Number of Loaded Cells)
CALIBRATION_MODE_1 步態
CALIBRATION_INFO C:\Users\asus\Desktop\工研院_計畫\收案資料\Subject02\Plantar Pressure\FOAM_STAND_RIGHT_1.fsx
SENSITIVITY 自定義
MAP_INDEX 0
SUBMAP 0
Patient ID: 

Speed of Gait: 

Weight: 

Gender: 

Physician: 

Technician: 

Shoe: 

START_FRAME 1
END_FRAME 600
UNITS cm2
ASCII_DATA @@
畫面(X), 時間(X), 絕對時間(X), Raw Sum, 區域(Y:天藍色), 區域(Y), 區域(Y), 區域(Y)
1, 0, 2017/11/15 11:58:57.964上午, 199.0, 6.71, 0.00, 7.74, 14.45
2, 0.005, 2017/11/15 11:58:57.969上午, 188.0, 5.42, 0.00, 7.74, 13.16
3, 0.01, 2017/11/15 11:58:57.974上午, 197.0, 5.68, 0.00, 8.26, 13.94
4, 0.015, 2017/11/15 11:58:57.979上午, 194.0, 6.45, 0.00, 7.48, 13.94
5, 0.02, 2017/11/15 11:58:57.984上午, 190.0, 5.68, 0.00, 7.23, 12.90
6, 0.025, 2017/11/15 11:58:57.989上午, 190.0, 5.94, 0.00, 7.48, 13.42
7, 0.03, 2017/11/15 11:58:57.994上午, 193.0, 5.68, 0.00, 8.00, 13.68
8, 0.035, 2017/11/15 11:58:57.999上午, 184.0, 5.16, 0.00, 7.74, 12.90
9, 0.04, 2017/11/15 11:58:58.004上午, 195.0, 6.19, 0.00, 7.48, 13.68
10, 0.045, 2017/11/15 11:58:58.009上午, 184.0, 5.16, 0.00, 8.00, 13.16
11, 0.05, 2017/11/15 11:58:58.014上午, 188.0, 5.68, 0.00, 7.48, 13.16
12, 0.055, 2017/11/15 11:58:58.019上午, 194.0, 6.45, 0.00, 7.23, 13.68
13, 0.06, 2017/11/15 11:58:58.024上午, 198.0, 6.71, 0.00, 7.74, 14.45
14, 0.065, 2017/11/15 11:58:58.029上午, 180.0, 5.16, 0.00, 7.23, 12.39
15, 0.07, 2017/11/15 11:58:58.034上午, 204.0, 6.19, 0.00, 8.26, 14.45
16, 0.075, 2017/11/15 11:58:58.039上午, 189.0, 5.94, 0.00, 7.74, 13.68
17, 0.08, 2017/11/15 11:58:58.044上午, 186.0, 5.42, 0.00, 7.74, 13.16
18, 0.085, 2017/11/15 11:58:58.049上午, 185.0, 6.45, 0.00, 6.45, 12.90
19, 0.09, 2017/11/15 11:58:58.054上午, 182.0, 5.68, 0.00, 7.48, 13.16
20, 0.095, 2017/11/15 11:58:58.059上午, 179.0, 6.45, 0.00, 6.45, 12.90
21, 0.1, 2017/11/15 11:58:58.064上午, 198.0, 6.45, 0.00, 7.74, 14.19
22, 0.105, 2017/11/15 11:58:58.069上午, 202.0, 6.71, 0.00, 7.48, 14.19
23, 0.11, 2017/11/15 11:58:58.074上午, 193.0, 5.68, 0.00, 8.00, 13.68
24, 0.115, 2017/11/15 11:58:58.079上午, 184.0, 5.16, 0.00, 8.00, 13.16
25, 0.12, 2017/11/15 11:58:58.084上午, 198.0, 6.19, 0.00, 7.74, 13.94
26, 0.125, 2017/11/15 11:58:58.089上午, 178.0, 5.16, 0.00, 7.48, 12.65
27, 0.13, 2017/11/15 11:58:58.094上午, 193.0, 5.94, 0.00, 7.74, 13.68
28, 0.135, 2017/11/15 11:58:58.099上午, 178.0, 5.42, 0.00, 6.97, 12.39
29, 0.14, 2017/11/15 11:58:58.104上午, 165.0, 4.39, 0.00, 7.23, 11.61
30, 0.145, 2017/11/15 11:58:58.109上午, 197.0, 6.45, 0.00, 7.74, 14.19
31, 0.15, 2017/11/15 11:58:58.114上午, 183.0, 5.94, 0.00, 6.97, 12.90
32, 0.155, 2017/11/15 11:58:58.119上午, 189.0, 6.19, 0.00, 7.48, 13.68
33, 0.16, 2017/11/15 11:58:58.124上午, 202.0, 6.97, 0.00, 7.74, 14.71
34, 0.165, 2017/11/15 11:58:58.129上午, 182.0, 6.19, 0.00, 6.71, 12.90
35, 0.17, 2017/11/15 11:58:58.134上午, 197.0, 6.19, 0.00, 8.00, 14.19
36, 0.175, 2017/11/15 11:58:58.139上午, 186.0, 5.16, 0.00, 7.74, 12.90
37, 0.18, 2017/11/15 11:58:58.144上午, 183.0, 6.19, 0.00, 6.45, 12.65
38, 0.185, 2017/11/15 11:58:58.149上午, 175.0, 4.90, 0.00, 7.23, 12.13
39, 0.19, 2017/11/15 11:58:58.154上午, 192.0, 5.94, 0.00, 8.00, 13.94
40, 0.195, 2017/11/15 11:58:58.159上午, 191.0, 6.19, 0.00, 6.97, 13.16
41, 0.2, 2017/11/15 11:58:58.164上午, 196.0, 6.19, 0.00, 7.48, 13.68
42, 0.205, 2017/11/15 11:58:58.169上午, 188.0, 5.94, 0.00, 7.74, 13.68
43, 0.21, 2017/11/15 11:58:58.174上午, 178.0, 4.90, 0.00, 7.23, 12.13
44, 0.215, 2017/11/15 11:58:58.179上午, 184.0, 5.42, 0.00, 7.23, 12.65
45, 0.22, 2017/11/15 11:58:58.184上午, 186.0, 5.94, 0.00, 7.23, 13.16
46, 0.225, 2017/11/15 11:58:58.189上午, 198.0, 6.19, 0.00, 8.26, 14.45
47, 0.23, 2017/11/15 11:58:58.194上午, 184.0, 5.68, 0.00, 7.23, 12.90
48, 0.235, 2017/11/15 11:58:58.199上午, 180.0, 4.90, 0.00, 7.74, 12.65
49, 0.24, 2017/11/15 11:58:58.204上午, 183.0, 5.42, 0.00, 7.74, 13.16
50, 0.245, 2017/11/15 11:58:58.209上午, 174.0, 4.90, 0.00, 6.97, 11.87
51, 0.25, 2017/11/15 11:58:58.214上午, 175.0, 4.90, 0.00, 7.48, 12.39
52, 0.255, 2017/11/15 11:58:58.219上午, 198.0, 6.45, 0.00, 8.00, 14.45
53, 0.26, 2017/11/15 11:58:58.224上午, 185.0, 5.94, 0.00, 6.97, 12.90
54, 0.265, 2017/11/15 11:58:58.229上午, 179.0, 5.42, 0.00, 7.23, 12.65
55, 0.27, 2017/11/15 11:58:58.234上午, 188.0, 5.16, 0.00, 8.26, 13.42
56, 0.275, 2017/11/15 11:58:58.239上午, 187.0, 5.94, 0.00, 6.97, 12.90
57, 0.28, 2017/11/15 11:58:58.244上午, 194.0, 5.42, 0.00, 8.26, 13.68
58, 0.285, 2017/11/15 11:58:58.249上午, 201.0, 6.45, 0.00, 8.00, 14.45
59, 0.29, 2017/11/15 11:58:58.254上午, 169.0, 5.68, 0.00, 5.94, 11.61
60, 0.295, 2017/11/15 11:58:58.259上午, 199.0, 6.45, 0.00, 7.74, 14.19
61, 0.3, 2017/11/15 11:58:58.264上午, 190.0, 5.68, 0.00, 8.00, 13.68
62, 0.305, 2017/11/15 11:58:58.269上午, 201.0, 6.71, 0.00, 7.74, 14.45
63, 0.31, 2017/11/15 11:58:58.274上午, 174.0, 4.90, 0.00, 7.23, 12.13
64, 0.315, 2017/11/15 11:58:58.279上午, 183.0, 5.16, 0.00, 7.74, 12.90
65, 0.32, 2017/11/15 11:58:58.284上午, 205.0, 7.23, 0.00, 7.74, 14.97
66, 0.325, 2017/11/15 11:58:58.289上午, 191.0, 5.42, 0.00, 7.74, 13.16
67, 0.33, 2017/11/15 11:58:58.294上午, 186.0, 5.94, 0.00, 6.97, 12.90
68, 0.335, 2017/11/15 11:58:58.299上午, 183.0, 5.68, 0.00, 7.48, 13.16
69, 0.34, 2017/11/15 11:58:58.304上午, 184.0, 5.42, 0.00, 7.74, 13.16
70, 0.345, 2017/11/15 11:58:58.309上午, 179.0, 5.42, 0.00, 6.97, 12.39
71, 0.35, 2017/11/15 11:58:58.314上午, 185.0, 4.90, 0.00, 8.00, 12.90
72, 0.355, 2017/11/15 11:58:58.319上午, 206.0, 6.97, 0.00, 8.00, 14.97
73, 0.36, 2017/11/15 11:58:58.324上午, 179.0, 4.90, 0.00, 7.48, 12.39
74, 0.365, 2017/11/15 11:58:58.329上午, 192.0, 5.16, 0.00, 8.52, 13.68
75, 0.37, 2017/11/15 11:58:58.334上午, 193.0, 6.19, 0.00, 8.00, 14.19
76, 0.375, 2017/11/15 11:58:58.339上午, 190.0, 5.94, 0.00, 7.48, 13.42
77, 0.38, 2017/11/15 11:58:58.344上午, 176.0, 4.65, 0.00, 7.23, 11.87
78, 0.385, 2017/11/15 11:58:58.349上午, 195.0, 5.68, 0.00, 8.26, 13.94
79, 0.39, 2017/11/15 11:58:58.354上午, 186.0, 5.68, 0.00, 7.48, 13.16
80, 0.395, 2017/11/15 11:58:58.359上午, 184.0, 5.94, 0.00, 6.97, 12.90
81, 0.4, 2017/11/15 11:58:58.364上午, 195.0, 5.68, 0.00, 8.00, 13.68
82, 0.405, 2017/11/15 11:58:58.369上午, 192.0, 6.19, 0.00, 7.48, 13.68
83, 0.41, 2017/11/15 11:58:58.374上午, 184.0, 5.16, 0.00, 8.00, 13.16
84, 0.415, 2017/11/15 11:58:58.379上午, 191.0, 5.94, 0.00, 7.48, 13.42
85, 0.42, 2017/11/15 11:58:58.384上午, 197.0, 5.94, 0.00, 7.74, 13.68
86, 0.425, 2017/11/15 11:58:58.389上午, 195.0, 7.23, 0.00, 6.97, 14.19
87, 0.43, 2017/11/15 11:58:58.394上午, 189.0, 6.19, 0.00, 6.97, 13.16
88, 0.435, 2017/11/15 11:58:58.399上午, 187.0, 6.19, 0.00, 6.71, 12.90
89, 0.44, 2017/11/15 11:58:58.404上午, 196.0, 6.97, 0.00, 7.48, 14.45
90, 0.445, 2017/11/15 11:58:58.409上午, 188.0, 5.42, 0.00, 7.48, 12.90
91, 0.45, 2017/11/15 11:58:58.414上午, 191.0, 5.68, 0.00, 7.74, 13.42
92, 0.455, 2017/11/15 11:58:58.419上午, 202.0, 6.97, 0.00, 7.74, 14.71
93, 0.46, 2017/11/15 11:58:58.424上午, 194.0, 5.94, 0.00, 7.74, 13.68
94, 0.465, 2017/11/15 11:58:58.429上午, 194.0, 6.45, 0.00, 7.23, 13.68
95, 0.47, 2017/11/15 11:58:58.434上午, 176.0, 5.68, 0.00, 6.97, 12.65
96, 0.475, 2017/11/15 11:58:58.439上午, 189.0, 5.42, 0.00, 7.74, 13.16
97, 0.48, 2017/11/15 11:58:58.444上午, 187.0, 6.71, 0.00, 6.45, 13.16
98, 0.485, 2017/11/15 11:58:58.449上午, 189.0, 5.16, 0.00, 8.00, 13.16
99, 0.49, 2017/11/15 11:58:58.454上午, 195.0, 6.71, 0.00, 7.48, 14.19
100, 0.495, 2017/11/15 11:58:58.459上午, 202.0, 6.45, 0.00, 7.74, 14.19
101, 0.5, 2017/11/15 11:58:58.464上午, 190.0, 6.19, 0.00, 7.23, 13.42
102, 0.505, 2017/11/15 11:58:58.469上午, 191.0, 5.68, 0.00, 7.74, 13.42
103, 0.51, 2017/11/15 11:58:58.474上午, 187.0, 6.19, 0.00, 7.23, 13.42
104, 0.515, 2017/11/15 11:58:58.479上午, 187.0, 5.42, 0.00, 7.74, 13.16
105, 0.52, 2017/11/15 11:58:58.484上午, 176.0, 5.16, 0.00, 6.97, 12.13
106, 0.525, 2017/11/15 11:58:58.489上午, 201.0, 6.45, 0.00, 7.74, 14.19
107, 0.53, 2017/11/15 11:58:58.494上午, 185.0, 5.94, 0.00, 7.23, 13.16
108, 0.535, 2017/11/15 11:58:58.499上午, 189.0, 5.94, 0.00, 7.23, 13.16
109, 0.54, 2017/11/15 11:58:58.504上午, 193.0, 6.71, 0.00, 6.71, 13.42
110, 0.545, 2017/11/15 11:58:58.509上午, 189.0, 6.19, 0.00, 7.48, 13.68
111, 0.55, 2017/11/15 11:58:58.514上午, 200.0, 6.97, 0.00, 7.23, 14.19
112, 0.555, 2017/11/15 11:58:58.519上午, 189.0, 5.94, 0.00, 7.23, 13.16
113, 0.56, 2017/11/15 11:58:58.524上午, 199.0, 6.19, 0.00, 8.00, 14.19
114, 0.565, 2017/11/15 11:58:58.529上午, 199.0, 6.71, 0.00, 7.74, 14.45
115, 0.57, 2017/11/15 11:58:58.534上午, 176.0, 5.16, 0.00, 6.97, 12.13
116, 0.575, 2017/11/15 11:58:58.539上午, 177.0, 5.94, 0.00, 6.19, 12.13
117, 0.58, 2017/11/15 11:58:58.544上午, 208.0, 6.45, 0.00, 8.26, 14.71
118, 0.585, 2017/11/15 11:58:58.549上午, 190.0, 5.42, 0.00, 8.00, 13.42
119, 0.59, 2017/11/15 11:58:58.554上午, 199.0, 6.45, 0.00, 8.00, 14.45
120, 0.595, 2017/11/15 11:58:58.559上午, 171.0, 5.68, 0.00, 6.19, 11.87
121, 0.6, 2017/11/15 11:58:58.564上午, 192.0, 5.68, 0.00, 8.00, 13.68
122, 0.605, 2017/11/15 11:58:58.569上午, 168.0, 5.16, 0.00, 6.71, 11.87
123, 0.61, 2017/11/15 11:58:58.574上午, 201.0, 6.97, 0.00, 7.48, 14.45
124, 0.615, 2017/11/15 11:58:58.579上午, 189.0, 6.19, 0.00, 6.97, 13.16
125, 0.62, 2017/11/15 11:58:58.584上午, 185.0, 5.94, 0.00, 6.97, 12.90
126, 0.625, 2017/11/15 11:58:58.589上午, 189.0, 5.42, 0.00, 8.00, 13.42
127, 0.63, 2017/11/15 11:58:58.594上午, 182.0, 6.19, 0.00, 6.97, 13.16
128, 0.635, 2017/11/15 11:58:58.599上午, 175.0, 5.94, 0.00, 6.19, 12.13
129, 0.64, 2017/11/15 11:58:58.604上午, 176.0, 6.19, 0.00, 6.19, 12.39
130, 0.645, 2017/11/15 11:58:58.609上午, 191.0, 6.19, 0.00, 7.48, 13.68
131, 0.65, 2017/11/15 11:58:58.614上午, 196.0, 6.71, 0.00, 6.97, 13.68
132, 0.655, 2017/11/15 11:58:58.619上午, 181.0, 6.19, 0.00, 6.71, 12.90
133, 0.66, 2017/11/15 11:58:58.624上午, 195.0, 7.23, 0.00, 6.97, 14.19
134, 0.665, 2017/11/15 11:58:58.629上午, 193.0, 5.68, 0.00, 8.00, 13.68
135, 0.67, 2017/11/15 11:58:58.634上午, 205.0, 6.45, 0.00, 7.74, 14.19
136, 0.675, 2017/11/15 11:58:58.639上午, 182.0, 5.42, 0.00, 7.48, 12.90
137, 0.68, 2017/11/15 11:58:58.644上午, 193.0, 6.19, 0.00, 7.74, 13.94
138, 0.685, 2017/11/15 11:58:58.649上午, 178.0, 4.65, 0.00, 7.48, 12.13
139, 0.69, 2017/11/15 11:58:58.654上午, 206.0, 6.45, 0.00, 8.26, 14.71
140, 0.695, 2017/11/15 11:58:58.659上午, 189.0, 6.45, 0.00, 7.23, 13.68
141, 0.7, 2017/11/15 11:58:58.664上午, 192.0, 5.94, 0.00, 7.74, 13.68
142, 0.705, 2017/11/15 11:58:58.669上午, 189.0, 6.19, 0.00, 6.97, 13.16
143, 0.71, 2017/11/15 11:58:58.674上午, 172.0, 5.68, 0.00, 6.45, 12.13
144, 0.715, 2017/11/15 11:58:58.679上午, 194.0, 6.19, 0.00, 7.74, 13.94
145, 0.72, 2017/11/15 11:58:58.684上午, 187.0, 5.68, 0.00, 7.48, 13.16
146, 0.725, 2017/11/15 11:58:58.689上午, 185.0, 5.94, 0.00, 7.23, 13.16
147, 0.73, 2017/11/15 11:58:58.694上午, 200.0, 6.71, 0.00, 8.00, 14.71
148, 0.735, 2017/11/15 11:58:58.699上午, 202.0, 6.45, 0.00, 8.00, 14.45
149, 0.74, 2017/11/15 11:58:58.704上午, 200.0, 7.23, 0.00, 7.23, 14.45
150, 0.745, 2017/11/15 11:58:58.709上午, 190.0, 6.19, 0.00, 6.97, 13.16
151, 0.75, 2017/11/15 11:58:58.714上午, 186.0, 6.19, 0.00, 7.23, 13.42
152, 0.755, 2017/11/15 11:58:58.719上午, 176.0, 5.42, 0.00, 6.97, 12.39
153, 0.76, 2017/11/15 11:58:58.724上午, 196.0, 5.68, 0.00, 8.26, 13.94
154, 0.765, 2017/11/15 11:58:58.729上午, 203.0, 6.71, 0.00, 7.74, 14.45
155, 0.77, 2017/11/15 11:58:58.734上午, 180.0, 5.94, 0.00, 6.45, 12.39
156, 0.775, 2017/11/15 11:58:58.739上午, 192.0, 6.71, 0.00, 7.23, 13.94
157, 0.78, 2017/11/15 11:58:58.744上午, 182.0, 5.68, 0.00, 6.97, 12.65
158, 0.785, 2017/11/15 11:58:58.749上午, 197.0, 5.68, 0.00, 8.26, 13.94
159, 0.79, 2017/11/15 11:58:58.754上午, 183.0, 6.19, 0.00, 6.97, 13.16
160, 0.795, 2017/11/15 11:58:58.759上午, 182.0, 5.16, 0.00, 7.74, 12.90
161, 0.8, 2017/11/15 11:58:58.764上午, 172.0, 4.90, 0.00, 6.97, 11.87
162, 0.805, 2017/11/15 11:58:58.769上午, 172.0, 4.90, 0.00, 7.23, 12.13
163, 0.81, 2017/11/15 11:58:58.774上午, 200.0, 6.97, 0.00, 7.48, 14.45
164, 0.815, 2017/11/15 11:58:58.779上午, 179.0, 5.42, 0.00, 6.97, 12.39
165, 0.82, 2017/11/15 11:58:58.784上午, 196.0, 5.68, 0.00, 8.00, 13.68
166, 0.825, 2017/11/15 11:58:58.789上午, 172.0, 5.16, 0.00, 7.23, 12.39
167, 0.83, 2017/11/15 11:58:58.794上午, 177.0, 5.16, 0.00, 7.23, 12.39
168, 0.835, 2017/11/15 11:58:58.799上午, 190.0, 6.71, 0.00, 6.71, 13.42
169, 0.84, 2017/11/15 11:58:58.804上午, 192.0, 6.71, 0.00, 7.23, 13.94
170, 0.845, 2017/11/15 11:58:58.809上午, 180.0, 5.42, 0.00, 6.97, 12.39
171, 0.85, 2017/11/15 11:58:58.814上午, 187.0, 5.68, 0.00, 7.74, 13.42
172, 0.855, 2017/11/15 11:58:58.819上午, 179.0, 5.16, 0.00, 7.48, 12.65
173, 0.86, 2017/11/15 11:58:58.824上午, 197.0, 5.94, 0.00, 7.74, 13.68
174, 0.865, 2017/11/15 11:58:58.829上午, 197.0, 6.71, 0.00, 7.48, 14.19
175, 0.87, 2017/11/15 11:58:58.834上午, 174.0, 5.16, 0.00, 7.23, 12.39
176, 0.875, 2017/11/15 11:58:58.839上午, 191.0, 5.42, 0.00, 8.00, 13.42
177, 0.88, 2017/11/15 11:58:58.844上午, 184.0, 6.45, 0.00, 6.97, 13.42
178, 0.885, 2017/11/15 11:58:58.849上午, 183.0, 5.42, 0.00, 7.23, 12.65
179, 0.89, 2017/11/15 11:58:58.854上午, 179.0, 5.68, 0.00, 6.71, 12.39
180, 0.895, 2017/11/15 11:58:58.859上午, 183.0, 6.19, 0.00, 6.97, 13.16
181, 0.9, 2017/11/15 11:58:58.864上午, 185.0, 5.16, 0.00, 8.26, 13.42
182, 0.905, 2017/11/15 11:58:58.869上午, 186.0, 5.68, 0.00, 7.48, 13.16
183, 0.91, 2017/11/15 11:58:58.874上午, 182.0, 5.16, 0.00, 7.74, 12.90
184, 0.915, 2017/11/15 11:58:58.879上午, 182.0, 5.68, 0.00, 7.48, 13.16
185, 0.92, 2017/11/15 11:58:58.884上午, 188.0, 5.94, 0.00, 7.23, 13.16
186, 0.925, 2017/11/15 11:58:58.889上午, 165.0, 4.39, 0.00, 7.23, 11.61
187, 0.93, 2017/11/15 11:58:58.894上午, 197.0, 6.45, 0.00, 7.74, 14.19
188, 0.935, 2017/11/15 11:58:58.899上午, 190.0, 5.94, 0.00, 7.74, 13.68
189, 0.94, 2017/11/15 11:58:58.904上午, 204.0, 6.97, 0.00, 7.74, 14.71
190, 0.945, 2017/11/15 11:58:58.909上午, 172.0, 4.90, 0.00, 6.97, 11.87
191, 0.95, 2017/11/15 11:58:58.914上午, 196.0, 6.19, 0.00, 7.74, 13.94
192, 0.955, 2017/11/15 11:58:58.919上午, 196.0, 6.45, 0.00, 7.74, 14.19
193, 0.96, 2017/11/15 11:58:58.924上午, 180.0, 5.16, 0.00, 7.48, 12.65
194, 0.965, 2017/11/15 11:58:58.929上午, 192.0, 5.68, 0.00, 8.26, 13.94
195, 0.97, 2017/11/15 11:58:58.934上午, 205.0, 7.48, 0.00, 7.48, 14.97
196, 0.975, 2017/11/15 11:58:58.939上午, 174.0, 5.42, 0.00, 6.71, 12.13
197, 0.98, 2017/11/15 11:58:58.944上午, 181.0, 5.16, 0.00, 7.74, 12.90
198, 0.985, 2017/11/15 11:58:58.949上午, 195.0, 5.68, 0.00, 8.52, 14.19
199, 0.99, 2017/11/15 11:58:58.954上午, 180.0, 4.90, 0.00, 7.74, 12.65
200, 0.995, 2017/11/15 11:58:58.959上午, 161.0, 4.65, 0.00, 6.45, 11.10
201, 1, 2017/11/15 11:58:58.964上午, 186.0, 6.19, 0.00, 7.23, 13.42
202, 1.005, 2017/11/15 11:58:58.969上午, 187.0, 5.68, 0.00, 7.74, 13.42
203, 1.01, 2017/11/15 11:58:58.974上午, 196.0, 6.45, 0.00, 7.23, 13.68
204, 1.015, 2017/11/15 11:58:58.979上午, 178.0, 5.16, 0.00, 7.48, 12.65
205, 1.02, 2017/11/15 11:58:58.984上午, 190.0, 5.42, 0.00, 8.00, 13.42
206, 1.025, 2017/11/15 11:58:58.989上午, 185.0, 5.68, 0.00, 7.23, 12.90
207, 1.03, 2017/11/15 11:58:58.994上午, 192.0, 6.45, 0.00, 7.48, 13.94
208, 1.035, 2017/11/15 11:58:58.999上午, 199.0, 6.45, 0.00, 8.00, 14.45
209, 1.04, 2017/11/15 11:58:59.004上午, 185.0, 5.42, 0.00, 7.74, 13.16
210, 1.045, 2017/11/15 11:58:59.009上午, 195.0, 6.19, 0.00, 8.00, 14.19
211, 1.05, 2017/11/15 11:58:59.014上午, 187.0, 5.68, 0.00, 7.74, 13.42
212, 1.055, 2017/11/15 11:58:59.019上午, 194.0, 6.19, 0.00, 8.00, 14.19
213, 1.06, 2017/11/15 11:58:59.024上午, 177.0, 4.90, 0.00, 7.74, 12.65
214, 1.065, 2017/11/15 11:58:59.029上午, 177.0, 4.90, 0.00, 7.48, 12.39
215, 1.07, 2017/11/15 11:58:59.034上午, 202.0, 6.97, 0.00, 7.48, 14.45
216, 1.075, 2017/11/15 11:58:59.039上午, 185.0, 5.42, 0.00, 7.48, 12.90
217, 1.08, 2017/11/15 11:58:59.044上午, 173.0, 4.90, 0.00, 7.23, 12.13
218, 1.085, 2017/11/15 11:58:59.049上午, 179.0, 5.68, 0.00, 7.23, 12.90
219, 1.09, 2017/11/15 11:58:59.054上午, 189.0, 5.68, 0.00, 7.74, 13.42
220, 1.095, 2017/11/15 11:58:59.059上午, 187.0, 5.94, 0.00, 7.48, 13.42
221, 1.1, 2017/11/15 11:58:59.064上午, 190.0, 6.19, 0.00, 7.23, 13.42
222, 1.105, 2017/11/15 11:58:59.069上午, 198.0, 6.45, 0.00, 8.00, 14.45
223, 1.11, 2017/11/15 11:58:59.074上午, 184.0, 5.94, 0.00, 7.23, 13.16
224, 1.115, 2017/11/15 11:58:59.079上午, 180.0, 5.42, 0.00, 7.23, 12.65
225, 1.12, 2017/11/15 11:58:59.084上午, 191.0, 6.45, 0.00, 7.48, 13.94
226, 1.125, 2017/11/15 11:58:59.089上午, 180.0, 5.42, 0.00, 6.97, 12.39
227, 1.13, 2017/11/15 11:58:59.094上午, 171.0, 4.90, 0.00, 7.23, 12.13
228, 1.135, 2017/11/15 11:58:59.099上午, 207.0, 6.97, 0.00, 7.74, 14.71
229, 1.14, 2017/11/15 11:58:59.104上午, 172.0, 4.13, 0.00, 7.74, 11.87
230, 1.145, 2017/11/15 11:58:59.109上午, 179.0, 5.68, 0.00, 7.48, 13.16
231, 1.15, 2017/11/15 11:58:59.114上午, 179.0, 4.90, 0.00, 7.74, 12.65
232, 1.155, 2017/11/15 11:58:59.119上午, 167.0, 4.39, 0.00, 7.23, 11.61
233, 1.16, 2017/11/15 11:58:59.124上午, 199.0, 6.19, 0.00, 8.00, 14.19
234, 1.165, 2017/11/15 11:58:59.129上午, 184.0, 5.94, 0.00, 7.23, 13.16
235, 1.17, 2017/11/15 11:58:59.134上午, 180.0, 4.90, 0.00, 8.00, 12.90
236, 1.175, 2017/11/15 11:58:59.139上午, 184.0, 5.42, 0.00, 7.74, 13.16
237, 1.18, 2017/11/15 11:58:59.144上午, 159.0, 4.39, 0.00, 6.45, 10.84
238, 1.185, 2017/11/15 11:58:59.149上午, 199.0, 5.94, 0.00, 8.26, 14.19
239, 1.19, 2017/11/15 11:58:59.154上午, 188.0, 5.68, 0.00, 8.00, 13.68
240, 1.195, 2017/11/15 11:58:59.159上午, 182.0, 5.16, 0.00, 7.74, 12.90
241, 1.2, 2017/11/15 11:58:59.164上午, 184.0, 5.42, 0.00, 7.48, 12.90
242, 1.205, 2017/11/15 11:58:59.169上午, 186.0, 4.90, 0.00, 8.26, 13.16
243, 1.21, 2017/11/15 11:58:59.174上午, 188.0, 6.19, 0.00, 7.48, 13.68
244, 1.215, 2017/11/15 11:58:59.179上午, 181.0, 5.16, 0.00, 7.74, 12.90
245, 1.22, 2017/11/15 11:58:59.184上午, 180.0, 5.16, 0.00, 7.48, 12.65
246, 1.225, 2017/11/15 11:58:59.189上午, 174.0, 4.90, 0.00, 7.48, 12.39
247, 1.23, 2017/11/15 11:58:59.194上午, 191.0, 5.68, 0.00, 7.74, 13.42
248, 1.235, 2017/11/15 11:58:59.199上午, 200.0, 6.71, 0.00, 7.48, 14.19
249, 1.24, 2017/11/15 11:58:59.204上午, 175.0, 4.90, 0.00, 7.48, 12.39
250, 1.245, 2017/11/15 11:58:59.209上午, 184.0, 4.90, 0.00, 7.74, 12.65
251, 1.25, 2017/11/15 11:58:59.214上午, 195.0, 6.19, 0.00, 7.48, 13.68
252, 1.255, 2017/11/15 11:58:59.219上午, 206.0, 6.19, 0.00, 8.77, 14.97
253, 1.26, 2017/11/15 11:58:59.224上午, 188.0, 5.42, 0.00, 7.74, 13.16
254, 1.265, 2017/11/15 11:58:59.229上午, 193.0, 5.94, 0.00, 7.48, 13.42
255, 1.27, 2017/11/15 11:58:59.234上午, 208.0, 6.71, 0.00, 8.26, 14.97
256, 1.275, 2017/11/15 11:58:59.239上午, 178.0, 5.42, 0.00, 6.97, 12.39
257, 1.28, 2017/11/15 11:58:59.244上午, 196.0, 5.42, 0.00, 8.52, 13.94
258, 1.285, 2017/11/15 11:58:59.249上午, 185.0, 5.94, 0.00, 7.48, 13.42
259, 1.29, 2017/11/15 11:58:59.254上午, 182.0, 5.16, 0.00, 7.74, 12.90
260, 1.295, 2017/11/15 11:58:59.259上午, 191.0, 5.94, 0.00, 7.48, 13.42
261, 1.3, 2017/11/15 11:58:59.264上午, 190.0, 5.42, 0.00, 8.52, 13.94
262, 1.305, 2017/11/15 11:58:59.269上午, 176.0, 5.16, 0.00, 7.23, 12.39
263, 1.31, 2017/11/15 11:58:59.274上午, 192.0, 5.68, 0.00, 8.00, 13.68
264, 1.315, 2017/11/15 11:58:59.279上午, 185.0, 4.65, 0.00, 8.77, 13.42
265, 1.32, 2017/11/15 11:58:59.284上午, 197.0, 6.45, 0.00, 7.74, 14.19
266, 1.325, 2017/11/15 11:58:59.289上午, 182.0, 5.42, 0.00, 7.23, 12.65
267, 1.33, 2017/11/15 11:58:59.294上午, 184.0, 5.16, 0.00, 7.74, 12.90
268, 1.335, 2017/11/15 11:58:59.299上午, 195.0, 6.71, 0.00, 7.48, 14.19
269, 1.34, 2017/11/15 11:58:59.304上午, 183.0, 5.16, 0.00, 7.74, 12.90
270, 1.345, 2017/11/15 11:58:59.309上午, 191.0, 5.68, 0.00, 8.00, 13.68
271, 1.35, 2017/11/15 11:58:59.314上午, 183.0, 4.90, 0.00, 7.74, 12.65
272, 1.355, 2017/11/15 11:58:59.319上午, 175.0, 5.16, 0.00, 7.23, 12.39
273, 1.36, 2017/11/15 11:58:59.324上午, 182.0, 5.68, 0.00, 7.48, 13.16
274, 1.365, 2017/11/15 11:58:59.329上午, 175.0, 4.90, 0.00, 6.97, 11.87
275, 1.37, 2017/11/15 11:58:59.334上午, 196.0, 5.68, 0.00, 8.26, 13.94
276, 1.375, 2017/11/15 11:58:59.339上午, 175.0, 4.65, 0.00, 7.74, 12.39
277, 1.38, 2017/11/15 11:58:59.344上午, 177.0, 5.16, 0.00, 7.23, 12.39
278, 1.385, 2017/11/15 11:58:59.349上午, 183.0, 5.16, 0.00, 7.74, 12.90
279, 1.39, 2017/11/15 11:58:59.354上午, 180.0, 5.42, 0.00, 7.48, 12.90
280, 1.395, 2017/11/15 11:58:59.359上午, 179.0, 4.90, 0.00, 7.74, 12.65
281, 1.4, 2017/11/15 11:58:59.364上午, 181.0, 4.65, 0.00, 8.00, 12.65
282, 1.405, 2017/11/15 11:58:59.369上午, 185.0, 5.16, 0.00, 8.00, 13.16
283, 1.41, 2017/11/15 11:58:59.374上午, 161.0, 4.90, 0.00, 6.45, 11.35
284, 1.415, 2017/11/15 11:58:59.379上午, 179.0, 4.90, 0.00, 7.74, 12.65
285, 1.42, 2017/11/15 11:58:59.384上午, 189.0, 5.94, 0.00, 7.48, 13.42
286, 1.425, 2017/11/15 11:58:59.389上午, 186.0, 5.68, 0.00, 8.00, 13.68
287, 1.43, 2017/11/15 11:58:59.394上午, 172.0, 5.16, 0.00, 6.71, 11.87
288, 1.435, 2017/11/15 11:58:59.399上午, 183.0, 4.90, 0.00, 8.26, 13.16
289, 1.44, 2017/11/15 11:58:59.404上午, 183.0, 4.90, 0.00, 7.74, 12.65
290, 1.445, 2017/11/15 11:58:59.409上午, 185.0, 5.16, 0.00, 8.00, 13.16
291, 1.45, 2017/11/15 11:58:59.414上午, 176.0, 4.90, 0.00, 8.00, 12.90
292, 1.455, 2017/11/15 11:58:59.419上午, 181.0, 5.42, 0.00, 7.23, 12.65
293, 1.46, 2017/11/15 11:58:59.424上午, 182.0, 4.65, 0.00, 8.52, 13.16
294, 1.465, 2017/11/15 11:58:59.429上午, 185.0, 4.90, 0.00, 8.26, 13.16
295, 1.47, 2017/11/15 11:58:59.434上午, 178.0, 4.65, 0.00, 8.00, 12.65
296, 1.475, 2017/11/15 11:58:59.439上午, 173.0, 4.65, 0.00, 8.00, 12.65
297, 1.48, 2017/11/15 11:58:59.444上午, 176.0, 4.65, 0.00, 7.74, 12.39
298, 1.485, 2017/11/15 11:58:59.449上午, 177.0, 4.39, 0.00, 7.74, 12.13
299, 1.49, 2017/11/15 11:58:59.454上午, 175.0, 5.16, 0.00, 7.48, 12.65
300, 1.495, 2017/11/15 11:58:59.459上午, 196.0, 6.45, 0.00, 8.00, 14.45
301, 1.5, 2017/11/15 11:58:59.464上午, 182.0, 4.90, 0.00, 7.48, 12.39
302, 1.505, 2017/11/15 11:58:59.469上午, 193.0, 5.16, 0.00, 8.52, 13.68
303, 1.51, 2017/11/15 11:58:59.474上午, 186.0, 5.94, 0.00, 7.48, 13.42
304, 1.515, 2017/11/15 11:58:59.479上午, 180.0, 4.90, 0.00, 7.48, 12.39
305, 1.52, 2017/11/15 11:58:59.484上午, 199.0, 5.94, 0.00, 8.26, 14.19
306, 1.525, 2017/11/15 11:58:59.489上午, 173.0, 5.16, 0.00, 7.48, 12.65
307, 1.53, 2017/11/15 11:58:59.494上午, 180.0, 5.16, 0.00, 7.74, 12.90
308, 1.535, 2017/11/15 11:58:59.499上午, 156.0, 3.87, 0.00, 6.97, 10.84
309, 1.54, 2017/11/15 11:58:59.504上午, 183.0, 4.90, 0.00, 8.00, 12.90
310, 1.545, 2017/11/15 11:58:59.509上午, 184.0, 4.90, 0.00, 8.26, 13.16
311, 1.55, 2017/11/15 11:58:59.514上午, 200.0, 6.45, 0.00, 8.00, 14.45
312, 1.555, 2017/11/15 11:58:59.519上午, 183.0, 5.16, 0.00, 7.48, 12.65
313, 1.56, 2017/11/15 11:58:59.524上午, 167.0, 4.39, 0.00, 7.74, 12.13
314, 1.565, 2017/11/15 11:58:59.529上午, 186.0, 5.68, 0.00, 7.74, 13.42
315, 1.57, 2017/11/15 11:58:59.534上午, 166.0, 4.65, 0.00, 7.23, 11.87
316, 1.575, 2017/11/15 11:58:59.539上午, 193.0, 6.19, 0.00, 7.74, 13.94
317, 1.58, 2017/11/15 11:58:59.544上午, 187.0, 5.42, 0.00, 7.74, 13.16
318, 1.585, 2017/11/15 11:58:59.549上午, 191.0, 5.68, 0.00, 7.74, 13.42
319, 1.59, 2017/11/15 11:58:59.554上午, 178.0, 5.42, 0.00, 7.48, 12.90
320, 1.595, 2017/11/15 11:58:59.559上午, 179.0, 4.90, 0.00, 7.74, 12.65
321, 1.6, 2017/11/15 11:58:59.564上午, 178.0, 5.42, 0.00, 6.97, 12.39
322, 1.605, 2017/11/15 11:58:59.569上午, 164.0, 4.39, 0.00, 7.48, 11.87
323, 1.61, 2017/11/15 11:58:59.574上午, 191.0, 5.94, 0.00, 7.74, 13.68
324, 1.615, 2017/11/15 11:58:59.579上午, 177.0, 4.39, 0.00, 7.74, 12.13
325, 1.62, 2017/11/15 11:58:59.584上午, 190.0, 5.68, 0.00, 7.74, 13.42
326, 1.625, 2017/11/15 11:58:59.589上午, 168.0, 3.87, 0.00, 8.00, 11.87
327, 1.63, 2017/11/15 11:58:59.594上午, 185.0, 5.16, 0.00, 7.74, 12.90
328, 1.635, 2017/11/15 11:58:59.599上午, 169.0, 4.65, 0.00, 7.48, 12.13
329, 1.64, 2017/11/15 11:58:59.604上午, 203.0, 6.97, 0.00, 7.74, 14.71
330, 1.645, 2017/11/15 11:58:59.609上午, 177.0, 4.90, 0.00, 7.23, 12.13
331, 1.65, 2017/11/15 11:58:59.614上午, 167.0, 4.65, 0.00, 7.23, 11.87
332, 1.655, 2017/11/15 11:58:59.619上午, 192.0, 6.45, 0.00, 7.48, 13.94
333, 1.66, 2017/11/15 11:58:59.624上午, 169.0, 4.13, 0.00, 7.74, 11.87
334, 1.665, 2017/11/15 11:58:59.629上午, 156.0, 3.87, 0.00, 7.23, 11.10
335, 1.67, 2017/11/15 11:58:59.634上午, 178.0, 4.90, 0.00, 7.74, 12.65
336, 1.675, 2017/11/15 11:58:59.639上午, 176.0, 4.13, 0.00, 8.26, 12.39
337, 1.68, 2017/11/15 11:58:59.644上午, 165.0, 4.39, 0.00, 7.48, 11.87
338, 1.685, 2017/11/15 11:58:59.649上午, 177.0, 4.90, 0.00, 8.00, 12.90
339, 1.69, 2017/11/15 11:58:59.654上午, 173.0, 4.90, 0.00, 6.97, 11.87
340, 1.695, 2017/11/15 11:58:59.659上午, 195.0, 5.42, 0.00, 8.26, 13.68
341, 1.7, 2017/11/15 11:58:59.664上午, 181.0, 4.65, 0.00, 8.52, 13.16
342, 1.705, 2017/11/15 11:58:59.669上午, 187.0, 6.19, 0.00, 7.48, 13.68
343, 1.71, 2017/11/15 11:58:59.674上午, 175.0, 4.39, 0.00, 8.00, 12.39
344, 1.715, 2017/11/15 11:58:59.679上午, 186.0, 5.16, 0.00, 8.00, 13.16
345, 1.72, 2017/11/15 11:58:59.684上午, 179.0, 4.65, 0.00, 8.26, 12.90
346, 1.725, 2017/11/15 11:58:59.689上午, 179.0, 5.16, 0.00, 7.74, 12.90
347, 1.73, 2017/11/15 11:58:59.694上午, 200.0, 6.71, 0.00, 7.74, 14.45
348, 1.735, 2017/11/15 11:58:59.699上午, 174.0, 4.39, 0.00, 7.74, 12.13
349, 1.74, 2017/11/15 11:58:59.704上午, 174.0, 4.13, 0.00, 8.00, 12.13
350, 1.745, 2017/11/15 11:58:59.709上午, 179.0, 4.65, 0.00, 8.26, 12.90
351, 1.75, 2017/11/15 11:58:59.714上午, 178.0, 4.90, 0.00, 7.74, 12.65
352, 1.755, 2017/11/15 11:58:59.719上午, 183.0, 4.65, 0.00, 8.26, 12.90
353, 1.76, 2017/11/15 11:58:59.724上午, 163.0, 4.13, 0.00, 7.23, 11.35
354, 1.765, 2017/11/15 11:58:59.729上午, 187.0, 5.42, 0.00, 7.74, 13.16
355, 1.77, 2017/11/15 11:58:59.734上午, 163.0, 4.39, 0.00, 6.97, 11.35
356, 1.775, 2017/11/15 11:58:59.739上午, 179.0, 4.65, 0.00, 8.26, 12.90
357, 1.78, 2017/11/15 11:58:59.744上午, 194.0, 6.71, 0.00, 7.74, 14.45
358, 1.785, 2017/11/15 11:58:59.749上午, 181.0, 4.90, 0.00, 7.74, 12.65
359, 1.79, 2017/11/15 11:58:59.754上午, 179.0, 5.42, 0.00, 6.97, 12.39
360, 1.795, 2017/11/15 11:58:59.759上午, 178.0, 4.65, 0.00, 8.00, 12.65
361, 1.8, 2017/11/15 11:58:59.764上午, 192.0, 6.19, 0.00, 7.74, 13.94
362, 1.805, 2017/11/15 11:58:59.769上午, 191.0, 5.68, 0.00, 8.26, 13.94
363, 1.81, 2017/11/15 11:58:59.774上午, 173.0, 4.90, 0.00, 7.23, 12.13
364, 1.815, 2017/11/15 11:58:59.779上午, 185.0, 5.16, 0.00, 7.74, 12.90
365, 1.82, 2017/11/15 11:58:59.784上午, 166.0, 4.13, 0.00, 7.23, 11.35
366, 1.825, 2017/11/15 11:58:59.789上午, 182.0, 5.16, 0.00, 8.26, 13.42
367, 1.83, 2017/11/15 11:58:59.794上午, 180.0, 5.16, 0.00, 7.48, 12.65
368, 1.835, 2017/11/15 11:58:59.799上午, 186.0, 5.16, 0.00, 8.00, 13.16
369, 1.84, 2017/11/15 11:58:59.804上午, 185.0, 5.94, 0.00, 7.48, 13.42
370, 1.845, 2017/11/15 11:58:59.809上午, 183.0, 4.90, 0.00, 8.00, 12.90
371, 1.85, 2017/11/15 11:58:59.814上午, 194.0, 5.94, 0.00, 7.74, 13.68
372, 1.855, 2017/11/15 11:58:59.819上午, 197.0, 6.19, 0.00, 8.26, 14.45
373, 1.86, 2017/11/15 11:58:59.824上午, 183.0, 5.42, 0.00, 7.74, 13.16
374, 1.865, 2017/11/15 11:58:59.829上午, 176.0, 4.65, 0.00, 7.74, 12.39
375, 1.87, 2017/11/15 11:58:59.834上午, 162.0, 4.39, 0.00, 7.23, 11.61
376, 1.875, 2017/11/15 11:58:59.839上午, 173.0, 5.16, 0.00, 7.48, 12.65
377, 1.88, 2017/11/15 11:58:59.844上午, 172.0, 4.90, 0.00, 7.48, 12.39
378, 1.885, 2017/11/15 11:58:59.849上午, 185.0, 4.90, 0.00, 8.00, 12.90
379, 1.89, 2017/11/15 11:58:59.854上午, 179.0, 5.16, 0.00, 7.48, 12.65
380, 1.895, 2017/11/15 11:58:59.859上午, 182.0, 5.16, 0.00, 8.26, 13.42
381, 1.9, 2017/11/15 11:58:59.864上午, 174.0, 4.90, 0.00, 7.23, 12.13
382, 1.905, 2017/11/15 11:58:59.869上午, 190.0, 5.16, 0.00, 8.52, 13.68
383, 1.91, 2017/11/15 11:58:59.874上午, 177.0, 4.90, 0.00, 8.26, 13.16
384, 1.915, 2017/11/15 11:58:59.879上午, 172.0, 4.65, 0.00, 7.74, 12.39
385, 1.92, 2017/11/15 11:58:59.884上午, 178.0, 4.39, 0.00, 7.74, 12.13
386, 1.925, 2017/11/15 11:58:59.889上午, 173.0, 4.65, 0.00, 7.48, 12.13
387, 1.93, 2017/11/15 11:58:59.894上午, 189.0, 5.42, 0.00, 8.00, 13.42
388, 1.935, 2017/11/15 11:58:59.899上午, 180.0, 4.90, 0.00, 7.74, 12.65
389, 1.94, 2017/11/15 11:58:59.904上午, 172.0, 4.13, 0.00, 8.00, 12.13
390, 1.945, 2017/11/15 11:58:59.909上午, 181.0, 5.16, 0.00, 7.74, 12.90
391, 1.95, 2017/11/15 11:58:59.914上午, 186.0, 4.90, 0.00, 8.26, 13.16
392, 1.955, 2017/11/15 11:58:59.919上午, 186.0, 6.19, 0.00, 7.23, 13.42
393, 1.96, 2017/11/15 11:58:59.924上午, 176.0, 4.90, 0.00, 7.23, 12.13
394, 1.965, 2017/11/15 11:58:59.929上午, 184.0, 4.90, 0.00, 7.74, 12.65
395, 1.97, 2017/11/15 11:58:59.934上午, 179.0, 5.16, 0.00, 7.74, 12.90
396, 1.975, 2017/11/15 11:58:59.939上午, 181.0, 5.16, 0.00, 7.74, 12.90
397, 1.98, 2017/11/15 11:58:59.944上午, 173.0, 4.39, 0.00, 7.74, 12.13
398, 1.985, 2017/11/15 11:58:59.949上午, 194.0, 5.68, 0.00, 8.26, 13.94
399, 1.99, 2017/11/15 11:58:59.954上午, 188.0, 4.90, 0.00, 8.77, 13.68
400, 1.995, 2017/11/15 11:58:59.959上午, 179.0, 5.16, 0.00, 7.74, 12.90
401, 2, 2017/11/15 11:58:59.964上午, 180.0, 4.39, 0.00, 8.00, 12.39
402, 2.005, 2017/11/15 11:58:59.969上午, 179.0, 4.65, 0.00, 8.26, 12.90
403, 2.01, 2017/11/15 11:58:59.974上午, 181.0, 5.16, 0.00, 8.26, 13.42
404, 2.015, 2017/11/15 11:58:59.979上午, 165.0, 4.13, 0.00, 7.48, 11.61
405, 2.02, 2017/11/15 11:58:59.984上午, 188.0, 5.16, 0.00, 8.00, 13.16
406, 2.025, 2017/11/15 11:58:59.989上午, 169.0, 4.65, 0.00, 7.23, 11.87
407, 2.03, 2017/11/15 11:58:59.994上午, 190.0, 5.68, 0.00, 8.26, 13.94
408, 2.035, 2017/11/15 11:58:59.999上午, 185.0, 5.42, 0.00, 7.48, 12.90
409, 2.04, 2017/11/15 11:59:00.004上午, 179.0, 4.65, 0.00, 8.26, 12.90
410, 2.045, 2017/11/15 11:59:00.009上午, 187.0, 5.16, 0.00, 8.52, 13.68
411, 2.05, 2017/11/15 11:59:00.014上午, 173.0, 4.39, 0.00, 7.74, 12.13
412, 2.055, 2017/11/15 11:59:00.019上午, 186.0, 5.16, 0.00, 8.00, 13.16
413, 2.06, 2017/11/15 11:59:00.024上午, 188.0, 5.16, 0.00, 8.52, 13.68
414, 2.065, 2017/11/15 11:59:00.029上午, 179.0, 4.90, 0.00, 7.74, 12.65
415, 2.07, 2017/11/15 11:59:00.034上午, 188.0, 5.42, 0.00, 7.74, 13.16
416, 2.075, 2017/11/15 11:59:00.039上午, 183.0, 4.90, 0.00, 8.52, 13.42
417, 2.08, 2017/11/15 11:59:00.044上午, 172.0, 4.39, 0.00, 8.00, 12.39
418, 2.085, 2017/11/15 11:59:00.049上午, 180.0, 5.16, 0.00, 7.74, 12.90
419, 2.09, 2017/11/15 11:59:00.054上午, 167.0, 4.13, 0.00, 7.74, 11.87
420, 2.095, 2017/11/15 11:59:00.059上午, 170.0, 5.16, 0.00, 7.23, 12.39
421, 2.1, 2017/11/15 11:59:00.064上午, 186.0, 5.68, 0.00, 8.26, 13.94
422, 2.105, 2017/11/15 11:59:00.069上午, 175.0, 4.39, 0.00, 7.74, 12.13
423, 2.11, 2017/11/15 11:59:00.074上午, 179.0, 4.65, 0.00, 8.52, 13.16
424, 2.115, 2017/11/15 11:59:00.079上午, 163.0, 4.90, 0.00, 6.97, 11.87
425, 2.12, 2017/11/15 11:59:00.084上午, 179.0, 4.90, 0.00, 8.26, 13.16
426, 2.125, 2017/11/15 11:59:00.089上午, 175.0, 4.39, 0.00, 8.00, 12.39
427, 2.13, 2017/11/15 11:59:00.094上午, 164.0, 4.13, 0.00, 7.74, 11.87
428, 2.135, 2017/11/15 11:59:00.099上午, 167.0, 4.65, 0.00, 7.74, 12.39
429, 2.14, 2017/11/15 11:59:00.104上午, 181.0, 4.90, 0.00, 7.74, 12.65
430, 2.145, 2017/11/15 11:59:00.109上午, 168.0, 4.13, 0.00, 8.00, 12.13
431, 2.15, 2017/11/15 11:59:00.114上午, 179.0, 4.90, 0.00, 8.00, 12.90
432, 2.155, 2017/11/15 11:59:00.119上午, 165.0, 4.39, 0.00, 7.23, 11.61
433, 2.16, 2017/11/15 11:59:00.124上午, 176.0, 4.39, 0.00, 8.26, 12.65
434, 2.165, 2017/11/15 11:59:00.129上午, 177.0, 4.90, 0.00, 7.74, 12.65
435, 2.17, 2017/11/15 11:59:00.134上午, 177.0, 4.39, 0.00, 8.00, 12.39
436, 2.175, 2017/11/15 11:59:00.139上午, 175.0, 4.39, 0.00, 8.26, 12.65
437, 2.18, 2017/11/15 11:59:00.144上午, 187.0, 5.42, 0.00, 8.26, 13.68
438, 2.185, 2017/11/15 11:59:00.149上午, 176.0, 4.39, 0.00, 8.00, 12.39
439, 2.19, 2017/11/15 11:59:00.154上午, 177.0, 4.39, 0.00, 8.26, 12.65
440, 2.195, 2017/11/15 11:59:00.159上午, 182.0, 4.90, 0.00, 8.52, 13.42
441, 2.2, 2017/11/15 11:59:00.164上午, 177.0, 4.90, 0.00, 7.74, 12.65
442, 2.205, 2017/11/15 11:59:00.169上午, 191.0, 5.42, 0.00, 8.00, 13.42
443, 2.21, 2017/11/15 11:59:00.174上午, 182.0, 4.13, 0.00, 8.77, 12.90
444, 2.215, 2017/11/15 11:59:00.179上午, 185.0, 5.68, 0.00, 8.00, 13.68
445, 2.22, 2017/11/15 11:59:00.184上午, 179.0, 4.90, 0.00, 7.74, 12.65
446, 2.225, 2017/11/15 11:59:00.189上午, 197.0, 5.68, 0.00, 8.52, 14.19
447, 2.23, 2017/11/15 11:59:00.194上午, 181.0, 4.39, 0.00, 8.77, 13.16
448, 2.235, 2017/11/15 11:59:00.199上午, 172.0, 4.39, 0.00, 8.00, 12.39
449, 2.24, 2017/11/15 11:59:00.204上午, 182.0, 4.90, 0.00, 8.00, 12.90
450, 2.245, 2017/11/15 11:59:00.209上午, 175.0, 4.13, 0.00, 8.52, 12.65
451, 2.25, 2017/11/15 11:59:00.214上午, 170.0, 3.87, 0.00, 8.00, 11.87
452, 2.255, 2017/11/15 11:59:00.219上午, 183.0, 4.39, 0.00, 8.26, 12.65
453, 2.26, 2017/11/15 11:59:00.224上午, 181.0, 4.39, 0.00, 8.52, 12.90
454, 2.265, 2017/11/15 11:59:00.229上午, 177.0, 4.90, 0.00, 7.74, 12.65
455, 2.27, 2017/11/15 11:59:00.234上午, 164.0, 3.61, 0.00, 8.00, 11.61
456, 2.275, 2017/11/15 11:59:00.239上午, 183.0, 4.39, 0.00, 8.77, 13.16
457, 2.28, 2017/11/15 11:59:00.244上午, 181.0, 4.90, 0.00, 8.26, 13.16
458, 2.285, 2017/11/15 11:59:00.249上午, 172.0, 4.39, 0.00, 8.00, 12.39
459, 2.29, 2017/11/15 11:59:00.254上午, 176.0, 4.39, 0.00, 8.26, 12.65
460, 2.295, 2017/11/15 11:59:00.259上午, 176.0, 4.13, 0.00, 8.52, 12.65
461, 2.3, 2017/11/15 11:59:00.264上午, 175.0, 4.65, 0.00, 8.26, 12.90
462, 2.305, 2017/11/15 11:59:00.269上午, 172.0, 4.39, 0.00, 7.74, 12.13
463, 2.31, 2017/11/15 11:59:00.274上午, 175.0, 4.39, 0.00, 8.00, 12.39
464, 2.315, 2017/11/15 11:59:00.279上午, 171.0, 4.13, 0.00, 8.26, 12.39
465, 2.32, 2017/11/15 11:59:00.284上午, 178.0, 4.90, 0.00, 8.00, 12.90
466, 2.325, 2017/11/15 11:59:00.289上午, 174.0, 4.39, 0.00, 7.74, 12.13
467, 2.33, 2017/11/15 11:59:00.294上午, 177.0, 4.90, 0.00, 8.00, 12.90
468, 2.335, 2017/11/15 11:59:00.299上午, 190.0, 5.42, 0.00, 8.52, 13.94
469, 2.34, 2017/11/15 11:59:00.304上午, 179.0, 3.87, 0.00, 8.52, 12.39
470, 2.345, 2017/11/15 11:59:00.309上午, 173.0, 4.13, 0.00, 8.26, 12.39
471, 2.35, 2017/11/15 11:59:00.314上午, 172.0, 4.39, 0.00, 8.00, 12.39
472, 2.355, 2017/11/15 11:59:00.319上午, 171.0, 3.61, 0.00, 8.26, 11.87
473, 2.36, 2017/11/15 11:59:00.324上午, 179.0, 4.65, 0.00, 8.26, 12.90
474, 2.365, 2017/11/15 11:59:00.329上午, 176.0, 4.90, 0.00, 7.74, 12.65
475, 2.37, 2017/11/15 11:59:00.334上午, 183.0, 4.39, 0.00, 8.52, 12.90
476, 2.375, 2017/11/15 11:59:00.339上午, 180.0, 4.13, 0.00, 8.52, 12.65
477, 2.38, 2017/11/15 11:59:00.344上午, 169.0, 4.13, 0.00, 8.26, 12.39
478, 2.385, 2017/11/15 11:59:00.349上午, 183.0, 4.90, 0.00, 8.26, 13.16
479, 2.39, 2017/11/15 11:59:00.354上午, 191.0, 5.16, 0.00, 8.52, 13.68
480, 2.395, 2017/11/15 11:59:00.359上午, 185.0, 4.90, 0.00, 8.26, 13.16
481, 2.4, 2017/11/15 11:59:00.364上午, 179.0, 4.90, 0.00, 8.26, 13.16
482, 2.405, 2017/11/15 11:59:00.369上午, 169.0, 3.61, 0.00, 8.00, 11.61
483, 2.41, 2017/11/15 11:59:00.374上午, 171.0, 3.10, 0.00, 8.77, 11.87
484, 2.415, 2017/11/15 11:59:00.379上午, 193.0, 5.68, 0.00, 8.52, 14.19
485, 2.42, 2017/11/15 11:59:00.384上午, 184.0, 4.90, 0.00, 8.26, 13.16
486, 2.425, 2017/11/15 11:59:00.389上午, 181.0, 4.39, 0.00, 8.26, 12.65
487, 2.43, 2017/11/15 11:59:00.394上午, 169.0, 3.61, 0.00, 8.52, 12.13
488, 2.435, 2017/11/15 11:59:00.399上午, 170.0, 4.13, 0.00, 8.26, 12.39
489, 2.44, 2017/11/15 11:59:00.404上午, 171.0, 3.61, 0.00, 8.26, 11.87
490, 2.445, 2017/11/15 11:59:00.409上午, 168.0, 3.61, 0.00, 8.52, 12.13
491, 2.45, 2017/11/15 11:59:00.414上午, 172.0, 4.39, 0.00, 7.74, 12.13
492, 2.455, 2017/11/15 11:59:00.419上午, 179.0, 4.39, 0.00, 8.26, 12.65
493, 2.46, 2017/11/15 11:59:00.424上午, 167.0, 3.61, 0.00, 8.52, 12.13
494, 2.465, 2017/11/15 11:59:00.429上午, 179.0, 4.90, 0.00, 8.00, 12.90
495, 2.47, 2017/11/15 11:59:00.434上午, 177.0, 4.39, 0.00, 8.00, 12.39
496, 2.475, 2017/11/15 11:59:00.439上午, 185.0, 4.39, 0.00, 8.77, 13.16
497, 2.48, 2017/11/15 11:59:00.444上午, 177.0, 4.65, 0.00, 8.00, 12.65
498, 2.485, 2017/11/15 11:59:00.449上午, 171.0, 4.39, 0.00, 7.48, 11.87
499, 2.49, 2017/11/15 11:59:00.454上午, 176.0, 4.39, 0.00, 8.26, 12.65
500, 2.495, 2017/11/15 11:59:00.459上午, 181.0, 4.13, 0.00, 9.03, 13.16
501, 2.5, 2017/11/15 11:59:00.464上午, 199.0, 6.19, 0.00, 8.52, 14.71
502, 2.505, 2017/11/15 11:59:00.469上午, 181.0, 4.90, 0.00, 8.00, 12.90
503, 2.51, 2017/11/15 11:59:00.474上午, 185.0, 4.90, 0.00, 8.26, 13.16
504, 2.515, 2017/11/15 11:59:00.479上午, 175.0, 3.87, 0.00, 8.77, 12.65
505, 2.52, 2017/11/15 11:59:00.484上午, 177.0, 5.16, 0.00, 7.74, 12.90
506, 2.525, 2017/11/15 11:59:00.489上午, 176.0, 4.39, 0.00, 8.00, 12.39
507, 2.53, 2017/11/15 11:59:00.494上午, 172.0, 4.39, 0.00, 8.26, 12.65
508, 2.535, 2017/11/15 11:59:00.499上午, 201.0, 6.19, 0.00, 8.26, 14.45
509, 2.54, 2017/11/15 11:59:00.504上午, 171.0, 3.61, 0.00, 8.26, 11.87
510, 2.545, 2017/11/15 11:59:00.509上午, 169.0, 3.35, 0.00, 8.77, 12.13
511, 2.55, 2017/11/15 11:59:00.514上午, 173.0, 4.39, 0.00, 8.26, 12.65
512, 2.555, 2017/11/15 11:59:00.519上午, 183.0, 4.65, 0.00, 8.26, 12.90
513, 2.56, 2017/11/15 11:59:00.524上午, 162.0, 3.35, 0.00, 8.26, 11.61
514, 2.565, 2017/11/15 11:59:00.529上午, 192.0, 5.68, 0.00, 8.26, 13.94
515, 2.57, 2017/11/15 11:59:00.534上午, 189.0, 5.16, 0.00, 8.52, 13.68
516, 2.575, 2017/11/15 11:59:00.539上午, 162.0, 3.10, 0.00, 8.52, 11.61
517, 2.58, 2017/11/15 11:59:00.544上午, 175.0, 4.13, 0.00, 8.52, 12.65
518, 2.585, 2017/11/15 11:59:00.549上午, 176.0, 4.39, 0.00, 8.00, 12.39
519, 2.59, 2017/11/15 11:59:00.554上午, 184.0, 4.39, 0.00, 8.52, 12.90
520, 2.595, 2017/11/15 11:59:00.559上午, 171.0, 3.61, 0.00, 8.77, 12.39
521, 2.6, 2017/11/15 11:59:00.564上午, 176.0, 4.13, 0.00, 8.52, 12.65
522, 2.605, 2017/11/15 11:59:00.569上午, 171.0, 4.39, 0.00, 7.74, 12.13
523, 2.61, 2017/11/15 11:59:00.574上午, 174.0, 4.39, 0.00, 8.00, 12.39
524, 2.615, 2017/11/15 11:59:00.579上午, 160.0, 3.61, 0.00, 8.00, 11.61
525, 2.62, 2017/11/15 11:59:00.584上午, 185.0, 5.42, 0.00, 7.74, 13.16
526, 2.625, 2017/11/15 11:59:00.589上午, 180.0, 4.39, 0.00, 8.26, 12.65
527, 2.63, 2017/11/15 11:59:00.594上午, 185.0, 4.65, 0.00, 8.77, 13.42
528, 2.635, 2017/11/15 11:59:00.599上午, 184.0, 4.90, 0.00, 8.26, 13.16
529, 2.64, 2017/11/15 11:59:00.604上午, 180.0, 4.39, 0.00, 8.26, 12.65
530, 2.645, 2017/11/15 11:59:00.609上午, 188.0, 5.42, 0.00, 8.52, 13.94
531, 2.65, 2017/11/15 11:59:00.614上午, 179.0, 4.90, 0.00, 7.74, 12.65
532, 2.655, 2017/11/15 11:59:00.619上午, 169.0, 3.61, 0.00, 8.26, 11.87
533, 2.66, 2017/11/15 11:59:00.624上午, 161.0, 3.35, 0.00, 8.26, 11.61
534, 2.665, 2017/11/15 11:59:00.629上午, 187.0, 5.68, 0.00, 8.26, 13.94
535, 2.67, 2017/11/15 11:59:00.634上午, 177.0, 3.61, 0.00, 8.77, 12.39
536, 2.675, 2017/11/15 11:59:00.639上午, 159.0, 2.84, 0.00, 8.52, 11.35
537, 2.68, 2017/11/15 11:59:00.644上午, 194.0, 5.68, 0.00, 8.26, 13.94
538, 2.685, 2017/11/15 11:59:00.649上午, 184.0, 4.39, 0.00, 8.77, 13.16
539, 2.69, 2017/11/15 11:59:00.654上午, 160.0, 3.10, 0.00, 8.26, 11.35
540, 2.695, 2017/11/15 11:59:00.659上午, 173.0, 4.13, 0.00, 8.26, 12.39
541, 2.7, 2017/11/15 11:59:00.664上午, 180.0, 4.90, 0.00, 8.00, 12.90
542, 2.705, 2017/11/15 11:59:00.669上午, 183.0, 4.39, 0.00, 8.52, 12.90
543, 2.71, 2017/11/15 11:59:00.674上午, 172.0, 3.61, 0.00, 8.77, 12.39
544, 2.715, 2017/11/15 11:59:00.679上午, 169.0, 3.61, 0.00, 8.52, 12.13
545, 2.72, 2017/11/15 11:59:00.684上午, 176.0, 4.65, 0.00, 8.00, 12.65
546, 2.725, 2017/11/15 11:59:00.689上午, 172.0, 4.13, 0.00, 8.00, 12.13
547, 2.73, 2017/11/15 11:59:00.694上午, 181.0, 4.13, 0.00, 8.52, 12.65
548, 2.735, 2017/11/15 11:59:00.699上午, 189.0, 5.94, 0.00, 8.00, 13.94
549, 2.74, 2017/11/15 11:59:00.704上午, 169.0, 4.39, 0.00, 7.74, 12.13
550, 2.745, 2017/11/15 11:59:00.709上午, 172.0, 4.13, 0.00, 8.26, 12.39
551, 2.75, 2017/11/15 11:59:00.714上午, 175.0, 4.39, 0.00, 8.26, 12.65
552, 2.755, 2017/11/15 11:59:00.719上午, 174.0, 4.13, 0.00, 8.00, 12.13
553, 2.76, 2017/11/15 11:59:00.724上午, 177.0, 4.13, 0.00, 8.77, 12.90
554, 2.765, 2017/11/15 11:59:00.729上午, 182.0, 4.90, 0.00, 8.00, 12.90
555, 2.77, 2017/11/15 11:59:00.734上午, 183.0, 5.16, 0.00, 8.00, 13.16
556, 2.775, 2017/11/15 11:59:00.739上午, 159.0, 4.13, 0.00, 7.48, 11.61
557, 2.78, 2017/11/15 11:59:00.744上午, 166.0, 3.87, 0.00, 8.26, 12.13
558, 2.785, 2017/11/15 11:59:00.749上午, 172.0, 3.61, 0.00, 8.26, 11.87
559, 2.79, 2017/11/15 11:59:00.754上午, 178.0, 3.61, 0.00, 9.03, 12.65
560, 2.795, 2017/11/15 11:59:00.759上午, 195.0, 5.68, 0.00, 8.52, 14.19
561, 2.8, 2017/11/15 11:59:00.764上午, 173.0, 4.39, 0.00, 8.00, 12.39
562, 2.805, 2017/11/15 11:59:00.769上午, 185.0, 4.65, 0.00, 8.52, 13.16
563, 2.81, 2017/11/15 11:59:00.774上午, 180.0, 4.13, 0.00, 8.77, 12.90
564, 2.815, 2017/11/15 11:59:00.779上午, 180.0, 4.65, 0.00, 8.26, 12.90
565, 2.82, 2017/11/15 11:59:00.784上午, 170.0, 3.61, 0.00, 8.26, 11.87
566, 2.825, 2017/11/15 11:59:00.789上午, 160.0, 3.10, 0.00, 8.26, 11.35
567, 2.83, 2017/11/15 11:59:00.794上午, 171.0, 4.65, 0.00, 7.74, 12.39
568, 2.835, 2017/11/15 11:59:00.799上午, 179.0, 4.39, 0.00, 8.00, 12.39
569, 2.84, 2017/11/15 11:59:00.804上午, 172.0, 4.13, 0.00, 8.52, 12.65
570, 2.845, 2017/11/15 11:59:00.809上午, 182.0, 5.42, 0.00, 7.48, 12.90
571, 2.85, 2017/11/15 11:59:00.814上午, 162.0, 3.10, 0.00, 8.26, 11.35
572, 2.855, 2017/11/15 11:59:00.819上午, 187.0, 5.42, 0.00, 8.26, 13.68
573, 2.86, 2017/11/15 11:59:00.824上午, 163.0, 3.61, 0.00, 7.74, 11.35
574, 2.865, 2017/11/15 11:59:00.829上午, 153.0, 3.35, 0.00, 7.48, 10.84
575, 2.87, 2017/11/15 11:59:00.834上午, 184.0, 5.42, 0.00, 7.74, 13.16
576, 2.875, 2017/11/15 11:59:00.839上午, 177.0, 3.87, 0.00, 8.52, 12.39
577, 2.88, 2017/11/15 11:59:00.844上午, 174.0, 5.16, 0.00, 7.48, 12.65
578, 2.885, 2017/11/15 11:59:00.849上午, 178.0, 4.65, 0.00, 8.26, 12.90
579, 2.89, 2017/11/15 11:59:00.854上午, 183.0, 4.65, 0.00, 8.52, 13.16
580, 2.895, 2017/11/15 11:59:00.859上午, 170.0, 3.87, 0.00, 8.26, 12.13
581, 2.9, 2017/11/15 11:59:00.864上午, 193.0, 5.68, 0.00, 8.77, 14.45
582, 2.905, 2017/11/15 11:59:00.869上午, 175.0, 4.39, 0.00, 7.74, 12.13
583, 2.91, 2017/11/15 11:59:00.874上午, 169.0, 3.10, 0.00, 8.77, 11.87
584, 2.915, 2017/11/15 11:59:00.879上午, 173.0, 4.39, 0.00, 8.26, 12.65
585, 2.92, 2017/11/15 11:59:00.884上午, 179.0, 4.65, 0.00, 8.26, 12.90
586, 2.925, 2017/11/15 11:59:00.889上午, 177.0, 4.39, 0.00, 8.00, 12.39
587, 2.93, 2017/11/15 11:59:00.894上午, 167.0, 3.87, 0.00, 8.26, 12.13
588, 2.935, 2017/11/15 11:59:00.899上午, 187.0, 4.65, 0.00, 9.03, 13.68
589, 2.94, 2017/11/15 11:59:00.904上午, 178.0, 4.39, 0.00, 8.26, 12.65
590, 2.945, 2017/11/15 11:59:00.909上午, 187.0, 4.90, 0.00, 8.52, 13.42
591, 2.95, 2017/11/15 11:59:00.914上午, 172.0, 4.13, 0.00, 8.26, 12.39
592, 2.955, 2017/11/15 11:59:00.919上午, 164.0, 3.61, 0.00, 8.00, 11.61
593, 2.96, 2017/11/15 11:59:00.924上午, 188.0, 4.39, 0.00, 8.77, 13.16
594, 2.965, 2017/11/15 11:59:00.929上午, 192.0, 5.68, 0.00, 8.26, 13.94
595, 2.97, 2017/11/15 11:59:00.934上午, 173.0, 4.13, 0.00, 8.00, 12.13
596, 2.975, 2017/11/15 11:59:00.939上午, 167.0, 3.61, 0.00, 8.00, 11.61
597, 2.98, 2017/11/15 11:59:00.944上午, 172.0, 4.39, 0.00, 8.00, 12.39
598, 2.985, 2017/11/15 11:59:00.949上午, 180.0, 4.65, 0.00, 8.52, 13.16
599, 2.99, 2017/11/15 11:59:00.954上午, 178.0, 4.39, 0.00, 8.26, 12.65
600, 2.995, 2017/11/15 11:59:00.959上午, 160.0, 3.61, 0.00, 7.48, 11.10
@@
