DATA_TYPE Graph,,,,,,,
VERSION Tekscan Pressure Measurement System 6.70-03,,,,,,,
HARDWARE 00114-3447,,,,,,,
MAP_VERSION 6.5,,,,,,,
HW_TYPE 4,,,,,,,
VersaPogoFsx 0,,,,,,,
檔案名 C:\Users\asus\Desktop\工研院_計畫\收案資料\Subject02\Plantar Pressure\FOAM_STAND_RIGHT_1.fsx,,,,,,,
SENSOR_TYPE FSCAN,,,,,,,
ROWS 60,,,,,,,
COLS 21,,,,,,,
ROW_SPACING 0.508 centimeters,,,,,,,
COL_SPACING 0.508 centimeters,,,,,,,
SENSEL_AREA 0.258064 cm2,,,,,,,
NOISE_THRESHOLD 3,,,,,,,
SECONDS_PER_FRAME 0.005,,,,,,,
SECONDS_PER_FRAME 0,,,,,,,
MICRO_SECOND 0,,,,,,,
TIME 2017/11/15 11:58:57.964上午,,,,,,,
SATURATION_PRESSURE 2347.96 KPa ,,,,,,,
CALIBRATION_POINT_1 48.0001 (Kilograms) 1981 (Raw Sum) 199 (Number of Loaded Cells),,,,,,,
CALIBRATION_MODE_1 步態,,,,,,,
CALIBRATION_INFO C:\Users\asus\Desktop\工研院_計畫\收案資料\Subject02\Plantar Pressure\FOAM_STAND_RIGHT_1.fsx,,,,,,,
SENSITIVITY 自定義,,,,,,,
MAP_INDEX 0,,,,,,,
SUBMAP 0,,,,,,,
Patient ID: ,,,,,,,
,,,,,,,
Speed of Gait: ,,,,,,,
,,,,,,,
Weight: ,,,,,,,
,,,,,,,
Gender: ,,,,,,,
,,,,,,,
Physician: ,,,,,,,
,,,,,,,
Technician: ,,,,,,,
,,,,,,,
Shoe: ,,,,,,,
,,,,,,,
START_FRAME 1,,,,,,,
END_FRAME 600,,,,,,,
UNITS KPa,,,,,,,
ASCII_DATA @@,,,,,,,
畫面(X), 時間(X), 絕對時間(X), Raw Sum, 峰值壓力(Y:藍色), 峰值壓力(Y), 峰值壓力(Y), 峰值壓力(Y)
1,0, 2017/11/15 11:58:57.964上午,199,35,0,34,35
2,0.005, 2017/11/15 11:58:57.969上午,188,38,0,38,38
3,0.01, 2017/11/15 11:58:57.974上午,197,38,0,38,38
4,0.015, 2017/11/15 11:58:57.979上午,194,34,0,34,34
5,0.02, 2017/11/15 11:58:57.984上午,190,37,0,40,40
6,0.025, 2017/11/15 11:58:57.989上午,190,38,0,36,38
7,0.03, 2017/11/15 11:58:57.994上午,193,39,0,35,39
8,0.035, 2017/11/15 11:58:57.999上午,184,37,0,36,37
9,0.04, 2017/11/15 11:58:58.004上午,195,39,0,36,39
10,0.045, 2017/11/15 11:58:58.009上午,184,38,0,36,38
11,0.05, 2017/11/15 11:58:58.014上午,188,36,0,40,40
12,0.055, 2017/11/15 11:58:58.019上午,194,38,0,37,38
13,0.06, 2017/11/15 11:58:58.024上午,198,34,0,34,34
14,0.065, 2017/11/15 11:58:58.029上午,180,38,0,39,39
15,0.07, 2017/11/15 11:58:58.034上午,204,38,0,39,39
16,0.075, 2017/11/15 11:58:58.039上午,189,36,0,34,36
17,0.08, 2017/11/15 11:58:58.044上午,186,36,0,35,36
18,0.085, 2017/11/15 11:58:58.049上午,185,38,0,38,38
19,0.09, 2017/11/15 11:58:58.054上午,182,35,0,35,35
20,0.095, 2017/11/15 11:58:58.059上午,179,36,0,34,36
21,0.1, 2017/11/15 11:58:58.064上午,198,36,0,35,36
22,0.105, 2017/11/15 11:58:58.069上午,202,38,0,38,38
23,0.11, 2017/11/15 11:58:58.074上午,193,36,0,38,38
24,0.115, 2017/11/15 11:58:58.079上午,184,36,0,35,36
25,0.12, 2017/11/15 11:58:58.084上午,198,38,0,39,39
26,0.125, 2017/11/15 11:58:58.089上午,178,35,0,36,36
27,0.13, 2017/11/15 11:58:58.094上午,193,36,0,37,37
28,0.135, 2017/11/15 11:58:58.099上午,178,36,0,36,36
29,0.14, 2017/11/15 11:58:58.104上午,165,39,0,34,39
30,0.145, 2017/11/15 11:58:58.109上午,197,34,0,35,35
31,0.15, 2017/11/15 11:58:58.114上午,183,38,0,37,38
32,0.155, 2017/11/15 11:58:58.119上午,189,35,0,34,35
33,0.16, 2017/11/15 11:58:58.124上午,202,34,0,35,35
34,0.165, 2017/11/15 11:58:58.129上午,182,38,0,38,38
35,0.17, 2017/11/15 11:58:58.134上午,197,36,0,34,36
36,0.175, 2017/11/15 11:58:58.139上午,186,36,0,35,36
37,0.18, 2017/11/15 11:58:58.144上午,183,38,0,38,38
38,0.185, 2017/11/15 11:58:58.149上午,175,39,0,36,39
39,0.19, 2017/11/15 11:58:58.154上午,192,34,0,35,35
40,0.195, 2017/11/15 11:58:58.159上午,191,36,0,38,38
41,0.2, 2017/11/15 11:58:58.164上午,196,38,0,36,38
42,0.205, 2017/11/15 11:58:58.169上午,188,35,0,34,35
43,0.21, 2017/11/15 11:58:58.174上午,178,36,0,37,37
44,0.215, 2017/11/15 11:58:58.179上午,184,36,0,37,37
45,0.22, 2017/11/15 11:58:58.184上午,186,36,0,35,36
46,0.225, 2017/11/15 11:58:58.189上午,198,34,0,34,34
47,0.23, 2017/11/15 11:58:58.194上午,184,38,0,35,38
48,0.235, 2017/11/15 11:58:58.199上午,180,38,0,35,38
49,0.24, 2017/11/15 11:58:58.204上午,183,39,0,33,39
50,0.245, 2017/11/15 11:58:58.209上午,174,38,0,39,39
51,0.25, 2017/11/15 11:58:58.214上午,175,39,0,35,39
52,0.255, 2017/11/15 11:58:58.219上午,198,34,0,34,34
53,0.26, 2017/11/15 11:58:58.224上午,185,36,0,38,38
54,0.265, 2017/11/15 11:58:58.229上午,179,38,0,35,38
55,0.27, 2017/11/15 11:58:58.234上午,188,36,0,35,36
56,0.275, 2017/11/15 11:58:58.239上午,187,38,0,38,38
57,0.28, 2017/11/15 11:58:58.244上午,194,38,0,36,38
58,0.285, 2017/11/15 11:58:58.249上午,201,36,0,34,36
59,0.29, 2017/11/15 11:58:58.254上午,169,36,0,39,39
60,0.295, 2017/11/15 11:58:58.259上午,199,36,0,38,38
61,0.3, 2017/11/15 11:58:58.264上午,190,35,0,35,35
62,0.305, 2017/11/15 11:58:58.269上午,201,36,0,35,36
63,0.31, 2017/11/15 11:58:58.274上午,174,36,0,36,36
64,0.315, 2017/11/15 11:58:58.279上午,183,39,0,38,39
65,0.32, 2017/11/15 11:58:58.284上午,205,34,0,32,34
66,0.325, 2017/11/15 11:58:58.289上午,191,36,0,37,37
67,0.33, 2017/11/15 11:58:58.294上午,186,36,0,38,38
68,0.335, 2017/11/15 11:58:58.299上午,183,35,0,34,35
69,0.34, 2017/11/15 11:58:58.304上午,184,36,0,35,36
70,0.345, 2017/11/15 11:58:58.309上午,179,36,0,36,36
71,0.35, 2017/11/15 11:58:58.314上午,185,38,0,36,38
72,0.355, 2017/11/15 11:58:58.319上午,206,34,0,36,36
73,0.36, 2017/11/15 11:58:58.324上午,179,36,0,35,36
74,0.365, 2017/11/15 11:58:58.329上午,192,38,0,35,38
75,0.37, 2017/11/15 11:58:58.334上午,193,35,0,34,35
76,0.375, 2017/11/15 11:58:58.339上午,190,36,0,37,37
77,0.38, 2017/11/15 11:58:58.344上午,176,39,0,38,39
78,0.385, 2017/11/15 11:58:58.349上午,195,38,0,36,38
79,0.39, 2017/11/15 11:58:58.354上午,186,36,0,36,36
80,0.395, 2017/11/15 11:58:58.359上午,184,36,0,37,37
81,0.4, 2017/11/15 11:58:58.364上午,195,38,0,36,38
82,0.405, 2017/11/15 11:58:58.369上午,192,36,0,36,36
83,0.41, 2017/11/15 11:58:58.374上午,184,36,0,34,36
84,0.415, 2017/11/15 11:58:58.379上午,191,39,0,35,39
85,0.42, 2017/11/15 11:58:58.384上午,197,38,0,36,38
86,0.425, 2017/11/15 11:58:58.389上午,195,34,0,34,34
87,0.43, 2017/11/15 11:58:58.394上午,189,36,0,38,38
88,0.435, 2017/11/15 11:58:58.399上午,187,38,0,40,40
89,0.44, 2017/11/15 11:58:58.404上午,196,34,0,34,34
90,0.445, 2017/11/15 11:58:58.409上午,188,36,0,36,36
91,0.45, 2017/11/15 11:58:58.414上午,191,38,0,36,38
92,0.455, 2017/11/15 11:58:58.419上午,202,34,0,36,36
93,0.46, 2017/11/15 11:58:58.424上午,194,36,0,36,36
94,0.465, 2017/11/15 11:58:58.429上午,194,38,0,38,38
95,0.47, 2017/11/15 11:58:58.434上午,176,36,0,34,36
96,0.475, 2017/11/15 11:58:58.439上午,189,36,0,35,36
97,0.48, 2017/11/15 11:58:58.444上午,187,38,0,36,38
98,0.485, 2017/11/15 11:58:58.449上午,189,38,0,37,38
99,0.49, 2017/11/15 11:58:58.454上午,195,36,0,36,36
100,0.495, 2017/11/15 11:58:58.459上午,202,38,0,34,38
101,0.5, 2017/11/15 11:58:58.464上午,190,36,0,35,36
102,0.505, 2017/11/15 11:58:58.469上午,191,39,0,36,39
103,0.51, 2017/11/15 11:58:58.474上午,187,36,0,34,36
104,0.515, 2017/11/15 11:58:58.479上午,187,36,0,33,36
105,0.52, 2017/11/15 11:58:58.484上午,176,38,0,36,38
106,0.525, 2017/11/15 11:58:58.489上午,201,38,0,36,38
107,0.53, 2017/11/15 11:58:58.494上午,185,36,0,34,36
108,0.535, 2017/11/15 11:58:58.499上午,189,36,0,36,36
109,0.54, 2017/11/15 11:58:58.504上午,193,38,0,38,38
110,0.545, 2017/11/15 11:58:58.509上午,189,36,0,34,36
111,0.55, 2017/11/15 11:58:58.514上午,200,36,0,35,36
112,0.555, 2017/11/15 11:58:58.519上午,189,39,0,35,39
113,0.56, 2017/11/15 11:58:58.524上午,199,38,0,34,38
114,0.565, 2017/11/15 11:58:58.529上午,199,36,0,34,36
115,0.57, 2017/11/15 11:58:58.534上午,176,36,0,36,36
116,0.575, 2017/11/15 11:58:58.539上午,177,38,0,37,38
117,0.58, 2017/11/15 11:58:58.544上午,208,38,0,38,38
118,0.585, 2017/11/15 11:58:58.549上午,190,39,0,34,39
119,0.59, 2017/11/15 11:58:58.554上午,199,36,0,34,36
120,0.595, 2017/11/15 11:58:58.559上午,171,36,0,36,36
121,0.6, 2017/11/15 11:58:58.564上午,192,38,0,37,38
122,0.605, 2017/11/15 11:58:58.569上午,168,38,0,34,38
123,0.61, 2017/11/15 11:58:58.574上午,201,36,0,34,36
124,0.615, 2017/11/15 11:58:58.579上午,189,36,0,34,36
125,0.62, 2017/11/15 11:58:58.584上午,185,36,0,37,37
126,0.625, 2017/11/15 11:58:58.589上午,189,39,0,36,39
127,0.63, 2017/11/15 11:58:58.594上午,182,36,0,32,36
128,0.635, 2017/11/15 11:58:58.599上午,175,38,0,35,38
129,0.64, 2017/11/15 11:58:58.604上午,176,38,0,36,38
130,0.645, 2017/11/15 11:58:58.609上午,191,36,0,34,36
131,0.65, 2017/11/15 11:58:58.614上午,196,36,0,35,36
132,0.655, 2017/11/15 11:58:58.619上午,181,38,0,37,38
133,0.66, 2017/11/15 11:58:58.624上午,195,36,0,34,36
134,0.665, 2017/11/15 11:58:58.629上午,193,36,0,35,36
135,0.67, 2017/11/15 11:58:58.634上午,205,39,0,37,39
136,0.675, 2017/11/15 11:58:58.639上午,182,38,0,34,38
137,0.68, 2017/11/15 11:58:58.644上午,193,34,0,34,34
138,0.685, 2017/11/15 11:58:58.649上午,178,36,0,36,36
139,0.69, 2017/11/15 11:58:58.654上午,206,39,0,35,39
140,0.695, 2017/11/15 11:58:58.659上午,189,36,0,32,36
141,0.7, 2017/11/15 11:58:58.664上午,192,36,0,34,36
142,0.705, 2017/11/15 11:58:58.669上午,189,38,0,37,38
143,0.71, 2017/11/15 11:58:58.674上午,172,38,0,34,38
144,0.715, 2017/11/15 11:58:58.679上午,194,36,0,34,36
145,0.72, 2017/11/15 11:58:58.684上午,187,36,0,36,36
146,0.725, 2017/11/15 11:58:58.689上午,185,38,0,34,38
147,0.73, 2017/11/15 11:58:58.694上午,200,34,0,33,34
148,0.735, 2017/11/15 11:58:58.699上午,202,38,0,36,38
149,0.74, 2017/11/15 11:58:58.704上午,200,34,0,34,34
150,0.745, 2017/11/15 11:58:58.709上午,190,38,0,38,38
151,0.75, 2017/11/15 11:58:58.714上午,186,36,0,34,36
152,0.755, 2017/11/15 11:58:58.719上午,176,36,0,34,36
153,0.76, 2017/11/15 11:58:58.724上午,196,38,0,36,38
154,0.765, 2017/11/15 11:58:58.729上午,203,34,0,36,36
155,0.77, 2017/11/15 11:58:58.734上午,180,38,0,36,38
156,0.775, 2017/11/15 11:58:58.739上午,192,35,0,32,35
157,0.78, 2017/11/15 11:58:58.744上午,182,36,0,36,36
158,0.785, 2017/11/15 11:58:58.749上午,197,38,0,37,38
159,0.79, 2017/11/15 11:58:58.754上午,183,38,0,34,38
160,0.795, 2017/11/15 11:58:58.759上午,182,36,0,34,36
161,0.8, 2017/11/15 11:58:58.764上午,172,36,0,37,37
162,0.805, 2017/11/15 11:58:58.769上午,172,39,0,34,39
163,0.81, 2017/11/15 11:58:58.774上午,200,34,0,34,34
164,0.815, 2017/11/15 11:58:58.779上午,179,36,0,36,36
165,0.82, 2017/11/15 11:58:58.784上午,196,38,0,37,38
166,0.825, 2017/11/15 11:58:58.789上午,172,35,0,34,35
167,0.83, 2017/11/15 11:58:58.794上午,177,34,0,35,35
168,0.835, 2017/11/15 11:58:58.799上午,190,38,0,36,38
169,0.84, 2017/11/15 11:58:58.804上午,192,36,0,34,36
170,0.845, 2017/11/15 11:58:58.809上午,180,36,0,35,36
171,0.85, 2017/11/15 11:58:58.814上午,187,35,0,36,36
172,0.855, 2017/11/15 11:58:58.819上午,179,36,0,34,36
173,0.86, 2017/11/15 11:58:58.824上午,197,38,0,38,38
174,0.865, 2017/11/15 11:58:58.829上午,197,36,0,34,36
175,0.87, 2017/11/15 11:58:58.834上午,174,36,0,35,36
176,0.875, 2017/11/15 11:58:58.839上午,191,38,0,36,38
177,0.88, 2017/11/15 11:58:58.844上午,184,34,0,34,34
178,0.885, 2017/11/15 11:58:58.849上午,183,38,0,34,38
179,0.89, 2017/11/15 11:58:58.854上午,179,38,0,39,39
180,0.895, 2017/11/15 11:58:58.859上午,183,34,0,34,34
181,0.9, 2017/11/15 11:58:58.864上午,185,36,0,32,36
182,0.905, 2017/11/15 11:58:58.869上午,186,39,0,36,39
183,0.91, 2017/11/15 11:58:58.874上午,182,38,0,36,38
184,0.915, 2017/11/15 11:58:58.879上午,182,34,0,33,34
185,0.92, 2017/11/15 11:58:58.884上午,188,36,0,37,37
186,0.925, 2017/11/15 11:58:58.889上午,165,35,0,36,36
187,0.93, 2017/11/15 11:58:58.894上午,197,34,0,34,34
188,0.935, 2017/11/15 11:58:58.899上午,190,38,0,36,38
189,0.94, 2017/11/15 11:58:58.904上午,204,34,0,34,34
190,0.945, 2017/11/15 11:58:58.909上午,172,34,0,37,37
191,0.95, 2017/11/15 11:58:58.914上午,196,38,0,36,38
192,0.955, 2017/11/15 11:58:58.919上午,196,34,0,34,34
193,0.96, 2017/11/15 11:58:58.924上午,180,36,0,36,36
194,0.965, 2017/11/15 11:58:58.929上午,192,34,0,34,34
195,0.97, 2017/11/15 11:58:58.934上午,205,34,0,33,34
196,0.975, 2017/11/15 11:58:58.939上午,174,36,0,36,36
197,0.98, 2017/11/15 11:58:58.944上午,181,34,0,36,36
198,0.985, 2017/11/15 11:58:58.949上午,195,36,0,34,36
199,0.99, 2017/11/15 11:58:58.954上午,180,36,0,34,36
200,0.995, 2017/11/15 11:58:58.959上午,161,36,0,38,38
201,1, 2017/11/15 11:58:58.964上午,186,34,0,34,34
202,1.005, 2017/11/15 11:58:58.969上午,187,36,0,34,36
203,1.01, 2017/11/15 11:58:58.974上午,196,38,0,37,38
204,1.015, 2017/11/15 11:58:58.979上午,178,34,0,34,34
205,1.02, 2017/11/15 11:58:58.984上午,190,36,0,34,36
206,1.025, 2017/11/15 11:58:58.989上午,185,38,0,37,38
207,1.03, 2017/11/15 11:58:58.994上午,192,36,0,32,36
208,1.035, 2017/11/15 11:58:58.999上午,199,34,0,34,34
209,1.04, 2017/11/15 11:58:59.004上午,185,38,0,36,38
210,1.045, 2017/11/15 11:58:59.009上午,195,34,0,34,34
211,1.05, 2017/11/15 11:58:59.014上午,187,38,0,33,38
212,1.055, 2017/11/15 11:58:59.019上午,194,35,0,34,35
213,1.06, 2017/11/15 11:58:59.024上午,177,34,0,33,34
214,1.065, 2017/11/15 11:58:59.029上午,177,38,0,36,38
215,1.07, 2017/11/15 11:58:59.034上午,202,34,0,34,34
216,1.075, 2017/11/15 11:58:59.039上午,185,36,0,34,36
217,1.08, 2017/11/15 11:58:59.044上午,173,36,0,38,38
218,1.085, 2017/11/15 11:58:59.049上午,179,34,0,34,34
219,1.09, 2017/11/15 11:58:59.054上午,189,36,0,34,36
220,1.095, 2017/11/15 11:58:59.059上午,187,38,0,34,38
221,1.1, 2017/11/15 11:58:59.064上午,190,35,0,36,36
222,1.105, 2017/11/15 11:58:59.069上午,198,34,0,32,34
223,1.11, 2017/11/15 11:58:59.074上午,184,34,0,35,35
224,1.115, 2017/11/15 11:58:59.079上午,180,36,0,38,38
225,1.12, 2017/11/15 11:58:59.084上午,191,34,0,33,34
226,1.125, 2017/11/15 11:58:59.089上午,180,36,0,34,36
227,1.13, 2017/11/15 11:58:59.094上午,171,36,0,34,36
228,1.135, 2017/11/15 11:58:59.099上午,207,34,0,34,34
229,1.14, 2017/11/15 11:58:59.104上午,172,38,0,38,38
230,1.145, 2017/11/15 11:58:59.109上午,179,35,0,32,35
231,1.15, 2017/11/15 11:58:59.114上午,179,34,0,34,34
232,1.155, 2017/11/15 11:58:59.119上午,167,38,0,34,38
233,1.16, 2017/11/15 11:58:59.124上午,199,34,0,34,34
234,1.165, 2017/11/15 11:58:59.129上午,184,36,0,37,37
235,1.17, 2017/11/15 11:58:59.134上午,180,34,0,36,36
236,1.175, 2017/11/15 11:58:59.139上午,184,36,0,33,36
237,1.18, 2017/11/15 11:58:59.144上午,159,34,0,37,37
238,1.185, 2017/11/15 11:58:59.149上午,199,38,0,36,38
239,1.19, 2017/11/15 11:58:59.154上午,188,34,0,34,34
240,1.195, 2017/11/15 11:58:59.159上午,182,34,0,34,34
241,1.2, 2017/11/15 11:58:59.164上午,184,38,0,36,38
242,1.205, 2017/11/15 11:58:59.169上午,186,38,0,38,38
243,1.21, 2017/11/15 11:58:59.174上午,188,34,0,33,34
244,1.215, 2017/11/15 11:58:59.179上午,181,34,0,34,34
245,1.22, 2017/11/15 11:58:59.184上午,180,36,0,37,37
246,1.225, 2017/11/15 11:58:59.189上午,174,38,0,34,38
247,1.23, 2017/11/15 11:58:59.194上午,191,36,0,34,36
248,1.235, 2017/11/15 11:58:59.199上午,200,38,0,37,38
249,1.24, 2017/11/15 11:58:59.204上午,175,38,0,34,38
250,1.245, 2017/11/15 11:58:59.209上午,184,36,0,34,36
251,1.25, 2017/11/15 11:58:59.214上午,195,36,0,39,39
252,1.255, 2017/11/15 11:58:59.219上午,206,34,0,34,34
253,1.26, 2017/11/15 11:58:59.224上午,188,36,0,35,36
254,1.265, 2017/11/15 11:58:59.229上午,193,36,0,36,36
255,1.27, 2017/11/15 11:58:59.234上午,208,34,0,36,36
256,1.275, 2017/11/15 11:58:59.239上午,178,34,0,35,35
257,1.28, 2017/11/15 11:58:59.244上午,196,38,0,36,38
258,1.285, 2017/11/15 11:58:59.249上午,185,35,0,32,35
259,1.29, 2017/11/15 11:58:59.254上午,182,36,0,34,36
260,1.295, 2017/11/15 11:58:59.259上午,191,36,0,36,36
261,1.3, 2017/11/15 11:58:59.264上午,190,34,0,34,34
262,1.305, 2017/11/15 11:58:59.269上午,176,36,0,34,36
263,1.31, 2017/11/15 11:58:59.274上午,192,36,0,36,36
264,1.315, 2017/11/15 11:58:59.279上午,185,36,0,34,36
265,1.32, 2017/11/15 11:58:59.284上午,197,34,0,35,35
266,1.325, 2017/11/15 11:58:59.289上午,182,36,0,36,36
267,1.33, 2017/11/15 11:58:59.294上午,184,36,0,36,36
268,1.335, 2017/11/15 11:58:59.299上午,195,34,0,34,34
269,1.34, 2017/11/15 11:58:59.304上午,183,36,0,36,36
270,1.345, 2017/11/15 11:58:59.309上午,191,36,0,38,38
271,1.35, 2017/11/15 11:58:59.314上午,183,34,0,35,35
272,1.355, 2017/11/15 11:58:59.319上午,175,36,0,36,36
273,1.36, 2017/11/15 11:58:59.324上午,182,33,0,34,34
274,1.365, 2017/11/15 11:58:59.329上午,175,36,0,37,37
275,1.37, 2017/11/15 11:58:59.334上午,196,36,0,36,36
276,1.375, 2017/11/15 11:58:59.339上午,175,33,0,38,38
277,1.38, 2017/11/15 11:58:59.344上午,177,36,0,36,36
278,1.385, 2017/11/15 11:58:59.349上午,183,38,0,36,38
279,1.39, 2017/11/15 11:58:59.354上午,180,34,0,34,34
280,1.395, 2017/11/15 11:58:59.359上午,179,36,0,33,36
281,1.4, 2017/11/15 11:58:59.364上午,181,36,0,37,37
282,1.405, 2017/11/15 11:58:59.369上午,185,34,0,39,39
283,1.41, 2017/11/15 11:58:59.374上午,161,36,0,33,36
284,1.415, 2017/11/15 11:58:59.379上午,179,34,0,34,34
285,1.42, 2017/11/15 11:58:59.384上午,189,36,0,36,36
286,1.425, 2017/11/15 11:58:59.389上午,186,36,0,34,36
287,1.43, 2017/11/15 11:58:59.394上午,172,34,0,37,37
288,1.435, 2017/11/15 11:58:59.399上午,183,36,0,34,36
289,1.44, 2017/11/15 11:58:59.404上午,183,36,0,35,36
290,1.445, 2017/11/15 11:58:59.409上午,185,36,0,38,38
291,1.45, 2017/11/15 11:58:59.414上午,176,34,0,34,34
292,1.455, 2017/11/15 11:58:59.419上午,181,36,0,36,36
293,1.46, 2017/11/15 11:58:59.424上午,182,36,0,34,36
294,1.465, 2017/11/15 11:58:59.429上午,185,36,0,35,36
295,1.47, 2017/11/15 11:58:59.434上午,178,36,0,36,36
296,1.475, 2017/11/15 11:58:59.439上午,173,34,0,34,34
297,1.48, 2017/11/15 11:58:59.444上午,176,34,0,36,36
298,1.485, 2017/11/15 11:58:59.449上午,177,36,0,37,37
299,1.49, 2017/11/15 11:58:59.454上午,175,34,0,34,34
300,1.495, 2017/11/15 11:58:59.459上午,196,34,0,33,34
301,1.5, 2017/11/15 11:58:59.464上午,182,34,0,37,37
302,1.505, 2017/11/15 11:58:59.469上午,193,36,0,36,36
303,1.51, 2017/11/15 11:58:59.474上午,186,34,0,34,34
304,1.515, 2017/11/15 11:58:59.479上午,180,34,0,37,37
305,1.52, 2017/11/15 11:58:59.484上午,199,36,0,38,38
306,1.525, 2017/11/15 11:58:59.489上午,173,35,0,33,35
307,1.53, 2017/11/15 11:58:59.494上午,180,36,0,36,36
308,1.535, 2017/11/15 11:58:59.499上午,156,36,0,36,36
309,1.54, 2017/11/15 11:58:59.504上午,183,34,0,34,34
310,1.545, 2017/11/15 11:58:59.509上午,184,34,0,36,36
311,1.55, 2017/11/15 11:58:59.514上午,200,34,0,35,35
312,1.555, 2017/11/15 11:58:59.519上午,183,36,0,36,36
313,1.56, 2017/11/15 11:58:59.524上午,167,36,0,34,36
314,1.565, 2017/11/15 11:58:59.529上午,186,32,0,35,35
315,1.57, 2017/11/15 11:58:59.534上午,166,36,0,34,36
316,1.575, 2017/11/15 11:58:59.539上午,193,34,0,34,34
317,1.58, 2017/11/15 11:58:59.544上午,187,34,0,36,36
318,1.585, 2017/11/15 11:58:59.549上午,191,36,0,38,38
319,1.59, 2017/11/15 11:58:59.554上午,178,34,0,34,34
320,1.595, 2017/11/15 11:58:59.559上午,179,34,0,35,35
321,1.6, 2017/11/15 11:58:59.564上午,178,36,0,36,36
322,1.605, 2017/11/15 11:58:59.569上午,164,36,0,34,36
323,1.61, 2017/11/15 11:58:59.574上午,191,34,0,34,34
324,1.615, 2017/11/15 11:58:59.579上午,177,36,0,37,37
325,1.62, 2017/11/15 11:58:59.584上午,190,36,0,36,36
326,1.625, 2017/11/15 11:58:59.589上午,168,34,0,36,36
327,1.63, 2017/11/15 11:58:59.594上午,185,34,0,34,34
328,1.635, 2017/11/15 11:58:59.599上午,169,36,0,34,36
329,1.64, 2017/11/15 11:58:59.604上午,203,34,0,34,34
330,1.645, 2017/11/15 11:58:59.609上午,177,36,0,37,37
331,1.65, 2017/11/15 11:58:59.614上午,167,36,0,34,36
332,1.655, 2017/11/15 11:58:59.619上午,192,34,0,33,34
333,1.66, 2017/11/15 11:58:59.624上午,169,36,0,38,38
334,1.665, 2017/11/15 11:58:59.629上午,156,36,0,36,36
335,1.67, 2017/11/15 11:58:59.634上午,178,34,0,33,34
336,1.675, 2017/11/15 11:58:59.639上午,176,36,0,36,36
337,1.68, 2017/11/15 11:58:59.644上午,165,36,0,34,36
338,1.685, 2017/11/15 11:58:59.649上午,177,32,0,34,34
339,1.69, 2017/11/15 11:58:59.654上午,173,34,0,34,34
340,1.695, 2017/11/15 11:58:59.659上午,195,36,0,37,37
341,1.7, 2017/11/15 11:58:59.664上午,181,36,0,36,36
342,1.705, 2017/11/15 11:58:59.669上午,187,34,0,34,34
343,1.71, 2017/11/15 11:58:59.674上午,175,33,0,34,34
344,1.715, 2017/11/15 11:58:59.679上午,186,36,0,36,36
345,1.72, 2017/11/15 11:58:59.684上午,179,34,0,36,36
346,1.725, 2017/11/15 11:58:59.689上午,179,32,0,34,34
347,1.73, 2017/11/15 11:58:59.694上午,200,34,0,34,34
348,1.735, 2017/11/15 11:58:59.699上午,174,34,0,36,36
349,1.74, 2017/11/15 11:58:59.704上午,174,38,0,39,39
350,1.745, 2017/11/15 11:58:59.709上午,179,38,0,34,38
351,1.75, 2017/11/15 11:58:59.714上午,178,34,0,34,34
352,1.755, 2017/11/15 11:58:59.719上午,183,36,0,36,36
353,1.76, 2017/11/15 11:58:59.724上午,163,36,0,36,36
354,1.765, 2017/11/15 11:58:59.729上午,187,34,0,34,34
355,1.77, 2017/11/15 11:58:59.734上午,163,36,0,34,36
356,1.775, 2017/11/15 11:58:59.739上午,179,34,0,36,36
357,1.78, 2017/11/15 11:58:59.744上午,194,34,0,34,34
358,1.785, 2017/11/15 11:58:59.749上午,181,36,0,34,36
359,1.79, 2017/11/15 11:58:59.754上午,179,36,0,36,36
360,1.795, 2017/11/15 11:58:59.759上午,178,34,0,36,36
361,1.8, 2017/11/15 11:58:59.764上午,192,34,0,36,36
362,1.805, 2017/11/15 11:58:59.769上午,191,34,0,34,34
363,1.81, 2017/11/15 11:58:59.774上午,173,34,0,36,36
364,1.815, 2017/11/15 11:58:59.779上午,185,36,0,36,36
365,1.82, 2017/11/15 11:58:59.784上午,166,36,0,38,38
366,1.825, 2017/11/15 11:58:59.789上午,182,34,0,34,34
367,1.83, 2017/11/15 11:58:59.794上午,180,35,0,36,36
368,1.835, 2017/11/15 11:58:59.799上午,186,36,0,36,36
369,1.84, 2017/11/15 11:58:59.804上午,185,34,0,34,34
370,1.845, 2017/11/15 11:58:59.809上午,183,36,0,36,36
371,1.85, 2017/11/15 11:58:59.814上午,194,36,0,36,36
372,1.855, 2017/11/15 11:58:59.819上午,197,32,0,34,34
373,1.86, 2017/11/15 11:58:59.824上午,183,33,0,34,34
374,1.865, 2017/11/15 11:58:59.829上午,176,36,0,36,36
375,1.87, 2017/11/15 11:58:59.834上午,162,36,0,34,36
376,1.875, 2017/11/15 11:58:59.839上午,173,34,0,36,36
377,1.88, 2017/11/15 11:58:59.844上午,172,33,0,34,34
378,1.885, 2017/11/15 11:58:59.849上午,185,36,0,36,36
379,1.89, 2017/11/15 11:58:59.854上午,179,38,0,34,38
380,1.895, 2017/11/15 11:58:59.859上午,182,32,0,33,33
381,1.9, 2017/11/15 11:58:59.864上午,174,34,0,34,34
382,1.905, 2017/11/15 11:58:59.869上午,190,36,0,36,36
383,1.91, 2017/11/15 11:58:59.874上午,177,34,0,32,34
384,1.915, 2017/11/15 11:58:59.879上午,172,32,0,34,34
385,1.92, 2017/11/15 11:58:59.884上午,178,34,0,36,36
386,1.925, 2017/11/15 11:58:59.889上午,173,36,0,36,36
387,1.93, 2017/11/15 11:58:59.894上午,189,34,0,34,34
388,1.935, 2017/11/15 11:58:59.899上午,180,36,0,36,36
389,1.94, 2017/11/15 11:58:59.904上午,172,36,0,38,38
390,1.945, 2017/11/15 11:58:59.909上午,181,34,0,34,34
391,1.95, 2017/11/15 11:58:59.914上午,186,34,0,36,36
392,1.955, 2017/11/15 11:58:59.919上午,186,34,0,34,34
393,1.96, 2017/11/15 11:58:59.924上午,176,34,0,37,37
394,1.965, 2017/11/15 11:58:59.929上午,184,36,0,36,36
395,1.97, 2017/11/15 11:58:59.934上午,179,34,0,36,36
396,1.975, 2017/11/15 11:58:59.939上午,181,34,0,34,34
397,1.98, 2017/11/15 11:58:59.944上午,173,32,0,36,36
398,1.985, 2017/11/15 11:58:59.949上午,194,36,0,36,36
399,1.99, 2017/11/15 11:58:59.954上午,188,38,0,36,38
400,1.995, 2017/11/15 11:58:59.959上午,179,34,0,34,34
401,2, 2017/11/15 11:58:59.964上午,180,34,0,36,36
402,2.005, 2017/11/15 11:58:59.969上午,179,36,0,34,36
403,2.01, 2017/11/15 11:58:59.974上午,181,32,0,33,33
404,2.015, 2017/11/15 11:58:59.979上午,165,32,0,36,36
405,2.02, 2017/11/15 11:58:59.984上午,188,35,0,36,36
406,2.025, 2017/11/15 11:58:59.989上午,169,36,0,34,36
407,2.03, 2017/11/15 11:58:59.994上午,190,32,0,33,33
408,2.035, 2017/11/15 11:58:59.999上午,185,36,0,36,36
409,2.04, 2017/11/15 11:59:00.004上午,179,34,0,36,36
410,2.045, 2017/11/15 11:59:00.009上午,187,32,0,34,34
411,2.05, 2017/11/15 11:59:00.014上午,173,34,0,36,36
412,2.055, 2017/11/15 11:59:00.019上午,186,36,0,36,36
413,2.06, 2017/11/15 11:59:00.024上午,188,34,0,34,34
414,2.065, 2017/11/15 11:59:00.029上午,179,32,0,36,36
415,2.07, 2017/11/15 11:59:00.034上午,188,36,0,36,36
416,2.075, 2017/11/15 11:59:00.039上午,183,32,0,34,34
417,2.08, 2017/11/15 11:59:00.044上午,172,32,0,34,34
418,2.085, 2017/11/15 11:59:00.049上午,180,32,0,37,37
419,2.09, 2017/11/15 11:59:00.054上午,167,36,0,36,36
420,2.095, 2017/11/15 11:59:00.059上午,170,32,0,34,34
421,2.1, 2017/11/15 11:59:00.064上午,186,32,0,32,32
422,2.105, 2017/11/15 11:59:00.069上午,175,34,0,37,37
423,2.11, 2017/11/15 11:59:00.074上午,179,32,0,36,36
424,2.115, 2017/11/15 11:59:00.079上午,163,34,0,34,34
425,2.12, 2017/11/15 11:59:00.084上午,179,33,0,34,34
426,2.125, 2017/11/15 11:59:00.089上午,175,34,0,36,36
427,2.13, 2017/11/15 11:59:00.094上午,164,32,0,34,34
428,2.135, 2017/11/15 11:59:00.099上午,167,33,0,34,34
429,2.14, 2017/11/15 11:59:00.104上午,181,36,0,38,38
430,2.145, 2017/11/15 11:59:00.109上午,168,32,0,36,36
431,2.15, 2017/11/15 11:59:00.114上午,179,34,0,34,34
432,2.155, 2017/11/15 11:59:00.119上午,165,34,0,36,36
433,2.16, 2017/11/15 11:59:00.124上午,176,32,0,36,36
434,2.165, 2017/11/15 11:59:00.129上午,177,33,0,34,34
435,2.17, 2017/11/15 11:59:00.134上午,177,34,0,36,36
436,2.175, 2017/11/15 11:59:00.139上午,175,32,0,38,38
437,2.18, 2017/11/15 11:59:00.144上午,187,33,0,36,36
438,2.185, 2017/11/15 11:59:00.149上午,176,34,0,36,36
439,2.19, 2017/11/15 11:59:00.154上午,177,36,0,36,36
440,2.195, 2017/11/15 11:59:00.159上午,182,34,0,34,34
441,2.2, 2017/11/15 11:59:00.164上午,177,33,0,36,36
442,2.205, 2017/11/15 11:59:00.169上午,191,36,0,36,36
443,2.21, 2017/11/15 11:59:00.174上午,182,36,0,38,38
444,2.215, 2017/11/15 11:59:00.179上午,185,33,0,36,36
445,2.22, 2017/11/15 11:59:00.184上午,179,34,0,36,36
446,2.225, 2017/11/15 11:59:00.189上午,197,36,0,38,38
447,2.23, 2017/11/15 11:59:00.194上午,181,32,0,36,36
448,2.235, 2017/11/15 11:59:00.199上午,172,34,0,34,34
449,2.24, 2017/11/15 11:59:00.204上午,182,36,0,38,38
450,2.245, 2017/11/15 11:59:00.209上午,175,32,0,39,39
451,2.25, 2017/11/15 11:59:00.214上午,170,33,0,36,36
452,2.255, 2017/11/15 11:59:00.219上午,183,34,0,38,38
453,2.26, 2017/11/15 11:59:00.224上午,181,34,0,38,38
454,2.265, 2017/11/15 11:59:00.229上午,177,33,0,36,36
455,2.27, 2017/11/15 11:59:00.234上午,164,34,0,36,36
456,2.275, 2017/11/15 11:59:00.239上午,183,34,0,36,36
457,2.28, 2017/11/15 11:59:00.244上午,181,33,0,38,38
458,2.285, 2017/11/15 11:59:00.249上午,172,34,0,36,36
459,2.29, 2017/11/15 11:59:00.254上午,176,32,0,36,36
460,2.295, 2017/11/15 11:59:00.259上午,176,34,0,36,36
461,2.3, 2017/11/15 11:59:00.264上午,175,33,0,34,34
462,2.305, 2017/11/15 11:59:00.269上午,172,34,0,36,36
463,2.31, 2017/11/15 11:59:00.274上午,175,34,0,38,38
464,2.315, 2017/11/15 11:59:00.279上午,171,32,0,36,36
465,2.32, 2017/11/15 11:59:00.284上午,178,33,0,34,34
466,2.325, 2017/11/15 11:59:00.289上午,174,34,0,36,36
467,2.33, 2017/11/15 11:59:00.294上午,177,34,0,36,36
468,2.335, 2017/11/15 11:59:00.299上午,190,33,0,34,34
469,2.34, 2017/11/15 11:59:00.304上午,179,38,0,38,38
470,2.345, 2017/11/15 11:59:00.309上午,173,32,0,38,38
471,2.35, 2017/11/15 11:59:00.314上午,172,33,0,36,36
472,2.355, 2017/11/15 11:59:00.319上午,171,34,0,36,36
473,2.36, 2017/11/15 11:59:00.324上午,179,34,0,36,36
474,2.365, 2017/11/15 11:59:00.329上午,176,33,0,34,34
475,2.37, 2017/11/15 11:59:00.334上午,183,34,0,36,36
476,2.375, 2017/11/15 11:59:00.339上午,180,36,0,36,36
477,2.38, 2017/11/15 11:59:00.344上午,169,33,0,36,36
478,2.385, 2017/11/15 11:59:00.349上午,183,33,0,34,34
479,2.39, 2017/11/15 11:59:00.354上午,191,34,0,36,36
480,2.395, 2017/11/15 11:59:00.359上午,185,34,0,36,36
481,2.4, 2017/11/15 11:59:00.364上午,179,33,0,34,34
482,2.405, 2017/11/15 11:59:00.369上午,169,34,0,36,36
483,2.41, 2017/11/15 11:59:00.374上午,171,32,0,38,38
484,2.415, 2017/11/15 11:59:00.379上午,193,32,0,39,39
485,2.42, 2017/11/15 11:59:00.384上午,184,33,0,36,36
486,2.425, 2017/11/15 11:59:00.389上午,181,36,0,36,36
487,2.43, 2017/11/15 11:59:00.394上午,169,32,0,36,36
488,2.435, 2017/11/15 11:59:00.399上午,170,33,0,35,35
489,2.44, 2017/11/15 11:59:00.404上午,171,34,0,38,38
490,2.445, 2017/11/15 11:59:00.409上午,168,32,0,36,36
491,2.45, 2017/11/15 11:59:00.414上午,172,33,0,38,38
492,2.455, 2017/11/15 11:59:00.419上午,179,36,0,36,36
493,2.46, 2017/11/15 11:59:00.424上午,167,32,0,34,34
494,2.465, 2017/11/15 11:59:00.429上午,179,33,0,34,34
495,2.47, 2017/11/15 11:59:00.434上午,177,34,0,36,36
496,2.475, 2017/11/15 11:59:00.439上午,185,36,0,39,39
497,2.48, 2017/11/15 11:59:00.444上午,177,33,0,36,36
498,2.485, 2017/11/15 11:59:00.449上午,171,34,0,36,36
499,2.49, 2017/11/15 11:59:00.454上午,176,34,0,36,36
500,2.495, 2017/11/15 11:59:00.459上午,181,34,0,38,38
501,2.5, 2017/11/15 11:59:00.464上午,199,34,0,34,34
502,2.505, 2017/11/15 11:59:00.469上午,181,33,0,36,36
503,2.51, 2017/11/15 11:59:00.474上午,185,36,0,36,36
504,2.515, 2017/11/15 11:59:00.479上午,175,34,0,36,36
505,2.52, 2017/11/15 11:59:00.484上午,177,33,0,34,34
506,2.525, 2017/11/15 11:59:00.489上午,176,33,0,36,36
507,2.53, 2017/11/15 11:59:00.494上午,172,32,0,36,36
508,2.535, 2017/11/15 11:59:00.499上午,201,34,0,35,35
509,2.54, 2017/11/15 11:59:00.504上午,171,33,0,36,36
510,2.545, 2017/11/15 11:59:00.509上午,169,34,0,36,36
511,2.55, 2017/11/15 11:59:00.514上午,173,34,0,34,34
512,2.555, 2017/11/15 11:59:00.519上午,183,38,0,35,38
513,2.56, 2017/11/15 11:59:00.524上午,162,34,0,34,34
514,2.565, 2017/11/15 11:59:00.529上午,192,34,0,35,35
515,2.57, 2017/11/15 11:59:00.534上午,189,34,0,36,36
516,2.575, 2017/11/15 11:59:00.539上午,162,32,0,36,36
517,2.58, 2017/11/15 11:59:00.544上午,175,34,0,36,36
518,2.585, 2017/11/15 11:59:00.549上午,176,33,0,36,36
519,2.59, 2017/11/15 11:59:00.554上午,184,32,0,38,38
520,2.595, 2017/11/15 11:59:00.559上午,171,33,0,38,38
521,2.6, 2017/11/15 11:59:00.564上午,176,34,0,34,34
522,2.605, 2017/11/15 11:59:00.569上午,171,33,0,35,35
523,2.61, 2017/11/15 11:59:00.574上午,174,34,0,36,36
524,2.615, 2017/11/15 11:59:00.579上午,160,32,0,36,36
525,2.62, 2017/11/15 11:59:00.584上午,185,33,0,36,36
526,2.625, 2017/11/15 11:59:00.589上午,180,33,0,36,36
527,2.63, 2017/11/15 11:59:00.594上午,185,33,0,39,39
528,2.635, 2017/11/15 11:59:00.599上午,184,33,0,36,36
529,2.64, 2017/11/15 11:59:00.604上午,180,34,0,36,36
530,2.645, 2017/11/15 11:59:00.609上午,188,34,0,34,34
531,2.65, 2017/11/15 11:59:00.614上午,179,33,0,34,34
532,2.655, 2017/11/15 11:59:00.619上午,169,34,0,36,36
533,2.66, 2017/11/15 11:59:00.624上午,161,34,0,34,34
534,2.665, 2017/11/15 11:59:00.629上午,187,33,0,34,34
535,2.67, 2017/11/15 11:59:00.634上午,177,34,0,36,36
536,2.675, 2017/11/15 11:59:00.639上午,159,34,0,34,34
537,2.68, 2017/11/15 11:59:00.644上午,194,34,0,34,34
538,2.685, 2017/11/15 11:59:00.649上午,184,33,0,36,36
539,2.69, 2017/11/15 11:59:00.654上午,160,34,0,38,38
540,2.695, 2017/11/15 11:59:00.659上午,173,36,0,36,36
541,2.7, 2017/11/15 11:59:00.664上午,180,33,0,36,36
542,2.705, 2017/11/15 11:59:00.669上午,183,34,0,36,36
543,2.71, 2017/11/15 11:59:00.674上午,172,34,0,38,38
544,2.715, 2017/11/15 11:59:00.679上午,169,34,0,38,38
545,2.72, 2017/11/15 11:59:00.684上午,176,33,0,35,35
546,2.725, 2017/11/15 11:59:00.689上午,172,33,0,36,36
547,2.73, 2017/11/15 11:59:00.694上午,181,34,0,39,39
548,2.735, 2017/11/15 11:59:00.699上午,189,33,0,39,39
549,2.74, 2017/11/15 11:59:00.704上午,169,33,0,34,34
550,2.745, 2017/11/15 11:59:00.709上午,172,34,0,36,36
551,2.75, 2017/11/15 11:59:00.714上午,175,33,0,34,34
552,2.755, 2017/11/15 11:59:00.719上午,174,34,0,36,36
553,2.76, 2017/11/15 11:59:00.724上午,177,34,0,36,36
554,2.765, 2017/11/15 11:59:00.729上午,182,34,0,34,34
555,2.77, 2017/11/15 11:59:00.734上午,183,34,0,35,35
556,2.775, 2017/11/15 11:59:00.739上午,159,32,0,34,34
557,2.78, 2017/11/15 11:59:00.744上午,166,33,0,34,34
558,2.785, 2017/11/15 11:59:00.749上午,172,34,0,36,36
559,2.79, 2017/11/15 11:59:00.754上午,178,36,0,38,38
560,2.795, 2017/11/15 11:59:00.759上午,195,34,0,36,36
561,2.8, 2017/11/15 11:59:00.764上午,173,33,0,34,34
562,2.805, 2017/11/15 11:59:00.769上午,185,34,0,36,36
563,2.81, 2017/11/15 11:59:00.774上午,180,36,0,39,39
564,2.815, 2017/11/15 11:59:00.779上午,180,33,0,36,36
565,2.82, 2017/11/15 11:59:00.784上午,170,34,0,36,36
566,2.825, 2017/11/15 11:59:00.789上午,160,32,0,39,39
567,2.83, 2017/11/15 11:59:00.794上午,171,31,0,34,34
568,2.835, 2017/11/15 11:59:00.799上午,179,34,0,37,37
569,2.84, 2017/11/15 11:59:00.804上午,172,34,0,34,34
570,2.845, 2017/11/15 11:59:00.809上午,182,33,0,36,36
571,2.85, 2017/11/15 11:59:00.814上午,162,32,0,38,38
572,2.855, 2017/11/15 11:59:00.819上午,187,33,0,34,34
573,2.86, 2017/11/15 11:59:00.824上午,163,34,0,34,34
574,2.865, 2017/11/15 11:59:00.829上午,153,32,0,38,38
575,2.87, 2017/11/15 11:59:00.834上午,184,34,0,35,35
576,2.875, 2017/11/15 11:59:00.839上午,177,34,0,38,38
577,2.88, 2017/11/15 11:59:00.844上午,174,32,0,38,38
578,2.885, 2017/11/15 11:59:00.849上午,178,33,0,34,34
579,2.89, 2017/11/15 11:59:00.854上午,183,36,0,35,36
580,2.895, 2017/11/15 11:59:00.859上午,170,34,0,36,36
581,2.9, 2017/11/15 11:59:00.864上午,193,32,0,34,34
582,2.905, 2017/11/15 11:59:00.869上午,175,34,0,36,36
583,2.91, 2017/11/15 11:59:00.874上午,169,32,0,36,36
584,2.915, 2017/11/15 11:59:00.879上午,173,32,0,36,36
585,2.92, 2017/11/15 11:59:00.884上午,179,33,0,36,36
586,2.925, 2017/11/15 11:59:00.889上午,177,34,0,35,35
587,2.93, 2017/11/15 11:59:00.894上午,167,32,0,36,36
588,2.935, 2017/11/15 11:59:00.899上午,187,34,0,34,34
589,2.94, 2017/11/15 11:59:00.904上午,178,33,0,35,35
590,2.945, 2017/11/15 11:59:00.909上午,187,34,0,36,36
591,2.95, 2017/11/15 11:59:00.914上午,172,34,0,36,36
592,2.955, 2017/11/15 11:59:00.919上午,164,34,0,35,35
593,2.96, 2017/11/15 11:59:00.924上午,188,34,0,36,36
594,2.965, 2017/11/15 11:59:00.929上午,192,34,0,36,36
595,2.97, 2017/11/15 11:59:00.934上午,173,33,0,35,35
596,2.975, 2017/11/15 11:59:00.939上午,167,38,0,36,38
597,2.98, 2017/11/15 11:59:00.944上午,172,32,0,39,39
598,2.985, 2017/11/15 11:59:00.949上午,180,33,0,36,36
599,2.99, 2017/11/15 11:59:00.954上午,178,34,0,36,36
600,2.995, 2017/11/15 11:59:00.959上午,160,32,0,38,38
@@,,,,,,,
