DATA_TYPE Graph,,,,,,,
VERSION Tekscan Pressure Measurement System 6.70-03,,,,,,,
HARDWARE 00114-3447,,,,,,,
MAP_VERSION 6.5,,,,,,,
HW_TYPE 4,,,,,,,
VersaPogoFsx 0,,,,,,,
檔案名 C:\Users\asus\Desktop\工研院_計畫\收案資料\Subject02\Plantar Pressure\FOAM_STAND_RIGHT_2.fsx,,,,,,,
SENSOR_TYPE FSCAN,,,,,,,
ROWS 60,,,,,,,
COLS 21,,,,,,,
ROW_SPACING 0.508 centimeters,,,,,,,
COL_SPACING 0.508 centimeters,,,,,,,
SENSEL_AREA 0.258064 cm2,,,,,,,
NOISE_THRESHOLD 3,,,,,,,
SECONDS_PER_FRAME 0.005,,,,,,,
SECONDS_PER_FRAME 0,,,,,,,
MICRO_SECOND 0,,,,,,,
TIME 2017/11/15 12:00:58.372下午,,,,,,,
SATURATION_PRESSURE 2347.96 KPa ,,,,,,,
CALIBRATION_POINT_1 48.0001 (Kilograms) 1981 (Raw Sum) 199 (Number of Loaded Cells),,,,,,,
CALIBRATION_MODE_1 步態,,,,,,,
CALIBRATION_INFO C:\Users\asus\Desktop\工研院_計畫\收案資料\Subject02\Plantar Pressure\FOAM_STAND_RIGHT_2.fsx,,,,,,,
SENSITIVITY 自定義,,,,,,,
MAP_INDEX 0,,,,,,,
SUBMAP 0,,,,,,,
Patient ID: ,,,,,,,
,,,,,,,
Speed of Gait: ,,,,,,,
,,,,,,,
Weight: ,,,,,,,
,,,,,,,
Gender: ,,,,,,,
,,,,,,,
Physician: ,,,,,,,
,,,,,,,
Technician: ,,,,,,,
,,,,,,,
Shoe: ,,,,,,,
,,,,,,,
START_FRAME 1,,,,,,,
END_FRAME 600,,,,,,,
UNITS KPa,,,,,,,
ASCII_DATA @@,,,,,,,
畫面(X), 時間(X), 絕對時間(X), Raw Sum, 峰值壓力(Y:深藍色), 峰值壓力(Y), 峰值壓力(Y), 峰值壓力(Y)
1,0, 2017/11/15 12:00:58.372下午,203,28,73,41,41
2,0.005, 2017/11/15 12:00:58.377下午,202,30,73,39,39
3,0.01, 2017/11/15 12:00:58.382下午,186,30,73,40,40
4,0.015, 2017/11/15 12:00:58.387下午,195,30,73,39,39
5,0.02, 2017/11/15 12:00:58.392下午,180,30,79,39,39
6,0.025, 2017/11/15 12:00:58.397下午,173,30,73,41,41
7,0.03, 2017/11/15 12:00:58.402下午,177,30,73,39,39
8,0.035, 2017/11/15 12:00:58.407下午,187,30,73,39,39
9,0.04, 2017/11/15 12:00:58.412下午,184,30,73,41,41
10,0.045, 2017/11/15 12:00:58.417下午,176,28,73,41,41
11,0.05, 2017/11/15 12:00:58.422下午,187,28,73,40,40
12,0.055, 2017/11/15 12:00:58.427下午,177,30,73,39,39
13,0.06, 2017/11/15 12:00:58.432下午,190,32,73,40,40
14,0.065, 2017/11/15 12:00:58.437下午,176,32,73,40,40
15,0.07, 2017/11/15 12:00:58.442下午,192,34,73,40,40
16,0.075, 2017/11/15 12:00:58.447下午,210,34,73,40,40
17,0.08, 2017/11/15 12:00:58.452下午,196,34,73,40,40
18,0.085, 2017/11/15 12:00:58.457下午,201,34,73,40,40
19,0.09, 2017/11/15 12:00:58.462下午,192,30,73,38,38
20,0.095, 2017/11/15 12:00:58.467下午,191,30,79,36,36
21,0.1, 2017/11/15 12:00:58.472下午,174,30,73,38,38
22,0.105, 2017/11/15 12:00:58.477下午,187,32,73,38,38
23,0.11, 2017/11/15 12:00:58.482下午,186,34,73,40,40
24,0.115, 2017/11/15 12:00:58.487下午,192,30,67,40,40
25,0.12, 2017/11/15 12:00:58.492下午,181,34,73,38,38
26,0.125, 2017/11/15 12:00:58.497下午,167,35,73,39,39
27,0.13, 2017/11/15 12:00:58.502下午,176,34,73,40,40
28,0.135, 2017/11/15 12:00:58.507下午,190,34,73,40,40
29,0.14, 2017/11/15 12:00:58.512下午,198,34,73,40,40
30,0.145, 2017/11/15 12:00:58.517下午,178,34,73,40,40
31,0.15, 2017/11/15 12:00:58.522下午,184,30,79,36,36
32,0.155, 2017/11/15 12:00:58.527下午,189,30,79,40,40
33,0.16, 2017/11/15 12:00:58.532下午,184,30,79,37,37
34,0.165, 2017/11/15 12:00:58.537下午,179,30,73,38,38
35,0.17, 2017/11/15 12:00:58.542下午,187,34,73,38,38
36,0.175, 2017/11/15 12:00:58.547下午,176,30,73,38,38
37,0.18, 2017/11/15 12:00:58.552下午,182,34,73,40,40
38,0.185, 2017/11/15 12:00:58.557下午,193,34,73,40,40
39,0.19, 2017/11/15 12:00:58.562下午,195,37,73,40,40
40,0.195, 2017/11/15 12:00:58.567下午,183,30,73,37,37
41,0.2, 2017/11/15 12:00:58.572下午,171,30,79,40,40
42,0.205, 2017/11/15 12:00:58.577下午,185,32,73,38,38
43,0.21, 2017/11/15 12:00:58.582下午,171,32,73,38,38
44,0.215, 2017/11/15 12:00:58.587下午,168,34,73,38,38
45,0.22, 2017/11/15 12:00:58.592下午,181,34,67,36,36
46,0.225, 2017/11/15 12:00:58.597下午,190,37,73,40,40
47,0.23, 2017/11/15 12:00:58.602下午,185,37,73,38,38
48,0.235, 2017/11/15 12:00:58.607下午,180,30,79,36,36
49,0.24, 2017/11/15 12:00:58.612下午,183,30,79,36,36
50,0.245, 2017/11/15 12:00:58.617下午,178,37,73,36,37
51,0.25, 2017/11/15 12:00:58.622下午,184,37,73,37,37
52,0.255, 2017/11/15 12:00:58.627下午,181,37,73,37,37
53,0.26, 2017/11/15 12:00:58.632下午,181,37,73,39,39
54,0.265, 2017/11/15 12:00:58.637下午,187,37,73,39,39
55,0.27, 2017/11/15 12:00:58.642下午,188,37,79,38,38
56,0.275, 2017/11/15 12:00:58.647下午,177,32,79,36,36
57,0.28, 2017/11/15 12:00:58.652下午,187,42,79,40,40
58,0.285, 2017/11/15 12:00:58.657下午,167,32,79,37,37
59,0.29, 2017/11/15 12:00:58.662下午,184,32,73,37,37
60,0.295, 2017/11/15 12:00:58.667下午,179,32,73,37,37
61,0.3, 2017/11/15 12:00:58.672下午,161,36,73,37,37
62,0.305, 2017/11/15 12:00:58.677下午,192,37,73,40,40
63,0.31, 2017/11/15 12:00:58.682下午,193,37,73,40,40
64,0.315, 2017/11/15 12:00:58.687下午,176,37,73,40,40
65,0.32, 2017/11/15 12:00:58.692下午,190,41,73,38,41
66,0.325, 2017/11/15 12:00:58.697下午,177,37,73,40,40
67,0.33, 2017/11/15 12:00:58.702下午,185,30,79,40,40
68,0.335, 2017/11/15 12:00:58.707下午,179,42,73,38,38
69,0.34, 2017/11/15 12:00:58.712下午,187,32,79,38,38
70,0.345, 2017/11/15 12:00:58.717下午,185,32,73,36,36
71,0.35, 2017/11/15 12:00:58.722下午,189,32,73,38,38
72,0.355, 2017/11/15 12:00:58.727下午,180,39,73,35,39
73,0.36, 2017/11/15 12:00:58.732下午,190,39,73,38,39
74,0.365, 2017/11/15 12:00:58.737下午,188,41,73,38,41
75,0.37, 2017/11/15 12:00:58.742下午,193,41,73,40,41
76,0.375, 2017/11/15 12:00:58.747下午,179,32,79,40,40
77,0.38, 2017/11/15 12:00:58.752下午,174,32,79,38,38
78,0.385, 2017/11/15 12:00:58.757下午,200,36,73,38,38
79,0.39, 2017/11/15 12:00:58.762下午,178,34,73,36,36
80,0.395, 2017/11/15 12:00:58.767下午,207,34,73,38,38
81,0.4, 2017/11/15 12:00:58.772下午,186,38,67,35,38
82,0.405, 2017/11/15 12:00:58.777下午,188,40,73,37,40
83,0.41, 2017/11/15 12:00:58.782下午,212,38,73,38,38
84,0.415, 2017/11/15 12:00:58.787下午,185,43,73,37,43
85,0.42, 2017/11/15 12:00:58.792下午,193,43,73,37,43
86,0.425, 2017/11/15 12:00:58.797下午,197,36,79,35,36
87,0.43, 2017/11/15 12:00:58.802下午,175,34,79,35,35
88,0.435, 2017/11/15 12:00:58.807下午,190,38,73,35,38
89,0.44, 2017/11/15 12:00:58.812下午,191,38,67,35,38
90,0.445, 2017/11/15 12:00:58.817下午,188,38,73,35,38
91,0.45, 2017/11/15 12:00:58.822下午,179,38,73,35,38
92,0.455, 2017/11/15 12:00:58.827下午,197,43,73,35,43
93,0.46, 2017/11/15 12:00:58.832下午,180,36,79,35,36
94,0.465, 2017/11/15 12:00:58.837下午,179,34,79,35,35
95,0.47, 2017/11/15 12:00:58.842下午,196,36,79,35,36
96,0.475, 2017/11/15 12:00:58.847下午,203,39,73,35,39
97,0.48, 2017/11/15 12:00:58.852下午,194,39,73,33,39
98,0.485, 2017/11/15 12:00:58.857下午,183,38,73,35,38
99,0.49, 2017/11/15 12:00:58.862下午,197,38,67,35,38
100,0.495, 2017/11/15 12:00:58.867下午,178,40,73,35,40
101,0.5, 2017/11/15 12:00:58.872下午,186,38,73,33,38
102,0.505, 2017/11/15 12:00:58.877下午,208,42,73,39,42
103,0.51, 2017/11/15 12:00:58.882下午,203,42,73,37,42
104,0.515, 2017/11/15 12:00:58.887下午,179,38,73,37,38
105,0.52, 2017/11/15 12:00:58.892下午,190,40,73,37,40
106,0.525, 2017/11/15 12:00:58.897下午,191,38,73,35,38
107,0.53, 2017/11/15 12:00:58.902下午,191,42,73,35,42
108,0.535, 2017/11/15 12:00:58.907下午,196,42,79,37,42
109,0.54, 2017/11/15 12:00:58.912下午,187,42,73,35,42
110,0.545, 2017/11/15 12:00:58.917下午,200,42,73,36,42
111,0.55, 2017/11/15 12:00:58.922下午,181,42,73,37,42
112,0.555, 2017/11/15 12:00:58.927下午,197,42,73,37,42
113,0.56, 2017/11/15 12:00:58.932下午,204,40,73,37,40
114,0.565, 2017/11/15 12:00:58.937下午,192,42,79,35,42
115,0.57, 2017/11/15 12:00:58.942下午,197,42,79,35,42
116,0.575, 2017/11/15 12:00:58.947下午,202,45,79,35,45
117,0.58, 2017/11/15 12:00:58.952下午,185,40,79,35,40
118,0.585, 2017/11/15 12:00:58.957下午,216,42,73,36,42
119,0.59, 2017/11/15 12:00:58.962下午,224,44,73,33,44
120,0.595, 2017/11/15 12:00:58.967下午,204,40,79,33,40
121,0.6, 2017/11/15 12:00:58.972下午,220,42,79,35,42
122,0.605, 2017/11/15 12:00:58.977下午,211,44,73,33,44
123,0.61, 2017/11/15 12:00:58.982下午,208,44,73,33,44
124,0.615, 2017/11/15 12:00:58.987下午,207,44,73,33,44
125,0.62, 2017/11/15 12:00:58.992下午,207,47,73,33,47
126,0.625, 2017/11/15 12:00:58.997下午,204,44,73,33,44
127,0.63, 2017/11/15 12:00:59.002下午,193,45,73,33,45
128,0.635, 2017/11/15 12:00:59.007下午,200,45,73,33,45
129,0.64, 2017/11/15 12:00:59.012下午,197,44,73,35,44
130,0.645, 2017/11/15 12:00:59.017下午,195,44,73,35,44
131,0.65, 2017/11/15 12:00:59.022下午,183,44,79,37,44
132,0.655, 2017/11/15 12:00:59.027下午,194,44,73,37,44
133,0.66, 2017/11/15 12:00:59.032下午,206,46,73,37,46
134,0.665, 2017/11/15 12:00:59.037下午,192,42,73,35,42
135,0.67, 2017/11/15 12:00:59.042下午,198,44,79,35,44
136,0.675, 2017/11/15 12:00:59.047下午,193,44,73,33,44
137,0.68, 2017/11/15 12:00:59.052下午,199,42,79,35,42
138,0.685, 2017/11/15 12:00:59.057下午,196,42,73,33,42
139,0.69, 2017/11/15 12:00:59.062下午,200,41,73,33,41
140,0.695, 2017/11/15 12:00:59.067下午,200,44,73,33,44
141,0.7, 2017/11/15 12:00:59.072下午,202,44,73,33,44
142,0.705, 2017/11/15 12:00:59.077下午,205,44,73,33,44
143,0.71, 2017/11/15 12:00:59.082下午,196,43,73,35,43
144,0.715, 2017/11/15 12:00:59.087下午,205,44,73,35,44
145,0.72, 2017/11/15 12:00:59.092下午,194,43,73,37,43
146,0.725, 2017/11/15 12:00:59.097下午,212,43,79,35,43
147,0.73, 2017/11/15 12:00:59.102下午,196,42,79,33,42
148,0.735, 2017/11/15 12:00:59.107下午,195,43,73,35,43
149,0.74, 2017/11/15 12:00:59.112下午,212,42,79,35,42
150,0.745, 2017/11/15 12:00:59.117下午,218,42,73,35,42
151,0.75, 2017/11/15 12:00:59.122下午,218,42,73,33,42
152,0.755, 2017/11/15 12:00:59.127下午,209,39,79,33,39
153,0.76, 2017/11/15 12:00:59.132下午,221,39,79,35,39
154,0.765, 2017/11/15 12:00:59.137下午,223,41,79,33,41
155,0.77, 2017/11/15 12:00:59.142下午,212,44,73,33,44
156,0.775, 2017/11/15 12:00:59.147下午,201,42,73,33,42
157,0.78, 2017/11/15 12:00:59.152下午,207,42,67,33,42
158,0.785, 2017/11/15 12:00:59.157下午,202,41,73,33,41
159,0.79, 2017/11/15 12:00:59.162下午,199,43,73,35,43
160,0.795, 2017/11/15 12:00:59.167下午,210,43,73,35,43
161,0.8, 2017/11/15 12:00:59.172下午,198,43,73,35,43
162,0.805, 2017/11/15 12:00:59.177下午,193,43,73,35,43
163,0.81, 2017/11/15 12:00:59.182下午,193,44,73,35,44
164,0.815, 2017/11/15 12:00:59.187下午,200,43,79,35,43
165,0.82, 2017/11/15 12:00:59.192下午,196,43,73,35,43
166,0.825, 2017/11/15 12:00:59.197下午,185,36,79,35,36
167,0.83, 2017/11/15 12:00:59.202下午,212,41,73,33,41
168,0.835, 2017/11/15 12:00:59.207下午,221,41,73,33,41
169,0.84, 2017/11/15 12:00:59.212下午,203,41,73,33,41
170,0.845, 2017/11/15 12:00:59.217下午,210,43,73,33,43
171,0.85, 2017/11/15 12:00:59.222下午,202,43,73,35,43
172,0.855, 2017/11/15 12:00:59.227下午,195,42,73,35,42
173,0.86, 2017/11/15 12:00:59.232下午,202,43,73,37,43
174,0.865, 2017/11/15 12:00:59.237下午,204,43,73,35,43
175,0.87, 2017/11/15 12:00:59.242下午,185,39,79,35,39
176,0.875, 2017/11/15 12:00:59.247下午,229,41,73,35,41
177,0.88, 2017/11/15 12:00:59.252下午,208,41,73,33,41
178,0.885, 2017/11/15 12:00:59.257下午,216,39,73,35,39
179,0.89, 2017/11/15 12:00:59.262下午,207,41,73,33,41
180,0.895, 2017/11/15 12:00:59.267下午,199,43,73,33,43
181,0.9, 2017/11/15 12:00:59.272下午,200,42,73,33,42
182,0.905, 2017/11/15 12:00:59.277下午,193,43,79,35,43
183,0.91, 2017/11/15 12:00:59.282下午,197,41,73,35,41
184,0.915, 2017/11/15 12:00:59.287下午,195,43,73,35,43
185,0.92, 2017/11/15 12:00:59.292下午,194,41,73,37,41
186,0.925, 2017/11/15 12:00:59.297下午,208,39,79,35,39
187,0.93, 2017/11/15 12:00:59.302下午,208,39,79,35,39
188,0.935, 2017/11/15 12:00:59.307下午,221,39,73,37,39
189,0.94, 2017/11/15 12:00:59.312下午,219,39,73,33,39
190,0.945, 2017/11/15 12:00:59.317下午,206,36,73,33,36
191,0.95, 2017/11/15 12:00:59.322下午,220,39,73,33,39
192,0.955, 2017/11/15 12:00:59.327下午,191,39,73,33,39
193,0.96, 2017/11/15 12:00:59.332下午,189,41,73,33,41
194,0.965, 2017/11/15 12:00:59.337下午,202,43,73,35,43
195,0.97, 2017/11/15 12:00:59.342下午,193,43,73,37,43
196,0.975, 2017/11/15 12:00:59.347下午,193,39,73,35,39
197,0.98, 2017/11/15 12:00:59.352下午,203,34,79,35,35
198,0.985, 2017/11/15 12:00:59.357下午,216,36,79,33,36
199,0.99, 2017/11/15 12:00:59.362下午,208,38,79,33,38
200,0.995, 2017/11/15 12:00:59.367下午,212,36,73,33,36
201,1, 2017/11/15 12:00:59.372下午,219,42,73,33,42
202,1.005, 2017/11/15 12:00:59.377下午,200,42,73,33,42
203,1.01, 2017/11/15 12:00:59.382下午,201,42,73,35,42
204,1.015, 2017/11/15 12:00:59.387下午,195,42,73,35,42
205,1.02, 2017/11/15 12:00:59.392下午,196,43,73,35,43
206,1.025, 2017/11/15 12:00:59.397下午,200,42,73,35,42
207,1.03, 2017/11/15 12:00:59.402下午,203,41,73,35,41
208,1.035, 2017/11/15 12:00:59.407下午,194,37,79,37,37
209,1.04, 2017/11/15 12:00:59.412下午,188,40,79,35,40
210,1.045, 2017/11/15 12:00:59.417下午,204,40,73,35,40
211,1.05, 2017/11/15 12:00:59.422下午,196,40,73,35,40
212,1.055, 2017/11/15 12:00:59.427下午,190,38,79,35,38
213,1.06, 2017/11/15 12:00:59.432下午,202,38,79,35,38
214,1.065, 2017/11/15 12:00:59.437下午,212,34,73,35,35
215,1.07, 2017/11/15 12:00:59.442下午,195,38,79,33,38
216,1.075, 2017/11/15 12:00:59.447下午,212,37,79,35,37
217,1.08, 2017/11/15 12:00:59.452下午,207,37,73,35,37
218,1.085, 2017/11/15 12:00:59.457下午,206,37,67,33,37
219,1.09, 2017/11/15 12:00:59.462下午,189,37,73,35,37
220,1.095, 2017/11/15 12:00:59.467下午,200,37,73,33,37
221,1.1, 2017/11/15 12:00:59.472下午,210,37,73,33,37
222,1.105, 2017/11/15 12:00:59.477下午,205,37,73,35,37
223,1.11, 2017/11/15 12:00:59.482下午,197,37,73,33,37
224,1.115, 2017/11/15 12:00:59.487下午,186,39,73,35,39
225,1.12, 2017/11/15 12:00:59.492下午,214,39,73,35,39
226,1.125, 2017/11/15 12:00:59.497下午,199,43,73,35,43
227,1.13, 2017/11/15 12:00:59.502下午,201,39,73,35,39
228,1.135, 2017/11/15 12:00:59.507下午,187,39,67,33,39
229,1.14, 2017/11/15 12:00:59.512下午,197,38,73,35,38
230,1.145, 2017/11/15 12:00:59.517下午,200,41,73,37,41
231,1.15, 2017/11/15 12:00:59.522下午,205,41,73,35,41
232,1.155, 2017/11/15 12:00:59.527下午,200,41,73,35,41
233,1.16, 2017/11/15 12:00:59.532下午,195,40,73,35,40
234,1.165, 2017/11/15 12:00:59.537下午,200,38,73,35,38
235,1.17, 2017/11/15 12:00:59.542下午,194,38,79,35,38
236,1.175, 2017/11/15 12:00:59.547下午,204,37,79,35,37
237,1.18, 2017/11/15 12:00:59.552下午,210,37,79,35,37
238,1.185, 2017/11/15 12:00:59.557下午,199,37,79,35,37
239,1.19, 2017/11/15 12:00:59.562下午,205,38,73,35,38
240,1.195, 2017/11/15 12:00:59.567下午,217,37,73,33,37
241,1.2, 2017/11/15 12:00:59.572下午,194,37,73,33,37
242,1.205, 2017/11/15 12:00:59.577下午,203,37,73,35,37
243,1.21, 2017/11/15 12:00:59.582下午,188,37,73,33,37
244,1.215, 2017/11/15 12:00:59.587下午,186,37,73,33,37
245,1.22, 2017/11/15 12:00:59.592下午,204,37,73,35,37
246,1.225, 2017/11/15 12:00:59.597下午,205,41,73,37,41
247,1.23, 2017/11/15 12:00:59.602下午,201,41,79,37,41
248,1.235, 2017/11/15 12:00:59.607下午,203,39,73,37,39
249,1.24, 2017/11/15 12:00:59.612下午,192,41,73,35,41
250,1.245, 2017/11/15 12:00:59.617下午,190,37,73,37,37
251,1.25, 2017/11/15 12:00:59.622下午,196,34,79,35,35
252,1.255, 2017/11/15 12:00:59.627下午,213,34,73,35,35
253,1.26, 2017/11/15 12:00:59.632下午,200,37,73,35,37
254,1.265, 2017/11/15 12:00:59.637下午,205,34,79,34,34
255,1.27, 2017/11/15 12:00:59.642下午,182,37,67,33,37
256,1.275, 2017/11/15 12:00:59.647下午,187,37,73,36,37
257,1.28, 2017/11/15 12:00:59.652下午,193,37,73,37,37
258,1.285, 2017/11/15 12:00:59.657下午,189,37,73,37,37
259,1.29, 2017/11/15 12:00:59.662下午,183,36,73,34,36
260,1.295, 2017/11/15 12:00:59.667下午,178,34,73,34,34
261,1.3, 2017/11/15 12:00:59.672下午,191,36,73,39,39
262,1.305, 2017/11/15 12:00:59.677下午,180,34,73,37,37
263,1.31, 2017/11/15 12:00:59.682下午,173,34,73,37,37
264,1.315, 2017/11/15 12:00:59.687下午,186,36,73,37,37
265,1.32, 2017/11/15 12:00:59.692下午,192,34,73,35,35
266,1.325, 2017/11/15 12:00:59.697下午,210,36,73,39,39
267,1.33, 2017/11/15 12:00:59.702下午,199,34,79,37,37
268,1.335, 2017/11/15 12:00:59.707下午,189,32,79,37,37
269,1.34, 2017/11/15 12:00:59.712下午,197,39,73,35,39
270,1.345, 2017/11/15 12:00:59.717下午,169,39,73,37,39
271,1.35, 2017/11/15 12:00:59.722下午,193,39,73,39,39
272,1.355, 2017/11/15 12:00:59.727下午,199,34,73,37,37
273,1.36, 2017/11/15 12:00:59.732下午,186,30,79,35,35
274,1.365, 2017/11/15 12:00:59.737下午,174,34,79,35,35
275,1.37, 2017/11/15 12:00:59.742下午,209,32,73,39,39
276,1.375, 2017/11/15 12:00:59.747下午,211,32,79,36,36
277,1.38, 2017/11/15 12:00:59.752下午,197,32,73,36,36
278,1.385, 2017/11/15 12:00:59.757下午,188,32,79,36,36
279,1.39, 2017/11/15 12:00:59.762下午,198,32,79,34,34
280,1.395, 2017/11/15 12:00:59.767下午,205,34,73,35,35
281,1.4, 2017/11/15 12:00:59.772下午,181,34,67,35,35
282,1.405, 2017/11/15 12:00:59.777下午,192,34,73,39,39
283,1.41, 2017/11/15 12:00:59.782下午,186,34,73,39,39
284,1.415, 2017/11/15 12:00:59.787下午,182,34,73,34,34
285,1.42, 2017/11/15 12:00:59.792下午,172,32,73,37,37
286,1.425, 2017/11/15 12:00:59.797下午,184,34,73,37,37
287,1.43, 2017/11/15 12:00:59.802下午,172,34,73,35,35
288,1.435, 2017/11/15 12:00:59.807下午,199,36,73,39,39
289,1.44, 2017/11/15 12:00:59.812下午,187,34,73,39,39
290,1.445, 2017/11/15 12:00:59.817下午,179,32,73,37,37
291,1.45, 2017/11/15 12:00:59.822下午,174,34,73,34,34
292,1.455, 2017/11/15 12:00:59.827下午,183,34,73,35,35
293,1.46, 2017/11/15 12:00:59.832下午,192,34,73,36,36
294,1.465, 2017/11/15 12:00:59.837下午,188,34,73,37,37
295,1.47, 2017/11/15 12:00:59.842下午,180,34,73,36,36
296,1.475, 2017/11/15 12:00:59.847下午,202,36,73,39,39
297,1.48, 2017/11/15 12:00:59.852下午,204,36,79,36,36
298,1.485, 2017/11/15 12:00:59.857下午,201,36,73,37,37
299,1.49, 2017/11/15 12:00:59.862下午,204,34,73,36,36
300,1.495, 2017/11/15 12:00:59.867下午,198,32,79,36,36
301,1.5, 2017/11/15 12:00:59.872下午,196,32,79,38,38
302,1.505, 2017/11/15 12:00:59.877下午,192,30,79,34,34
303,1.51, 2017/11/15 12:00:59.882下午,192,34,73,36,36
304,1.515, 2017/11/15 12:00:59.887下午,179,32,73,37,37
305,1.52, 2017/11/15 12:00:59.892下午,183,32,73,37,37
306,1.525, 2017/11/15 12:00:59.897下午,202,32,79,39,39
307,1.53, 2017/11/15 12:00:59.902下午,206,32,79,37,37
308,1.535, 2017/11/15 12:00:59.907下午,190,32,79,37,37
309,1.54, 2017/11/15 12:00:59.912下午,189,30,79,39,39
310,1.545, 2017/11/15 12:00:59.917下午,194,30,79,37,37
311,1.55, 2017/11/15 12:00:59.922下午,165,32,79,37,37
312,1.555, 2017/11/15 12:00:59.927下午,203,32,79,37,37
313,1.56, 2017/11/15 12:00:59.932下午,193,32,79,37,37
314,1.565, 2017/11/15 12:00:59.937下午,187,32,79,38,38
315,1.57, 2017/11/15 12:00:59.942下午,190,32,73,37,37
316,1.575, 2017/11/15 12:00:59.947下午,210,32,79,38,38
317,1.58, 2017/11/15 12:00:59.952下午,196,32,73,36,36
318,1.585, 2017/11/15 12:00:59.957下午,191,32,79,36,36
319,1.59, 2017/11/15 12:00:59.962下午,185,32,79,36,36
320,1.595, 2017/11/15 12:00:59.967下午,187,32,79,36,36
321,1.6, 2017/11/15 12:00:59.972下午,202,34,73,38,38
322,1.605, 2017/11/15 12:00:59.977下午,180,32,67,38,38
323,1.61, 2017/11/15 12:00:59.982下午,197,37,67,38,38
324,1.615, 2017/11/15 12:00:59.987下午,190,34,67,39,39
325,1.62, 2017/11/15 12:00:59.992下午,201,34,73,38,38
326,1.625, 2017/11/15 12:00:59.997下午,201,34,73,34,34
327,1.63, 2017/11/15 12:01:00.002下午,186,34,73,36,36
328,1.635, 2017/11/15 12:01:00.007下午,187,37,73,36,37
329,1.64, 2017/11/15 12:01:00.012下午,193,34,73,36,36
330,1.645, 2017/11/15 12:01:00.017下午,196,37,73,39,39
331,1.65, 2017/11/15 12:01:00.022下午,206,37,73,38,38
332,1.655, 2017/11/15 12:01:00.027下午,183,37,73,38,38
333,1.66, 2017/11/15 12:01:00.032下午,201,32,79,38,38
334,1.665, 2017/11/15 12:01:00.037下午,190,32,79,36,36
335,1.67, 2017/11/15 12:01:00.042下午,193,32,79,38,38
336,1.675, 2017/11/15 12:01:00.047下午,197,32,79,38,38
337,1.68, 2017/11/15 12:01:00.052下午,202,32,79,36,36
338,1.685, 2017/11/15 12:01:00.057下午,194,37,73,37,37
339,1.69, 2017/11/15 12:01:00.062下午,186,32,73,36,36
340,1.695, 2017/11/15 12:01:00.067下午,188,32,73,37,37
341,1.7, 2017/11/15 12:01:00.072下午,192,32,73,37,37
342,1.705, 2017/11/15 12:01:00.077下午,187,32,73,35,35
343,1.71, 2017/11/15 12:01:00.082下午,191,34,73,35,35
344,1.715, 2017/11/15 12:01:00.087下午,189,39,73,37,37
345,1.72, 2017/11/15 12:01:00.092下午,191,34,73,38,38
346,1.725, 2017/11/15 12:01:00.097下午,203,34,73,38,38
347,1.73, 2017/11/15 12:01:00.102下午,191,34,73,38,38
348,1.735, 2017/11/15 12:01:00.107下午,185,34,73,38,38
349,1.74, 2017/11/15 12:01:00.112下午,205,36,73,38,38
350,1.745, 2017/11/15 12:01:00.117下午,191,36,79,38,38
351,1.75, 2017/11/15 12:01:00.122下午,184,34,73,38,38
352,1.755, 2017/11/15 12:01:00.127下午,188,36,73,38,38
353,1.76, 2017/11/15 12:01:00.132下午,192,36,79,40,40
354,1.765, 2017/11/15 12:01:00.137下午,180,32,73,38,38
355,1.77, 2017/11/15 12:01:00.142下午,204,32,73,36,36
356,1.775, 2017/11/15 12:01:00.147下午,204,32,79,37,37
357,1.78, 2017/11/15 12:01:00.152下午,184,32,79,36,36
358,1.785, 2017/11/15 12:01:00.157下午,210,32,79,39,39
359,1.79, 2017/11/15 12:01:00.162下午,188,34,73,35,35
360,1.795, 2017/11/15 12:01:00.167下午,186,30,73,37,37
361,1.8, 2017/11/15 12:01:00.172下午,192,34,73,37,37
362,1.805, 2017/11/15 12:01:00.177下午,212,34,73,39,39
363,1.81, 2017/11/15 12:01:00.182下午,189,34,73,37,37
364,1.815, 2017/11/15 12:01:00.187下午,202,34,73,38,38
365,1.82, 2017/11/15 12:01:00.192下午,202,34,73,38,38
366,1.825, 2017/11/15 12:01:00.197下午,188,30,73,37,37
367,1.83, 2017/11/15 12:01:00.202下午,178,34,73,36,36
368,1.835, 2017/11/15 12:01:00.207下午,194,34,79,36,36
369,1.84, 2017/11/15 12:01:00.212下午,190,37,73,38,38
370,1.845, 2017/11/15 12:01:00.217下午,202,32,79,38,38
371,1.85, 2017/11/15 12:01:00.222下午,212,32,73,35,35
372,1.855, 2017/11/15 12:01:00.227下午,205,30,73,37,37
373,1.86, 2017/11/15 12:01:00.232下午,189,32,79,35,35
374,1.865, 2017/11/15 12:01:00.237下午,187,32,79,35,35
375,1.87, 2017/11/15 12:01:00.242下午,194,34,73,35,35
376,1.875, 2017/11/15 12:01:00.247下午,193,34,73,37,37
377,1.88, 2017/11/15 12:01:00.252下午,190,34,67,37,37
378,1.885, 2017/11/15 12:01:00.257下午,180,34,67,37,37
379,1.89, 2017/11/15 12:01:00.262下午,199,37,73,37,37
380,1.895, 2017/11/15 12:01:00.267下午,204,37,73,38,38
381,1.9, 2017/11/15 12:01:00.272下午,189,37,73,39,39
382,1.905, 2017/11/15 12:01:00.277下午,201,37,73,38,38
383,1.91, 2017/11/15 12:01:00.282下午,194,37,73,36,37
384,1.915, 2017/11/15 12:01:00.287下午,187,34,73,39,39
385,1.92, 2017/11/15 12:01:00.292下午,214,34,79,39,39
386,1.925, 2017/11/15 12:01:00.297下午,182,30,79,37,37
387,1.93, 2017/11/15 12:01:00.302下午,190,34,73,36,36
388,1.935, 2017/11/15 12:01:00.307下午,183,34,79,37,37
389,1.94, 2017/11/15 12:01:00.312下午,191,34,73,36,36
390,1.945, 2017/11/15 12:01:00.317下午,188,30,79,37,37
391,1.95, 2017/11/15 12:01:00.322下午,197,32,79,36,36
392,1.955, 2017/11/15 12:01:00.327下午,204,32,73,37,37
393,1.96, 2017/11/15 12:01:00.332下午,196,32,73,35,35
394,1.965, 2017/11/15 12:01:00.337下午,206,32,73,37,37
395,1.97, 2017/11/15 12:01:00.342下午,200,34,73,37,37
396,1.975, 2017/11/15 12:01:00.347下午,202,37,73,38,38
397,1.98, 2017/11/15 12:01:00.352下午,201,37,73,38,38
398,1.985, 2017/11/15 12:01:00.357下午,209,37,73,37,37
399,1.99, 2017/11/15 12:01:00.362下午,194,37,73,39,39
400,1.995, 2017/11/15 12:01:00.367下午,198,30,79,37,37
401,2, 2017/11/15 12:01:00.372下午,198,32,79,36,36
402,2.005, 2017/11/15 12:01:00.377下午,213,32,73,37,37
403,2.01, 2017/11/15 12:01:00.382下午,190,32,79,36,36
404,2.015, 2017/11/15 12:01:00.387下午,199,32,79,36,36
405,2.02, 2017/11/15 12:01:00.392下午,193,32,79,37,37
406,2.025, 2017/11/15 12:01:00.397下午,198,32,73,36,36
407,2.03, 2017/11/15 12:01:00.402下午,182,32,73,35,35
408,2.035, 2017/11/15 12:01:00.407下午,192,34,73,37,37
409,2.04, 2017/11/15 12:01:00.412下午,200,34,73,38,38
410,2.045, 2017/11/15 12:01:00.417下午,190,34,73,37,37
411,2.05, 2017/11/15 12:01:00.422下午,189,34,73,36,36
412,2.055, 2017/11/15 12:01:00.427下午,203,37,73,38,38
413,2.06, 2017/11/15 12:01:00.432下午,205,34,73,40,40
414,2.065, 2017/11/15 12:01:00.437下午,201,37,73,37,37
415,2.07, 2017/11/15 12:01:00.442下午,203,37,73,37,37
416,2.075, 2017/11/15 12:01:00.447下午,209,32,79,37,37
417,2.08, 2017/11/15 12:01:00.452下午,200,32,73,35,35
418,2.085, 2017/11/15 12:01:00.457下午,204,32,73,35,35
419,2.09, 2017/11/15 12:01:00.462下午,196,32,73,35,35
420,2.095, 2017/11/15 12:01:00.467下午,195,32,73,39,39
421,2.1, 2017/11/15 12:01:00.472下午,190,34,67,39,39
422,2.105, 2017/11/15 12:01:00.477下午,197,35,73,37,37
423,2.11, 2017/11/15 12:01:00.482下午,197,36,73,38,38
424,2.115, 2017/11/15 12:01:00.487下午,188,36,79,37,37
425,2.12, 2017/11/15 12:01:00.492下午,214,36,73,37,37
426,2.125, 2017/11/15 12:01:00.497下午,211,36,73,37,37
427,2.13, 2017/11/15 12:01:00.502下午,199,36,73,37,37
428,2.135, 2017/11/15 12:01:00.507下午,200,34,73,39,39
429,2.14, 2017/11/15 12:01:00.512下午,210,32,79,37,37
430,2.145, 2017/11/15 12:01:00.517下午,206,32,73,37,37
431,2.15, 2017/11/15 12:01:00.522下午,207,32,73,35,35
432,2.155, 2017/11/15 12:01:00.527下午,208,32,79,37,37
433,2.16, 2017/11/15 12:01:00.532下午,205,32,73,36,36
434,2.165, 2017/11/15 12:01:00.537下午,177,32,73,35,35
435,2.17, 2017/11/15 12:01:00.542下午,204,36,73,37,37
436,2.175, 2017/11/15 12:01:00.547下午,197,32,73,37,37
437,2.18, 2017/11/15 12:01:00.552下午,198,34,73,37,37
438,2.185, 2017/11/15 12:01:00.557下午,199,36,73,37,37
439,2.19, 2017/11/15 12:01:00.562下午,212,36,73,37,37
440,2.195, 2017/11/15 12:01:00.567下午,201,36,79,39,39
441,2.2, 2017/11/15 12:01:00.572下午,191,34,79,37,37
442,2.205, 2017/11/15 12:01:00.577下午,200,36,73,37,37
443,2.21, 2017/11/15 12:01:00.582下午,211,32,79,37,37
444,2.215, 2017/11/15 12:01:00.587下午,192,32,73,37,37
445,2.22, 2017/11/15 12:01:00.592下午,189,34,73,35,35
446,2.225, 2017/11/15 12:01:00.597下午,203,34,73,37,37
447,2.23, 2017/11/15 12:01:00.602下午,186,32,73,38,38
448,2.235, 2017/11/15 12:01:00.607下午,192,36,73,38,38
449,2.24, 2017/11/15 12:01:00.612下午,199,36,73,38,38
450,2.245, 2017/11/15 12:01:00.617下午,198,32,79,37,37
451,2.25, 2017/11/15 12:01:00.622下午,190,32,79,36,36
452,2.255, 2017/11/15 12:01:00.627下午,202,32,79,36,36
453,2.26, 2017/11/15 12:01:00.632下午,204,32,79,36,36
454,2.265, 2017/11/15 12:01:00.637下午,206,30,79,37,37
455,2.27, 2017/11/15 12:01:00.642下午,185,32,73,37,37
456,2.275, 2017/11/15 12:01:00.647下午,195,34,73,37,37
457,2.28, 2017/11/15 12:01:00.652下午,201,32,67,37,37
458,2.285, 2017/11/15 12:01:00.657下午,196,36,73,36,36
459,2.29, 2017/11/15 12:01:00.662下午,190,36,73,38,38
460,2.295, 2017/11/15 12:01:00.667下午,198,34,73,40,40
461,2.3, 2017/11/15 12:01:00.672下午,179,34,73,37,37
462,2.305, 2017/11/15 12:01:00.677下午,196,40,73,37,40
463,2.31, 2017/11/15 12:01:00.682下午,209,38,73,39,39
464,2.315, 2017/11/15 12:01:00.687下午,206,30,73,39,39
465,2.32, 2017/11/15 12:01:00.692下午,209,33,73,37,37
466,2.325, 2017/11/15 12:01:00.697下午,189,32,79,37,37
467,2.33, 2017/11/15 12:01:00.702下午,197,32,79,36,36
468,2.335, 2017/11/15 12:01:00.707下午,203,32,79,37,37
469,2.34, 2017/11/15 12:01:00.712下午,195,34,73,35,35
470,2.345, 2017/11/15 12:01:00.717下午,191,32,79,35,35
471,2.35, 2017/11/15 12:01:00.722下午,199,32,73,37,37
472,2.355, 2017/11/15 12:01:00.727下午,196,34,73,35,35
473,2.36, 2017/11/15 12:01:00.732下午,204,34,73,37,37
474,2.365, 2017/11/15 12:01:00.737下午,187,32,73,37,37
475,2.37, 2017/11/15 12:01:00.742下午,186,34,73,37,37
476,2.375, 2017/11/15 12:01:00.747下午,193,37,73,38,38
477,2.38, 2017/11/15 12:01:00.752下午,202,37,73,37,37
478,2.385, 2017/11/15 12:01:00.757下午,191,34,73,36,36
479,2.39, 2017/11/15 12:01:00.762下午,197,37,73,35,37
480,2.395, 2017/11/15 12:01:00.767下午,206,41,73,37,41
481,2.4, 2017/11/15 12:01:00.772下午,211,37,73,36,37
482,2.405, 2017/11/15 12:01:00.777下午,210,37,73,38,38
483,2.41, 2017/11/15 12:01:00.782下午,191,34,79,38,38
484,2.415, 2017/11/15 12:01:00.787下午,200,37,73,37,37
485,2.42, 2017/11/15 12:01:00.792下午,197,37,73,35,37
486,2.425, 2017/11/15 12:01:00.797下午,200,36,73,37,37
487,2.43, 2017/11/15 12:01:00.802下午,210,40,73,38,40
488,2.435, 2017/11/15 12:01:00.807下午,214,36,73,38,38
489,2.44, 2017/11/15 12:01:00.812下午,204,36,73,38,38
490,2.445, 2017/11/15 12:01:00.817下午,217,36,73,38,38
491,2.45, 2017/11/15 12:01:00.822下午,217,36,73,36,36
492,2.455, 2017/11/15 12:01:00.827下午,207,34,79,38,38
493,2.46, 2017/11/15 12:01:00.832下午,204,34,73,35,35
494,2.465, 2017/11/15 12:01:00.837下午,202,36,73,35,36
495,2.47, 2017/11/15 12:01:00.842下午,208,34,79,37,37
496,2.475, 2017/11/15 12:01:00.847下午,209,32,79,36,36
497,2.48, 2017/11/15 12:01:00.852下午,194,34,79,36,36
498,2.485, 2017/11/15 12:01:00.857下午,198,36,79,34,36
499,2.49, 2017/11/15 12:01:00.862下午,213,36,73,38,38
500,2.495, 2017/11/15 12:01:00.867下午,211,36,73,38,38
501,2.5, 2017/11/15 12:01:00.872下午,204,34,79,36,36
502,2.505, 2017/11/15 12:01:00.877下午,208,42,79,36,36
503,2.51, 2017/11/15 12:01:00.882下午,200,36,79,37,37
504,2.515, 2017/11/15 12:01:00.887下午,207,36,73,38,38
505,2.52, 2017/11/15 12:01:00.892下午,207,36,73,38,38
506,2.525, 2017/11/15 12:01:00.897下午,212,36,73,38,38
507,2.53, 2017/11/15 12:01:00.902下午,215,32,79,36,36
508,2.535, 2017/11/15 12:01:00.907下午,216,34,79,37,37
509,2.54, 2017/11/15 12:01:00.912下午,208,36,79,37,37
510,2.545, 2017/11/15 12:01:00.917下午,197,36,73,36,36
511,2.55, 2017/11/15 12:01:00.922下午,188,36,73,38,38
512,2.555, 2017/11/15 12:01:00.927下午,209,36,73,36,36
513,2.56, 2017/11/15 12:01:00.932下午,225,34,73,36,36
514,2.565, 2017/11/15 12:01:00.937下午,215,36,79,34,36
515,2.57, 2017/11/15 12:01:00.942下午,197,34,73,37,37
516,2.575, 2017/11/15 12:01:00.947下午,197,34,79,36,36
517,2.58, 2017/11/15 12:01:00.952下午,201,34,79,34,34
518,2.585, 2017/11/15 12:01:00.957下午,209,32,79,34,34
519,2.59, 2017/11/15 12:01:00.962下午,209,33,79,36,36
520,2.595, 2017/11/15 12:01:00.967下午,212,33,79,36,36
521,2.6, 2017/11/15 12:01:00.972下午,210,34,79,36,36
522,2.605, 2017/11/15 12:01:00.977下午,192,32,79,35,35
523,2.61, 2017/11/15 12:01:00.982下午,206,34,79,35,35
524,2.615, 2017/11/15 12:01:00.987下午,201,36,79,35,36
525,2.62, 2017/11/15 12:01:00.992下午,212,36,73,36,36
526,2.625, 2017/11/15 12:01:00.997下午,219,36,79,37,37
527,2.63, 2017/11/15 12:01:01.002下午,201,36,73,36,36
528,2.635, 2017/11/15 12:01:01.007下午,212,36,73,38,38
529,2.64, 2017/11/15 12:01:01.012下午,221,40,73,38,40
530,2.645, 2017/11/15 12:01:01.017下午,209,36,73,37,37
531,2.65, 2017/11/15 12:01:01.022下午,207,36,73,37,37
532,2.655, 2017/11/15 12:01:01.027下午,194,36,73,37,37
533,2.66, 2017/11/15 12:01:01.032下午,203,36,73,35,36
534,2.665, 2017/11/15 12:01:01.037下午,193,36,73,40,40
535,2.67, 2017/11/15 12:01:01.042下午,209,36,73,37,37
536,2.675, 2017/11/15 12:01:01.047下午,193,40,73,38,40
537,2.68, 2017/11/15 12:01:01.052下午,210,36,79,38,38
538,2.685, 2017/11/15 12:01:01.057下午,226,36,79,39,39
539,2.69, 2017/11/15 12:01:01.062下午,205,36,73,38,38
540,2.695, 2017/11/15 12:01:01.067下午,199,40,79,36,40
541,2.7, 2017/11/15 12:01:01.072下午,221,36,73,38,38
542,2.705, 2017/11/15 12:01:01.077下午,212,36,73,36,36
543,2.71, 2017/11/15 12:01:01.082下午,212,36,79,38,38
544,2.715, 2017/11/15 12:01:01.087下午,211,40,79,40,40
545,2.72, 2017/11/15 12:01:01.092下午,199,36,73,36,36
546,2.725, 2017/11/15 12:01:01.097下午,204,38,73,34,38
547,2.73, 2017/11/15 12:01:01.102下午,209,37,73,35,37
548,2.735, 2017/11/15 12:01:01.107下午,196,35,73,36,36
549,2.74, 2017/11/15 12:01:01.112下午,195,35,67,34,35
550,2.745, 2017/11/15 12:01:01.117下午,190,35,73,37,37
551,2.75, 2017/11/15 12:01:01.122下午,187,32,73,35,35
552,2.755, 2017/11/15 12:01:01.127下午,210,35,73,37,37
553,2.76, 2017/11/15 12:01:01.132下午,200,35,73,33,35
554,2.765, 2017/11/15 12:01:01.137下午,176,35,73,34,35
555,2.77, 2017/11/15 12:01:01.142下午,209,35,73,37,37
556,2.775, 2017/11/15 12:01:01.147下午,206,35,73,33,35
557,2.78, 2017/11/15 12:01:01.152下午,212,34,73,36,36
558,2.785, 2017/11/15 12:01:01.157下午,203,34,73,34,34
559,2.79, 2017/11/15 12:01:01.162下午,200,32,73,34,34
560,2.795, 2017/11/15 12:01:01.167下午,215,33,73,36,36
561,2.8, 2017/11/15 12:01:01.172下午,205,33,79,34,34
562,2.805, 2017/11/15 12:01:01.177下午,206,33,79,34,34
563,2.81, 2017/11/15 12:01:01.182下午,208,32,79,36,36
564,2.815, 2017/11/15 12:01:01.187下午,196,32,79,36,36
565,2.82, 2017/11/15 12:01:01.192下午,208,33,79,36,36
566,2.825, 2017/11/15 12:01:01.197下午,212,35,79,34,35
567,2.83, 2017/11/15 12:01:01.202下午,203,35,79,37,37
568,2.835, 2017/11/15 12:01:01.207下午,213,35,79,38,38
569,2.84, 2017/11/15 12:01:01.212下午,228,35,73,38,38
570,2.845, 2017/11/15 12:01:01.217下午,213,35,79,36,36
571,2.85, 2017/11/15 12:01:01.222下午,198,35,73,34,35
572,2.855, 2017/11/15 12:01:01.227下午,207,35,79,36,36
573,2.86, 2017/11/15 12:01:01.232下午,214,39,73,38,39
574,2.865, 2017/11/15 12:01:01.237下午,224,35,73,38,38
575,2.87, 2017/11/15 12:01:01.242下午,215,34,79,36,36
576,2.875, 2017/11/15 12:01:01.247下午,217,35,79,34,35
577,2.88, 2017/11/15 12:01:01.252下午,190,35,73,36,36
578,2.885, 2017/11/15 12:01:01.257下午,213,33,73,36,36
579,2.89, 2017/11/15 12:01:01.262下午,202,33,79,36,36
580,2.895, 2017/11/15 12:01:01.267下午,204,35,73,36,36
581,2.9, 2017/11/15 12:01:01.272下午,206,35,73,36,36
582,2.905, 2017/11/15 12:01:01.277下午,211,35,73,34,35
583,2.91, 2017/11/15 12:01:01.282下午,213,39,73,37,39
584,2.915, 2017/11/15 12:01:01.287下午,209,35,79,38,38
585,2.92, 2017/11/15 12:01:01.292下午,207,35,79,38,38
586,2.925, 2017/11/15 12:01:01.297下午,215,35,79,38,38
587,2.93, 2017/11/15 12:01:01.302下午,219,39,73,39,39
588,2.935, 2017/11/15 12:01:01.307下午,216,35,73,38,38
589,2.94, 2017/11/15 12:01:01.312下午,206,37,73,36,37
590,2.945, 2017/11/15 12:01:01.317下午,184,35,73,36,36
591,2.95, 2017/11/15 12:01:01.322下午,194,39,73,36,39
592,2.955, 2017/11/15 12:01:01.327下午,212,37,73,36,37
593,2.96, 2017/11/15 12:01:01.332下午,223,37,73,34,37
594,2.965, 2017/11/15 12:01:01.337下午,205,37,73,36,37
595,2.97, 2017/11/15 12:01:01.342下午,207,35,73,34,35
596,2.975, 2017/11/15 12:01:01.347下午,190,35,73,37,37
597,2.98, 2017/11/15 12:01:01.352下午,209,37,73,36,37
598,2.985, 2017/11/15 12:01:01.357下午,203,37,73,35,37
599,2.99, 2017/11/15 12:01:01.362下午,196,37,73,36,37
600,2.995, 2017/11/15 12:01:01.367下午,199,39,79,34,39
@@,,,,,,,
