DATA_TYPE Graph
VERSION Tekscan Pressure Measurement System 6.70-03
HARDWARE 00114-3443
MAP_VERSION 6.5
HW_TYPE 4
VersaPogoFsx 0
FILENAME C:\Users\User\Desktop\Subject01\plantar pressure\EVA_STAND_LEFT_SUPPORT_1.fsx
SENSOR_TYPE FSCAN
ROWS 60
COLS 21
ROW_SPACING 0.508 centimeters
COL_SPACING 0.508 centimeters
SENSEL_AREA 0.258064 cm2
NOISE_THRESHOLD 3
SECONDS_PER_FRAME 0.005
SECONDS_PER_FRAME 0
MICRO_SECOND 0
TIME 2017/11/14 06:15:32.458下午
SATURATION_PRESSURE 2976.18 KPa 
CALIBRATION_POINT_1 59.0001 (Kilograms) 1921 (Raw Sum) 193 (Number of Loaded Cells)
CALIBRATION_MODE_1 Step
CALIBRATION_INFO C:\Users\User\Desktop\Subject01\plantar pressure\EVA_STAND_LEFT_SUPPORT_1.fsx
SENSITIVITY Custom
MAP_INDEX 1
SUBMAP 1
Patient ID: 

Speed of Gait: 

Weight: 

Gender: 

Physician: 

Technician: 

Shoe: 

START_FRAME 1
END_FRAME 600
UNITS KPa
ASCII_DATA @@
Frames(X), Time(X), Absolute Time(X), Raw Sum, Pressure(Y:blue), Pressure(Y), Pressure(Y), Pressure(Y)
1, 0, 2017/11/14 06:15:32.458下午, 584.0, 62, 51, 50, 57
2, 0.005, 2017/11/14 06:15:32.463下午, 581.0, 55, 45, 45, 50
3, 0.01, 2017/11/14 06:15:32.468下午, 587.0, 55, 45, 46, 51
4, 0.015, 2017/11/14 06:15:32.473下午, 601.0, 56, 45, 45, 51
5, 0.02, 2017/11/14 06:15:32.478下午, 587.0, 57, 45, 46, 52
6, 0.025, 2017/11/14 06:15:32.483下午, 578.0, 58, 45, 48, 52
7, 0.03, 2017/11/14 06:15:32.488下午, 583.0, 57, 46, 49, 52
8, 0.035, 2017/11/14 06:15:32.493下午, 584.0, 58, 46, 49, 53
9, 0.04, 2017/11/14 06:15:32.498下午, 580.0, 58, 45, 49, 53
10, 0.045, 2017/11/14 06:15:32.503下午, 569.0, 58, 46, 51, 53
11, 0.05, 2017/11/14 06:15:32.508下午, 566.0, 59, 47, 50, 54
12, 0.055, 2017/11/14 06:15:32.513下午, 580.0, 59, 47, 48, 54
13, 0.06, 2017/11/14 06:15:32.518下午, 563.0, 58, 47, 51, 54
14, 0.065, 2017/11/14 06:15:32.523下午, 588.0, 59, 48, 49, 54
15, 0.07, 2017/11/14 06:15:32.528下午, 587.0, 60, 47, 48, 54
16, 0.075, 2017/11/14 06:15:32.533下午, 600.0, 61, 48, 49, 55
17, 0.08, 2017/11/14 06:15:32.538下午, 571.0, 60, 49, 54, 56
18, 0.085, 2017/11/14 06:15:32.543下午, 584.0, 61, 46, 51, 55
19, 0.09, 2017/11/14 06:15:32.548下午, 565.0, 61, 48, 55, 56
20, 0.095, 2017/11/14 06:15:32.553下午, 586.0, 61, 47, 53, 55
21, 0.1, 2017/11/14 06:15:32.558下午, 588.0, 55, 44, 46, 50
22, 0.105, 2017/11/14 06:15:32.563下午, 586.0, 55, 44, 48, 50
23, 0.11, 2017/11/14 06:15:32.568下午, 590.0, 55, 43, 47, 50
24, 0.115, 2017/11/14 06:15:32.573下午, 585.0, 55, 44, 46, 50
25, 0.12, 2017/11/14 06:15:32.578下午, 577.0, 54, 44, 48, 50
26, 0.125, 2017/11/14 06:15:32.583下午, 573.0, 55, 45, 49, 51
27, 0.13, 2017/11/14 06:15:32.588下午, 583.0, 54, 44, 48, 50
28, 0.135, 2017/11/14 06:15:32.593下午, 575.0, 55, 44, 48, 51
29, 0.14, 2017/11/14 06:15:32.598下午, 578.0, 55, 44, 46, 50
30, 0.145, 2017/11/14 06:15:32.603下午, 570.0, 56, 44, 46, 51
31, 0.15, 2017/11/14 06:15:32.608下午, 572.0, 55, 44, 44, 50
32, 0.155, 2017/11/14 06:15:32.613下午, 569.0, 54, 44, 47, 50
33, 0.16, 2017/11/14 06:15:32.618下午, 597.0, 55, 44, 44, 50
34, 0.165, 2017/11/14 06:15:32.623下午, 592.0, 55, 45, 45, 50
35, 0.17, 2017/11/14 06:15:32.628下午, 599.0, 55, 44, 44, 49
36, 0.175, 2017/11/14 06:15:32.633下午, 566.0, 55, 44, 48, 51
37, 0.18, 2017/11/14 06:15:32.638下午, 567.0, 55, 44, 47, 50
38, 0.185, 2017/11/14 06:15:32.643下午, 600.0, 55, 45, 45, 50
39, 0.19, 2017/11/14 06:15:32.648下午, 574.0, 55, 44, 49, 51
40, 0.195, 2017/11/14 06:15:32.653下午, 584.0, 55, 44, 44, 50
41, 0.2, 2017/11/14 06:15:32.658下午, 576.0, 54, 44, 48, 50
42, 0.205, 2017/11/14 06:15:32.663下午, 565.0, 53, 44, 47, 50
43, 0.21, 2017/11/14 06:15:32.668下午, 564.0, 53, 44, 48, 50
44, 0.215, 2017/11/14 06:15:32.673下午, 572.0, 53, 45, 45, 50
45, 0.22, 2017/11/14 06:15:32.678下午, 576.0, 53, 44, 50, 50
46, 0.225, 2017/11/14 06:15:32.683下午, 580.0, 54, 44, 49, 50
47, 0.23, 2017/11/14 06:15:32.688下午, 563.0, 54, 45, 48, 50
48, 0.235, 2017/11/14 06:15:32.693下午, 576.0, 54, 43, 46, 50
49, 0.24, 2017/11/14 06:15:32.698下午, 559.0, 54, 45, 46, 50
50, 0.245, 2017/11/14 06:15:32.703下午, 571.0, 54, 45, 45, 49
51, 0.25, 2017/11/14 06:15:32.708下午, 576.0, 54, 43, 45, 49
52, 0.255, 2017/11/14 06:15:32.713下午, 598.0, 54, 43, 43, 48
53, 0.26, 2017/11/14 06:15:32.718下午, 575.0, 53, 44, 47, 49
54, 0.265, 2017/11/14 06:15:32.723下午, 582.0, 53, 44, 46, 49
55, 0.27, 2017/11/14 06:15:32.728下午, 569.0, 54, 43, 47, 49
56, 0.275, 2017/11/14 06:15:32.733下午, 574.0, 53, 44, 48, 50
57, 0.28, 2017/11/14 06:15:32.738下午, 565.0, 53, 44, 46, 49
58, 0.285, 2017/11/14 06:15:32.743下午, 575.0, 53, 45, 48, 50
59, 0.29, 2017/11/14 06:15:32.748下午, 566.0, 54, 44, 48, 50
60, 0.295, 2017/11/14 06:15:32.753下午, 579.0, 54, 44, 45, 49
61, 0.3, 2017/11/14 06:15:32.758下午, 576.0, 53, 44, 45, 49
62, 0.305, 2017/11/14 06:15:32.763下午, 584.0, 53, 44, 44, 49
63, 0.31, 2017/11/14 06:15:32.768下午, 581.0, 53, 43, 44, 48
64, 0.315, 2017/11/14 06:15:32.773下午, 563.0, 52, 44, 45, 48
65, 0.32, 2017/11/14 06:15:32.778下午, 569.0, 52, 44, 48, 49
66, 0.325, 2017/11/14 06:15:32.783下午, 579.0, 53, 44, 45, 49
67, 0.33, 2017/11/14 06:15:32.788下午, 553.0, 52, 44, 48, 49
68, 0.335, 2017/11/14 06:15:32.793下午, 571.0, 52, 43, 48, 49
69, 0.34, 2017/11/14 06:15:32.798下午, 569.0, 53, 44, 46, 49
70, 0.345, 2017/11/14 06:15:32.803下午, 564.0, 53, 44, 46, 49
71, 0.35, 2017/11/14 06:15:32.808下午, 555.0, 54, 44, 45, 49
72, 0.355, 2017/11/14 06:15:32.813下午, 576.0, 53, 43, 45, 48
73, 0.36, 2017/11/14 06:15:32.818下午, 589.0, 54, 45, 44, 49
74, 0.365, 2017/11/14 06:15:32.823下午, 563.0, 52, 44, 48, 49
75, 0.37, 2017/11/14 06:15:32.828下午, 559.0, 52, 44, 48, 49
76, 0.375, 2017/11/14 06:15:32.833下午, 581.0, 52, 44, 47, 49
77, 0.38, 2017/11/14 06:15:32.838下午, 563.0, 52, 43, 48, 48
78, 0.385, 2017/11/14 06:15:32.843下午, 568.0, 54, 44, 47, 50
79, 0.39, 2017/11/14 06:15:32.848下午, 571.0, 53, 44, 46, 49
80, 0.395, 2017/11/14 06:15:32.853下午, 551.0, 52, 45, 48, 49
81, 0.4, 2017/11/14 06:15:32.858下午, 566.0, 53, 44, 45, 49
82, 0.405, 2017/11/14 06:15:32.863下午, 567.0, 53, 46, 44, 49
83, 0.41, 2017/11/14 06:15:32.868下午, 560.0, 53, 44, 44, 49
84, 0.415, 2017/11/14 06:15:32.873下午, 571.0, 52, 43, 44, 48
85, 0.42, 2017/11/14 06:15:32.878下午, 585.0, 52, 44, 44, 48
86, 0.425, 2017/11/14 06:15:32.883下午, 553.0, 51, 44, 48, 48
87, 0.43, 2017/11/14 06:15:32.888下午, 560.0, 52, 44, 46, 48
88, 0.435, 2017/11/14 06:15:32.893下午, 554.0, 51, 44, 46, 49
89, 0.44, 2017/11/14 06:15:32.898下午, 564.0, 52, 44, 47, 49
90, 0.445, 2017/11/14 06:15:32.903下午, 564.0, 53, 44, 47, 49
91, 0.45, 2017/11/14 06:15:32.908下午, 586.0, 52, 44, 44, 48
92, 0.455, 2017/11/14 06:15:32.913下午, 557.0, 52, 44, 48, 49
93, 0.46, 2017/11/14 06:15:32.918下午, 571.0, 52, 44, 46, 49
94, 0.465, 2017/11/14 06:15:32.923下午, 563.0, 53, 45, 45, 49
95, 0.47, 2017/11/14 06:15:32.928下午, 566.0, 52, 45, 45, 49
96, 0.475, 2017/11/14 06:15:32.933下午, 565.0, 51, 45, 45, 48
97, 0.48, 2017/11/14 06:15:32.938下午, 567.0, 53, 44, 43, 48
98, 0.485, 2017/11/14 06:15:32.943下午, 588.0, 52, 44, 44, 48
99, 0.49, 2017/11/14 06:15:32.948下午, 559.0, 51, 44, 49, 49
100, 0.495, 2017/11/14 06:15:32.953下午, 558.0, 51, 44, 46, 48
101, 0.5, 2017/11/14 06:15:32.958下午, 567.0, 51, 43, 48, 48
102, 0.505, 2017/11/14 06:15:32.963下午, 558.0, 53, 44, 46, 49
103, 0.51, 2017/11/14 06:15:32.968下午, 575.0, 52, 44, 47, 49
104, 0.515, 2017/11/14 06:15:32.973下午, 563.0, 52, 44, 46, 49
105, 0.52, 2017/11/14 06:15:32.978下午, 555.0, 52, 45, 44, 49
106, 0.525, 2017/11/14 06:15:32.983下午, 575.0, 52, 45, 45, 49
107, 0.53, 2017/11/14 06:15:32.988下午, 577.0, 52, 43, 43, 47
108, 0.535, 2017/11/14 06:15:32.993下午, 564.0, 50, 43, 46, 47
109, 0.54, 2017/11/14 06:15:32.998下午, 558.0, 51, 44, 49, 48
110, 0.545, 2017/11/14 06:15:33.003下午, 577.0, 51, 44, 48, 49
111, 0.55, 2017/11/14 06:15:33.008下午, 564.0, 52, 45, 47, 49
112, 0.555, 2017/11/14 06:15:33.013下午, 544.0, 52, 44, 47, 49
113, 0.56, 2017/11/14 06:15:33.018下午, 568.0, 53, 44, 46, 49
114, 0.565, 2017/11/14 06:15:33.023下午, 564.0, 52, 44, 47, 49
115, 0.57, 2017/11/14 06:15:33.028下午, 548.0, 52, 46, 45, 49
116, 0.575, 2017/11/14 06:15:33.033下午, 558.0, 51, 44, 45, 48
117, 0.58, 2017/11/14 06:15:33.038下午, 571.0, 51, 45, 44, 48
118, 0.585, 2017/11/14 06:15:33.043下午, 556.0, 52, 45, 45, 49
119, 0.59, 2017/11/14 06:15:33.048下午, 572.0, 52, 44, 46, 48
120, 0.595, 2017/11/14 06:15:33.053下午, 574.0, 51, 46, 45, 49
121, 0.6, 2017/11/14 06:15:33.058下午, 578.0, 52, 44, 44, 48
122, 0.605, 2017/11/14 06:15:33.063下午, 560.0, 50, 44, 45, 48
123, 0.61, 2017/11/14 06:15:33.068下午, 555.0, 50, 44, 48, 48
124, 0.615, 2017/11/14 06:15:33.073下午, 553.0, 50, 43, 46, 48
125, 0.62, 2017/11/14 06:15:33.078下午, 567.0, 52, 44, 46, 48
126, 0.625, 2017/11/14 06:15:33.083下午, 561.0, 51, 44, 48, 49
127, 0.63, 2017/11/14 06:15:33.088下午, 581.0, 52, 43, 45, 48
128, 0.635, 2017/11/14 06:15:33.093下午, 551.0, 51, 43, 46, 48
129, 0.64, 2017/11/14 06:15:33.098下午, 556.0, 51, 44, 46, 48
130, 0.645, 2017/11/14 06:15:33.103下午, 563.0, 52, 44, 44, 48
131, 0.65, 2017/11/14 06:15:33.108下午, 568.0, 52, 44, 44, 48
132, 0.655, 2017/11/14 06:15:33.113下午, 588.0, 52, 43, 43, 48
133, 0.66, 2017/11/14 06:15:33.118下午, 558.0, 51, 43, 47, 48
134, 0.665, 2017/11/14 06:15:33.123下午, 563.0, 52, 44, 46, 48
135, 0.67, 2017/11/14 06:15:33.128下午, 552.0, 52, 43, 47, 49
136, 0.675, 2017/11/14 06:15:33.133下午, 563.0, 52, 44, 47, 49
137, 0.68, 2017/11/14 06:15:33.138下午, 578.0, 52, 44, 45, 48
138, 0.685, 2017/11/14 06:15:33.143下午, 562.0, 52, 43, 46, 48
139, 0.69, 2017/11/14 06:15:33.148下午, 570.0, 52, 44, 47, 49
140, 0.695, 2017/11/14 06:15:33.153下午, 560.0, 52, 45, 47, 49
141, 0.7, 2017/11/14 06:15:33.158下午, 579.0, 52, 44, 44, 48
142, 0.705, 2017/11/14 06:15:33.163下午, 569.0, 52, 44, 45, 48
143, 0.71, 2017/11/14 06:15:33.168下午, 566.0, 52, 44, 45, 48
144, 0.715, 2017/11/14 06:15:33.173下午, 572.0, 52, 43, 46, 48
145, 0.72, 2017/11/14 06:15:33.178下午, 580.0, 52, 46, 44, 48
146, 0.725, 2017/11/14 06:15:33.183下午, 565.0, 52, 44, 45, 48
147, 0.73, 2017/11/14 06:15:33.188下午, 583.0, 52, 44, 45, 48
148, 0.735, 2017/11/14 06:15:33.193下午, 574.0, 51, 44, 44, 48
149, 0.74, 2017/11/14 06:15:33.198下午, 573.0, 51, 43, 45, 48
150, 0.745, 2017/11/14 06:15:33.203下午, 552.0, 51, 43, 47, 48
151, 0.75, 2017/11/14 06:15:33.208下午, 564.0, 52, 43, 48, 48
152, 0.755, 2017/11/14 06:15:33.213下午, 575.0, 52, 42, 49, 48
153, 0.76, 2017/11/14 06:15:33.218下午, 563.0, 51, 45, 48, 49
154, 0.765, 2017/11/14 06:15:33.223下午, 566.0, 51, 44, 48, 49
155, 0.77, 2017/11/14 06:15:33.228下午, 570.0, 53, 44, 47, 49
156, 0.775, 2017/11/14 06:15:33.233下午, 566.0, 52, 45, 47, 49
157, 0.78, 2017/11/14 06:15:33.238下午, 590.0, 52, 43, 45, 48
158, 0.785, 2017/11/14 06:15:33.243下午, 561.0, 53, 45, 46, 49
159, 0.79, 2017/11/14 06:15:33.248下午, 558.0, 52, 45, 45, 48
160, 0.795, 2017/11/14 06:15:33.253下午, 572.0, 53, 44, 46, 49
161, 0.8, 2017/11/14 06:15:33.258下午, 567.0, 52, 43, 44, 48
162, 0.805, 2017/11/14 06:15:33.263下午, 588.0, 52, 43, 44, 48
163, 0.81, 2017/11/14 06:15:33.268下午, 574.0, 51, 42, 45, 47
164, 0.815, 2017/11/14 06:15:33.273下午, 570.0, 52, 43, 47, 49
165, 0.82, 2017/11/14 06:15:33.278下午, 567.0, 51, 44, 47, 48
166, 0.825, 2017/11/14 06:15:33.283下午, 575.0, 51, 43, 46, 48
167, 0.83, 2017/11/14 06:15:33.288下午, 568.0, 52, 43, 47, 48
168, 0.835, 2017/11/14 06:15:33.293下午, 556.0, 52, 45, 47, 49
169, 0.84, 2017/11/14 06:15:33.298下午, 555.0, 52, 44, 45, 49
170, 0.845, 2017/11/14 06:15:33.303下午, 560.0, 52, 43, 45, 48
171, 0.85, 2017/11/14 06:15:33.308下午, 558.0, 52, 43, 45, 48
172, 0.855, 2017/11/14 06:15:33.313下午, 599.0, 52, 42, 42, 47
173, 0.86, 2017/11/14 06:15:33.318下午, 563.0, 52, 43, 47, 49
174, 0.865, 2017/11/14 06:15:33.323下午, 557.0, 52, 44, 48, 49
175, 0.87, 2017/11/14 06:15:33.328下午, 579.0, 52, 43, 47, 48
176, 0.875, 2017/11/14 06:15:33.333下午, 572.0, 51, 44, 49, 49
177, 0.88, 2017/11/14 06:15:33.338下午, 583.0, 52, 44, 46, 49
178, 0.885, 2017/11/14 06:15:33.343下午, 592.0, 52, 43, 48, 49
179, 0.89, 2017/11/14 06:15:33.348下午, 580.0, 53, 44, 47, 49
180, 0.895, 2017/11/14 06:15:33.353下午, 588.0, 53, 44, 45, 49
181, 0.9, 2017/11/14 06:15:33.358下午, 583.0, 52, 43, 46, 48
182, 0.905, 2017/11/14 06:15:33.363下午, 565.0, 52, 45, 46, 49
183, 0.91, 2017/11/14 06:15:33.368下午, 565.0, 52, 44, 46, 49
184, 0.915, 2017/11/14 06:15:33.373下午, 571.0, 51, 44, 44, 48
185, 0.92, 2017/11/14 06:15:33.378下午, 572.0, 51, 45, 44, 48
186, 0.925, 2017/11/14 06:15:33.383下午, 571.0, 53, 43, 43, 48
187, 0.93, 2017/11/14 06:15:33.388下午, 582.0, 53, 44, 43, 48
188, 0.935, 2017/11/14 06:15:33.393下午, 588.0, 53, 44, 44, 49
189, 0.94, 2017/11/14 06:15:33.398下午, 611.0, 52, 44, 42, 47
190, 0.945, 2017/11/14 06:15:33.403下午, 565.0, 52, 44, 47, 49
191, 0.95, 2017/11/14 06:15:33.408下午, 581.0, 53, 44, 50, 49
192, 0.955, 2017/11/14 06:15:33.413下午, 586.0, 52, 43, 45, 48
193, 0.96, 2017/11/14 06:15:33.418下午, 577.0, 53, 44, 46, 49
194, 0.965, 2017/11/14 06:15:33.423下午, 565.0, 53, 45, 47, 49
195, 0.97, 2017/11/14 06:15:33.428下午, 602.0, 53, 44, 45, 49
196, 0.975, 2017/11/14 06:15:33.433下午, 577.0, 52, 43, 47, 49
197, 0.98, 2017/11/14 06:15:33.438下午, 565.0, 52, 44, 46, 49
198, 0.985, 2017/11/14 06:15:33.443下午, 581.0, 54, 44, 44, 49
199, 0.99, 2017/11/14 06:15:33.448下午, 574.0, 52, 44, 47, 49
200, 0.995, 2017/11/14 06:15:33.453下午, 560.0, 52, 43, 45, 48
201, 1, 2017/11/14 06:15:33.458下午, 573.0, 53, 44, 44, 49
202, 1.005, 2017/11/14 06:15:33.463下午, 560.0, 53, 44, 45, 49
203, 1.01, 2017/11/14 06:15:33.468下午, 568.0, 52, 43, 45, 48
204, 1.015, 2017/11/14 06:15:33.473下午, 572.0, 52, 42, 44, 48
205, 1.02, 2017/11/14 06:15:33.478下午, 594.0, 53, 42, 43, 47
206, 1.025, 2017/11/14 06:15:33.483下午, 587.0, 52, 44, 43, 48
207, 1.03, 2017/11/14 06:15:33.488下午, 591.0, 53, 42, 43, 48
208, 1.035, 2017/11/14 06:15:33.493下午, 570.0, 52, 44, 48, 49
209, 1.04, 2017/11/14 06:15:33.498下午, 574.0, 52, 43, 47, 49
210, 1.045, 2017/11/14 06:15:33.503下午, 578.0, 52, 43, 45, 48
211, 1.05, 2017/11/14 06:15:33.508下午, 588.0, 53, 44, 47, 49
212, 1.055, 2017/11/14 06:15:33.513下午, 585.0, 52, 44, 45, 48
213, 1.06, 2017/11/14 06:15:33.518下午, 586.0, 52, 43, 46, 48
214, 1.065, 2017/11/14 06:15:33.523下午, 569.0, 53, 43, 45, 49
215, 1.07, 2017/11/14 06:15:33.528下午, 568.0, 53, 44, 44, 49
216, 1.075, 2017/11/14 06:15:33.533下午, 580.0, 52, 45, 43, 48
217, 1.08, 2017/11/14 06:15:33.538下午, 577.0, 52, 43, 44, 48
218, 1.085, 2017/11/14 06:15:33.543下午, 580.0, 53, 43, 45, 48
219, 1.09, 2017/11/14 06:15:33.548下午, 578.0, 52, 42, 45, 48
220, 1.095, 2017/11/14 06:15:33.553下午, 585.0, 53, 42, 45, 48
221, 1.1, 2017/11/14 06:15:33.558下午, 591.0, 53, 43, 44, 48
222, 1.105, 2017/11/14 06:15:33.563下午, 567.0, 52, 41, 47, 48
223, 1.11, 2017/11/14 06:15:33.568下午, 562.0, 52, 43, 46, 49
224, 1.115, 2017/11/14 06:15:33.573下午, 573.0, 52, 42, 46, 48
225, 1.12, 2017/11/14 06:15:33.578下午, 585.0, 53, 43, 45, 49
226, 1.125, 2017/11/14 06:15:33.583下午, 557.0, 53, 43, 45, 49
227, 1.13, 2017/11/14 06:15:33.588下午, 576.0, 53, 42, 44, 48
228, 1.135, 2017/11/14 06:15:33.593下午, 586.0, 52, 43, 44, 48
229, 1.14, 2017/11/14 06:15:33.598下午, 572.0, 51, 43, 45, 48
230, 1.145, 2017/11/14 06:15:33.603下午, 584.0, 53, 43, 45, 49
231, 1.15, 2017/11/14 06:15:33.608下午, 586.0, 53, 43, 47, 49
232, 1.155, 2017/11/14 06:15:33.613下午, 575.0, 52, 44, 45, 49
233, 1.16, 2017/11/14 06:15:33.618下午, 583.0, 53, 43, 45, 49
234, 1.165, 2017/11/14 06:15:33.623下午, 610.0, 53, 44, 43, 48
235, 1.17, 2017/11/14 06:15:33.628下午, 566.0, 53, 44, 45, 49
236, 1.175, 2017/11/14 06:15:33.633下午, 571.0, 53, 42, 45, 48
237, 1.18, 2017/11/14 06:15:33.638下午, 570.0, 53, 43, 43, 49
238, 1.185, 2017/11/14 06:15:33.643下午, 577.0, 54, 44, 43, 49
239, 1.19, 2017/11/14 06:15:33.648下午, 585.0, 53, 42, 44, 48
240, 1.195, 2017/11/14 06:15:33.653下午, 586.0, 53, 44, 43, 48
241, 1.2, 2017/11/14 06:15:33.658下午, 592.0, 54, 42, 43, 48
242, 1.205, 2017/11/14 06:15:33.663下午, 592.0, 52, 44, 44, 48
243, 1.21, 2017/11/14 06:15:33.668下午, 582.0, 53, 43, 46, 49
244, 1.215, 2017/11/14 06:15:33.673下午, 569.0, 52, 43, 48, 49
245, 1.22, 2017/11/14 06:15:33.678下午, 570.0, 52, 42, 46, 48
246, 1.225, 2017/11/14 06:15:33.683下午, 571.0, 52, 43, 47, 49
247, 1.23, 2017/11/14 06:15:33.688下午, 573.0, 53, 42, 46, 49
248, 1.235, 2017/11/14 06:15:33.693下午, 566.0, 52, 42, 45, 48
249, 1.24, 2017/11/14 06:15:33.698下午, 562.0, 53, 42, 45, 48
250, 1.245, 2017/11/14 06:15:33.703下午, 586.0, 53, 43, 44, 48
251, 1.25, 2017/11/14 06:15:33.708下午, 586.0, 52, 43, 45, 48
252, 1.255, 2017/11/14 06:15:33.713下午, 572.0, 53, 43, 48, 49
253, 1.26, 2017/11/14 06:15:33.718下午, 573.0, 53, 42, 45, 48
254, 1.265, 2017/11/14 06:15:33.723下午, 587.0, 53, 43, 45, 49
255, 1.27, 2017/11/14 06:15:33.728下午, 606.0, 53, 44, 43, 48
256, 1.275, 2017/11/14 06:15:33.733下午, 567.0, 53, 42, 46, 49
257, 1.28, 2017/11/14 06:15:33.738下午, 581.0, 53, 43, 43, 48
258, 1.285, 2017/11/14 06:15:33.743下午, 578.0, 52, 43, 45, 48
259, 1.29, 2017/11/14 06:15:33.748下午, 571.0, 52, 43, 47, 49
260, 1.295, 2017/11/14 06:15:33.753下午, 585.0, 52, 43, 43, 48
261, 1.3, 2017/11/14 06:15:33.758下午, 590.0, 53, 43, 44, 48
262, 1.305, 2017/11/14 06:15:33.763下午, 577.0, 53, 43, 45, 48
263, 1.31, 2017/11/14 06:15:33.768下午, 580.0, 53, 42, 46, 48
264, 1.315, 2017/11/14 06:15:33.773下午, 581.0, 53, 42, 46, 48
265, 1.32, 2017/11/14 06:15:33.778下午, 561.0, 52, 42, 45, 48
266, 1.325, 2017/11/14 06:15:33.783下午, 567.0, 53, 44, 45, 49
267, 1.33, 2017/11/14 06:15:33.788下午, 585.0, 52, 42, 44, 48
268, 1.335, 2017/11/14 06:15:33.793下午, 563.0, 52, 43, 47, 48
269, 1.34, 2017/11/14 06:15:33.798下午, 563.0, 52, 42, 45, 48
270, 1.345, 2017/11/14 06:15:33.803下午, 559.0, 52, 43, 45, 48
271, 1.35, 2017/11/14 06:15:33.808下午, 572.0, 52, 43, 44, 48
272, 1.355, 2017/11/14 06:15:33.813下午, 572.0, 52, 43, 44, 48
273, 1.36, 2017/11/14 06:15:33.818下午, 575.0, 53, 43, 47, 49
274, 1.365, 2017/11/14 06:15:33.823下午, 586.0, 53, 42, 47, 49
275, 1.37, 2017/11/14 06:15:33.828下午, 571.0, 53, 42, 46, 49
276, 1.375, 2017/11/14 06:15:33.833下午, 578.0, 53, 42, 45, 48
277, 1.38, 2017/11/14 06:15:33.838下午, 580.0, 52, 43, 45, 48
278, 1.385, 2017/11/14 06:15:33.843下午, 589.0, 53, 42, 44, 48
279, 1.39, 2017/11/14 06:15:33.848下午, 566.0, 53, 43, 45, 49
280, 1.395, 2017/11/14 06:15:33.853下午, 582.0, 53, 42, 45, 48
281, 1.4, 2017/11/14 06:15:33.858下午, 580.0, 53, 42, 44, 48
282, 1.405, 2017/11/14 06:15:33.863下午, 570.0, 53, 43, 45, 49
283, 1.41, 2017/11/14 06:15:33.868下午, 563.0, 53, 42, 45, 48
284, 1.415, 2017/11/14 06:15:33.873下午, 591.0, 53, 43, 44, 48
285, 1.42, 2017/11/14 06:15:33.878下午, 579.0, 52, 43, 43, 48
286, 1.425, 2017/11/14 06:15:33.883下午, 563.0, 52, 43, 47, 49
287, 1.43, 2017/11/14 06:15:33.888下午, 558.0, 52, 43, 46, 48
288, 1.435, 2017/11/14 06:15:33.893下午, 576.0, 53, 43, 44, 49
289, 1.44, 2017/11/14 06:15:33.898下午, 587.0, 52, 42, 43, 47
290, 1.445, 2017/11/14 06:15:33.903下午, 575.0, 52, 43, 44, 48
291, 1.45, 2017/11/14 06:15:33.908下午, 586.0, 52, 43, 43, 48
292, 1.455, 2017/11/14 06:15:33.913下午, 600.0, 52, 43, 43, 48
293, 1.46, 2017/11/14 06:15:33.918下午, 583.0, 52, 43, 44, 48
294, 1.465, 2017/11/14 06:15:33.923下午, 569.0, 52, 42, 46, 48
295, 1.47, 2017/11/14 06:15:33.928下午, 586.0, 52, 42, 45, 48
296, 1.475, 2017/11/14 06:15:33.933下午, 586.0, 53, 43, 44, 49
297, 1.48, 2017/11/14 06:15:33.938下午, 592.0, 52, 44, 43, 48
298, 1.485, 2017/11/14 06:15:33.943下午, 576.0, 52, 43, 47, 48
299, 1.49, 2017/11/14 06:15:33.948下午, 589.0, 53, 42, 44, 48
300, 1.495, 2017/11/14 06:15:33.953下午, 566.0, 53, 43, 47, 49
301, 1.5, 2017/11/14 06:15:33.958下午, 582.0, 52, 42, 45, 48
302, 1.505, 2017/11/14 06:15:33.963下午, 579.0, 52, 43, 45, 48
303, 1.51, 2017/11/14 06:15:33.968下午, 579.0, 53, 43, 45, 49
304, 1.515, 2017/11/14 06:15:33.973下午, 592.0, 52, 43, 45, 48
305, 1.52, 2017/11/14 06:15:33.978下午, 578.0, 52, 42, 44, 48
306, 1.525, 2017/11/14 06:15:33.983下午, 581.0, 52, 44, 45, 49
307, 1.53, 2017/11/14 06:15:33.988下午, 585.0, 53, 43, 45, 48
308, 1.535, 2017/11/14 06:15:33.993下午, 596.0, 52, 43, 43, 48
309, 1.54, 2017/11/14 06:15:33.998下午, 579.0, 53, 43, 42, 48
310, 1.545, 2017/11/14 06:15:34.003下午, 564.0, 52, 43, 46, 49
311, 1.55, 2017/11/14 06:15:34.008下午, 577.0, 52, 41, 45, 48
312, 1.555, 2017/11/14 06:15:34.013下午, 582.0, 52, 42, 46, 48
313, 1.56, 2017/11/14 06:15:34.018下午, 568.0, 51, 43, 45, 48
314, 1.565, 2017/11/14 06:15:34.023下午, 575.0, 52, 42, 47, 48
315, 1.57, 2017/11/14 06:15:34.028下午, 576.0, 52, 43, 45, 49
316, 1.575, 2017/11/14 06:15:34.033下午, 587.0, 52, 42, 46, 48
317, 1.58, 2017/11/14 06:15:34.038下午, 585.0, 52, 43, 47, 48
318, 1.585, 2017/11/14 06:15:34.043下午, 582.0, 52, 43, 45, 48
319, 1.59, 2017/11/14 06:15:34.048下午, 582.0, 53, 44, 43, 48
320, 1.595, 2017/11/14 06:15:34.053下午, 584.0, 52, 43, 46, 48
321, 1.6, 2017/11/14 06:15:34.058下午, 574.0, 52, 43, 46, 48
322, 1.605, 2017/11/14 06:15:34.063下午, 571.0, 51, 45, 44, 48
323, 1.61, 2017/11/14 06:15:34.068下午, 573.0, 52, 44, 44, 48
324, 1.615, 2017/11/14 06:15:34.073下午, 568.0, 52, 44, 43, 48
325, 1.62, 2017/11/14 06:15:34.078下午, 571.0, 52, 43, 43, 48
326, 1.625, 2017/11/14 06:15:34.083下午, 579.0, 53, 43, 43, 48
327, 1.63, 2017/11/14 06:15:34.088下午, 599.0, 52, 42, 42, 47
328, 1.635, 2017/11/14 06:15:34.093下午, 596.0, 51, 43, 42, 47
329, 1.64, 2017/11/14 06:15:34.098下午, 588.0, 52, 43, 42, 47
330, 1.645, 2017/11/14 06:15:34.103下午, 593.0, 52, 43, 43, 47
331, 1.65, 2017/11/14 06:15:34.108下午, 602.0, 51, 44, 42, 47
332, 1.655, 2017/11/14 06:15:34.113下午, 560.0, 51, 44, 46, 48
333, 1.66, 2017/11/14 06:15:34.118下午, 574.0, 51, 42, 44, 47
334, 1.665, 2017/11/14 06:15:34.123下午, 585.0, 51, 44, 43, 47
335, 1.67, 2017/11/14 06:15:34.128下午, 574.0, 52, 43, 45, 48
336, 1.675, 2017/11/14 06:15:34.133下午, 581.0, 51, 43, 48, 48
337, 1.68, 2017/11/14 06:15:34.138下午, 593.0, 52, 43, 45, 48
338, 1.685, 2017/11/14 06:15:34.143下午, 608.0, 51, 43, 44, 47
339, 1.69, 2017/11/14 06:15:34.148下午, 575.0, 52, 43, 45, 48
340, 1.695, 2017/11/14 06:15:34.153下午, 583.0, 52, 44, 43, 48
341, 1.7, 2017/11/14 06:15:34.158下午, 575.0, 52, 43, 44, 48
342, 1.705, 2017/11/14 06:15:34.163下午, 573.0, 52, 44, 43, 48
343, 1.71, 2017/11/14 06:15:34.168下午, 585.0, 51, 43, 43, 47
344, 1.715, 2017/11/14 06:15:34.173下午, 578.0, 51, 42, 43, 47
345, 1.72, 2017/11/14 06:15:34.178下午, 593.0, 51, 42, 43, 47
346, 1.725, 2017/11/14 06:15:34.183下午, 603.0, 52, 44, 42, 47
347, 1.73, 2017/11/14 06:15:34.188下午, 591.0, 51, 43, 43, 47
348, 1.735, 2017/11/14 06:15:34.193下午, 595.0, 51, 43, 44, 47
349, 1.74, 2017/11/14 06:15:34.198下午, 570.0, 50, 43, 44, 47
350, 1.745, 2017/11/14 06:15:34.203下午, 576.0, 51, 43, 44, 47
351, 1.75, 2017/11/14 06:15:34.208下午, 581.0, 51, 43, 46, 48
352, 1.755, 2017/11/14 06:15:34.213下午, 579.0, 51, 43, 45, 47
353, 1.76, 2017/11/14 06:15:34.218下午, 584.0, 51, 44, 44, 48
354, 1.765, 2017/11/14 06:15:34.223下午, 561.0, 52, 45, 46, 49
355, 1.77, 2017/11/14 06:15:34.228下午, 581.0, 51, 44, 43, 47
356, 1.775, 2017/11/14 06:15:34.233下午, 595.0, 51, 44, 43, 47
357, 1.78, 2017/11/14 06:15:34.238下午, 575.0, 51, 44, 42, 47
358, 1.785, 2017/11/14 06:15:34.243下午, 597.0, 51, 43, 43, 47
359, 1.79, 2017/11/14 06:15:34.248下午, 590.0, 50, 43, 42, 47
360, 1.795, 2017/11/14 06:15:34.253下午, 604.0, 51, 43, 43, 47
361, 1.8, 2017/11/14 06:15:34.258下午, 565.0, 51, 43, 46, 48
362, 1.805, 2017/11/14 06:15:34.263下午, 587.0, 51, 43, 45, 47
363, 1.81, 2017/11/14 06:15:34.268下午, 575.0, 51, 43, 46, 48
364, 1.815, 2017/11/14 06:15:34.273下午, 589.0, 50, 43, 45, 47
365, 1.82, 2017/11/14 06:15:34.278下午, 579.0, 51, 44, 45, 48
366, 1.825, 2017/11/14 06:15:34.283下午, 581.0, 51, 43, 46, 48
367, 1.83, 2017/11/14 06:15:34.288下午, 575.0, 51, 43, 47, 48
368, 1.835, 2017/11/14 06:15:34.293下午, 588.0, 51, 43, 43, 47
369, 1.84, 2017/11/14 06:15:34.298下午, 602.0, 50, 44, 43, 47
370, 1.845, 2017/11/14 06:15:34.303下午, 571.0, 51, 44, 44, 48
371, 1.85, 2017/11/14 06:15:34.308下午, 583.0, 51, 43, 42, 47
372, 1.855, 2017/11/14 06:15:34.313下午, 585.0, 51, 43, 42, 47
373, 1.86, 2017/11/14 06:15:34.318下午, 587.0, 51, 43, 43, 47
374, 1.865, 2017/11/14 06:15:34.323下午, 606.0, 51, 44, 43, 47
375, 1.87, 2017/11/14 06:15:34.328下午, 596.0, 51, 43, 43, 47
376, 1.875, 2017/11/14 06:15:34.333下午, 575.0, 50, 42, 44, 47
377, 1.88, 2017/11/14 06:15:34.338下午, 584.0, 50, 43, 44, 47
378, 1.885, 2017/11/14 06:15:34.343下午, 574.0, 51, 44, 47, 48
379, 1.89, 2017/11/14 06:15:34.348下午, 601.0, 51, 43, 44, 47
380, 1.895, 2017/11/14 06:15:34.353下午, 570.0, 50, 44, 45, 48
381, 1.9, 2017/11/14 06:15:34.358下午, 585.0, 51, 43, 45, 48
382, 1.905, 2017/11/14 06:15:34.363下午, 583.0, 51, 43, 45, 47
383, 1.91, 2017/11/14 06:15:34.368下午, 590.0, 51, 43, 43, 47
384, 1.915, 2017/11/14 06:15:34.373下午, 579.0, 51, 44, 43, 47
385, 1.92, 2017/11/14 06:15:34.378下午, 575.0, 51, 43, 43, 47
386, 1.925, 2017/11/14 06:15:34.383下午, 577.0, 51, 43, 43, 47
387, 1.93, 2017/11/14 06:15:34.388下午, 586.0, 51, 43, 42, 46
388, 1.935, 2017/11/14 06:15:34.393下午, 601.0, 50, 43, 42, 46
389, 1.94, 2017/11/14 06:15:34.398下午, 590.0, 51, 43, 42, 47
390, 1.945, 2017/11/14 06:15:34.403下午, 599.0, 51, 43, 42, 47
391, 1.95, 2017/11/14 06:15:34.408下午, 580.0, 51, 43, 44, 47
392, 1.955, 2017/11/14 06:15:34.413下午, 582.0, 50, 42, 44, 47
393, 1.96, 2017/11/14 06:15:34.418下午, 578.0, 50, 42, 45, 47
394, 1.965, 2017/11/14 06:15:34.423下午, 577.0, 51, 44, 45, 48
395, 1.97, 2017/11/14 06:15:34.428下午, 595.0, 51, 44, 45, 48
396, 1.975, 2017/11/14 06:15:34.433下午, 577.0, 51, 42, 45, 47
397, 1.98, 2017/11/14 06:15:34.438下午, 580.0, 50, 44, 44, 47
398, 1.985, 2017/11/14 06:15:34.443下午, 589.0, 50, 44, 43, 47
399, 1.99, 2017/11/14 06:15:34.448下午, 567.0, 51, 44, 44, 48
400, 1.995, 2017/11/14 06:15:34.453下午, 561.0, 50, 45, 44, 47
401, 2, 2017/11/14 06:15:34.458下午, 585.0, 51, 44, 42, 47
402, 2.005, 2017/11/14 06:15:34.463下午, 586.0, 50, 43, 43, 46
403, 2.01, 2017/11/14 06:15:34.468下午, 592.0, 50, 44, 42, 46
404, 2.015, 2017/11/14 06:15:34.473下午, 570.0, 50, 43, 45, 47
405, 2.02, 2017/11/14 06:15:34.478下午, 583.0, 50, 42, 45, 47
406, 2.025, 2017/11/14 06:15:34.483下午, 571.0, 50, 43, 45, 47
407, 2.03, 2017/11/14 06:15:34.488下午, 567.0, 50, 44, 47, 48
408, 2.035, 2017/11/14 06:15:34.493下午, 577.0, 51, 44, 44, 48
409, 2.04, 2017/11/14 06:15:34.498下午, 607.0, 50, 43, 43, 47
410, 2.045, 2017/11/14 06:15:34.503下午, 588.0, 51, 44, 45, 48
411, 2.05, 2017/11/14 06:15:34.508下午, 576.0, 51, 43, 43, 47
412, 2.055, 2017/11/14 06:15:34.513下午, 599.0, 50, 43, 43, 47
413, 2.06, 2017/11/14 06:15:34.518下午, 582.0, 50, 43, 42, 46
414, 2.065, 2017/11/14 06:15:34.523下午, 589.0, 50, 43, 42, 46
415, 2.07, 2017/11/14 06:15:34.528下午, 574.0, 49, 43, 45, 47
416, 2.075, 2017/11/14 06:15:34.533下午, 609.0, 50, 43, 43, 47
417, 2.08, 2017/11/14 06:15:34.538下午, 593.0, 50, 44, 43, 47
418, 2.085, 2017/11/14 06:15:34.543下午, 581.0, 50, 43, 46, 47
419, 2.09, 2017/11/14 06:15:34.548下午, 572.0, 50, 43, 45, 47
420, 2.095, 2017/11/14 06:15:34.553下午, 589.0, 51, 43, 44, 47
421, 2.1, 2017/11/14 06:15:34.558下午, 589.0, 50, 44, 43, 47
422, 2.105, 2017/11/14 06:15:34.563下午, 578.0, 51, 44, 43, 47
423, 2.11, 2017/11/14 06:15:34.568下午, 577.0, 51, 44, 43, 47
424, 2.115, 2017/11/14 06:15:34.573下午, 586.0, 50, 43, 42, 46
425, 2.12, 2017/11/14 06:15:34.578下午, 594.0, 50, 43, 42, 46
426, 2.125, 2017/11/14 06:15:34.583下午, 601.0, 49, 43, 43, 46
427, 2.13, 2017/11/14 06:15:34.588下午, 585.0, 49, 42, 45, 46
428, 2.135, 2017/11/14 06:15:34.593下午, 567.0, 51, 43, 46, 47
429, 2.14, 2017/11/14 06:15:34.598下午, 575.0, 50, 43, 44, 47
430, 2.145, 2017/11/14 06:15:34.603下午, 594.0, 50, 44, 42, 47
431, 2.15, 2017/11/14 06:15:34.608下午, 594.0, 50, 44, 42, 47
432, 2.155, 2017/11/14 06:15:34.613下午, 596.0, 49, 43, 44, 46
433, 2.16, 2017/11/14 06:15:34.618下午, 575.0, 49, 43, 44, 47
434, 2.165, 2017/11/14 06:15:34.623下午, 577.0, 50, 43, 45, 47
435, 2.17, 2017/11/14 06:15:34.628下午, 582.0, 51, 45, 42, 47
436, 2.175, 2017/11/14 06:15:34.633下午, 571.0, 50, 43, 43, 46
437, 2.18, 2017/11/14 06:15:34.638下午, 590.0, 50, 43, 42, 46
438, 2.185, 2017/11/14 06:15:34.643下午, 585.0, 49, 43, 42, 46
439, 2.19, 2017/11/14 06:15:34.648下午, 576.0, 49, 43, 45, 46
440, 2.195, 2017/11/14 06:15:34.653下午, 587.0, 49, 43, 44, 46
441, 2.2, 2017/11/14 06:15:34.658下午, 584.0, 49, 43, 47, 47
442, 2.205, 2017/11/14 06:15:34.663下午, 569.0, 51, 43, 44, 47
443, 2.21, 2017/11/14 06:15:34.668下午, 587.0, 50, 43, 43, 47
444, 2.215, 2017/11/14 06:15:34.673下午, 590.0, 50, 43, 42, 46
445, 2.22, 2017/11/14 06:15:34.678下午, 583.0, 50, 43, 42, 46
446, 2.225, 2017/11/14 06:15:34.683下午, 581.0, 49, 43, 42, 46
447, 2.23, 2017/11/14 06:15:34.688下午, 586.0, 50, 43, 43, 47
448, 2.235, 2017/11/14 06:15:34.693下午, 575.0, 49, 43, 46, 47
449, 2.24, 2017/11/14 06:15:34.698下午, 598.0, 50, 43, 45, 47
450, 2.245, 2017/11/14 06:15:34.703下午, 566.0, 50, 43, 45, 47
451, 2.25, 2017/11/14 06:15:34.708下午, 572.0, 50, 44, 44, 47
452, 2.255, 2017/11/14 06:15:34.713下午, 570.0, 50, 43, 43, 47
453, 2.26, 2017/11/14 06:15:34.718下午, 575.0, 50, 44, 42, 46
454, 2.265, 2017/11/14 06:15:34.723下午, 590.0, 49, 43, 43, 46
455, 2.27, 2017/11/14 06:15:34.728下午, 573.0, 49, 43, 45, 47
456, 2.275, 2017/11/14 06:15:34.733下午, 584.0, 50, 43, 44, 47
457, 2.28, 2017/11/14 06:15:34.738下午, 585.0, 50, 43, 44, 47
458, 2.285, 2017/11/14 06:15:34.743下午, 580.0, 50, 43, 45, 47
459, 2.29, 2017/11/14 06:15:34.748下午, 577.0, 50, 43, 45, 47
460, 2.295, 2017/11/14 06:15:34.753下午, 567.0, 50, 45, 44, 47
461, 2.3, 2017/11/14 06:15:34.758下午, 587.0, 50, 44, 42, 47
462, 2.305, 2017/11/14 06:15:34.763下午, 579.0, 49, 43, 42, 46
463, 2.31, 2017/11/14 06:15:34.768下午, 565.0, 49, 43, 44, 46
464, 2.315, 2017/11/14 06:15:34.773下午, 583.0, 49, 43, 42, 46
465, 2.32, 2017/11/14 06:15:34.778下午, 559.0, 49, 43, 45, 47
466, 2.325, 2017/11/14 06:15:34.783下午, 572.0, 51, 43, 46, 47
467, 2.33, 2017/11/14 06:15:34.788下午, 581.0, 50, 43, 43, 47
468, 2.335, 2017/11/14 06:15:34.793下午, 561.0, 51, 44, 44, 47
469, 2.34, 2017/11/14 06:15:34.798下午, 582.0, 49, 44, 42, 46
470, 2.345, 2017/11/14 06:15:34.803下午, 586.0, 48, 43, 42, 46
471, 2.35, 2017/11/14 06:15:34.808下午, 598.0, 49, 43, 42, 46
472, 2.355, 2017/11/14 06:15:34.813下午, 587.0, 49, 43, 42, 46
473, 2.36, 2017/11/14 06:15:34.818下午, 587.0, 49, 43, 43, 46
474, 2.365, 2017/11/14 06:15:34.823下午, 587.0, 49, 43, 45, 47
475, 2.37, 2017/11/14 06:15:34.828下午, 590.0, 49, 43, 43, 46
476, 2.375, 2017/11/14 06:15:34.833下午, 586.0, 50, 43, 43, 47
477, 2.38, 2017/11/14 06:15:34.838下午, 577.0, 50, 44, 43, 47
478, 2.385, 2017/11/14 06:15:34.843下午, 566.0, 50, 43, 43, 47
479, 2.39, 2017/11/14 06:15:34.848下午, 592.0, 49, 44, 42, 46
480, 2.395, 2017/11/14 06:15:34.853下午, 588.0, 51, 43, 42, 47
481, 2.4, 2017/11/14 06:15:34.858下午, 592.0, 50, 43, 42, 46
482, 2.405, 2017/11/14 06:15:34.863下午, 597.0, 49, 43, 42, 46
483, 2.41, 2017/11/14 06:15:34.868下午, 572.0, 48, 42, 44, 46
484, 2.415, 2017/11/14 06:15:34.873下午, 583.0, 49, 43, 44, 46
485, 2.42, 2017/11/14 06:15:34.878下午, 581.0, 49, 43, 45, 46
486, 2.425, 2017/11/14 06:15:34.883下午, 569.0, 49, 42, 46, 46
487, 2.43, 2017/11/14 06:15:34.888下午, 569.0, 49, 44, 44, 47
488, 2.435, 2017/11/14 06:15:34.893下午, 576.0, 49, 42, 42, 46
489, 2.44, 2017/11/14 06:15:34.898下午, 589.0, 50, 43, 42, 46
490, 2.445, 2017/11/14 06:15:34.903下午, 583.0, 49, 43, 43, 46
491, 2.45, 2017/11/14 06:15:34.908下午, 584.0, 49, 42, 43, 46
492, 2.455, 2017/11/14 06:15:34.913下午, 581.0, 50, 42, 44, 47
493, 2.46, 2017/11/14 06:15:34.918下午, 581.0, 50, 43, 43, 46
494, 2.465, 2017/11/14 06:15:34.923下午, 586.0, 50, 43, 42, 46
495, 2.47, 2017/11/14 06:15:34.928下午, 573.0, 50, 44, 43, 47
496, 2.475, 2017/11/14 06:15:34.933下午, 577.0, 49, 43, 42, 46
497, 2.48, 2017/11/14 06:15:34.938下午, 579.0, 49, 43, 43, 46
498, 2.485, 2017/11/14 06:15:34.943下午, 572.0, 49, 43, 44, 46
499, 2.49, 2017/11/14 06:15:34.948下午, 580.0, 49, 43, 42, 46
500, 2.495, 2017/11/14 06:15:34.953下午, 574.0, 49, 43, 42, 46
501, 2.5, 2017/11/14 06:15:34.958下午, 569.0, 49, 44, 43, 47
502, 2.505, 2017/11/14 06:15:34.963下午, 577.0, 49, 44, 44, 46
503, 2.51, 2017/11/14 06:15:34.968下午, 566.0, 49, 44, 45, 47
504, 2.515, 2017/11/14 06:15:34.973下午, 578.0, 49, 43, 43, 46
505, 2.52, 2017/11/14 06:15:34.978下午, 581.0, 49, 45, 42, 46
506, 2.525, 2017/11/14 06:15:34.983下午, 587.0, 49, 43, 42, 46
507, 2.53, 2017/11/14 06:15:34.988下午, 587.0, 48, 42, 42, 45
508, 2.535, 2017/11/14 06:15:34.993下午, 580.0, 49, 42, 43, 46
509, 2.54, 2017/11/14 06:15:34.998下午, 563.0, 49, 43, 44, 46
510, 2.545, 2017/11/14 06:15:35.003下午, 601.0, 49, 43, 42, 46
511, 2.55, 2017/11/14 06:15:35.008下午, 593.0, 49, 43, 45, 47
512, 2.555, 2017/11/14 06:15:35.013下午, 562.0, 49, 43, 44, 47
513, 2.56, 2017/11/14 06:15:35.018下午, 574.0, 49, 41, 43, 46
514, 2.565, 2017/11/14 06:15:35.023下午, 604.0, 50, 42, 42, 46
515, 2.57, 2017/11/14 06:15:35.028下午, 572.0, 49, 42, 45, 46
516, 2.575, 2017/11/14 06:15:35.033下午, 577.0, 49, 43, 44, 46
517, 2.58, 2017/11/14 06:15:35.038下午, 583.0, 50, 42, 44, 47
518, 2.585, 2017/11/14 06:15:35.043下午, 569.0, 50, 44, 44, 47
519, 2.59, 2017/11/14 06:15:35.048下午, 592.0, 50, 42, 42, 46
520, 2.595, 2017/11/14 06:15:35.053下午, 586.0, 51, 43, 41, 46
521, 2.6, 2017/11/14 06:15:35.058下午, 570.0, 50, 43, 42, 46
522, 2.605, 2017/11/14 06:15:35.063下午, 582.0, 49, 44, 42, 46
523, 2.61, 2017/11/14 06:15:35.068下午, 583.0, 49, 42, 42, 45
524, 2.615, 2017/11/14 06:15:35.073下午, 590.0, 49, 42, 42, 46
525, 2.62, 2017/11/14 06:15:35.078下午, 591.0, 49, 43, 43, 46
526, 2.625, 2017/11/14 06:15:35.083下午, 592.0, 49, 42, 44, 46
527, 2.63, 2017/11/14 06:15:35.088下午, 565.0, 50, 43, 44, 47
528, 2.635, 2017/11/14 06:15:35.093下午, 587.0, 50, 43, 42, 46
529, 2.64, 2017/11/14 06:15:35.098下午, 582.0, 49, 42, 42, 46
530, 2.645, 2017/11/14 06:15:35.103下午, 592.0, 49, 43, 42, 46
531, 2.65, 2017/11/14 06:15:35.108下午, 568.0, 49, 42, 43, 46
532, 2.655, 2017/11/14 06:15:35.113下午, 572.0, 49, 42, 45, 46
533, 2.66, 2017/11/14 06:15:35.118下午, 587.0, 49, 43, 42, 46
534, 2.665, 2017/11/14 06:15:35.123下午, 582.0, 49, 42, 44, 46
535, 2.67, 2017/11/14 06:15:35.128下午, 572.0, 50, 43, 43, 47
536, 2.675, 2017/11/14 06:15:35.133下午, 582.0, 49, 42, 43, 46
537, 2.68, 2017/11/14 06:15:35.138下午, 578.0, 50, 42, 42, 46
538, 2.685, 2017/11/14 06:15:35.143下午, 573.0, 50, 42, 42, 46
539, 2.69, 2017/11/14 06:15:35.148下午, 599.0, 50, 43, 42, 46
540, 2.695, 2017/11/14 06:15:35.153下午, 566.0, 49, 42, 44, 46
541, 2.7, 2017/11/14 06:15:35.158下午, 584.0, 49, 42, 42, 45
542, 2.705, 2017/11/14 06:15:35.163下午, 583.0, 49, 42, 44, 46
543, 2.71, 2017/11/14 06:15:35.168下午, 574.0, 49, 43, 43, 47
544, 2.715, 2017/11/14 06:15:35.173下午, 595.0, 50, 42, 43, 46
545, 2.72, 2017/11/14 06:15:35.178下午, 583.0, 50, 43, 43, 46
546, 2.725, 2017/11/14 06:15:35.183下午, 558.0, 50, 44, 42, 46
547, 2.73, 2017/11/14 06:15:35.188下午, 578.0, 50, 42, 43, 46
548, 2.735, 2017/11/14 06:15:35.193下午, 585.0, 49, 43, 42, 46
549, 2.74, 2017/11/14 06:15:35.198下午, 587.0, 49, 43, 41, 46
550, 2.745, 2017/11/14 06:15:35.203下午, 588.0, 49, 42, 44, 46
551, 2.75, 2017/11/14 06:15:35.208下午, 565.0, 50, 42, 44, 47
552, 2.755, 2017/11/14 06:15:35.213下午, 568.0, 49, 42, 42, 46
553, 2.76, 2017/11/14 06:15:35.218下午, 576.0, 49, 44, 42, 46
554, 2.765, 2017/11/14 06:15:35.223下午, 587.0, 49, 42, 42, 46
555, 2.77, 2017/11/14 06:15:35.228下午, 571.0, 49, 43, 45, 46
556, 2.775, 2017/11/14 06:15:35.233下午, 596.0, 49, 42, 41, 45
557, 2.78, 2017/11/14 06:15:35.238下午, 590.0, 50, 42, 44, 47
558, 2.785, 2017/11/14 06:15:35.243下午, 573.0, 50, 43, 43, 47
559, 2.79, 2017/11/14 06:15:35.248下午, 584.0, 49, 43, 45, 46
560, 2.795, 2017/11/14 06:15:35.253下午, 583.0, 49, 42, 44, 46
561, 2.8, 2017/11/14 06:15:35.258下午, 586.0, 49, 42, 45, 46
562, 2.805, 2017/11/14 06:15:35.263下午, 580.0, 49, 42, 42, 46
563, 2.81, 2017/11/14 06:15:35.268下午, 576.0, 50, 41, 44, 46
564, 2.815, 2017/11/14 06:15:35.273下午, 586.0, 50, 43, 42, 46
565, 2.82, 2017/11/14 06:15:35.278下午, 578.0, 50, 43, 42, 46
566, 2.825, 2017/11/14 06:15:35.283下午, 569.0, 50, 43, 42, 47
567, 2.83, 2017/11/14 06:15:35.288下午, 563.0, 50, 42, 44, 47
568, 2.835, 2017/11/14 06:15:35.293下午, 593.0, 50, 43, 42, 46
569, 2.84, 2017/11/14 06:15:35.298下午, 570.0, 49, 42, 43, 46
570, 2.845, 2017/11/14 06:15:35.303下午, 586.0, 49, 42, 45, 46
571, 2.85, 2017/11/14 06:15:35.308下午, 593.0, 50, 42, 44, 46
572, 2.855, 2017/11/14 06:15:35.313下午, 579.0, 50, 43, 44, 47
573, 2.86, 2017/11/14 06:15:35.318下午, 587.0, 49, 41, 42, 45
574, 2.865, 2017/11/14 06:15:35.323下午, 589.0, 50, 43, 42, 46
575, 2.87, 2017/11/14 06:15:35.328下午, 595.0, 50, 43, 41, 46
576, 2.875, 2017/11/14 06:15:35.333下午, 573.0, 50, 43, 42, 46
577, 2.88, 2017/11/14 06:15:35.338下午, 585.0, 50, 42, 42, 46
578, 2.885, 2017/11/14 06:15:35.343下午, 590.0, 50, 43, 42, 46
579, 2.89, 2017/11/14 06:15:35.348下午, 601.0, 50, 42, 41, 46
580, 2.895, 2017/11/14 06:15:35.353下午, 588.0, 49, 43, 42, 46
581, 2.9, 2017/11/14 06:15:35.358下午, 581.0, 49, 42, 44, 46
582, 2.905, 2017/11/14 06:15:35.363下午, 576.0, 50, 43, 43, 47
583, 2.91, 2017/11/14 06:15:35.368下午, 583.0, 49, 42, 43, 46
584, 2.915, 2017/11/14 06:15:35.373下午, 579.0, 49, 42, 45, 46
585, 2.92, 2017/11/14 06:15:35.378下午, 570.0, 50, 42, 44, 47
586, 2.925, 2017/11/14 06:15:35.383下午, 584.0, 50, 43, 42, 46
587, 2.93, 2017/11/14 06:15:35.388下午, 585.0, 49, 43, 42, 46
588, 2.935, 2017/11/14 06:15:35.393下午, 581.0, 49, 44, 41, 46
589, 2.94, 2017/11/14 06:15:35.398下午, 580.0, 50, 41, 41, 46
590, 2.945, 2017/11/14 06:15:35.403下午, 605.0, 49, 42, 41, 45
591, 2.95, 2017/11/14 06:15:35.408下午, 584.0, 49, 42, 44, 46
592, 2.955, 2017/11/14 06:15:35.413下午, 581.0, 49, 42, 42, 46
593, 2.96, 2017/11/14 06:15:35.418下午, 583.0, 49, 42, 44, 46
594, 2.965, 2017/11/14 06:15:35.423下午, 586.0, 50, 42, 44, 46
595, 2.97, 2017/11/14 06:15:35.428下午, 557.0, 50, 42, 42, 46
596, 2.975, 2017/11/14 06:15:35.433下午, 583.0, 50, 43, 42, 46
597, 2.98, 2017/11/14 06:15:35.438下午, 580.0, 49, 43, 42, 46
598, 2.985, 2017/11/14 06:15:35.443下午, 599.0, 49, 42, 42, 45
599, 2.99, 2017/11/14 06:15:35.448下午, 592.0, 49, 42, 42, 46
600, 2.995, 2017/11/14 06:15:35.453下午, 572.0, 49, 42, 45, 46
@@
