DATA_TYPE Graph
VERSION Tekscan Pressure Measurement System 6.70-03
HARDWARE 00114-3447
MAP_VERSION 6.5
HW_TYPE 4
VersaPogoFsx 0
檔案名 C:\Users\asus\Desktop\工研院_計畫\收案資料\Subject02\Plantar Pressure\R65S_STAND_RIGHT_3.fsx
SENSOR_TYPE FSCAN
ROWS 60
COLS 21
ROW_SPACING 0.508 centimeters
COL_SPACING 0.508 centimeters
SENSEL_AREA 0.258064 cm2
NOISE_THRESHOLD 3
SECONDS_PER_FRAME 0.005
SECONDS_PER_FRAME 0
MICRO_SECOND 0
TIME 2017/11/15 11:15:58.365上午
SATURATION_PRESSURE 2347.96 KPa 
CALIBRATION_POINT_1 48.0001 (Kilograms) 1981 (Raw Sum) 199 (Number of Loaded Cells)
CALIBRATION_MODE_1 步態
CALIBRATION_INFO C:\Users\asus\Desktop\工研院_計畫\收案資料\Subject02\Plantar Pressure\R65S_STAND_RIGHT_3.fsx
SENSITIVITY 自定義
MAP_INDEX 0
SUBMAP 0
Patient ID: 

Speed of Gait: 

Weight: 

Gender: 

Physician: 

Technician: 

Shoe: 

START_FRAME 1
END_FRAME 600
UNITS cm2
ASCII_DATA @@
畫面(X), 時間(X), 絕對時間(X), Raw Sum, 區域(Y:藍色), 區域(Y), 區域(Y), 區域(Y)
1, 0, 2017/11/15 11:15:58.365上午, 593.0, 12.39, 6.97, 14.19, 33.55
2, 0.005, 2017/11/15 11:15:58.37上午, 586.0, 12.65, 6.45, 13.94, 33.03
3, 0.01, 2017/11/15 11:15:58.375上午, 609.0, 13.42, 7.48, 13.94, 34.84
4, 0.015, 2017/11/15 11:15:58.38上午, 617.0, 13.42, 8.00, 14.45, 35.87
5, 0.02, 2017/11/15 11:15:58.385上午, 597.0, 12.39, 7.23, 14.19, 33.81
6, 0.025, 2017/11/15 11:15:58.39上午, 596.0, 12.65, 6.97, 14.19, 33.81
7, 0.03, 2017/11/15 11:15:58.395上午, 594.0, 12.65, 6.71, 14.45, 33.81
8, 0.035, 2017/11/15 11:15:58.4上午, 623.0, 13.42, 8.26, 14.19, 35.87
9, 0.04, 2017/11/15 11:15:58.405上午, 615.0, 12.90, 8.00, 14.97, 35.87
10, 0.045, 2017/11/15 11:15:58.41上午, 587.0, 13.16, 6.45, 13.94, 33.55
11, 0.05, 2017/11/15 11:15:58.415上午, 614.0, 13.16, 8.26, 14.19, 35.61
12, 0.055, 2017/11/15 11:15:58.42上午, 587.0, 12.39, 6.97, 13.94, 33.29
13, 0.06, 2017/11/15 11:15:58.425上午, 608.0, 12.90, 7.23, 14.45, 34.58
14, 0.065, 2017/11/15 11:15:58.43上午, 622.0, 13.16, 7.74, 14.71, 35.61
15, 0.07, 2017/11/15 11:15:58.435上午, 583.0, 12.39, 6.19, 14.19, 32.77
16, 0.075, 2017/11/15 11:15:58.44上午, 625.0, 13.42, 8.00, 14.71, 36.13
17, 0.08, 2017/11/15 11:15:58.445上午, 598.0, 12.65, 6.97, 14.45, 34.06
18, 0.085, 2017/11/15 11:15:58.45上午, 595.0, 12.90, 6.71, 14.19, 33.81
19, 0.09, 2017/11/15 11:15:58.455上午, 606.0, 13.16, 8.00, 13.94, 35.10
20, 0.095, 2017/11/15 11:15:58.46上午, 610.0, 13.16, 7.48, 13.94, 34.58
21, 0.1, 2017/11/15 11:15:58.465上午, 581.0, 12.65, 6.45, 13.42, 32.52
22, 0.105, 2017/11/15 11:15:58.47上午, 619.0, 12.90, 8.00, 14.45, 35.35
23, 0.11, 2017/11/15 11:15:58.475上午, 620.0, 13.16, 8.00, 14.45, 35.61
24, 0.115, 2017/11/15 11:15:58.48上午, 591.0, 12.39, 7.23, 13.68, 33.29
25, 0.12, 2017/11/15 11:15:58.485上午, 594.0, 12.65, 6.71, 14.19, 33.55
26, 0.125, 2017/11/15 11:15:58.49上午, 613.0, 13.16, 8.26, 13.42, 34.84
27, 0.13, 2017/11/15 11:15:58.495上午, 610.0, 12.90, 7.48, 14.45, 34.84
28, 0.135, 2017/11/15 11:15:58.5上午, 605.0, 12.65, 7.23, 14.71, 34.58
29, 0.14, 2017/11/15 11:15:58.505上午, 604.0, 12.90, 7.74, 13.94, 34.58
30, 0.145, 2017/11/15 11:15:58.51上午, 629.0, 13.42, 8.00, 14.71, 36.13
31, 0.15, 2017/11/15 11:15:58.515上午, 596.0, 12.65, 6.97, 14.19, 33.81
32, 0.155, 2017/11/15 11:15:58.52上午, 600.0, 12.90, 6.97, 14.19, 34.06
33, 0.16, 2017/11/15 11:15:58.525上午, 613.0, 13.16, 7.74, 13.94, 34.84
34, 0.165, 2017/11/15 11:15:58.53上午, 599.0, 12.90, 6.97, 14.45, 34.32
35, 0.17, 2017/11/15 11:15:58.535上午, 574.0, 12.39, 6.19, 13.68, 32.26
36, 0.175, 2017/11/15 11:15:58.54上午, 601.0, 12.90, 6.97, 14.19, 34.06
37, 0.18, 2017/11/15 11:15:58.545上午, 615.0, 13.42, 7.74, 13.68, 34.84
38, 0.185, 2017/11/15 11:15:58.55上午, 613.0, 12.65, 6.97, 14.45, 34.06
39, 0.19, 2017/11/15 11:15:58.555上午, 597.0, 12.90, 6.71, 13.42, 33.03
40, 0.195, 2017/11/15 11:15:58.56上午, 606.0, 12.90, 7.23, 14.19, 34.32
41, 0.2, 2017/11/15 11:15:58.565上午, 606.0, 12.90, 7.74, 13.94, 34.58
42, 0.205, 2017/11/15 11:15:58.57上午, 622.0, 12.90, 8.00, 14.71, 35.61
43, 0.21, 2017/11/15 11:15:58.575上午, 613.0, 13.16, 6.97, 14.71, 34.84
44, 0.215, 2017/11/15 11:15:58.58上午, 588.0, 12.65, 6.45, 13.68, 32.77
45, 0.22, 2017/11/15 11:15:58.585上午, 605.0, 13.16, 7.74, 13.94, 34.84
46, 0.225, 2017/11/15 11:15:58.59上午, 621.0, 13.16, 8.26, 13.94, 35.35
47, 0.23, 2017/11/15 11:15:58.595上午, 628.0, 13.42, 8.52, 13.94, 35.87
48, 0.235, 2017/11/15 11:15:58.6上午, 606.0, 12.90, 7.23, 13.68, 33.81
49, 0.24, 2017/11/15 11:15:58.605上午, 607.0, 12.90, 6.71, 14.45, 34.06
50, 0.245, 2017/11/15 11:15:58.61上午, 622.0, 13.16, 8.52, 13.94, 35.61
51, 0.25, 2017/11/15 11:15:58.615上午, 618.0, 13.16, 7.74, 14.19, 35.10
52, 0.255, 2017/11/15 11:15:58.62上午, 592.0, 12.65, 6.71, 13.68, 33.03
53, 0.26, 2017/11/15 11:15:58.625上午, 624.0, 13.42, 7.74, 13.94, 35.10
54, 0.265, 2017/11/15 11:15:58.63上午, 603.0, 12.90, 6.97, 13.68, 33.55
55, 0.27, 2017/11/15 11:15:58.635上午, 615.0, 12.90, 7.48, 14.19, 34.58
56, 0.275, 2017/11/15 11:15:58.64上午, 609.0, 13.42, 7.48, 13.94, 34.84
57, 0.28, 2017/11/15 11:15:58.645上午, 617.0, 13.16, 6.97, 14.45, 34.58
58, 0.285, 2017/11/15 11:15:58.65上午, 605.0, 12.90, 7.23, 14.19, 34.32
59, 0.29, 2017/11/15 11:15:58.655上午, 625.0, 13.68, 8.00, 14.19, 35.87
60, 0.295, 2017/11/15 11:15:58.66上午, 608.0, 12.90, 6.97, 14.45, 34.32
61, 0.3, 2017/11/15 11:15:58.665上午, 601.0, 12.90, 6.71, 13.68, 33.29
62, 0.305, 2017/11/15 11:15:58.67上午, 605.0, 13.16, 7.74, 13.68, 34.58
63, 0.31, 2017/11/15 11:15:58.675上午, 640.0, 13.42, 8.77, 14.45, 36.65
64, 0.315, 2017/11/15 11:15:58.68上午, 623.0, 12.90, 7.74, 14.45, 35.10
65, 0.32, 2017/11/15 11:15:58.685上午, 602.0, 13.42, 7.23, 13.16, 33.81
66, 0.325, 2017/11/15 11:15:58.69上午, 599.0, 12.90, 7.23, 13.68, 33.81
67, 0.33, 2017/11/15 11:15:58.695上午, 616.0, 13.68, 7.74, 13.94, 35.35
68, 0.335, 2017/11/15 11:15:58.7上午, 600.0, 12.90, 6.19, 14.45, 33.55
69, 0.34, 2017/11/15 11:15:58.705上午, 625.0, 13.68, 7.23, 14.19, 35.10
70, 0.345, 2017/11/15 11:15:58.71上午, 632.0, 13.16, 8.26, 14.45, 35.87
71, 0.35, 2017/11/15 11:15:58.715上午, 609.0, 13.16, 6.97, 13.94, 34.06
72, 0.355, 2017/11/15 11:15:58.72上午, 607.0, 13.16, 6.71, 14.19, 34.06
73, 0.36, 2017/11/15 11:15:58.725上午, 620.0, 13.42, 7.74, 14.19, 35.35
74, 0.365, 2017/11/15 11:15:58.73上午, 614.0, 13.16, 6.97, 14.19, 34.32
75, 0.37, 2017/11/15 11:15:58.735上午, 608.0, 12.90, 7.23, 13.94, 34.06
76, 0.375, 2017/11/15 11:15:58.74上午, 619.0, 13.42, 7.23, 14.19, 34.84
77, 0.38, 2017/11/15 11:15:58.745上午, 615.0, 13.42, 7.48, 13.68, 34.58
78, 0.385, 2017/11/15 11:15:58.75上午, 607.0, 12.90, 7.23, 14.19, 34.32
79, 0.39, 2017/11/15 11:15:58.755上午, 627.0, 13.42, 8.52, 14.19, 36.13
80, 0.395, 2017/11/15 11:15:58.76上午, 612.0, 13.16, 7.48, 13.68, 34.32
81, 0.4, 2017/11/15 11:15:58.765上午, 610.0, 13.68, 6.71, 13.94, 34.32
82, 0.405, 2017/11/15 11:15:58.77上午, 627.0, 13.42, 8.52, 13.94, 35.87
83, 0.41, 2017/11/15 11:15:58.775上午, 624.0, 13.42, 8.26, 13.42, 35.10
84, 0.415, 2017/11/15 11:15:58.78上午, 608.0, 13.16, 7.48, 13.42, 34.06
85, 0.42, 2017/11/15 11:15:58.785上午, 631.0, 13.94, 7.23, 14.45, 35.61
86, 0.425, 2017/11/15 11:15:58.79上午, 616.0, 13.42, 7.48, 13.94, 34.84
87, 0.43, 2017/11/15 11:15:58.795上午, 636.0, 13.42, 8.52, 14.71, 36.65
88, 0.435, 2017/11/15 11:15:58.8上午, 617.0, 13.16, 7.23, 13.68, 34.06
89, 0.44, 2017/11/15 11:15:58.805上午, 627.0, 13.42, 8.26, 14.19, 35.87
90, 0.445, 2017/11/15 11:15:58.81上午, 626.0, 13.42, 8.52, 13.42, 35.35
91, 0.45, 2017/11/15 11:15:58.815上午, 622.0, 13.94, 6.97, 13.94, 34.84
92, 0.455, 2017/11/15 11:15:58.82上午, 628.0, 13.42, 7.74, 14.45, 35.61
93, 0.46, 2017/11/15 11:15:58.825上午, 615.0, 13.16, 7.48, 13.42, 34.06
94, 0.465, 2017/11/15 11:15:58.83上午, 620.0, 13.42, 8.00, 13.94, 35.35
95, 0.47, 2017/11/15 11:15:58.835上午, 632.0, 13.42, 7.74, 14.45, 35.61
96, 0.475, 2017/11/15 11:15:58.84上午, 600.0, 13.16, 6.97, 13.16, 33.29
97, 0.48, 2017/11/15 11:15:58.845上午, 634.0, 13.42, 8.52, 13.94, 35.87
98, 0.485, 2017/11/15 11:15:58.85上午, 639.0, 13.42, 8.26, 14.45, 36.13
99, 0.49, 2017/11/15 11:15:58.855上午, 615.0, 13.16, 7.48, 13.68, 34.32
100, 0.495, 2017/11/15 11:15:58.86上午, 625.0, 13.42, 8.00, 13.68, 35.10
101, 0.5, 2017/11/15 11:15:58.865上午, 634.0, 13.68, 8.26, 14.19, 36.13
102, 0.505, 2017/11/15 11:15:58.87上午, 616.0, 13.16, 7.23, 14.19, 34.58
103, 0.51, 2017/11/15 11:15:58.875上午, 630.0, 13.94, 7.23, 14.19, 35.35
104, 0.515, 2017/11/15 11:15:58.88上午, 627.0, 13.42, 8.26, 14.19, 35.87
105, 0.52, 2017/11/15 11:15:58.885上午, 637.0, 13.42, 8.26, 14.19, 35.87
106, 0.525, 2017/11/15 11:15:58.89上午, 621.0, 13.42, 7.74, 13.94, 35.10
107, 0.53, 2017/11/15 11:15:58.895上午, 616.0, 13.16, 7.23, 14.45, 34.84
108, 0.535, 2017/11/15 11:15:58.9上午, 635.0, 13.42, 8.52, 14.19, 36.13
109, 0.54, 2017/11/15 11:15:58.905上午, 639.0, 13.42, 8.26, 14.45, 36.13
110, 0.545, 2017/11/15 11:15:58.91上午, 618.0, 13.94, 6.71, 13.42, 34.06
111, 0.55, 2017/11/15 11:15:58.915上午, 619.0, 13.42, 7.23, 13.94, 34.58
112, 0.555, 2017/11/15 11:15:58.92上午, 638.0, 13.42, 8.52, 14.45, 36.39
113, 0.56, 2017/11/15 11:15:58.925上午, 609.0, 13.16, 6.71, 13.68, 33.55
114, 0.565, 2017/11/15 11:15:58.93上午, 632.0, 13.16, 8.52, 14.19, 35.87
115, 0.57, 2017/11/15 11:15:58.935上午, 634.0, 13.42, 8.00, 14.45, 35.87
116, 0.575, 2017/11/15 11:15:58.94上午, 600.0, 13.16, 6.45, 13.42, 33.03
117, 0.58, 2017/11/15 11:15:58.945上午, 637.0, 13.42, 8.00, 14.19, 35.61
118, 0.585, 2017/11/15 11:15:58.95上午, 627.0, 13.42, 8.26, 14.45, 36.13
119, 0.59, 2017/11/15 11:15:58.955上午, 611.0, 13.16, 7.23, 13.42, 33.81
120, 0.595, 2017/11/15 11:15:58.96上午, 626.0, 13.16, 8.00, 13.94, 35.10
121, 0.6, 2017/11/15 11:15:58.965上午, 636.0, 13.68, 8.52, 14.45, 36.65
122, 0.605, 2017/11/15 11:15:58.97上午, 642.0, 13.42, 8.52, 14.45, 36.39
123, 0.61, 2017/11/15 11:15:58.975上午, 607.0, 12.90, 7.23, 13.94, 34.06
124, 0.615, 2017/11/15 11:15:58.98上午, 619.0, 12.90, 7.23, 13.68, 33.81
125, 0.62, 2017/11/15 11:15:58.985上午, 636.0, 13.68, 8.77, 14.19, 36.65
126, 0.625, 2017/11/15 11:15:58.99上午, 608.0, 12.90, 6.19, 14.45, 33.55
127, 0.63, 2017/11/15 11:15:58.995上午, 625.0, 13.16, 7.74, 13.68, 34.58
128, 0.635, 2017/11/15 11:15:59上午, 639.0, 13.68, 8.52, 13.94, 36.13
129, 0.64, 2017/11/15 11:15:59.005上午, 633.0, 13.42, 8.00, 13.94, 35.35
130, 0.645, 2017/11/15 11:15:59.01上午, 627.0, 13.94, 6.97, 13.94, 34.84
131, 0.65, 2017/11/15 11:15:59.015上午, 616.0, 13.68, 7.74, 13.42, 34.84
132, 0.655, 2017/11/15 11:15:59.02上午, 622.0, 13.42, 7.23, 13.68, 34.32
133, 0.66, 2017/11/15 11:15:59.025上午, 623.0, 13.42, 8.00, 13.94, 35.35
134, 0.665, 2017/11/15 11:15:59.03上午, 629.0, 13.16, 7.48, 14.45, 35.10
135, 0.67, 2017/11/15 11:15:59.035上午, 607.0, 12.90, 7.23, 13.94, 34.06
136, 0.675, 2017/11/15 11:15:59.04上午, 626.0, 13.42, 8.52, 14.19, 36.13
137, 0.68, 2017/11/15 11:15:59.045上午, 631.0, 13.42, 8.26, 13.68, 35.35
138, 0.685, 2017/11/15 11:15:59.05上午, 614.0, 13.68, 6.97, 13.94, 34.58
139, 0.69, 2017/11/15 11:15:59.055上午, 631.0, 13.68, 8.00, 14.19, 35.87
140, 0.695, 2017/11/15 11:15:59.06上午, 633.0, 13.68, 8.26, 14.19, 36.13
141, 0.7, 2017/11/15 11:15:59.065上午, 612.0, 13.16, 7.23, 13.94, 34.32
142, 0.705, 2017/11/15 11:15:59.07上午, 625.0, 13.94, 7.23, 14.19, 35.35
143, 0.71, 2017/11/15 11:15:59.075上午, 634.0, 13.42, 8.26, 13.94, 35.61
144, 0.715, 2017/11/15 11:15:59.08上午, 634.0, 13.16, 8.00, 14.45, 35.61
145, 0.72, 2017/11/15 11:15:59.085上午, 615.0, 13.16, 7.23, 14.19, 34.58
146, 0.725, 2017/11/15 11:15:59.09上午, 616.0, 13.16, 7.23, 13.42, 33.81
147, 0.73, 2017/11/15 11:15:59.095上午, 629.0, 13.42, 8.26, 14.19, 35.87
148, 0.735, 2017/11/15 11:15:59.1上午, 629.0, 13.68, 8.52, 14.19, 36.39
149, 0.74, 2017/11/15 11:15:59.105上午, 624.0, 13.16, 7.23, 14.45, 34.84
150, 0.745, 2017/11/15 11:15:59.11上午, 619.0, 13.16, 7.23, 14.45, 34.84
151, 0.75, 2017/11/15 11:15:59.115上午, 641.0, 13.42, 8.77, 14.19, 36.39
152, 0.755, 2017/11/15 11:15:59.12上午, 611.0, 13.16, 7.23, 13.68, 34.06
153, 0.76, 2017/11/15 11:15:59.125上午, 614.0, 13.16, 7.23, 14.19, 34.58
154, 0.765, 2017/11/15 11:15:59.13上午, 630.0, 13.68, 8.26, 13.94, 35.87
155, 0.77, 2017/11/15 11:15:59.135上午, 619.0, 13.16, 6.97, 14.45, 34.58
156, 0.775, 2017/11/15 11:15:59.14上午, 614.0, 12.90, 7.48, 13.68, 34.06
157, 0.78, 2017/11/15 11:15:59.145上午, 639.0, 13.68, 8.77, 13.94, 36.39
158, 0.785, 2017/11/15 11:15:59.15上午, 639.0, 13.42, 8.26, 14.19, 35.87
159, 0.79, 2017/11/15 11:15:59.155上午, 627.0, 13.68, 7.23, 13.94, 34.84
160, 0.795, 2017/11/15 11:15:59.16上午, 626.0, 13.42, 8.00, 13.94, 35.35
161, 0.8, 2017/11/15 11:15:59.165上午, 628.0, 13.68, 7.74, 14.19, 35.61
162, 0.805, 2017/11/15 11:15:59.17上午, 628.0, 13.94, 6.97, 14.19, 35.10
163, 0.81, 2017/11/15 11:15:59.175上午, 615.0, 13.16, 6.97, 13.94, 34.06
164, 0.815, 2017/11/15 11:15:59.18上午, 643.0, 13.42, 8.52, 13.94, 35.87
165, 0.82, 2017/11/15 11:15:59.185上午, 615.0, 13.16, 6.97, 14.19, 34.32
166, 0.825, 2017/11/15 11:15:59.19上午, 615.0, 13.42, 7.74, 13.68, 34.84
167, 0.83, 2017/11/15 11:15:59.195上午, 622.0, 13.16, 7.23, 14.45, 34.84
168, 0.835, 2017/11/15 11:15:59.2上午, 629.0, 13.16, 8.00, 14.45, 35.61
169, 0.84, 2017/11/15 11:15:59.205上午, 626.0, 13.42, 7.74, 13.94, 35.10
170, 0.845, 2017/11/15 11:15:59.21上午, 605.0, 12.90, 7.23, 13.68, 33.81
171, 0.85, 2017/11/15 11:15:59.215上午, 633.0, 13.68, 8.00, 14.45, 36.13
172, 0.855, 2017/11/15 11:15:59.22上午, 625.0, 13.94, 6.97, 13.94, 34.84
173, 0.86, 2017/11/15 11:15:59.225上午, 628.0, 13.42, 8.00, 13.68, 35.10
174, 0.865, 2017/11/15 11:15:59.23上午, 631.0, 13.42, 7.48, 14.45, 35.35
175, 0.87, 2017/11/15 11:15:59.235上午, 619.0, 13.16, 7.23, 14.19, 34.58
176, 0.875, 2017/11/15 11:15:59.24上午, 641.0, 13.68, 8.77, 14.19, 36.65
177, 0.88, 2017/11/15 11:15:59.245上午, 623.0, 13.16, 7.23, 14.45, 34.84
178, 0.885, 2017/11/15 11:15:59.25上午, 621.0, 13.68, 7.48, 13.94, 35.10
179, 0.89, 2017/11/15 11:15:59.255上午, 626.0, 13.42, 8.00, 14.19, 35.61
180, 0.895, 2017/11/15 11:15:59.26上午, 607.0, 13.16, 6.97, 13.94, 34.06
181, 0.9, 2017/11/15 11:15:59.265上午, 625.0, 13.16, 8.00, 14.19, 35.35
182, 0.905, 2017/11/15 11:15:59.27上午, 633.0, 13.42, 8.26, 14.19, 35.87
183, 0.91, 2017/11/15 11:15:59.275上午, 621.0, 13.16, 7.23, 13.94, 34.32
184, 0.915, 2017/11/15 11:15:59.28上午, 633.0, 13.94, 7.23, 14.19, 35.35
185, 0.92, 2017/11/15 11:15:59.285上午, 629.0, 13.16, 8.26, 13.94, 35.35
186, 0.925, 2017/11/15 11:15:59.29上午, 623.0, 13.16, 6.97, 14.45, 34.58
187, 0.93, 2017/11/15 11:15:59.295上午, 619.0, 13.16, 7.23, 14.19, 34.58
188, 0.935, 2017/11/15 11:15:59.3上午, 620.0, 12.90, 7.23, 14.19, 34.32
189, 0.94, 2017/11/15 11:15:59.305上午, 633.0, 13.68, 8.00, 14.45, 36.13
190, 0.945, 2017/11/15 11:15:59.31上午, 615.0, 13.16, 7.23, 13.94, 34.32
191, 0.95, 2017/11/15 11:15:59.315上午, 634.0, 13.42, 8.00, 14.19, 35.61
192, 0.955, 2017/11/15 11:15:59.32上午, 650.0, 13.42, 9.03, 14.71, 37.16
193, 0.96, 2017/11/15 11:15:59.325上午, 619.0, 13.68, 7.23, 13.42, 34.32
194, 0.965, 2017/11/15 11:15:59.33上午, 639.0, 13.68, 8.52, 13.94, 36.13
195, 0.97, 2017/11/15 11:15:59.335上午, 613.0, 13.16, 7.23, 13.68, 34.06
196, 0.975, 2017/11/15 11:15:59.34上午, 634.0, 13.16, 8.26, 14.19, 35.61
197, 0.98, 2017/11/15 11:15:59.345上午, 636.0, 13.68, 8.00, 14.45, 36.13
198, 0.985, 2017/11/15 11:15:59.35上午, 624.0, 13.16, 7.48, 14.19, 34.84
199, 0.99, 2017/11/15 11:15:59.355上午, 626.0, 13.16, 8.00, 13.94, 35.10
200, 0.995, 2017/11/15 11:15:59.36上午, 635.0, 13.68, 8.52, 14.19, 36.39
201, 1, 2017/11/15 11:15:59.365上午, 629.0, 13.42, 7.48, 14.45, 35.35
202, 1.005, 2017/11/15 11:15:59.37上午, 626.0, 12.90, 7.74, 14.19, 34.84
203, 1.01, 2017/11/15 11:15:59.375上午, 632.0, 13.16, 8.52, 13.94, 35.61
204, 1.015, 2017/11/15 11:15:59.38上午, 618.0, 13.16, 6.97, 14.19, 34.32
205, 1.02, 2017/11/15 11:15:59.385上午, 624.0, 13.94, 6.97, 14.19, 35.10
206, 1.025, 2017/11/15 11:15:59.39上午, 620.0, 13.68, 7.48, 13.94, 35.10
207, 1.03, 2017/11/15 11:15:59.395上午, 644.0, 13.42, 8.26, 14.71, 36.39
208, 1.035, 2017/11/15 11:15:59.4上午, 615.0, 13.16, 7.48, 13.68, 34.32
209, 1.04, 2017/11/15 11:15:59.405上午, 611.0, 12.90, 6.97, 14.45, 34.32
210, 1.045, 2017/11/15 11:15:59.41上午, 623.0, 13.42, 8.00, 13.94, 35.35
211, 1.05, 2017/11/15 11:15:59.415上午, 609.0, 13.16, 7.23, 13.42, 33.81
212, 1.055, 2017/11/15 11:15:59.42上午, 611.0, 12.90, 7.23, 14.19, 34.32
213, 1.06, 2017/11/15 11:15:59.425上午, 608.0, 13.68, 7.23, 13.42, 34.32
214, 1.065, 2017/11/15 11:15:59.43上午, 625.0, 13.16, 7.23, 14.45, 34.84
215, 1.07, 2017/11/15 11:15:59.435上午, 628.0, 13.16, 8.00, 13.94, 35.10
216, 1.075, 2017/11/15 11:15:59.44上午, 629.0, 13.42, 7.48, 14.45, 35.35
217, 1.08, 2017/11/15 11:15:59.445上午, 635.0, 13.94, 7.74, 13.68, 35.35
218, 1.085, 2017/11/15 11:15:59.45上午, 630.0, 13.42, 8.00, 13.94, 35.35
219, 1.09, 2017/11/15 11:15:59.455上午, 631.0, 13.42, 7.74, 14.45, 35.61
220, 1.095, 2017/11/15 11:15:59.46上午, 641.0, 13.68, 8.00, 14.19, 35.87
221, 1.1, 2017/11/15 11:15:59.465上午, 635.0, 13.42, 8.00, 14.19, 35.61
222, 1.105, 2017/11/15 11:15:59.47上午, 623.0, 13.68, 7.74, 14.19, 35.61
223, 1.11, 2017/11/15 11:15:59.475上午, 615.0, 13.16, 7.23, 13.94, 34.32
224, 1.115, 2017/11/15 11:15:59.48上午, 619.0, 13.16, 7.23, 14.19, 34.58
225, 1.12, 2017/11/15 11:15:59.485上午, 626.0, 13.42, 7.74, 13.94, 35.10
226, 1.125, 2017/11/15 11:15:59.49上午, 628.0, 13.16, 8.00, 14.19, 35.35
227, 1.13, 2017/11/15 11:15:59.495上午, 630.0, 13.16, 7.74, 14.45, 35.35
228, 1.135, 2017/11/15 11:15:59.5上午, 615.0, 13.16, 7.23, 14.19, 34.58
229, 1.14, 2017/11/15 11:15:59.505上午, 627.0, 13.68, 7.74, 13.94, 35.35
230, 1.145, 2017/11/15 11:15:59.51上午, 613.0, 12.90, 6.97, 13.94, 33.81
231, 1.15, 2017/11/15 11:15:59.515上午, 632.0, 13.42, 8.26, 14.19, 35.87
232, 1.155, 2017/11/15 11:15:59.52上午, 638.0, 13.42, 8.00, 14.45, 35.87
233, 1.16, 2017/11/15 11:15:59.525上午, 629.0, 13.16, 8.26, 14.19, 35.61
234, 1.165, 2017/11/15 11:15:59.53上午, 627.0, 13.68, 8.52, 13.94, 36.13
235, 1.17, 2017/11/15 11:15:59.535上午, 618.0, 13.16, 7.48, 13.68, 34.32
236, 1.175, 2017/11/15 11:15:59.54上午, 621.0, 13.42, 7.23, 13.94, 34.58
237, 1.18, 2017/11/15 11:15:59.545上午, 642.0, 13.42, 8.77, 14.45, 36.65
238, 1.185, 2017/11/15 11:15:59.55上午, 620.0, 13.94, 7.23, 13.68, 34.84
239, 1.19, 2017/11/15 11:15:59.555上午, 635.0, 13.42, 8.26, 13.94, 35.61
240, 1.195, 2017/11/15 11:15:59.56上午, 633.0, 13.68, 8.52, 14.45, 36.65
241, 1.2, 2017/11/15 11:15:59.565上午, 626.0, 13.16, 7.48, 14.45, 35.10
242, 1.205, 2017/11/15 11:15:59.57上午, 617.0, 13.42, 6.97, 13.94, 34.32
243, 1.21, 2017/11/15 11:15:59.575上午, 632.0, 13.42, 8.26, 13.94, 35.61
244, 1.215, 2017/11/15 11:15:59.58上午, 639.0, 13.42, 8.00, 14.71, 36.13
245, 1.22, 2017/11/15 11:15:59.585上午, 622.0, 13.68, 6.97, 13.94, 34.58
246, 1.225, 2017/11/15 11:15:59.59上午, 635.0, 13.94, 8.00, 14.19, 36.13
247, 1.23, 2017/11/15 11:15:59.595上午, 627.0, 13.42, 7.48, 14.19, 35.10
248, 1.235, 2017/11/15 11:15:59.6上午, 620.0, 13.16, 7.23, 14.19, 34.58
249, 1.24, 2017/11/15 11:15:59.605上午, 621.0, 13.42, 7.23, 14.19, 34.84
250, 1.245, 2017/11/15 11:15:59.61上午, 628.0, 13.42, 8.00, 14.19, 35.61
251, 1.25, 2017/11/15 11:15:59.615上午, 621.0, 13.68, 6.97, 14.19, 34.84
252, 1.255, 2017/11/15 11:15:59.62上午, 633.0, 13.16, 8.52, 14.19, 35.87
253, 1.26, 2017/11/15 11:15:59.625上午, 633.0, 13.42, 8.00, 14.45, 35.87
254, 1.265, 2017/11/15 11:15:59.63上午, 630.0, 13.94, 7.74, 13.68, 35.35
255, 1.27, 2017/11/15 11:15:59.635上午, 628.0, 13.42, 8.00, 14.45, 35.87
256, 1.275, 2017/11/15 11:15:59.64上午, 630.0, 13.42, 7.74, 14.45, 35.61
257, 1.28, 2017/11/15 11:15:59.645上午, 611.0, 12.90, 7.23, 14.19, 34.32
258, 1.285, 2017/11/15 11:15:59.65上午, 616.0, 13.16, 6.97, 14.45, 34.58
259, 1.29, 2017/11/15 11:15:59.655上午, 628.0, 13.68, 8.00, 13.94, 35.61
260, 1.295, 2017/11/15 11:15:59.66上午, 617.0, 13.16, 7.48, 13.68, 34.32
261, 1.3, 2017/11/15 11:15:59.665上午, 615.0, 13.16, 7.23, 14.19, 34.58
262, 1.305, 2017/11/15 11:15:59.67上午, 626.0, 13.16, 8.00, 14.45, 35.61
263, 1.31, 2017/11/15 11:15:59.675上午, 629.0, 13.42, 8.26, 14.19, 35.87
264, 1.315, 2017/11/15 11:15:59.68上午, 616.0, 13.16, 7.23, 14.19, 34.58
265, 1.32, 2017/11/15 11:15:59.685上午, 613.0, 12.90, 7.23, 13.94, 34.06
266, 1.325, 2017/11/15 11:15:59.69上午, 616.0, 12.90, 7.23, 13.94, 34.06
267, 1.33, 2017/11/15 11:15:59.695上午, 639.0, 13.68, 8.77, 13.94, 36.39
268, 1.335, 2017/11/15 11:15:59.7上午, 616.0, 13.16, 7.74, 13.94, 34.84
269, 1.34, 2017/11/15 11:15:59.705上午, 597.0, 13.16, 6.45, 13.42, 33.03
270, 1.345, 2017/11/15 11:15:59.71上午, 627.0, 13.42, 7.48, 13.94, 34.84
271, 1.35, 2017/11/15 11:15:59.715上午, 641.0, 13.68, 8.52, 14.19, 36.39
272, 1.355, 2017/11/15 11:15:59.72上午, 618.0, 13.16, 7.23, 14.45, 34.84
273, 1.36, 2017/11/15 11:15:59.725上午, 612.0, 12.90, 7.23, 14.19, 34.32
274, 1.365, 2017/11/15 11:15:59.73上午, 608.0, 13.16, 7.23, 13.68, 34.06
275, 1.37, 2017/11/15 11:15:59.735上午, 610.0, 13.42, 6.71, 14.19, 34.32
276, 1.375, 2017/11/15 11:15:59.74上午, 633.0, 13.42, 8.26, 14.71, 36.39
277, 1.38, 2017/11/15 11:15:59.745上午, 609.0, 13.16, 7.23, 13.68, 34.06
278, 1.385, 2017/11/15 11:15:59.75上午, 617.0, 12.90, 7.48, 13.94, 34.32
279, 1.39, 2017/11/15 11:15:59.755上午, 640.0, 13.68, 8.26, 14.19, 36.13
280, 1.395, 2017/11/15 11:15:59.76上午, 632.0, 13.16, 7.48, 14.71, 35.35
281, 1.4, 2017/11/15 11:15:59.765上午, 630.0, 13.16, 8.26, 14.45, 35.87
282, 1.405, 2017/11/15 11:15:59.77上午, 636.0, 13.68, 8.00, 14.45, 36.13
283, 1.41, 2017/11/15 11:15:59.775上午, 629.0, 13.42, 7.74, 14.19, 35.35
284, 1.415, 2017/11/15 11:15:59.78上午, 616.0, 13.16, 7.23, 14.19, 34.58
285, 1.42, 2017/11/15 11:15:59.785上午, 631.0, 13.42, 8.26, 14.19, 35.87
286, 1.425, 2017/11/15 11:15:59.79上午, 622.0, 13.16, 7.23, 14.45, 34.84
287, 1.43, 2017/11/15 11:15:59.795上午, 616.0, 13.94, 7.23, 14.19, 35.35
288, 1.435, 2017/11/15 11:15:59.8上午, 608.0, 12.90, 6.97, 13.94, 33.81
289, 1.44, 2017/11/15 11:15:59.805上午, 619.0, 13.68, 7.48, 13.94, 35.10
290, 1.445, 2017/11/15 11:15:59.81上午, 619.0, 13.16, 7.23, 14.71, 35.10
291, 1.45, 2017/11/15 11:15:59.815上午, 614.0, 12.90, 7.23, 14.19, 34.32
292, 1.455, 2017/11/15 11:15:59.82上午, 641.0, 13.68, 8.77, 14.71, 37.16
293, 1.46, 2017/11/15 11:15:59.825上午, 615.0, 13.16, 7.74, 13.94, 34.84
294, 1.465, 2017/11/15 11:15:59.83上午, 630.0, 13.42, 8.00, 14.19, 35.61
295, 1.47, 2017/11/15 11:15:59.835上午, 623.0, 13.68, 7.74, 14.19, 35.61
296, 1.475, 2017/11/15 11:15:59.84上午, 610.0, 13.16, 6.97, 14.19, 34.32
297, 1.48, 2017/11/15 11:15:59.845上午, 624.0, 13.16, 8.00, 14.19, 35.35
298, 1.485, 2017/11/15 11:15:59.85上午, 626.0, 13.42, 7.48, 14.45, 35.35
299, 1.49, 2017/11/15 11:15:59.855上午, 617.0, 13.16, 6.97, 14.19, 34.32
300, 1.495, 2017/11/15 11:15:59.86上午, 612.0, 13.68, 6.45, 14.19, 34.32
301, 1.5, 2017/11/15 11:15:59.865上午, 623.0, 13.42, 8.00, 13.94, 35.35
302, 1.505, 2017/11/15 11:15:59.87上午, 620.0, 13.16, 6.97, 14.71, 34.84
303, 1.51, 2017/11/15 11:15:59.875上午, 618.0, 13.16, 7.23, 14.45, 34.84
304, 1.515, 2017/11/15 11:15:59.88上午, 613.0, 13.16, 7.23, 14.19, 34.58
305, 1.52, 2017/11/15 11:15:59.885上午, 622.0, 13.68, 7.23, 14.19, 35.10
306, 1.525, 2017/11/15 11:15:59.89上午, 622.0, 13.16, 6.97, 14.45, 34.58
307, 1.53, 2017/11/15 11:15:59.895上午, 614.0, 13.16, 6.97, 14.19, 34.32
308, 1.535, 2017/11/15 11:15:59.9上午, 632.0, 13.42, 8.00, 14.45, 35.87
309, 1.54, 2017/11/15 11:15:59.905上午, 625.0, 13.42, 7.48, 14.19, 35.10
310, 1.545, 2017/11/15 11:15:59.91上午, 627.0, 13.42, 7.23, 14.19, 34.84
311, 1.55, 2017/11/15 11:15:59.915上午, 624.0, 13.68, 7.74, 14.19, 35.61
312, 1.555, 2017/11/15 11:15:59.92上午, 612.0, 13.16, 6.97, 13.94, 34.06
313, 1.56, 2017/11/15 11:15:59.925上午, 622.0, 13.42, 6.97, 14.45, 34.84
314, 1.565, 2017/11/15 11:15:59.93上午, 629.0, 13.68, 7.74, 13.94, 35.35
315, 1.57, 2017/11/15 11:15:59.935上午, 610.0, 12.90, 6.71, 14.19, 33.81
316, 1.575, 2017/11/15 11:15:59.94上午, 624.0, 13.42, 7.74, 13.94, 35.10
317, 1.58, 2017/11/15 11:15:59.945上午, 621.0, 13.16, 6.97, 14.19, 34.32
318, 1.585, 2017/11/15 11:15:59.95上午, 620.0, 13.16, 6.97, 14.45, 34.58
319, 1.59, 2017/11/15 11:15:59.955上午, 611.0, 13.68, 6.97, 14.19, 34.84
320, 1.595, 2017/11/15 11:15:59.96上午, 619.0, 13.16, 7.23, 14.45, 34.84
321, 1.6, 2017/11/15 11:15:59.965上午, 629.0, 13.94, 7.48, 13.68, 35.10
322, 1.605, 2017/11/15 11:15:59.97上午, 622.0, 13.94, 7.48, 13.94, 35.35
323, 1.61, 2017/11/15 11:15:59.975上午, 593.0, 12.90, 6.45, 13.16, 32.52
324, 1.615, 2017/11/15 11:15:59.98上午, 622.0, 13.16, 7.74, 13.94, 34.84
325, 1.62, 2017/11/15 11:15:59.985上午, 633.0, 13.94, 7.74, 14.19, 35.87
326, 1.625, 2017/11/15 11:15:59.99上午, 630.0, 13.42, 7.48, 14.45, 35.35
327, 1.63, 2017/11/15 11:15:59.995上午, 630.0, 13.94, 7.23, 13.68, 34.84
328, 1.635, 2017/11/15 11:16:00上午, 625.0, 13.68, 7.74, 13.94, 35.35
329, 1.64, 2017/11/15 11:16:00.005上午, 638.0, 13.94, 7.74, 14.71, 36.39
330, 1.645, 2017/11/15 11:16:00.01上午, 618.0, 13.16, 7.23, 13.94, 34.32
331, 1.65, 2017/11/15 11:16:00.015上午, 628.0, 13.42, 8.00, 13.94, 35.35
332, 1.655, 2017/11/15 11:16:00.02上午, 638.0, 13.42, 8.00, 14.71, 36.13
333, 1.66, 2017/11/15 11:16:00.025上午, 628.0, 13.68, 7.23, 13.94, 34.84
334, 1.665, 2017/11/15 11:16:00.03上午, 643.0, 13.68, 8.52, 14.71, 36.90
335, 1.67, 2017/11/15 11:16:00.035上午, 620.0, 13.16, 7.23, 13.68, 34.06
336, 1.675, 2017/11/15 11:16:00.04上午, 625.0, 13.42, 7.74, 13.94, 35.10
337, 1.68, 2017/11/15 11:16:00.045上午, 639.0, 13.94, 8.26, 13.42, 35.61
338, 1.685, 2017/11/15 11:16:00.05上午, 632.0, 13.94, 8.00, 13.42, 35.35
339, 1.69, 2017/11/15 11:16:00.055上午, 634.0, 13.94, 7.74, 14.45, 36.13
340, 1.695, 2017/11/15 11:16:00.06上午, 623.0, 13.42, 7.48, 13.68, 34.58
341, 1.7, 2017/11/15 11:16:00.065上午, 636.0, 13.42, 8.00, 14.19, 35.61
342, 1.705, 2017/11/15 11:16:00.07上午, 621.0, 13.94, 6.97, 13.68, 34.58
343, 1.71, 2017/11/15 11:16:00.075上午, 627.0, 13.16, 7.23, 14.45, 34.84
344, 1.715, 2017/11/15 11:16:00.08上午, 626.0, 13.42, 6.97, 13.94, 34.32
345, 1.72, 2017/11/15 11:16:00.085上午, 632.0, 13.68, 8.26, 14.19, 36.13
346, 1.725, 2017/11/15 11:16:00.09上午, 625.0, 13.94, 7.23, 13.42, 34.58
347, 1.73, 2017/11/15 11:16:00.095上午, 626.0, 13.94, 6.97, 13.94, 34.84
348, 1.735, 2017/11/15 11:16:00.1上午, 624.0, 13.94, 7.48, 13.94, 35.35
349, 1.74, 2017/11/15 11:16:00.105上午, 616.0, 13.42, 6.71, 13.94, 34.06
350, 1.745, 2017/11/15 11:16:00.11上午, 638.0, 13.94, 8.00, 14.19, 36.13
351, 1.75, 2017/11/15 11:16:00.115上午, 639.0, 13.42, 8.00, 14.45, 35.87
352, 1.755, 2017/11/15 11:16:00.12上午, 622.0, 13.42, 6.71, 14.19, 34.32
353, 1.76, 2017/11/15 11:16:00.125上午, 638.0, 13.42, 8.26, 14.19, 35.87
354, 1.765, 2017/11/15 11:16:00.13上午, 619.0, 13.68, 7.48, 13.42, 34.58
355, 1.77, 2017/11/15 11:16:00.135上午, 607.0, 13.68, 7.48, 12.90, 34.06
356, 1.775, 2017/11/15 11:16:00.14上午, 622.0, 13.42, 7.23, 13.94, 34.58
357, 1.78, 2017/11/15 11:16:00.145上午, 638.0, 13.16, 8.00, 14.45, 35.61
358, 1.785, 2017/11/15 11:16:00.15上午, 647.0, 13.94, 8.00, 14.45, 36.39
359, 1.79, 2017/11/15 11:16:00.155上午, 635.0, 13.94, 7.23, 13.94, 35.10
360, 1.795, 2017/11/15 11:16:00.16上午, 633.0, 13.68, 8.00, 13.94, 35.61
361, 1.8, 2017/11/15 11:16:00.165上午, 633.0, 13.68, 8.26, 13.94, 35.87
362, 1.805, 2017/11/15 11:16:00.17上午, 635.0, 13.94, 7.48, 13.94, 35.35
363, 1.81, 2017/11/15 11:16:00.175上午, 631.0, 13.16, 8.00, 13.94, 35.10
364, 1.815, 2017/11/15 11:16:00.18上午, 636.0, 13.94, 8.00, 13.94, 35.87
365, 1.82, 2017/11/15 11:16:00.185上午, 618.0, 13.42, 8.00, 12.90, 34.32
366, 1.825, 2017/11/15 11:16:00.19上午, 615.0, 13.16, 7.23, 13.94, 34.32
367, 1.83, 2017/11/15 11:16:00.195上午, 629.0, 13.94, 7.23, 14.19, 35.35
368, 1.835, 2017/11/15 11:16:00.2上午, 623.0, 13.42, 6.97, 14.45, 34.84
369, 1.84, 2017/11/15 11:16:00.205上午, 639.0, 13.68, 8.52, 13.68, 35.87
370, 1.845, 2017/11/15 11:16:00.21上午, 648.0, 13.42, 8.52, 14.19, 36.13
371, 1.85, 2017/11/15 11:16:00.215上午, 648.0, 13.94, 8.00, 14.19, 36.13
372, 1.855, 2017/11/15 11:16:00.22上午, 635.0, 13.94, 8.00, 13.94, 35.87
373, 1.86, 2017/11/15 11:16:00.225上午, 625.0, 13.42, 7.48, 14.19, 35.10
374, 1.865, 2017/11/15 11:16:00.23上午, 634.0, 13.42, 8.00, 13.94, 35.35
375, 1.87, 2017/11/15 11:16:00.235上午, 623.0, 13.42, 7.48, 13.68, 34.58
376, 1.875, 2017/11/15 11:16:00.24上午, 611.0, 13.16, 7.23, 13.68, 34.06
377, 1.88, 2017/11/15 11:16:00.245上午, 638.0, 13.42, 8.52, 13.94, 35.87
378, 1.885, 2017/11/15 11:16:00.25上午, 643.0, 13.68, 8.26, 14.19, 36.13
379, 1.89, 2017/11/15 11:16:00.255上午, 642.0, 13.68, 8.00, 14.19, 35.87
380, 1.895, 2017/11/15 11:16:00.26上午, 627.0, 13.68, 6.97, 14.19, 34.84
381, 1.9, 2017/11/15 11:16:00.265上午, 636.0, 13.42, 8.00, 13.94, 35.35
382, 1.905, 2017/11/15 11:16:00.27上午, 632.0, 13.68, 7.48, 14.19, 35.35
383, 1.91, 2017/11/15 11:16:00.275上午, 625.0, 13.42, 7.48, 14.19, 35.10
384, 1.915, 2017/11/15 11:16:00.28上午, 630.0, 13.94, 8.52, 13.68, 36.13
385, 1.92, 2017/11/15 11:16:00.285上午, 624.0, 13.94, 6.71, 13.94, 34.58
386, 1.925, 2017/11/15 11:16:00.29上午, 637.0, 13.94, 8.00, 13.94, 35.87
387, 1.93, 2017/11/15 11:16:00.295上午, 635.0, 13.94, 7.48, 14.45, 35.87
388, 1.935, 2017/11/15 11:16:00.3上午, 635.0, 13.42, 7.23, 14.45, 35.10
389, 1.94, 2017/11/15 11:16:00.305上午, 655.0, 14.45, 8.00, 14.45, 36.90
390, 1.945, 2017/11/15 11:16:00.31上午, 631.0, 13.42, 6.97, 13.94, 34.32
391, 1.95, 2017/11/15 11:16:00.315上午, 623.0, 13.16, 8.00, 13.68, 34.84
392, 1.955, 2017/11/15 11:16:00.32上午, 636.0, 13.42, 8.00, 13.94, 35.35
393, 1.96, 2017/11/15 11:16:00.325上午, 638.0, 13.42, 8.26, 13.94, 35.61
394, 1.965, 2017/11/15 11:16:00.33上午, 627.0, 13.68, 7.74, 13.68, 35.10
395, 1.97, 2017/11/15 11:16:00.335上午, 636.0, 13.94, 6.97, 14.19, 35.10
396, 1.975, 2017/11/15 11:16:00.34上午, 652.0, 13.94, 8.26, 14.45, 36.65
397, 1.98, 2017/11/15 11:16:00.345上午, 622.0, 13.16, 7.23, 13.68, 34.06
398, 1.985, 2017/11/15 11:16:00.35上午, 637.0, 13.42, 8.00, 14.19, 35.61
399, 1.99, 2017/11/15 11:16:00.355上午, 649.0, 13.68, 8.26, 14.45, 36.39
400, 1.995, 2017/11/15 11:16:00.36上午, 640.0, 13.68, 7.74, 14.19, 35.61
401, 2, 2017/11/15 11:16:00.365上午, 642.0, 14.19, 8.00, 13.68, 35.87
402, 2.005, 2017/11/15 11:16:00.37上午, 637.0, 13.68, 8.77, 13.68, 36.13
403, 2.01, 2017/11/15 11:16:00.375上午, 630.0, 13.94, 7.23, 14.19, 35.35
404, 2.015, 2017/11/15 11:16:00.38上午, 641.0, 13.94, 7.48, 13.94, 35.35
405, 2.02, 2017/11/15 11:16:00.385上午, 636.0, 13.68, 7.74, 13.68, 35.10
406, 2.025, 2017/11/15 11:16:00.39上午, 641.0, 13.94, 7.48, 14.19, 35.61
407, 2.03, 2017/11/15 11:16:00.395上午, 627.0, 14.19, 6.71, 13.68, 34.58
408, 2.035, 2017/11/15 11:16:00.4上午, 634.0, 13.42, 8.00, 14.19, 35.61
409, 2.04, 2017/11/15 11:16:00.405上午, 631.0, 13.68, 8.00, 13.68, 35.35
410, 2.045, 2017/11/15 11:16:00.41上午, 628.0, 14.19, 6.97, 13.42, 34.58
411, 2.05, 2017/11/15 11:16:00.415上午, 637.0, 13.94, 8.00, 13.94, 35.87
412, 2.055, 2017/11/15 11:16:00.42上午, 638.0, 13.68, 7.48, 14.19, 35.35
413, 2.06, 2017/11/15 11:16:00.425上午, 639.0, 13.94, 7.23, 14.19, 35.35
414, 2.065, 2017/11/15 11:16:00.43上午, 644.0, 13.94, 8.26, 13.94, 36.13
415, 2.07, 2017/11/15 11:16:00.435上午, 625.0, 13.68, 7.23, 13.68, 34.58
416, 2.075, 2017/11/15 11:16:00.44上午, 632.0, 13.94, 8.26, 13.42, 35.61
417, 2.08, 2017/11/15 11:16:00.445上午, 632.0, 13.68, 7.48, 14.19, 35.35
418, 2.085, 2017/11/15 11:16:00.45上午, 638.0, 14.19, 8.00, 13.68, 35.87
419, 2.09, 2017/11/15 11:16:00.455上午, 630.0, 13.94, 7.74, 13.42, 35.10
420, 2.095, 2017/11/15 11:16:00.46上午, 633.0, 13.42, 7.23, 14.19, 34.84
421, 2.1, 2017/11/15 11:16:00.465上午, 629.0, 13.42, 7.23, 13.42, 34.06
422, 2.105, 2017/11/15 11:16:00.47上午, 641.0, 14.19, 7.74, 13.94, 35.87
423, 2.11, 2017/11/15 11:16:00.475上午, 645.0, 13.94, 8.26, 13.94, 36.13
424, 2.115, 2017/11/15 11:16:00.48上午, 630.0, 13.68, 7.48, 13.42, 34.58
425, 2.12, 2017/11/15 11:16:00.485上午, 627.0, 13.42, 7.48, 13.68, 34.58
426, 2.125, 2017/11/15 11:16:00.49上午, 644.0, 13.94, 8.00, 13.94, 35.87
427, 2.13, 2017/11/15 11:16:00.495上午, 647.0, 13.94, 8.00, 14.19, 36.13
428, 2.135, 2017/11/15 11:16:00.5上午, 626.0, 14.19, 6.97, 13.16, 34.32
429, 2.14, 2017/11/15 11:16:00.505上午, 635.0, 14.19, 6.97, 13.68, 34.84
430, 2.145, 2017/11/15 11:16:00.51上午, 633.0, 13.94, 7.48, 13.68, 35.10
431, 2.15, 2017/11/15 11:16:00.515上午, 631.0, 13.94, 7.74, 13.16, 34.84
432, 2.155, 2017/11/15 11:16:00.52上午, 634.0, 14.19, 6.71, 13.94, 34.84
433, 2.16, 2017/11/15 11:16:00.525上午, 645.0, 13.94, 7.74, 14.19, 35.87
434, 2.165, 2017/11/15 11:16:00.53上午, 639.0, 14.45, 7.48, 13.42, 35.35
435, 2.17, 2017/11/15 11:16:00.535上午, 641.0, 13.16, 7.23, 13.94, 34.32
436, 2.175, 2017/11/15 11:16:00.54上午, 650.0, 13.94, 8.00, 14.19, 36.13
437, 2.18, 2017/11/15 11:16:00.545上午, 662.0, 14.71, 7.74, 14.45, 36.90
438, 2.185, 2017/11/15 11:16:00.55上午, 639.0, 13.42, 8.00, 13.94, 35.35
439, 2.19, 2017/11/15 11:16:00.555上午, 641.0, 13.94, 8.00, 13.68, 35.61
440, 2.195, 2017/11/15 11:16:00.56上午, 631.0, 14.45, 6.45, 13.42, 34.32
441, 2.2, 2017/11/15 11:16:00.565上午, 629.0, 13.68, 7.23, 13.94, 34.84
442, 2.205, 2017/11/15 11:16:00.57上午, 624.0, 13.94, 6.97, 13.16, 34.06
443, 2.21, 2017/11/15 11:16:00.575上午, 638.0, 13.94, 7.74, 13.42, 35.10
444, 2.215, 2017/11/15 11:16:00.58上午, 647.0, 14.45, 7.74, 13.68, 35.87
445, 2.22, 2017/11/15 11:16:00.585上午, 628.0, 13.42, 8.26, 13.16, 34.84
446, 2.225, 2017/11/15 11:16:00.59上午, 647.0, 13.94, 8.00, 14.19, 36.13
447, 2.23, 2017/11/15 11:16:00.595上午, 633.0, 13.94, 7.74, 13.42, 35.10
448, 2.235, 2017/11/15 11:16:00.6上午, 645.0, 14.71, 7.48, 13.42, 35.61
449, 2.24, 2017/11/15 11:16:00.605上午, 639.0, 13.94, 7.23, 14.19, 35.35
450, 2.245, 2017/11/15 11:16:00.61上午, 637.0, 13.94, 8.00, 13.42, 35.35
451, 2.25, 2017/11/15 11:16:00.615上午, 641.0, 13.94, 7.23, 14.19, 35.35
452, 2.255, 2017/11/15 11:16:00.62上午, 651.0, 13.94, 8.00, 13.94, 35.87
453, 2.26, 2017/11/15 11:16:00.625上午, 624.0, 13.68, 7.23, 13.16, 34.06
454, 2.265, 2017/11/15 11:16:00.63上午, 637.0, 14.19, 7.48, 13.42, 35.10
455, 2.27, 2017/11/15 11:16:00.635上午, 653.0, 13.94, 8.26, 14.19, 36.39
456, 2.275, 2017/11/15 11:16:00.64上午, 656.0, 14.45, 7.74, 14.19, 36.39
457, 2.28, 2017/11/15 11:16:00.645上午, 629.0, 14.19, 6.97, 13.16, 34.32
458, 2.285, 2017/11/15 11:16:00.65上午, 635.0, 13.94, 7.48, 13.68, 35.10
459, 2.29, 2017/11/15 11:16:00.655上午, 640.0, 14.45, 7.23, 13.42, 35.10
460, 2.295, 2017/11/15 11:16:00.66上午, 645.0, 14.45, 7.74, 13.42, 35.61
461, 2.3, 2017/11/15 11:16:00.665上午, 633.0, 13.68, 7.74, 13.42, 34.84
462, 2.305, 2017/11/15 11:16:00.67上午, 648.0, 13.94, 7.74, 14.45, 36.13
463, 2.31, 2017/11/15 11:16:00.675上午, 653.0, 13.94, 8.26, 14.19, 36.39
464, 2.315, 2017/11/15 11:16:00.68上午, 665.0, 14.71, 8.00, 14.19, 36.90
465, 2.32, 2017/11/15 11:16:00.685上午, 648.0, 14.19, 8.00, 13.94, 36.13
466, 2.325, 2017/11/15 11:16:00.69上午, 652.0, 13.94, 8.26, 13.68, 35.87
467, 2.33, 2017/11/15 11:16:00.695上午, 633.0, 13.68, 7.23, 13.16, 34.06
468, 2.335, 2017/11/15 11:16:00.7上午, 631.0, 13.68, 7.23, 13.42, 34.32
469, 2.34, 2017/11/15 11:16:00.705上午, 642.0, 14.19, 7.48, 13.42, 35.10
470, 2.345, 2017/11/15 11:16:00.71上午, 649.0, 14.19, 8.00, 13.68, 35.87
471, 2.35, 2017/11/15 11:16:00.715上午, 640.0, 14.71, 7.23, 13.42, 35.35
472, 2.355, 2017/11/15 11:16:00.72上午, 636.0, 13.94, 7.74, 13.42, 35.10
473, 2.36, 2017/11/15 11:16:00.725上午, 658.0, 14.19, 8.00, 13.94, 36.13
474, 2.365, 2017/11/15 11:16:00.73上午, 642.0, 13.94, 7.74, 13.42, 35.10
475, 2.37, 2017/11/15 11:16:00.735上午, 626.0, 13.68, 7.74, 13.16, 34.58
476, 2.375, 2017/11/15 11:16:00.74上午, 614.0, 13.94, 7.48, 11.87, 33.29
477, 2.38, 2017/11/15 11:16:00.745上午, 648.0, 14.45, 8.00, 13.42, 35.87
478, 2.385, 2017/11/15 11:16:00.75上午, 635.0, 14.19, 7.23, 13.42, 34.84
479, 2.39, 2017/11/15 11:16:00.755上午, 635.0, 13.94, 7.74, 13.16, 34.84
480, 2.395, 2017/11/15 11:16:00.76上午, 639.0, 14.45, 7.23, 13.42, 35.10
481, 2.4, 2017/11/15 11:16:00.765上午, 653.0, 14.45, 7.74, 13.68, 35.87
482, 2.405, 2017/11/15 11:16:00.77上午, 635.0, 13.94, 7.74, 13.42, 35.10
483, 2.41, 2017/11/15 11:16:00.775上午, 635.0, 13.94, 7.74, 13.16, 34.84
484, 2.415, 2017/11/15 11:16:00.78上午, 642.0, 13.94, 7.74, 13.16, 34.84
485, 2.42, 2017/11/15 11:16:00.785上午, 640.0, 13.94, 7.48, 13.42, 34.84
486, 2.425, 2017/11/15 11:16:00.79上午, 631.0, 13.94, 7.48, 13.16, 34.58
487, 2.43, 2017/11/15 11:16:00.795上午, 645.0, 13.94, 8.26, 13.42, 35.61
488, 2.435, 2017/11/15 11:16:00.8上午, 637.0, 13.68, 7.74, 13.42, 34.84
489, 2.44, 2017/11/15 11:16:00.805上午, 645.0, 13.94, 7.74, 13.68, 35.35
490, 2.445, 2017/11/15 11:16:00.81上午, 637.0, 13.68, 7.23, 13.68, 34.58
491, 2.45, 2017/11/15 11:16:00.815上午, 624.0, 14.19, 7.23, 12.13, 33.55
492, 2.455, 2017/11/15 11:16:00.82上午, 640.0, 14.19, 8.52, 12.90, 35.61
493, 2.46, 2017/11/15 11:16:00.825上午, 636.0, 14.19, 7.74, 12.90, 34.84
494, 2.465, 2017/11/15 11:16:00.83上午, 632.0, 13.94, 7.48, 13.16, 34.58
495, 2.47, 2017/11/15 11:16:00.835上午, 633.0, 14.19, 7.74, 13.16, 35.10
496, 2.475, 2017/11/15 11:16:00.84上午, 641.0, 14.19, 7.74, 13.42, 35.35
497, 2.48, 2017/11/15 11:16:00.845上午, 627.0, 13.94, 7.48, 13.16, 34.58
498, 2.485, 2017/11/15 11:16:00.85上午, 643.0, 14.19, 7.74, 13.68, 35.61
499, 2.49, 2017/11/15 11:16:00.855上午, 628.0, 14.19, 6.71, 13.68, 34.58
500, 2.495, 2017/11/15 11:16:00.86上午, 630.0, 14.19, 7.23, 13.42, 34.84
501, 2.5, 2017/11/15 11:16:00.865上午, 663.0, 14.19, 8.77, 13.94, 36.90
502, 2.505, 2017/11/15 11:16:00.87上午, 644.0, 14.19, 7.23, 13.94, 35.35
503, 2.51, 2017/11/15 11:16:00.875上午, 638.0, 13.94, 7.74, 13.16, 34.84
504, 2.515, 2017/11/15 11:16:00.88上午, 635.0, 13.94, 7.74, 13.16, 34.84
505, 2.52, 2017/11/15 11:16:00.885上午, 631.0, 13.68, 7.23, 13.42, 34.32
506, 2.525, 2017/11/15 11:16:00.89上午, 635.0, 14.45, 7.23, 13.42, 35.10
507, 2.53, 2017/11/15 11:16:00.895上午, 627.0, 13.68, 6.97, 13.16, 33.81
508, 2.535, 2017/11/15 11:16:00.9上午, 639.0, 14.19, 7.48, 12.90, 34.58
509, 2.54, 2017/11/15 11:16:00.905上午, 645.0, 13.94, 7.74, 13.42, 35.10
510, 2.545, 2017/11/15 11:16:00.91上午, 639.0, 14.45, 7.23, 13.16, 34.84
511, 2.55, 2017/11/15 11:16:00.915上午, 634.0, 13.94, 7.48, 13.16, 34.58
512, 2.555, 2017/11/15 11:16:00.92上午, 628.0, 13.68, 7.23, 12.90, 33.81
513, 2.56, 2017/11/15 11:16:00.925上午, 638.0, 14.19, 7.23, 13.42, 34.84
514, 2.565, 2017/11/15 11:16:00.93上午, 634.0, 13.94, 8.26, 12.90, 35.10
515, 2.57, 2017/11/15 11:16:00.935上午, 644.0, 13.94, 7.74, 12.90, 34.58
516, 2.575, 2017/11/15 11:16:00.94上午, 656.0, 13.94, 8.00, 13.94, 35.87
517, 2.58, 2017/11/15 11:16:00.945上午, 638.0, 13.94, 7.74, 13.42, 35.10
518, 2.585, 2017/11/15 11:16:00.95上午, 625.0, 13.68, 7.23, 12.39, 33.29
519, 2.59, 2017/11/15 11:16:00.955上午, 639.0, 14.19, 7.23, 13.68, 35.10
520, 2.595, 2017/11/15 11:16:00.96上午, 635.0, 13.68, 8.26, 12.39, 34.32
521, 2.6, 2017/11/15 11:16:00.965上午, 630.0, 13.94, 7.74, 13.16, 34.84
522, 2.605, 2017/11/15 11:16:00.97上午, 646.0, 14.45, 7.23, 13.42, 35.10
523, 2.61, 2017/11/15 11:16:00.975上午, 637.0, 13.68, 7.23, 13.68, 34.58
524, 2.615, 2017/11/15 11:16:00.98上午, 636.0, 13.94, 7.48, 13.42, 34.84
525, 2.62, 2017/11/15 11:16:00.985上午, 649.0, 14.19, 7.74, 13.68, 35.61
526, 2.625, 2017/11/15 11:16:00.99上午, 629.0, 14.45, 6.97, 12.39, 33.81
527, 2.63, 2017/11/15 11:16:00.995上午, 626.0, 13.68, 7.23, 13.16, 34.06
528, 2.635, 2017/11/15 11:16:01上午, 621.0, 14.19, 7.23, 11.87, 33.29
529, 2.64, 2017/11/15 11:16:01.005上午, 638.0, 14.19, 7.74, 13.16, 35.10
530, 2.645, 2017/11/15 11:16:01.01上午, 648.0, 14.19, 8.00, 13.42, 35.61
531, 2.65, 2017/11/15 11:16:01.015上午, 639.0, 14.45, 7.23, 13.42, 35.10
532, 2.655, 2017/11/15 11:16:01.02上午, 620.0, 13.94, 6.45, 12.90, 33.29
533, 2.66, 2017/11/15 11:16:01.025上午, 633.0, 13.94, 7.23, 13.42, 34.58
534, 2.665, 2017/11/15 11:16:01.03上午, 650.0, 14.45, 7.74, 13.42, 35.61
535, 2.67, 2017/11/15 11:16:01.035上午, 640.0, 13.94, 8.52, 12.65, 35.10
536, 2.675, 2017/11/15 11:16:01.04上午, 629.0, 13.94, 7.48, 13.16, 34.58
537, 2.68, 2017/11/15 11:16:01.045上午, 622.0, 13.68, 6.97, 12.90, 33.55
538, 2.685, 2017/11/15 11:16:01.05上午, 641.0, 14.71, 7.48, 12.90, 35.10
539, 2.69, 2017/11/15 11:16:01.055上午, 622.0, 13.94, 6.45, 13.68, 34.06
540, 2.695, 2017/11/15 11:16:01.06上午, 643.0, 13.94, 8.00, 13.42, 35.35
541, 2.7, 2017/11/15 11:16:01.065上午, 644.0, 13.94, 7.74, 13.42, 35.10
542, 2.705, 2017/11/15 11:16:01.07上午, 645.0, 14.71, 7.23, 12.65, 34.58
543, 2.71, 2017/11/15 11:16:01.075上午, 650.0, 14.45, 6.97, 13.94, 35.35
544, 2.715, 2017/11/15 11:16:01.08上午, 622.0, 13.94, 7.48, 12.65, 34.06
545, 2.72, 2017/11/15 11:16:01.085上午, 643.0, 14.19, 7.74, 13.16, 35.10
546, 2.725, 2017/11/15 11:16:01.09上午, 640.0, 13.94, 7.48, 13.68, 35.10
547, 2.73, 2017/11/15 11:16:01.095上午, 641.0, 14.45, 6.97, 13.16, 34.58
548, 2.735, 2017/11/15 11:16:01.1上午, 634.0, 13.94, 7.74, 13.16, 34.84
549, 2.74, 2017/11/15 11:16:01.105上午, 637.0, 13.94, 7.74, 13.68, 35.35
550, 2.745, 2017/11/15 11:16:01.11上午, 635.0, 13.94, 7.48, 12.90, 34.32
551, 2.75, 2017/11/15 11:16:01.115上午, 641.0, 14.45, 7.74, 12.65, 34.84
552, 2.755, 2017/11/15 11:16:01.12上午, 625.0, 14.19, 6.71, 13.16, 34.06
553, 2.76, 2017/11/15 11:16:01.125上午, 630.0, 14.19, 6.45, 13.16, 33.81
554, 2.765, 2017/11/15 11:16:01.13上午, 639.0, 14.45, 6.97, 13.42, 34.84
555, 2.77, 2017/11/15 11:16:01.135上午, 634.0, 14.45, 6.97, 12.90, 34.32
556, 2.775, 2017/11/15 11:16:01.14上午, 630.0, 13.94, 7.48, 12.65, 34.06
557, 2.78, 2017/11/15 11:16:01.145上午, 640.0, 13.94, 7.74, 12.90, 34.58
558, 2.785, 2017/11/15 11:16:01.15上午, 626.0, 14.45, 7.23, 12.39, 34.06
559, 2.79, 2017/11/15 11:16:01.155上午, 623.0, 13.94, 6.71, 13.16, 33.81
560, 2.795, 2017/11/15 11:16:01.16上午, 626.0, 13.94, 7.48, 12.90, 34.32
561, 2.8, 2017/11/15 11:16:01.165上午, 628.0, 14.45, 6.71, 12.65, 33.81
562, 2.805, 2017/11/15 11:16:01.17上午, 650.0, 14.45, 7.74, 13.42, 35.61
563, 2.81, 2017/11/15 11:16:01.175上午, 633.0, 13.94, 7.74, 12.90, 34.58
564, 2.815, 2017/11/15 11:16:01.18上午, 627.0, 13.94, 6.71, 13.16, 33.81
565, 2.82, 2017/11/15 11:16:01.185上午, 612.0, 13.94, 6.97, 12.65, 33.55
566, 2.825, 2017/11/15 11:16:01.19上午, 630.0, 13.94, 7.23, 12.65, 33.81
567, 2.83, 2017/11/15 11:16:01.195上午, 618.0, 14.45, 6.45, 12.65, 33.55
568, 2.835, 2017/11/15 11:16:01.2上午, 632.0, 14.19, 6.97, 13.16, 34.32
569, 2.84, 2017/11/15 11:16:01.205上午, 610.0, 13.94, 6.71, 12.39, 33.03
570, 2.845, 2017/11/15 11:16:01.21上午, 630.0, 14.45, 7.23, 12.13, 33.81
571, 2.85, 2017/11/15 11:16:01.215上午, 639.0, 13.94, 7.23, 13.16, 34.32
572, 2.855, 2017/11/15 11:16:01.22上午, 625.0, 13.94, 6.97, 13.16, 34.06
573, 2.86, 2017/11/15 11:16:01.225上午, 633.0, 13.68, 7.23, 13.42, 34.32
574, 2.865, 2017/11/15 11:16:01.23上午, 647.0, 14.45, 7.23, 13.42, 35.10
575, 2.87, 2017/11/15 11:16:01.235上午, 625.0, 13.94, 7.48, 12.39, 33.81
576, 2.875, 2017/11/15 11:16:01.24上午, 635.0, 13.94, 7.48, 13.16, 34.58
577, 2.88, 2017/11/15 11:16:01.245上午, 622.0, 14.45, 6.71, 11.87, 33.03
578, 2.885, 2017/11/15 11:16:01.25上午, 650.0, 14.45, 7.74, 13.42, 35.61
579, 2.89, 2017/11/15 11:16:01.255上午, 625.0, 13.94, 7.48, 12.13, 33.55
580, 2.895, 2017/11/15 11:16:01.26上午, 618.0, 13.94, 7.23, 12.39, 33.55
581, 2.9, 2017/11/15 11:16:01.265上午, 639.0, 14.45, 7.74, 12.65, 34.84
582, 2.905, 2017/11/15 11:16:01.27上午, 641.0, 14.19, 7.48, 13.68, 35.35
583, 2.91, 2017/11/15 11:16:01.275上午, 625.0, 13.94, 7.48, 12.39, 33.81
584, 2.915, 2017/11/15 11:16:01.28上午, 633.0, 13.94, 7.48, 13.16, 34.58
585, 2.92, 2017/11/15 11:16:01.285上午, 649.0, 14.45, 6.97, 13.42, 34.84
586, 2.925, 2017/11/15 11:16:01.29上午, 641.0, 14.45, 6.71, 13.16, 34.32
587, 2.93, 2017/11/15 11:16:01.295上午, 638.0, 13.94, 7.74, 13.16, 34.84
588, 2.935, 2017/11/15 11:16:01.3上午, 625.0, 13.94, 7.23, 12.90, 34.06
589, 2.94, 2017/11/15 11:16:01.305上午, 631.0, 13.94, 8.00, 12.90, 34.84
590, 2.945, 2017/11/15 11:16:01.31上午, 642.0, 14.45, 7.23, 12.65, 34.32
591, 2.95, 2017/11/15 11:16:01.315上午, 630.0, 14.19, 6.45, 13.16, 33.81
592, 2.955, 2017/11/15 11:16:01.32上午, 628.0, 13.94, 6.97, 13.16, 34.06
593, 2.96, 2017/11/15 11:16:01.325上午, 644.0, 13.94, 8.00, 12.90, 34.84
594, 2.965, 2017/11/15 11:16:01.33上午, 632.0, 14.19, 7.23, 12.90, 34.32
595, 2.97, 2017/11/15 11:16:01.335上午, 622.0, 14.45, 6.71, 12.13, 33.29
596, 2.975, 2017/11/15 11:16:01.34上午, 641.0, 13.94, 8.00, 13.16, 35.10
597, 2.98, 2017/11/15 11:16:01.345上午, 646.0, 14.45, 7.74, 12.90, 35.10
598, 2.985, 2017/11/15 11:16:01.35上午, 619.0, 13.94, 6.71, 12.39, 33.03
599, 2.99, 2017/11/15 11:16:01.355上午, 632.0, 13.94, 7.48, 13.16, 34.58
600, 2.995, 2017/11/15 11:16:01.36上午, 627.0, 13.68, 7.23, 12.39, 33.29
@@
