DATA_TYPE Graph
VERSION Tekscan Pressure Measurement System 6.70-03
HARDWARE 00114-3447
MAP_VERSION 6.5
HW_TYPE 4
VersaPogoFsx 0
檔案名 C:\Users\asus\Desktop\工研院_計畫\收案資料\Subject02\Plantar Pressure\FOAM_STAND_RIGHT_1.fsx
SENSOR_TYPE FSCAN
ROWS 60
COLS 21
ROW_SPACING 0.508 centimeters
COL_SPACING 0.508 centimeters
SENSEL_AREA 0.258064 cm2
NOISE_THRESHOLD 3
SECONDS_PER_FRAME 0.005
SECONDS_PER_FRAME 0
MICRO_SECOND 0
TIME 2017/11/15 11:58:57.964上午
SATURATION_PRESSURE 2347.96 KPa 
CALIBRATION_POINT_1 48.0001 (Kilograms) 1981 (Raw Sum) 199 (Number of Loaded Cells)
CALIBRATION_MODE_1 步態
CALIBRATION_INFO C:\Users\asus\Desktop\工研院_計畫\收案資料\Subject02\Plantar Pressure\FOAM_STAND_RIGHT_1.fsx
SENSITIVITY 自定義
MAP_INDEX 0
SUBMAP 0
Patient ID: 

Speed of Gait: 

Weight: 

Gender: 

Physician: 

Technician: 

Shoe: 

START_FRAME 1
END_FRAME 600
UNITS KPa
ASCII_DATA @@
畫面(X), 時間(X), 絕對時間(X), Raw Sum, 壓力(Y:天藍色), 壓力(Y), 壓力(Y), 壓力(Y)
1, 0, 2017/11/15 11:58:57.964上午, 199.0, 31, 0, 31, 31
2, 0.005, 2017/11/15 11:58:57.969上午, 188.0, 31, 0, 32, 32
3, 0.01, 2017/11/15 11:58:57.974上午, 197.0, 32, 0, 32, 32
4, 0.015, 2017/11/15 11:58:57.979上午, 194.0, 31, 0, 32, 31
5, 0.02, 2017/11/15 11:58:57.984上午, 190.0, 32, 0, 33, 33
6, 0.025, 2017/11/15 11:58:57.989上午, 190.0, 32, 0, 32, 32
7, 0.03, 2017/11/15 11:58:57.994上午, 193.0, 32, 0, 31, 32
8, 0.035, 2017/11/15 11:58:57.999上午, 184.0, 32, 0, 32, 32
9, 0.04, 2017/11/15 11:58:58.004上午, 195.0, 32, 0, 32, 32
10, 0.045, 2017/11/15 11:58:58.009上午, 184.0, 31, 0, 31, 31
11, 0.05, 2017/11/15 11:58:58.014上午, 188.0, 32, 0, 32, 32
12, 0.055, 2017/11/15 11:58:58.019上午, 194.0, 31, 0, 33, 32
13, 0.06, 2017/11/15 11:58:58.024上午, 198.0, 31, 0, 31, 31
14, 0.065, 2017/11/15 11:58:58.029上午, 180.0, 32, 0, 33, 32
15, 0.07, 2017/11/15 11:58:58.034上午, 204.0, 31, 0, 32, 32
16, 0.075, 2017/11/15 11:58:58.039上午, 189.0, 31, 0, 31, 31
17, 0.08, 2017/11/15 11:58:58.044上午, 186.0, 31, 0, 32, 32
18, 0.085, 2017/11/15 11:58:58.049上午, 185.0, 31, 0, 33, 32
19, 0.09, 2017/11/15 11:58:58.054上午, 182.0, 31, 0, 31, 31
20, 0.095, 2017/11/15 11:58:58.059上午, 179.0, 30, 0, 32, 31
21, 0.1, 2017/11/15 11:58:58.064上午, 198.0, 31, 0, 32, 31
22, 0.105, 2017/11/15 11:58:58.069上午, 202.0, 32, 0, 33, 32
23, 0.11, 2017/11/15 11:58:58.074上午, 193.0, 31, 0, 32, 32
24, 0.115, 2017/11/15 11:58:58.079上午, 184.0, 31, 0, 32, 31
25, 0.12, 2017/11/15 11:58:58.084上午, 198.0, 32, 0, 32, 32
26, 0.125, 2017/11/15 11:58:58.089上午, 178.0, 31, 0, 32, 32
27, 0.13, 2017/11/15 11:58:58.094上午, 193.0, 31, 0, 33, 32
28, 0.135, 2017/11/15 11:58:58.099上午, 178.0, 32, 0, 32, 32
29, 0.14, 2017/11/15 11:58:58.104上午, 165.0, 33, 0, 31, 32
30, 0.145, 2017/11/15 11:58:58.109上午, 197.0, 31, 0, 31, 31
31, 0.15, 2017/11/15 11:58:58.114上午, 183.0, 31, 0, 32, 32
32, 0.155, 2017/11/15 11:58:58.119上午, 189.0, 31, 0, 32, 31
33, 0.16, 2017/11/15 11:58:58.124上午, 202.0, 31, 0, 31, 31
34, 0.165, 2017/11/15 11:58:58.129上午, 182.0, 31, 0, 33, 32
35, 0.17, 2017/11/15 11:58:58.134上午, 197.0, 31, 0, 31, 31
36, 0.175, 2017/11/15 11:58:58.139上午, 186.0, 32, 0, 32, 32
37, 0.18, 2017/11/15 11:58:58.144上午, 183.0, 32, 0, 33, 32
38, 0.185, 2017/11/15 11:58:58.149上午, 175.0, 32, 0, 32, 32
39, 0.19, 2017/11/15 11:58:58.154上午, 192.0, 30, 0, 32, 31
40, 0.195, 2017/11/15 11:58:58.159上午, 191.0, 32, 0, 33, 33
41, 0.2, 2017/11/15 11:58:58.164上午, 196.0, 32, 0, 32, 32
42, 0.205, 2017/11/15 11:58:58.169上午, 188.0, 31, 0, 31, 31
43, 0.21, 2017/11/15 11:58:58.174上午, 178.0, 33, 0, 33, 33
44, 0.215, 2017/11/15 11:58:58.179上午, 184.0, 32, 0, 33, 33
45, 0.22, 2017/11/15 11:58:58.184上午, 186.0, 31, 0, 32, 32
46, 0.225, 2017/11/15 11:58:58.189上午, 198.0, 31, 0, 31, 31
47, 0.23, 2017/11/15 11:58:58.194上午, 184.0, 31, 0, 32, 32
48, 0.235, 2017/11/15 11:58:58.199上午, 180.0, 32, 0, 32, 32
49, 0.24, 2017/11/15 11:58:58.204上午, 183.0, 32, 0, 31, 31
50, 0.245, 2017/11/15 11:58:58.209上午, 174.0, 32, 0, 33, 33
51, 0.25, 2017/11/15 11:58:58.214上午, 175.0, 32, 0, 32, 32
52, 0.255, 2017/11/15 11:58:58.219上午, 198.0, 31, 0, 31, 31
53, 0.26, 2017/11/15 11:58:58.224上午, 185.0, 31, 0, 33, 32
54, 0.265, 2017/11/15 11:58:58.229上午, 179.0, 31, 0, 32, 32
55, 0.27, 2017/11/15 11:58:58.234上午, 188.0, 32, 0, 31, 31
56, 0.275, 2017/11/15 11:58:58.239上午, 187.0, 32, 0, 33, 32
57, 0.28, 2017/11/15 11:58:58.244上午, 194.0, 32, 0, 32, 32
58, 0.285, 2017/11/15 11:58:58.249上午, 201.0, 31, 0, 31, 31
59, 0.29, 2017/11/15 11:58:58.254上午, 169.0, 31, 0, 33, 32
60, 0.295, 2017/11/15 11:58:58.259上午, 199.0, 31, 0, 32, 32
61, 0.3, 2017/11/15 11:58:58.264上午, 190.0, 31, 0, 31, 31
62, 0.305, 2017/11/15 11:58:58.269上午, 201.0, 31, 0, 32, 31
63, 0.31, 2017/11/15 11:58:58.274上午, 174.0, 32, 0, 32, 32
64, 0.315, 2017/11/15 11:58:58.279上午, 183.0, 32, 0, 32, 32
65, 0.32, 2017/11/15 11:58:58.284上午, 205.0, 31, 0, 31, 31
66, 0.325, 2017/11/15 11:58:58.289上午, 191.0, 33, 0, 32, 32
67, 0.33, 2017/11/15 11:58:58.294上午, 186.0, 31, 0, 33, 32
68, 0.335, 2017/11/15 11:58:58.299上午, 183.0, 32, 0, 31, 31
69, 0.34, 2017/11/15 11:58:58.304上午, 184.0, 31, 0, 31, 31
70, 0.345, 2017/11/15 11:58:58.309上午, 179.0, 32, 0, 33, 32
71, 0.35, 2017/11/15 11:58:58.314上午, 185.0, 32, 0, 32, 32
72, 0.355, 2017/11/15 11:58:58.319上午, 206.0, 30, 0, 32, 31
73, 0.36, 2017/11/15 11:58:58.324上午, 179.0, 32, 0, 32, 32
74, 0.365, 2017/11/15 11:58:58.329上午, 192.0, 32, 0, 31, 31
75, 0.37, 2017/11/15 11:58:58.334上午, 193.0, 30, 0, 31, 31
76, 0.375, 2017/11/15 11:58:58.339上午, 190.0, 31, 0, 32, 32
77, 0.38, 2017/11/15 11:58:58.344上午, 176.0, 33, 0, 33, 33
78, 0.385, 2017/11/15 11:58:58.349上午, 195.0, 32, 0, 31, 31
79, 0.39, 2017/11/15 11:58:58.354上午, 186.0, 32, 0, 31, 32
80, 0.395, 2017/11/15 11:58:58.359上午, 184.0, 31, 0, 32, 32
81, 0.4, 2017/11/15 11:58:58.364上午, 195.0, 32, 0, 32, 32
82, 0.405, 2017/11/15 11:58:58.369上午, 192.0, 31, 0, 32, 31
83, 0.41, 2017/11/15 11:58:58.374上午, 184.0, 31, 0, 31, 31
84, 0.415, 2017/11/15 11:58:58.379上午, 191.0, 32, 0, 32, 32
85, 0.42, 2017/11/15 11:58:58.384上午, 197.0, 32, 0, 32, 32
86, 0.425, 2017/11/15 11:58:58.389上午, 195.0, 30, 0, 31, 31
87, 0.43, 2017/11/15 11:58:58.394上午, 189.0, 31, 0, 33, 32
88, 0.435, 2017/11/15 11:58:58.399上午, 187.0, 31, 0, 33, 32
89, 0.44, 2017/11/15 11:58:58.404上午, 196.0, 30, 0, 31, 30
90, 0.445, 2017/11/15 11:58:58.409上午, 188.0, 33, 0, 32, 32
91, 0.45, 2017/11/15 11:58:58.414上午, 191.0, 32, 0, 32, 32
92, 0.455, 2017/11/15 11:58:58.419上午, 202.0, 31, 0, 31, 31
93, 0.46, 2017/11/15 11:58:58.424上午, 194.0, 31, 0, 32, 32
94, 0.465, 2017/11/15 11:58:58.429上午, 194.0, 32, 0, 32, 32
95, 0.47, 2017/11/15 11:58:58.434上午, 176.0, 31, 0, 31, 31
96, 0.475, 2017/11/15 11:58:58.439上午, 189.0, 32, 0, 32, 32
97, 0.48, 2017/11/15 11:58:58.444上午, 187.0, 31, 0, 32, 32
98, 0.485, 2017/11/15 11:58:58.449上午, 189.0, 32, 0, 32, 32
99, 0.49, 2017/11/15 11:58:58.454上午, 195.0, 30, 0, 31, 31
100, 0.495, 2017/11/15 11:58:58.459上午, 202.0, 32, 0, 32, 32
101, 0.5, 2017/11/15 11:58:58.464上午, 190.0, 31, 0, 32, 32
102, 0.505, 2017/11/15 11:58:58.469上午, 191.0, 32, 0, 32, 32
103, 0.51, 2017/11/15 11:58:58.474上午, 187.0, 31, 0, 31, 31
104, 0.515, 2017/11/15 11:58:58.479上午, 187.0, 32, 0, 31, 32
105, 0.52, 2017/11/15 11:58:58.484上午, 176.0, 32, 0, 32, 32
106, 0.525, 2017/11/15 11:58:58.489上午, 201.0, 32, 0, 32, 32
107, 0.53, 2017/11/15 11:58:58.494上午, 185.0, 31, 0, 32, 31
108, 0.535, 2017/11/15 11:58:58.499上午, 189.0, 32, 0, 32, 32
109, 0.54, 2017/11/15 11:58:58.504上午, 193.0, 31, 0, 33, 32
110, 0.545, 2017/11/15 11:58:58.509上午, 189.0, 31, 0, 31, 31
111, 0.55, 2017/11/15 11:58:58.514上午, 200.0, 31, 0, 32, 32
112, 0.555, 2017/11/15 11:58:58.519上午, 189.0, 32, 0, 32, 32
113, 0.56, 2017/11/15 11:58:58.524上午, 199.0, 32, 0, 31, 31
114, 0.565, 2017/11/15 11:58:58.529上午, 199.0, 31, 0, 31, 31
115, 0.57, 2017/11/15 11:58:58.534上午, 176.0, 32, 0, 32, 32
116, 0.575, 2017/11/15 11:58:58.539上午, 177.0, 32, 0, 33, 32
117, 0.58, 2017/11/15 11:58:58.544上午, 208.0, 31, 0, 32, 32
118, 0.585, 2017/11/15 11:58:58.549上午, 190.0, 32, 0, 31, 31
119, 0.59, 2017/11/15 11:58:58.554上午, 199.0, 31, 0, 31, 31
120, 0.595, 2017/11/15 11:58:58.559上午, 171.0, 32, 0, 32, 32
121, 0.6, 2017/11/15 11:58:58.564上午, 192.0, 31, 0, 31, 31
122, 0.605, 2017/11/15 11:58:58.569上午, 168.0, 32, 0, 31, 31
123, 0.61, 2017/11/15 11:58:58.574上午, 201.0, 31, 0, 31, 31
124, 0.615, 2017/11/15 11:58:58.579上午, 189.0, 32, 0, 32, 32
125, 0.62, 2017/11/15 11:58:58.584上午, 185.0, 31, 0, 33, 32
126, 0.625, 2017/11/15 11:58:58.589上午, 189.0, 31, 0, 31, 31
127, 0.63, 2017/11/15 11:58:58.594上午, 182.0, 31, 0, 31, 31
128, 0.635, 2017/11/15 11:58:58.599上午, 175.0, 32, 0, 32, 32
129, 0.64, 2017/11/15 11:58:58.604上午, 176.0, 32, 0, 31, 32
130, 0.645, 2017/11/15 11:58:58.609上午, 191.0, 31, 0, 31, 31
131, 0.65, 2017/11/15 11:58:58.614上午, 196.0, 32, 0, 32, 32
132, 0.655, 2017/11/15 11:58:58.619上午, 181.0, 30, 0, 32, 31
133, 0.66, 2017/11/15 11:58:58.624上午, 195.0, 31, 0, 31, 31
134, 0.665, 2017/11/15 11:58:58.629上午, 193.0, 31, 0, 32, 32
135, 0.67, 2017/11/15 11:58:58.634上午, 205.0, 32, 0, 33, 32
136, 0.675, 2017/11/15 11:58:58.639上午, 182.0, 32, 0, 31, 31
137, 0.68, 2017/11/15 11:58:58.644上午, 193.0, 31, 0, 31, 31
138, 0.685, 2017/11/15 11:58:58.649上午, 178.0, 33, 0, 32, 32
139, 0.69, 2017/11/15 11:58:58.654上午, 206.0, 31, 0, 31, 31
140, 0.695, 2017/11/15 11:58:58.659上午, 189.0, 31, 0, 31, 31
141, 0.7, 2017/11/15 11:58:58.664上午, 192.0, 32, 0, 31, 31
142, 0.705, 2017/11/15 11:58:58.669上午, 189.0, 32, 0, 32, 32
143, 0.71, 2017/11/15 11:58:58.674上午, 172.0, 32, 0, 31, 31
144, 0.715, 2017/11/15 11:58:58.679上午, 194.0, 31, 0, 31, 31
145, 0.72, 2017/11/15 11:58:58.684上午, 187.0, 31, 0, 32, 32
146, 0.725, 2017/11/15 11:58:58.689上午, 185.0, 31, 0, 31, 31
147, 0.73, 2017/11/15 11:58:58.694上午, 200.0, 30, 0, 30, 30
148, 0.735, 2017/11/15 11:58:58.699上午, 202.0, 31, 0, 32, 31
149, 0.74, 2017/11/15 11:58:58.704上午, 200.0, 31, 0, 31, 31
150, 0.745, 2017/11/15 11:58:58.709上午, 190.0, 32, 0, 32, 32
151, 0.75, 2017/11/15 11:58:58.714上午, 186.0, 31, 0, 31, 31
152, 0.755, 2017/11/15 11:58:58.719上午, 176.0, 31, 0, 32, 32
153, 0.76, 2017/11/15 11:58:58.724上午, 196.0, 32, 0, 31, 31
154, 0.765, 2017/11/15 11:58:58.729上午, 203.0, 31, 0, 32, 31
155, 0.77, 2017/11/15 11:58:58.734上午, 180.0, 32, 0, 32, 32
156, 0.775, 2017/11/15 11:58:58.739上午, 192.0, 31, 0, 30, 31
157, 0.78, 2017/11/15 11:58:58.744上午, 182.0, 31, 0, 32, 32
158, 0.785, 2017/11/15 11:58:58.749上午, 197.0, 31, 0, 32, 31
159, 0.79, 2017/11/15 11:58:58.754上午, 183.0, 31, 0, 31, 31
160, 0.795, 2017/11/15 11:58:58.759上午, 182.0, 31, 0, 32, 31
161, 0.8, 2017/11/15 11:58:58.764上午, 172.0, 31, 0, 32, 32
162, 0.805, 2017/11/15 11:58:58.769上午, 172.0, 32, 0, 31, 31
163, 0.81, 2017/11/15 11:58:58.774上午, 200.0, 31, 0, 31, 31
164, 0.815, 2017/11/15 11:58:58.779上午, 179.0, 32, 0, 33, 32
165, 0.82, 2017/11/15 11:58:58.784上午, 196.0, 32, 0, 32, 32
166, 0.825, 2017/11/15 11:58:58.789上午, 172.0, 31, 0, 31, 31
167, 0.83, 2017/11/15 11:58:58.794上午, 177.0, 31, 0, 32, 32
168, 0.835, 2017/11/15 11:58:58.799上午, 190.0, 31, 0, 32, 32
169, 0.84, 2017/11/15 11:58:58.804上午, 192.0, 31, 0, 31, 31
170, 0.845, 2017/11/15 11:58:58.809上午, 180.0, 32, 0, 32, 32
171, 0.85, 2017/11/15 11:58:58.814上午, 187.0, 31, 0, 32, 31
172, 0.855, 2017/11/15 11:58:58.819上午, 179.0, 31, 0, 32, 31
173, 0.86, 2017/11/15 11:58:58.824上午, 197.0, 31, 0, 33, 32
174, 0.865, 2017/11/15 11:58:58.829上午, 197.0, 31, 0, 31, 31
175, 0.87, 2017/11/15 11:58:58.834上午, 174.0, 31, 0, 31, 31
176, 0.875, 2017/11/15 11:58:58.839上午, 191.0, 32, 0, 32, 32
177, 0.88, 2017/11/15 11:58:58.844上午, 184.0, 30, 0, 31, 31
178, 0.885, 2017/11/15 11:58:58.849上午, 183.0, 31, 0, 33, 32
179, 0.89, 2017/11/15 11:58:58.854上午, 179.0, 31, 0, 33, 32
180, 0.895, 2017/11/15 11:58:58.859上午, 183.0, 31, 0, 31, 31
181, 0.9, 2017/11/15 11:58:58.864上午, 185.0, 31, 0, 31, 31
182, 0.905, 2017/11/15 11:58:58.869上午, 186.0, 31, 0, 32, 31
183, 0.91, 2017/11/15 11:58:58.874上午, 182.0, 32, 0, 31, 31
184, 0.915, 2017/11/15 11:58:58.879上午, 182.0, 31, 0, 31, 31
185, 0.92, 2017/11/15 11:58:58.884上午, 188.0, 31, 0, 32, 32
186, 0.925, 2017/11/15 11:58:58.889上午, 165.0, 31, 0, 31, 31
187, 0.93, 2017/11/15 11:58:58.894上午, 197.0, 30, 0, 31, 31
188, 0.935, 2017/11/15 11:58:58.899上午, 190.0, 30, 0, 32, 31
189, 0.94, 2017/11/15 11:58:58.904上午, 204.0, 31, 0, 31, 31
190, 0.945, 2017/11/15 11:58:58.909上午, 172.0, 31, 0, 32, 32
191, 0.95, 2017/11/15 11:58:58.914上午, 196.0, 31, 0, 32, 31
192, 0.955, 2017/11/15 11:58:58.919上午, 196.0, 30, 0, 31, 31
193, 0.96, 2017/11/15 11:58:58.924上午, 180.0, 31, 0, 32, 32
194, 0.965, 2017/11/15 11:58:58.929上午, 192.0, 31, 0, 31, 31
195, 0.97, 2017/11/15 11:58:58.934上午, 205.0, 30, 0, 31, 31
196, 0.975, 2017/11/15 11:58:58.939上午, 174.0, 32, 0, 32, 32
197, 0.98, 2017/11/15 11:58:58.944上午, 181.0, 31, 0, 32, 31
198, 0.985, 2017/11/15 11:58:58.949上午, 195.0, 31, 0, 31, 31
199, 0.99, 2017/11/15 11:58:58.954上午, 180.0, 31, 0, 32, 32
200, 0.995, 2017/11/15 11:58:58.959上午, 161.0, 31, 0, 33, 32
201, 1, 2017/11/15 11:58:58.964上午, 186.0, 31, 0, 31, 31
202, 1.005, 2017/11/15 11:58:58.969上午, 187.0, 31, 0, 31, 31
203, 1.01, 2017/11/15 11:58:58.974上午, 196.0, 31, 0, 32, 32
204, 1.015, 2017/11/15 11:58:58.979上午, 178.0, 31, 0, 31, 31
205, 1.02, 2017/11/15 11:58:58.984上午, 190.0, 32, 0, 31, 32
206, 1.025, 2017/11/15 11:58:58.989上午, 185.0, 31, 0, 32, 32
207, 1.03, 2017/11/15 11:58:58.994上午, 192.0, 31, 0, 31, 31
208, 1.035, 2017/11/15 11:58:58.999上午, 199.0, 30, 0, 32, 31
209, 1.04, 2017/11/15 11:58:59.004上午, 185.0, 31, 0, 32, 31
210, 1.045, 2017/11/15 11:58:59.009上午, 195.0, 31, 0, 31, 31
211, 1.05, 2017/11/15 11:58:59.014上午, 187.0, 31, 0, 31, 31
212, 1.055, 2017/11/15 11:58:59.019上午, 194.0, 30, 0, 31, 31
213, 1.06, 2017/11/15 11:58:59.024上午, 177.0, 31, 0, 31, 31
214, 1.065, 2017/11/15 11:58:59.029上午, 177.0, 31, 0, 32, 32
215, 1.07, 2017/11/15 11:58:59.034上午, 202.0, 31, 0, 32, 31
216, 1.075, 2017/11/15 11:58:59.039上午, 185.0, 31, 0, 32, 32
217, 1.08, 2017/11/15 11:58:59.044上午, 173.0, 30, 0, 33, 32
218, 1.085, 2017/11/15 11:58:59.049上午, 179.0, 31, 0, 31, 31
219, 1.09, 2017/11/15 11:58:59.054上午, 189.0, 31, 0, 31, 31
220, 1.095, 2017/11/15 11:58:59.059上午, 187.0, 31, 0, 31, 31
221, 1.1, 2017/11/15 11:58:59.064上午, 190.0, 31, 0, 32, 32
222, 1.105, 2017/11/15 11:58:59.069上午, 198.0, 31, 0, 31, 31
223, 1.11, 2017/11/15 11:58:59.074上午, 184.0, 30, 0, 32, 31
224, 1.115, 2017/11/15 11:58:59.079上午, 180.0, 30, 0, 32, 32
225, 1.12, 2017/11/15 11:58:59.084上午, 191.0, 30, 0, 31, 31
226, 1.125, 2017/11/15 11:58:59.089上午, 180.0, 32, 0, 32, 32
227, 1.13, 2017/11/15 11:58:59.094上午, 171.0, 31, 0, 31, 31
228, 1.135, 2017/11/15 11:58:59.099上午, 207.0, 31, 0, 32, 31
229, 1.14, 2017/11/15 11:58:59.104上午, 172.0, 31, 0, 32, 32
230, 1.145, 2017/11/15 11:58:59.109上午, 179.0, 31, 0, 30, 30
231, 1.15, 2017/11/15 11:58:59.114上午, 179.0, 31, 0, 31, 31
232, 1.155, 2017/11/15 11:58:59.119上午, 167.0, 33, 0, 31, 32
233, 1.16, 2017/11/15 11:58:59.124上午, 199.0, 31, 0, 32, 31
234, 1.165, 2017/11/15 11:58:59.129上午, 184.0, 30, 0, 32, 31
235, 1.17, 2017/11/15 11:58:59.134上午, 180.0, 31, 0, 31, 31
236, 1.175, 2017/11/15 11:58:59.139上午, 184.0, 31, 0, 31, 31
237, 1.18, 2017/11/15 11:58:59.144上午, 159.0, 32, 0, 32, 32
238, 1.185, 2017/11/15 11:58:59.149上午, 199.0, 31, 0, 31, 31
239, 1.19, 2017/11/15 11:58:59.154上午, 188.0, 31, 0, 31, 31
240, 1.195, 2017/11/15 11:58:59.159上午, 182.0, 30, 0, 32, 31
241, 1.2, 2017/11/15 11:58:59.164上午, 184.0, 31, 0, 32, 32
242, 1.205, 2017/11/15 11:58:59.169上午, 186.0, 31, 0, 32, 31
243, 1.21, 2017/11/15 11:58:59.174上午, 188.0, 31, 0, 31, 31
244, 1.215, 2017/11/15 11:58:59.179上午, 181.0, 30, 0, 32, 31
245, 1.22, 2017/11/15 11:58:59.184上午, 180.0, 32, 0, 31, 32
246, 1.225, 2017/11/15 11:58:59.189上午, 174.0, 31, 0, 31, 31
247, 1.23, 2017/11/15 11:58:59.194上午, 191.0, 32, 0, 32, 32
248, 1.235, 2017/11/15 11:58:59.199上午, 200.0, 30, 0, 32, 31
249, 1.24, 2017/11/15 11:58:59.204上午, 175.0, 31, 0, 31, 31
250, 1.245, 2017/11/15 11:58:59.209上午, 184.0, 33, 0, 32, 32
251, 1.25, 2017/11/15 11:58:59.214上午, 195.0, 31, 0, 32, 32
252, 1.255, 2017/11/15 11:58:59.219上午, 206.0, 30, 0, 31, 31
253, 1.26, 2017/11/15 11:58:59.224上午, 188.0, 32, 0, 32, 32
254, 1.265, 2017/11/15 11:58:59.229上午, 193.0, 31, 0, 33, 32
255, 1.27, 2017/11/15 11:58:59.234上午, 208.0, 31, 0, 31, 31
256, 1.275, 2017/11/15 11:58:59.239上午, 178.0, 31, 0, 32, 32
257, 1.28, 2017/11/15 11:58:59.244上午, 196.0, 31, 0, 31, 31
258, 1.285, 2017/11/15 11:58:59.249上午, 185.0, 31, 0, 31, 31
259, 1.29, 2017/11/15 11:58:59.254上午, 182.0, 31, 0, 32, 31
260, 1.295, 2017/11/15 11:58:59.259上午, 191.0, 31, 0, 32, 32
261, 1.3, 2017/11/15 11:58:59.264上午, 190.0, 30, 0, 30, 30
262, 1.305, 2017/11/15 11:58:59.269上午, 176.0, 31, 0, 32, 31
263, 1.31, 2017/11/15 11:58:59.274上午, 192.0, 31, 0, 32, 31
264, 1.315, 2017/11/15 11:58:59.279上午, 185.0, 31, 0, 31, 31
265, 1.32, 2017/11/15 11:58:59.284上午, 197.0, 30, 0, 31, 31
266, 1.325, 2017/11/15 11:58:59.289上午, 182.0, 31, 0, 32, 32
267, 1.33, 2017/11/15 11:58:59.294上午, 184.0, 31, 0, 32, 32
268, 1.335, 2017/11/15 11:58:59.299上午, 195.0, 30, 0, 31, 31
269, 1.34, 2017/11/15 11:58:59.304上午, 183.0, 30, 0, 32, 31
270, 1.345, 2017/11/15 11:58:59.309上午, 191.0, 30, 0, 32, 31
271, 1.35, 2017/11/15 11:58:59.314上午, 183.0, 32, 0, 32, 32
272, 1.355, 2017/11/15 11:58:59.319上午, 175.0, 31, 0, 32, 31
273, 1.36, 2017/11/15 11:58:59.324上午, 182.0, 31, 0, 31, 31
274, 1.365, 2017/11/15 11:58:59.329上午, 175.0, 32, 0, 33, 32
275, 1.37, 2017/11/15 11:58:59.334上午, 196.0, 31, 0, 32, 31
276, 1.375, 2017/11/15 11:58:59.339上午, 175.0, 30, 0, 32, 31
277, 1.38, 2017/11/15 11:58:59.344上午, 177.0, 32, 0, 32, 32
278, 1.385, 2017/11/15 11:58:59.349上午, 183.0, 31, 0, 32, 32
279, 1.39, 2017/11/15 11:58:59.354上午, 180.0, 31, 0, 31, 31
280, 1.395, 2017/11/15 11:58:59.359上午, 179.0, 32, 0, 31, 31
281, 1.4, 2017/11/15 11:58:59.364上午, 181.0, 31, 0, 32, 32
282, 1.405, 2017/11/15 11:58:59.369上午, 185.0, 30, 0, 32, 31
283, 1.41, 2017/11/15 11:58:59.374上午, 161.0, 31, 0, 31, 31
284, 1.415, 2017/11/15 11:58:59.379上午, 179.0, 32, 0, 31, 31
285, 1.42, 2017/11/15 11:58:59.384上午, 189.0, 30, 0, 32, 31
286, 1.425, 2017/11/15 11:58:59.389上午, 186.0, 30, 0, 31, 30
287, 1.43, 2017/11/15 11:58:59.394上午, 172.0, 31, 0, 33, 32
288, 1.435, 2017/11/15 11:58:59.399上午, 183.0, 31, 0, 31, 31
289, 1.44, 2017/11/15 11:58:59.404上午, 183.0, 32, 0, 32, 32
290, 1.445, 2017/11/15 11:58:59.409上午, 185.0, 30, 0, 32, 31
291, 1.45, 2017/11/15 11:58:59.414上午, 176.0, 30, 0, 30, 30
292, 1.455, 2017/11/15 11:58:59.419上午, 181.0, 31, 0, 32, 32
293, 1.46, 2017/11/15 11:58:59.424上午, 182.0, 32, 0, 30, 31
294, 1.465, 2017/11/15 11:58:59.429上午, 185.0, 31, 0, 31, 31
295, 1.47, 2017/11/15 11:58:59.434上午, 178.0, 31, 0, 31, 31
296, 1.475, 2017/11/15 11:58:59.439上午, 173.0, 30, 0, 31, 30
297, 1.48, 2017/11/15 11:58:59.444上午, 176.0, 31, 0, 32, 32
298, 1.485, 2017/11/15 11:58:59.449上午, 177.0, 31, 0, 33, 32
299, 1.49, 2017/11/15 11:58:59.454上午, 175.0, 30, 0, 31, 31
300, 1.495, 2017/11/15 11:58:59.459上午, 196.0, 30, 0, 31, 30
301, 1.5, 2017/11/15 11:58:59.464上午, 182.0, 32, 0, 33, 33
302, 1.505, 2017/11/15 11:58:59.469上午, 193.0, 31, 0, 32, 31
303, 1.51, 2017/11/15 11:58:59.474上午, 186.0, 30, 0, 31, 31
304, 1.515, 2017/11/15 11:58:59.479上午, 180.0, 32, 0, 32, 32
305, 1.52, 2017/11/15 11:58:59.484上午, 199.0, 31, 0, 32, 31
306, 1.525, 2017/11/15 11:58:59.489上午, 173.0, 30, 0, 30, 30
307, 1.53, 2017/11/15 11:58:59.494上午, 180.0, 30, 0, 31, 31
308, 1.535, 2017/11/15 11:58:59.499上午, 156.0, 31, 0, 32, 32
309, 1.54, 2017/11/15 11:58:59.504上午, 183.0, 32, 0, 31, 31
310, 1.545, 2017/11/15 11:58:59.509上午, 184.0, 30, 0, 32, 31
311, 1.55, 2017/11/15 11:58:59.514上午, 200.0, 30, 0, 31, 31
312, 1.555, 2017/11/15 11:58:59.519上午, 183.0, 32, 0, 32, 32
313, 1.56, 2017/11/15 11:58:59.524上午, 167.0, 31, 0, 30, 31
314, 1.565, 2017/11/15 11:58:59.529上午, 186.0, 29, 0, 32, 31
315, 1.57, 2017/11/15 11:58:59.534上午, 166.0, 31, 0, 31, 31
316, 1.575, 2017/11/15 11:58:59.539上午, 193.0, 30, 0, 31, 31
317, 1.58, 2017/11/15 11:58:59.544上午, 187.0, 31, 0, 32, 32
318, 1.585, 2017/11/15 11:58:59.549上午, 191.0, 31, 0, 32, 32
319, 1.59, 2017/11/15 11:58:59.554上午, 178.0, 30, 0, 31, 31
320, 1.595, 2017/11/15 11:58:59.559上午, 179.0, 31, 0, 31, 31
321, 1.6, 2017/11/15 11:58:59.564上午, 178.0, 31, 0, 32, 32
322, 1.605, 2017/11/15 11:58:59.569上午, 164.0, 31, 0, 31, 31
323, 1.61, 2017/11/15 11:58:59.574上午, 191.0, 30, 0, 32, 31
324, 1.615, 2017/11/15 11:58:59.579上午, 177.0, 32, 0, 32, 32
325, 1.62, 2017/11/15 11:58:59.584上午, 190.0, 31, 0, 32, 31
326, 1.625, 2017/11/15 11:58:59.589上午, 168.0, 31, 0, 32, 31
327, 1.63, 2017/11/15 11:58:59.594上午, 185.0, 32, 0, 32, 32
328, 1.635, 2017/11/15 11:58:59.599上午, 169.0, 30, 0, 31, 31
329, 1.64, 2017/11/15 11:58:59.604上午, 203.0, 30, 0, 31, 31
330, 1.645, 2017/11/15 11:58:59.609上午, 177.0, 31, 0, 33, 32
331, 1.65, 2017/11/15 11:58:59.614上午, 167.0, 31, 0, 31, 31
332, 1.655, 2017/11/15 11:58:59.619上午, 192.0, 31, 0, 31, 31
333, 1.66, 2017/11/15 11:58:59.624上午, 169.0, 31, 0, 32, 31
334, 1.665, 2017/11/15 11:58:59.629上午, 156.0, 31, 0, 31, 31
335, 1.67, 2017/11/15 11:58:59.634上午, 178.0, 31, 0, 31, 31
336, 1.675, 2017/11/15 11:58:59.639上午, 176.0, 32, 0, 31, 31
337, 1.68, 2017/11/15 11:58:59.644上午, 165.0, 31, 0, 31, 31
338, 1.685, 2017/11/15 11:58:59.649上午, 177.0, 29, 0, 31, 31
339, 1.69, 2017/11/15 11:58:59.654上午, 173.0, 32, 0, 32, 32
340, 1.695, 2017/11/15 11:58:59.659上午, 195.0, 31, 0, 32, 32
341, 1.7, 2017/11/15 11:58:59.664上午, 181.0, 31, 0, 31, 31
342, 1.705, 2017/11/15 11:58:59.669上午, 187.0, 30, 0, 31, 31
343, 1.71, 2017/11/15 11:58:59.674上午, 175.0, 31, 0, 31, 31
344, 1.715, 2017/11/15 11:58:59.679上午, 186.0, 31, 0, 32, 31
345, 1.72, 2017/11/15 11:58:59.684上午, 179.0, 30, 0, 31, 31
346, 1.725, 2017/11/15 11:58:59.689上午, 179.0, 30, 0, 31, 31
347, 1.73, 2017/11/15 11:58:59.694上午, 200.0, 30, 0, 32, 31
348, 1.735, 2017/11/15 11:58:59.699上午, 174.0, 31, 0, 32, 32
349, 1.74, 2017/11/15 11:58:59.704上午, 174.0, 32, 0, 32, 32
350, 1.745, 2017/11/15 11:58:59.709上午, 179.0, 31, 0, 31, 31
351, 1.75, 2017/11/15 11:58:59.714上午, 178.0, 31, 0, 31, 31
352, 1.755, 2017/11/15 11:58:59.719上午, 183.0, 31, 0, 32, 31
353, 1.76, 2017/11/15 11:58:59.724上午, 163.0, 31, 0, 32, 32
354, 1.765, 2017/11/15 11:58:59.729上午, 187.0, 31, 0, 32, 32
355, 1.77, 2017/11/15 11:58:59.734上午, 163.0, 31, 0, 32, 32
356, 1.775, 2017/11/15 11:58:59.739上午, 179.0, 30, 0, 31, 31
357, 1.78, 2017/11/15 11:58:59.744上午, 194.0, 29, 0, 31, 30
358, 1.785, 2017/11/15 11:58:59.749上午, 181.0, 32, 0, 32, 32
359, 1.79, 2017/11/15 11:58:59.754上午, 179.0, 31, 0, 33, 32
360, 1.795, 2017/11/15 11:58:59.759上午, 178.0, 30, 0, 32, 31
361, 1.8, 2017/11/15 11:58:59.764上午, 192.0, 30, 0, 31, 31
362, 1.805, 2017/11/15 11:58:59.769上午, 191.0, 30, 0, 31, 30
363, 1.81, 2017/11/15 11:58:59.774上午, 173.0, 31, 0, 32, 31
364, 1.815, 2017/11/15 11:58:59.779上午, 185.0, 31, 0, 32, 32
365, 1.82, 2017/11/15 11:58:59.784上午, 166.0, 31, 0, 32, 32
366, 1.825, 2017/11/15 11:58:59.789上午, 182.0, 30, 0, 30, 30
367, 1.83, 2017/11/15 11:58:59.794上午, 180.0, 31, 0, 32, 31
368, 1.835, 2017/11/15 11:58:59.799上午, 186.0, 31, 0, 31, 31
369, 1.84, 2017/11/15 11:58:59.804上午, 185.0, 30, 0, 31, 31
370, 1.845, 2017/11/15 11:58:59.809上午, 183.0, 31, 0, 32, 31
371, 1.85, 2017/11/15 11:58:59.814上午, 194.0, 31, 0, 32, 31
372, 1.855, 2017/11/15 11:58:59.819上午, 197.0, 30, 0, 31, 30
373, 1.86, 2017/11/15 11:58:59.824上午, 183.0, 30, 0, 32, 31
374, 1.865, 2017/11/15 11:58:59.829上午, 176.0, 31, 0, 32, 31
375, 1.87, 2017/11/15 11:58:59.834上午, 162.0, 31, 0, 31, 31
376, 1.875, 2017/11/15 11:58:59.839上午, 173.0, 30, 0, 31, 30
377, 1.88, 2017/11/15 11:58:59.844上午, 172.0, 30, 0, 31, 31
378, 1.885, 2017/11/15 11:58:59.849上午, 185.0, 31, 0, 32, 32
379, 1.89, 2017/11/15 11:58:59.854上午, 179.0, 31, 0, 31, 31
380, 1.895, 2017/11/15 11:58:59.859上午, 182.0, 29, 0, 31, 30
381, 1.9, 2017/11/15 11:58:59.864上午, 174.0, 31, 0, 32, 32
382, 1.905, 2017/11/15 11:58:59.869上午, 190.0, 30, 0, 31, 31
383, 1.91, 2017/11/15 11:58:59.874上午, 177.0, 30, 0, 30, 30
384, 1.915, 2017/11/15 11:58:59.879上午, 172.0, 30, 0, 31, 31
385, 1.92, 2017/11/15 11:58:59.884上午, 178.0, 32, 0, 33, 32
386, 1.925, 2017/11/15 11:58:59.889上午, 173.0, 31, 0, 32, 31
387, 1.93, 2017/11/15 11:58:59.894上午, 189.0, 31, 0, 31, 31
388, 1.935, 2017/11/15 11:58:59.899上午, 180.0, 32, 0, 31, 31
389, 1.94, 2017/11/15 11:58:59.904上午, 172.0, 31, 0, 31, 31
390, 1.945, 2017/11/15 11:58:59.909上午, 181.0, 31, 0, 31, 31
391, 1.95, 2017/11/15 11:58:59.914上午, 186.0, 31, 0, 32, 31
392, 1.955, 2017/11/15 11:58:59.919上午, 186.0, 30, 0, 31, 31
393, 1.96, 2017/11/15 11:58:59.924上午, 176.0, 31, 0, 33, 32
394, 1.965, 2017/11/15 11:58:59.929上午, 184.0, 31, 0, 33, 32
395, 1.97, 2017/11/15 11:58:59.934上午, 179.0, 30, 0, 31, 31
396, 1.975, 2017/11/15 11:58:59.939上午, 181.0, 30, 0, 32, 31
397, 1.98, 2017/11/15 11:58:59.944上午, 173.0, 31, 0, 32, 31
398, 1.985, 2017/11/15 11:58:59.949上午, 194.0, 31, 0, 31, 31
399, 1.99, 2017/11/15 11:58:59.954上午, 188.0, 31, 0, 30, 31
400, 1.995, 2017/11/15 11:58:59.959上午, 179.0, 30, 0, 31, 31
401, 2, 2017/11/15 11:58:59.964上午, 180.0, 31, 0, 32, 32
402, 2.005, 2017/11/15 11:58:59.969上午, 179.0, 30, 0, 31, 31
403, 2.01, 2017/11/15 11:58:59.974上午, 181.0, 30, 0, 30, 30
404, 2.015, 2017/11/15 11:58:59.979上午, 165.0, 30, 0, 32, 31
405, 2.02, 2017/11/15 11:58:59.984上午, 188.0, 30, 0, 32, 32
406, 2.025, 2017/11/15 11:58:59.989上午, 169.0, 31, 0, 32, 31
407, 2.03, 2017/11/15 11:58:59.994上午, 190.0, 30, 0, 31, 30
408, 2.035, 2017/11/15 11:58:59.999上午, 185.0, 31, 0, 32, 32
409, 2.04, 2017/11/15 11:59:00.004上午, 179.0, 30, 0, 31, 31
410, 2.045, 2017/11/15 11:59:00.009上午, 187.0, 30, 0, 31, 30
411, 2.05, 2017/11/15 11:59:00.014上午, 173.0, 31, 0, 32, 31
412, 2.055, 2017/11/15 11:59:00.019上午, 186.0, 31, 0, 32, 31
413, 2.06, 2017/11/15 11:59:00.024上午, 188.0, 30, 0, 31, 31
414, 2.065, 2017/11/15 11:59:00.029上午, 179.0, 30, 0, 32, 31
415, 2.07, 2017/11/15 11:59:00.034上午, 188.0, 31, 0, 32, 32
416, 2.075, 2017/11/15 11:59:00.039上午, 183.0, 30, 0, 31, 30
417, 2.08, 2017/11/15 11:59:00.044上午, 172.0, 30, 0, 31, 31
418, 2.085, 2017/11/15 11:59:00.049上午, 180.0, 30, 0, 32, 31
419, 2.09, 2017/11/15 11:59:00.054上午, 167.0, 31, 0, 31, 31
420, 2.095, 2017/11/15 11:59:00.059上午, 170.0, 30, 0, 30, 30
421, 2.1, 2017/11/15 11:59:00.064上午, 186.0, 29, 0, 30, 30
422, 2.105, 2017/11/15 11:59:00.069上午, 175.0, 31, 0, 32, 32
423, 2.11, 2017/11/15 11:59:00.074上午, 179.0, 29, 0, 31, 30
424, 2.115, 2017/11/15 11:59:00.079上午, 163.0, 30, 0, 31, 30
425, 2.12, 2017/11/15 11:59:00.084上午, 179.0, 30, 0, 31, 30
426, 2.125, 2017/11/15 11:59:00.089上午, 175.0, 31, 0, 32, 31
427, 2.13, 2017/11/15 11:59:00.094上午, 164.0, 29, 0, 31, 31
428, 2.135, 2017/11/15 11:59:00.099上午, 167.0, 30, 0, 30, 30
429, 2.14, 2017/11/15 11:59:00.104上午, 181.0, 31, 0, 32, 32
430, 2.145, 2017/11/15 11:59:00.109上午, 168.0, 29, 0, 32, 31
431, 2.15, 2017/11/15 11:59:00.114上午, 179.0, 31, 0, 31, 31
432, 2.155, 2017/11/15 11:59:00.119上午, 165.0, 31, 0, 32, 31
433, 2.16, 2017/11/15 11:59:00.124上午, 176.0, 31, 0, 31, 31
434, 2.165, 2017/11/15 11:59:00.129上午, 177.0, 30, 0, 32, 31
435, 2.17, 2017/11/15 11:59:00.134上午, 177.0, 31, 0, 32, 32
436, 2.175, 2017/11/15 11:59:00.139上午, 175.0, 31, 0, 31, 31
437, 2.18, 2017/11/15 11:59:00.144上午, 187.0, 30, 0, 31, 31
438, 2.185, 2017/11/15 11:59:00.149上午, 176.0, 31, 0, 32, 32
439, 2.19, 2017/11/15 11:59:00.154上午, 177.0, 31, 0, 31, 31
440, 2.195, 2017/11/15 11:59:00.159上午, 182.0, 31, 0, 30, 30
441, 2.2, 2017/11/15 11:59:00.164上午, 177.0, 30, 0, 32, 31
442, 2.205, 2017/11/15 11:59:00.169上午, 191.0, 31, 0, 32, 32
443, 2.21, 2017/11/15 11:59:00.174上午, 182.0, 32, 0, 31, 31
444, 2.215, 2017/11/15 11:59:00.179上午, 185.0, 29, 0, 31, 30
445, 2.22, 2017/11/15 11:59:00.184上午, 179.0, 31, 0, 32, 32
446, 2.225, 2017/11/15 11:59:00.189上午, 197.0, 30, 0, 32, 31
447, 2.23, 2017/11/15 11:59:00.194上午, 181.0, 30, 0, 31, 31
448, 2.235, 2017/11/15 11:59:00.199上午, 172.0, 31, 0, 31, 31
449, 2.24, 2017/11/15 11:59:00.204上午, 182.0, 31, 0, 32, 31
450, 2.245, 2017/11/15 11:59:00.209上午, 175.0, 30, 0, 31, 31
451, 2.25, 2017/11/15 11:59:00.214上午, 170.0, 31, 0, 32, 32
452, 2.255, 2017/11/15 11:59:00.219上午, 183.0, 31, 0, 33, 32
453, 2.26, 2017/11/15 11:59:00.224上午, 181.0, 32, 0, 31, 32
454, 2.265, 2017/11/15 11:59:00.229上午, 177.0, 30, 0, 32, 31
455, 2.27, 2017/11/15 11:59:00.234上午, 164.0, 31, 0, 32, 32
456, 2.275, 2017/11/15 11:59:00.239上午, 183.0, 32, 0, 31, 31
457, 2.28, 2017/11/15 11:59:00.244上午, 181.0, 30, 0, 31, 31
458, 2.285, 2017/11/15 11:59:00.249上午, 172.0, 31, 0, 31, 31
459, 2.29, 2017/11/15 11:59:00.254上午, 176.0, 30, 0, 32, 31
460, 2.295, 2017/11/15 11:59:00.259上午, 176.0, 32, 0, 31, 31
461, 2.3, 2017/11/15 11:59:00.264上午, 175.0, 30, 0, 31, 30
462, 2.305, 2017/11/15 11:59:00.269上午, 172.0, 31, 0, 32, 32
463, 2.31, 2017/11/15 11:59:00.274上午, 175.0, 30, 0, 32, 32
464, 2.315, 2017/11/15 11:59:00.279上午, 171.0, 31, 0, 31, 31
465, 2.32, 2017/11/15 11:59:00.284上午, 178.0, 30, 0, 31, 31
466, 2.325, 2017/11/15 11:59:00.289上午, 174.0, 31, 0, 32, 32
467, 2.33, 2017/11/15 11:59:00.294上午, 177.0, 30, 0, 31, 31
468, 2.335, 2017/11/15 11:59:00.299上午, 190.0, 30, 0, 31, 31
469, 2.34, 2017/11/15 11:59:00.304上午, 179.0, 32, 0, 32, 32
470, 2.345, 2017/11/15 11:59:00.309上午, 173.0, 30, 0, 32, 31
471, 2.35, 2017/11/15 11:59:00.314上午, 172.0, 30, 0, 32, 31
472, 2.355, 2017/11/15 11:59:00.319上午, 171.0, 32, 0, 32, 32
473, 2.36, 2017/11/15 11:59:00.324上午, 179.0, 30, 0, 32, 31
474, 2.365, 2017/11/15 11:59:00.329上午, 176.0, 30, 0, 32, 31
475, 2.37, 2017/11/15 11:59:00.334上午, 183.0, 32, 0, 32, 32
476, 2.375, 2017/11/15 11:59:00.339上午, 180.0, 32, 0, 32, 32
477, 2.38, 2017/11/15 11:59:00.344上午, 169.0, 30, 0, 31, 31
478, 2.385, 2017/11/15 11:59:00.349上午, 183.0, 30, 0, 32, 31
479, 2.39, 2017/11/15 11:59:00.354上午, 191.0, 30, 0, 32, 31
480, 2.395, 2017/11/15 11:59:00.359上午, 185.0, 31, 0, 32, 32
481, 2.4, 2017/11/15 11:59:00.364上午, 179.0, 30, 0, 31, 31
482, 2.405, 2017/11/15 11:59:00.369上午, 169.0, 32, 0, 33, 32
483, 2.41, 2017/11/15 11:59:00.374上午, 171.0, 30, 0, 33, 32
484, 2.415, 2017/11/15 11:59:00.379上午, 193.0, 30, 0, 31, 31
485, 2.42, 2017/11/15 11:59:00.384上午, 184.0, 30, 0, 32, 31
486, 2.425, 2017/11/15 11:59:00.389上午, 181.0, 31, 0, 33, 32
487, 2.43, 2017/11/15 11:59:00.394上午, 169.0, 31, 0, 31, 31
488, 2.435, 2017/11/15 11:59:00.399上午, 170.0, 30, 0, 31, 31
489, 2.44, 2017/11/15 11:59:00.404上午, 171.0, 31, 0, 32, 32
490, 2.445, 2017/11/15 11:59:00.409上午, 168.0, 30, 0, 31, 31
491, 2.45, 2017/11/15 11:59:00.414上午, 172.0, 31, 0, 32, 32
492, 2.455, 2017/11/15 11:59:00.419上午, 179.0, 31, 0, 32, 32
493, 2.46, 2017/11/15 11:59:00.424上午, 167.0, 30, 0, 31, 31
494, 2.465, 2017/11/15 11:59:00.429上午, 179.0, 30, 0, 32, 31
495, 2.47, 2017/11/15 11:59:00.434上午, 177.0, 32, 0, 32, 32
496, 2.475, 2017/11/15 11:59:00.439上午, 185.0, 31, 0, 32, 32
497, 2.48, 2017/11/15 11:59:00.444上午, 177.0, 31, 0, 32, 31
498, 2.485, 2017/11/15 11:59:00.449上午, 171.0, 32, 0, 32, 32
499, 2.49, 2017/11/15 11:59:00.454上午, 176.0, 30, 0, 32, 31
500, 2.495, 2017/11/15 11:59:00.459上午, 181.0, 30, 0, 31, 31
501, 2.5, 2017/11/15 11:59:00.464上午, 199.0, 30, 0, 31, 31
502, 2.505, 2017/11/15 11:59:00.469上午, 181.0, 31, 0, 32, 31
503, 2.51, 2017/11/15 11:59:00.474上午, 185.0, 30, 0, 32, 31
504, 2.515, 2017/11/15 11:59:00.479上午, 175.0, 31, 0, 31, 31
505, 2.52, 2017/11/15 11:59:00.484上午, 177.0, 30, 0, 31, 31
506, 2.525, 2017/11/15 11:59:00.489上午, 176.0, 31, 0, 32, 32
507, 2.53, 2017/11/15 11:59:00.494上午, 172.0, 30, 0, 31, 30
508, 2.535, 2017/11/15 11:59:00.499上午, 201.0, 31, 0, 32, 31
509, 2.54, 2017/11/15 11:59:00.504上午, 171.0, 31, 0, 32, 32
510, 2.545, 2017/11/15 11:59:00.509上午, 169.0, 31, 0, 31, 31
511, 2.55, 2017/11/15 11:59:00.514上午, 173.0, 30, 0, 31, 31
512, 2.555, 2017/11/15 11:59:00.519上午, 183.0, 32, 0, 31, 32
513, 2.56, 2017/11/15 11:59:00.524上午, 162.0, 32, 0, 31, 31
514, 2.565, 2017/11/15 11:59:00.529上午, 192.0, 30, 0, 31, 31
515, 2.57, 2017/11/15 11:59:00.534上午, 189.0, 30, 0, 32, 31
516, 2.575, 2017/11/15 11:59:00.539上午, 162.0, 31, 0, 31, 31
517, 2.58, 2017/11/15 11:59:00.544上午, 175.0, 30, 0, 31, 31
518, 2.585, 2017/11/15 11:59:00.549上午, 176.0, 31, 0, 32, 32
519, 2.59, 2017/11/15 11:59:00.554上午, 184.0, 30, 0, 33, 32
520, 2.595, 2017/11/15 11:59:00.559上午, 171.0, 30, 0, 31, 31
521, 2.6, 2017/11/15 11:59:00.564上午, 176.0, 31, 0, 31, 31
522, 2.605, 2017/11/15 11:59:00.569上午, 171.0, 31, 0, 32, 31
523, 2.61, 2017/11/15 11:59:00.574上午, 174.0, 30, 0, 32, 31
524, 2.615, 2017/11/15 11:59:00.579上午, 160.0, 30, 0, 31, 31
525, 2.62, 2017/11/15 11:59:00.584上午, 185.0, 30, 0, 32, 32
526, 2.625, 2017/11/15 11:59:00.589上午, 180.0, 31, 0, 32, 32
527, 2.63, 2017/11/15 11:59:00.594上午, 185.0, 30, 0, 32, 31
528, 2.635, 2017/11/15 11:59:00.599上午, 184.0, 30, 0, 32, 31
529, 2.64, 2017/11/15 11:59:00.604上午, 180.0, 31, 0, 32, 32
530, 2.645, 2017/11/15 11:59:00.609上午, 188.0, 30, 0, 31, 30
531, 2.65, 2017/11/15 11:59:00.614上午, 179.0, 30, 0, 32, 32
532, 2.655, 2017/11/15 11:59:00.619上午, 169.0, 31, 0, 32, 32
533, 2.66, 2017/11/15 11:59:00.624上午, 161.0, 31, 0, 31, 31
534, 2.665, 2017/11/15 11:59:00.629上午, 187.0, 29, 0, 31, 30
535, 2.67, 2017/11/15 11:59:00.634上午, 177.0, 31, 0, 32, 32
536, 2.675, 2017/11/15 11:59:00.639上午, 159.0, 32, 0, 31, 31
537, 2.68, 2017/11/15 11:59:00.644上午, 194.0, 31, 0, 32, 31
538, 2.685, 2017/11/15 11:59:00.649上午, 184.0, 31, 0, 32, 31
539, 2.69, 2017/11/15 11:59:00.654上午, 160.0, 31, 0, 31, 31
540, 2.695, 2017/11/15 11:59:00.659上午, 173.0, 31, 0, 31, 31
541, 2.7, 2017/11/15 11:59:00.664上午, 180.0, 30, 0, 32, 31
542, 2.705, 2017/11/15 11:59:00.669上午, 183.0, 31, 0, 32, 32
543, 2.71, 2017/11/15 11:59:00.674上午, 172.0, 31, 0, 31, 31
544, 2.715, 2017/11/15 11:59:00.679上午, 169.0, 31, 0, 31, 31
545, 2.72, 2017/11/15 11:59:00.684上午, 176.0, 31, 0, 31, 31
546, 2.725, 2017/11/15 11:59:00.689上午, 172.0, 31, 0, 32, 32
547, 2.73, 2017/11/15 11:59:00.694上午, 181.0, 30, 0, 33, 32
548, 2.735, 2017/11/15 11:59:00.699上午, 189.0, 29, 0, 32, 31
549, 2.74, 2017/11/15 11:59:00.704上午, 169.0, 30, 0, 32, 31
550, 2.745, 2017/11/15 11:59:00.709上午, 172.0, 31, 0, 31, 31
551, 2.75, 2017/11/15 11:59:00.714上午, 175.0, 31, 0, 31, 31
552, 2.755, 2017/11/15 11:59:00.719上午, 174.0, 31, 0, 32, 32
553, 2.76, 2017/11/15 11:59:00.724上午, 177.0, 30, 0, 31, 31
554, 2.765, 2017/11/15 11:59:00.729上午, 182.0, 31, 0, 32, 32
555, 2.77, 2017/11/15 11:59:00.734上午, 183.0, 31, 0, 31, 31
556, 2.775, 2017/11/15 11:59:00.739上午, 159.0, 30, 0, 31, 30
557, 2.78, 2017/11/15 11:59:00.744上午, 166.0, 30, 0, 31, 31
558, 2.785, 2017/11/15 11:59:00.749上午, 172.0, 32, 0, 32, 32
559, 2.79, 2017/11/15 11:59:00.754上午, 178.0, 32, 0, 31, 31
560, 2.795, 2017/11/15 11:59:00.759上午, 195.0, 31, 0, 31, 31
561, 2.8, 2017/11/15 11:59:00.764上午, 173.0, 31, 0, 31, 31
562, 2.805, 2017/11/15 11:59:00.769上午, 185.0, 30, 0, 32, 31
563, 2.81, 2017/11/15 11:59:00.774上午, 180.0, 31, 0, 31, 31
564, 2.815, 2017/11/15 11:59:00.779上午, 180.0, 30, 0, 32, 31
565, 2.82, 2017/11/15 11:59:00.784上午, 170.0, 32, 0, 32, 32
566, 2.825, 2017/11/15 11:59:00.789上午, 160.0, 31, 0, 32, 31
567, 2.83, 2017/11/15 11:59:00.794上午, 171.0, 30, 0, 32, 31
568, 2.835, 2017/11/15 11:59:00.799上午, 179.0, 31, 0, 33, 32
569, 2.84, 2017/11/15 11:59:00.804上午, 172.0, 30, 0, 31, 30
570, 2.845, 2017/11/15 11:59:00.809上午, 182.0, 30, 0, 32, 31
571, 2.85, 2017/11/15 11:59:00.814上午, 162.0, 30, 0, 32, 32
572, 2.855, 2017/11/15 11:59:00.819上午, 187.0, 30, 0, 31, 31
573, 2.86, 2017/11/15 11:59:00.824上午, 163.0, 32, 0, 32, 32
574, 2.865, 2017/11/15 11:59:00.829上午, 153.0, 30, 0, 32, 31
575, 2.87, 2017/11/15 11:59:00.834上午, 184.0, 30, 0, 32, 31
576, 2.875, 2017/11/15 11:59:00.839上午, 177.0, 30, 0, 32, 32
577, 2.88, 2017/11/15 11:59:00.844上午, 174.0, 29, 0, 32, 31
578, 2.885, 2017/11/15 11:59:00.849上午, 178.0, 31, 0, 31, 31
579, 2.89, 2017/11/15 11:59:00.854上午, 183.0, 30, 0, 31, 31
580, 2.895, 2017/11/15 11:59:00.859上午, 170.0, 31, 0, 31, 31
581, 2.9, 2017/11/15 11:59:00.864上午, 193.0, 29, 0, 31, 30
582, 2.905, 2017/11/15 11:59:00.869上午, 175.0, 32, 0, 32, 32
583, 2.91, 2017/11/15 11:59:00.874上午, 169.0, 31, 0, 32, 32
584, 2.915, 2017/11/15 11:59:00.879上午, 173.0, 30, 0, 31, 31
585, 2.92, 2017/11/15 11:59:00.884上午, 179.0, 31, 0, 31, 31
586, 2.925, 2017/11/15 11:59:00.889上午, 177.0, 31, 0, 32, 32
587, 2.93, 2017/11/15 11:59:00.894上午, 167.0, 30, 0, 31, 31
588, 2.935, 2017/11/15 11:59:00.899上午, 187.0, 30, 0, 31, 31
589, 2.94, 2017/11/15 11:59:00.904上午, 178.0, 31, 0, 32, 31
590, 2.945, 2017/11/15 11:59:00.909上午, 187.0, 30, 0, 32, 31
591, 2.95, 2017/11/15 11:59:00.914上午, 172.0, 31, 0, 31, 31
592, 2.955, 2017/11/15 11:59:00.919上午, 164.0, 31, 0, 31, 31
593, 2.96, 2017/11/15 11:59:00.924上午, 188.0, 31, 0, 32, 32
594, 2.965, 2017/11/15 11:59:00.929上午, 192.0, 31, 0, 31, 31
595, 2.97, 2017/11/15 11:59:00.934上午, 173.0, 31, 0, 32, 32
596, 2.975, 2017/11/15 11:59:00.939上午, 167.0, 32, 0, 32, 32
597, 2.98, 2017/11/15 11:59:00.944上午, 172.0, 29, 0, 32, 31
598, 2.985, 2017/11/15 11:59:00.949上午, 180.0, 31, 0, 31, 31
599, 2.99, 2017/11/15 11:59:00.954上午, 178.0, 31, 0, 32, 31
600, 2.995, 2017/11/15 11:59:00.959上午, 160.0, 30, 0, 33, 32
@@
