DATA_TYPE Graph
VERSION Tekscan Pressure Measurement System 6.70-03
HARDWARE 00114-3447
MAP_VERSION 6.5
HW_TYPE 4
VersaPogoFsx 0
檔案名 C:\Users\asus\Desktop\工研院_計畫\收案資料\Subject02\Plantar Pressure\FOAM_STAND_RIGHT_2.fsx
SENSOR_TYPE FSCAN
ROWS 60
COLS 21
ROW_SPACING 0.508 centimeters
COL_SPACING 0.508 centimeters
SENSEL_AREA 0.258064 cm2
NOISE_THRESHOLD 3
SECONDS_PER_FRAME 0.005
SECONDS_PER_FRAME 0
MICRO_SECOND 0
TIME 2017/11/15 12:00:58.372下午
SATURATION_PRESSURE 2347.96 KPa 
CALIBRATION_POINT_1 48.0001 (Kilograms) 1981 (Raw Sum) 199 (Number of Loaded Cells)
CALIBRATION_MODE_1 步態
CALIBRATION_INFO C:\Users\asus\Desktop\工研院_計畫\收案資料\Subject02\Plantar Pressure\FOAM_STAND_RIGHT_2.fsx
SENSITIVITY 自定義
MAP_INDEX 0
SUBMAP 0
Patient ID: 

Speed of Gait: 

Weight: 

Gender: 

Physician: 

Technician: 

Shoe: 

START_FRAME 1
END_FRAME 600
UNITS KPa
ASCII_DATA @@
畫面(X), 時間(X), 絕對時間(X), Raw Sum, 壓力(Y:深藍色), 壓力(Y), 壓力(Y), 壓力(Y)
1, 0, 2017/11/15 12:00:58.372下午, 203.0, 29, 73, 33, 33
2, 0.005, 2017/11/15 12:00:58.377下午, 202.0, 30, 73, 33, 33
3, 0.01, 2017/11/15 12:00:58.382下午, 186.0, 29, 73, 33, 33
4, 0.015, 2017/11/15 12:00:58.387下午, 195.0, 29, 73, 33, 33
5, 0.02, 2017/11/15 12:00:58.392下午, 180.0, 29, 79, 33, 33
6, 0.025, 2017/11/15 12:00:58.397下午, 173.0, 29, 73, 33, 33
7, 0.03, 2017/11/15 12:00:58.402下午, 177.0, 29, 73, 33, 33
8, 0.035, 2017/11/15 12:00:58.407下午, 187.0, 31, 73, 33, 33
9, 0.04, 2017/11/15 12:00:58.412下午, 184.0, 31, 73, 33, 34
10, 0.045, 2017/11/15 12:00:58.417下午, 176.0, 31, 73, 33, 33
11, 0.05, 2017/11/15 12:00:58.422下午, 187.0, 32, 73, 34, 35
12, 0.055, 2017/11/15 12:00:58.427下午, 177.0, 32, 73, 33, 34
13, 0.06, 2017/11/15 12:00:58.432下午, 190.0, 32, 73, 33, 34
14, 0.065, 2017/11/15 12:00:58.437下午, 176.0, 33, 73, 33, 34
15, 0.07, 2017/11/15 12:00:58.442下午, 192.0, 32, 73, 34, 34
16, 0.075, 2017/11/15 12:00:58.447下午, 210.0, 31, 73, 32, 33
17, 0.08, 2017/11/15 12:00:58.452下午, 196.0, 32, 73, 33, 33
18, 0.085, 2017/11/15 12:00:58.457下午, 201.0, 31, 73, 33, 34
19, 0.09, 2017/11/15 12:00:58.462下午, 192.0, 31, 73, 32, 33
20, 0.095, 2017/11/15 12:00:58.467下午, 191.0, 30, 79, 32, 33
21, 0.1, 2017/11/15 12:00:58.472下午, 174.0, 32, 73, 33, 34
22, 0.105, 2017/11/15 12:00:58.477下午, 187.0, 32, 73, 33, 33
23, 0.11, 2017/11/15 12:00:58.482下午, 186.0, 33, 73, 34, 34
24, 0.115, 2017/11/15 12:00:58.487下午, 192.0, 31, 67, 33, 33
25, 0.12, 2017/11/15 12:00:58.492下午, 181.0, 31, 73, 33, 33
26, 0.125, 2017/11/15 12:00:58.497下午, 167.0, 32, 73, 34, 35
27, 0.13, 2017/11/15 12:00:58.502下午, 176.0, 32, 73, 34, 34
28, 0.135, 2017/11/15 12:00:58.507下午, 190.0, 32, 73, 33, 33
29, 0.14, 2017/11/15 12:00:58.512下午, 198.0, 32, 73, 33, 33
30, 0.145, 2017/11/15 12:00:58.517下午, 178.0, 32, 73, 33, 34
31, 0.15, 2017/11/15 12:00:58.522下午, 184.0, 30, 79, 32, 33
32, 0.155, 2017/11/15 12:00:58.527下午, 189.0, 32, 79, 32, 33
33, 0.16, 2017/11/15 12:00:58.532下午, 184.0, 32, 79, 32, 33
34, 0.165, 2017/11/15 12:00:58.537下午, 179.0, 32, 73, 32, 33
35, 0.17, 2017/11/15 12:00:58.542下午, 187.0, 32, 73, 32, 33
36, 0.175, 2017/11/15 12:00:58.547下午, 176.0, 33, 73, 33, 34
37, 0.18, 2017/11/15 12:00:58.552下午, 182.0, 32, 73, 33, 34
38, 0.185, 2017/11/15 12:00:58.557下午, 193.0, 32, 73, 33, 33
39, 0.19, 2017/11/15 12:00:58.562下午, 195.0, 34, 73, 33, 34
40, 0.195, 2017/11/15 12:00:58.567下午, 183.0, 32, 73, 32, 33
41, 0.2, 2017/11/15 12:00:58.572下午, 171.0, 31, 79, 32, 33
42, 0.205, 2017/11/15 12:00:58.577下午, 185.0, 33, 73, 33, 34
43, 0.21, 2017/11/15 12:00:58.582下午, 171.0, 32, 73, 32, 33
44, 0.215, 2017/11/15 12:00:58.587下午, 168.0, 33, 73, 32, 33
45, 0.22, 2017/11/15 12:00:58.592下午, 181.0, 32, 67, 32, 33
46, 0.225, 2017/11/15 12:00:58.597下午, 190.0, 32, 73, 34, 34
47, 0.23, 2017/11/15 12:00:58.602下午, 185.0, 32, 73, 32, 33
48, 0.235, 2017/11/15 12:00:58.607下午, 180.0, 32, 79, 32, 33
49, 0.24, 2017/11/15 12:00:58.612下午, 183.0, 32, 79, 33, 33
50, 0.245, 2017/11/15 12:00:58.617下午, 178.0, 33, 73, 32, 33
51, 0.25, 2017/11/15 12:00:58.622下午, 184.0, 32, 73, 32, 33
52, 0.255, 2017/11/15 12:00:58.627下午, 181.0, 33, 73, 32, 34
53, 0.26, 2017/11/15 12:00:58.632下午, 181.0, 33, 73, 34, 34
54, 0.265, 2017/11/15 12:00:58.637下午, 187.0, 32, 73, 34, 34
55, 0.27, 2017/11/15 12:00:58.642下午, 188.0, 32, 79, 32, 33
56, 0.275, 2017/11/15 12:00:58.647下午, 177.0, 32, 79, 32, 33
57, 0.28, 2017/11/15 12:00:58.652下午, 187.0, 32, 79, 33, 33
58, 0.285, 2017/11/15 12:00:58.657下午, 167.0, 31, 79, 32, 33
59, 0.29, 2017/11/15 12:00:58.662下午, 184.0, 31, 73, 31, 32
60, 0.295, 2017/11/15 12:00:58.667下午, 179.0, 32, 73, 32, 33
61, 0.3, 2017/11/15 12:00:58.672下午, 161.0, 33, 73, 33, 34
62, 0.305, 2017/11/15 12:00:58.677下午, 192.0, 31, 73, 34, 34
63, 0.31, 2017/11/15 12:00:58.682下午, 193.0, 32, 73, 32, 33
64, 0.315, 2017/11/15 12:00:58.687下午, 176.0, 32, 73, 34, 34
65, 0.32, 2017/11/15 12:00:58.692下午, 190.0, 32, 73, 32, 33
66, 0.325, 2017/11/15 12:00:58.697下午, 177.0, 32, 73, 33, 34
67, 0.33, 2017/11/15 12:00:58.702下午, 185.0, 31, 79, 32, 33
68, 0.335, 2017/11/15 12:00:58.707下午, 179.0, 32, 73, 32, 33
69, 0.34, 2017/11/15 12:00:58.712下午, 187.0, 32, 79, 32, 33
70, 0.345, 2017/11/15 12:00:58.717下午, 185.0, 32, 73, 32, 33
71, 0.35, 2017/11/15 12:00:58.722下午, 189.0, 32, 73, 32, 33
72, 0.355, 2017/11/15 12:00:58.727下午, 180.0, 33, 73, 32, 33
73, 0.36, 2017/11/15 12:00:58.732下午, 190.0, 33, 73, 33, 34
74, 0.365, 2017/11/15 12:00:58.737下午, 188.0, 33, 73, 33, 34
75, 0.37, 2017/11/15 12:00:58.742下午, 193.0, 33, 73, 33, 34
76, 0.375, 2017/11/15 12:00:58.747下午, 179.0, 33, 79, 32, 33
77, 0.38, 2017/11/15 12:00:58.752下午, 174.0, 33, 79, 31, 33
78, 0.385, 2017/11/15 12:00:58.757下午, 200.0, 32, 73, 32, 33
79, 0.39, 2017/11/15 12:00:58.762下午, 178.0, 33, 73, 32, 33
80, 0.395, 2017/11/15 12:00:58.767下午, 207.0, 32, 73, 33, 33
81, 0.4, 2017/11/15 12:00:58.772下午, 186.0, 33, 67, 32, 33
82, 0.405, 2017/11/15 12:00:58.777下午, 188.0, 33, 73, 33, 34
83, 0.41, 2017/11/15 12:00:58.782下午, 212.0, 32, 73, 32, 33
84, 0.415, 2017/11/15 12:00:58.787下午, 185.0, 34, 73, 32, 34
85, 0.42, 2017/11/15 12:00:58.792下午, 193.0, 34, 73, 32, 34
86, 0.425, 2017/11/15 12:00:58.797下午, 197.0, 34, 79, 32, 34
87, 0.43, 2017/11/15 12:00:58.802下午, 175.0, 34, 79, 32, 34
88, 0.435, 2017/11/15 12:00:58.807下午, 190.0, 33, 73, 31, 33
89, 0.44, 2017/11/15 12:00:58.812下午, 191.0, 32, 67, 32, 33
90, 0.445, 2017/11/15 12:00:58.817下午, 188.0, 32, 73, 32, 33
91, 0.45, 2017/11/15 12:00:58.822下午, 179.0, 33, 73, 32, 33
92, 0.455, 2017/11/15 12:00:58.827下午, 197.0, 34, 73, 32, 33
93, 0.46, 2017/11/15 12:00:58.832下午, 180.0, 33, 79, 32, 33
94, 0.465, 2017/11/15 12:00:58.837下午, 179.0, 33, 79, 32, 33
95, 0.47, 2017/11/15 12:00:58.842下午, 196.0, 33, 79, 31, 33
96, 0.475, 2017/11/15 12:00:58.847下午, 203.0, 32, 73, 31, 32
97, 0.48, 2017/11/15 12:00:58.852下午, 194.0, 33, 73, 31, 33
98, 0.485, 2017/11/15 12:00:58.857下午, 183.0, 33, 73, 32, 33
99, 0.49, 2017/11/15 12:00:58.862下午, 197.0, 33, 67, 32, 33
100, 0.495, 2017/11/15 12:00:58.867下午, 178.0, 34, 73, 32, 34
101, 0.5, 2017/11/15 12:00:58.872下午, 186.0, 33, 73, 32, 33
102, 0.505, 2017/11/15 12:00:58.877下午, 208.0, 33, 73, 34, 34
103, 0.51, 2017/11/15 12:00:58.882下午, 203.0, 33, 73, 32, 34
104, 0.515, 2017/11/15 12:00:58.887下午, 179.0, 33, 73, 32, 33
105, 0.52, 2017/11/15 12:00:58.892下午, 190.0, 32, 73, 33, 33
106, 0.525, 2017/11/15 12:00:58.897下午, 191.0, 34, 73, 32, 34
107, 0.53, 2017/11/15 12:00:58.902下午, 191.0, 34, 73, 31, 33
108, 0.535, 2017/11/15 12:00:58.907下午, 196.0, 34, 79, 33, 34
109, 0.54, 2017/11/15 12:00:58.912下午, 187.0, 35, 73, 32, 34
110, 0.545, 2017/11/15 12:00:58.917下午, 200.0, 34, 73, 32, 34
111, 0.55, 2017/11/15 12:00:58.922下午, 181.0, 34, 73, 33, 34
112, 0.555, 2017/11/15 12:00:58.927下午, 197.0, 34, 73, 32, 34
113, 0.56, 2017/11/15 12:00:58.932下午, 204.0, 33, 73, 32, 33
114, 0.565, 2017/11/15 12:00:58.937下午, 192.0, 33, 79, 32, 34
115, 0.57, 2017/11/15 12:00:58.942下午, 197.0, 34, 79, 32, 34
116, 0.575, 2017/11/15 12:00:58.947下午, 202.0, 33, 79, 32, 33
117, 0.58, 2017/11/15 12:00:58.952下午, 185.0, 34, 79, 32, 34
118, 0.585, 2017/11/15 12:00:58.957下午, 216.0, 33, 73, 30, 32
119, 0.59, 2017/11/15 12:00:58.962下午, 224.0, 33, 73, 30, 32
120, 0.595, 2017/11/15 12:00:58.967下午, 204.0, 33, 79, 30, 32
121, 0.6, 2017/11/15 12:00:58.972下午, 220.0, 33, 79, 30, 32
122, 0.605, 2017/11/15 12:00:58.977下午, 211.0, 33, 73, 30, 32
123, 0.61, 2017/11/15 12:00:58.982下午, 208.0, 34, 73, 31, 33
124, 0.615, 2017/11/15 12:00:58.987下午, 207.0, 33, 73, 31, 33
125, 0.62, 2017/11/15 12:00:58.992下午, 207.0, 34, 73, 31, 33
126, 0.625, 2017/11/15 12:00:58.997下午, 204.0, 34, 73, 31, 34
127, 0.63, 2017/11/15 12:00:59.002下午, 193.0, 34, 73, 31, 33
128, 0.635, 2017/11/15 12:00:59.007下午, 200.0, 35, 73, 31, 34
129, 0.64, 2017/11/15 12:00:59.012下午, 197.0, 35, 73, 31, 34
130, 0.645, 2017/11/15 12:00:59.017下午, 195.0, 35, 73, 31, 34
131, 0.65, 2017/11/15 12:00:59.022下午, 183.0, 34, 79, 32, 34
132, 0.655, 2017/11/15 12:00:59.027下午, 194.0, 35, 73, 33, 35
133, 0.66, 2017/11/15 12:00:59.032下午, 206.0, 36, 73, 33, 35
134, 0.665, 2017/11/15 12:00:59.037下午, 192.0, 34, 73, 31, 33
135, 0.67, 2017/11/15 12:00:59.042下午, 198.0, 34, 79, 32, 34
136, 0.675, 2017/11/15 12:00:59.047下午, 193.0, 33, 73, 31, 33
137, 0.68, 2017/11/15 12:00:59.052下午, 199.0, 34, 79, 32, 34
138, 0.685, 2017/11/15 12:00:59.057下午, 196.0, 33, 73, 31, 33
139, 0.69, 2017/11/15 12:00:59.062下午, 200.0, 33, 73, 30, 32
140, 0.695, 2017/11/15 12:00:59.067下午, 200.0, 34, 73, 31, 33
141, 0.7, 2017/11/15 12:00:59.072下午, 202.0, 34, 73, 30, 33
142, 0.705, 2017/11/15 12:00:59.077下午, 205.0, 34, 73, 31, 33
143, 0.71, 2017/11/15 12:00:59.082下午, 196.0, 36, 73, 31, 34
144, 0.715, 2017/11/15 12:00:59.087下午, 205.0, 34, 73, 32, 34
145, 0.72, 2017/11/15 12:00:59.092下午, 194.0, 34, 73, 32, 34
146, 0.725, 2017/11/15 12:00:59.097下午, 212.0, 34, 79, 31, 34
147, 0.73, 2017/11/15 12:00:59.102下午, 196.0, 33, 79, 30, 33
148, 0.735, 2017/11/15 12:00:59.107下午, 195.0, 33, 73, 33, 34
149, 0.74, 2017/11/15 12:00:59.112下午, 212.0, 34, 79, 33, 34
150, 0.745, 2017/11/15 12:00:59.117下午, 218.0, 33, 73, 31, 32
151, 0.75, 2017/11/15 12:00:59.122下午, 218.0, 33, 73, 30, 32
152, 0.755, 2017/11/15 12:00:59.127下午, 209.0, 33, 79, 30, 33
153, 0.76, 2017/11/15 12:00:59.132下午, 221.0, 33, 79, 30, 33
154, 0.765, 2017/11/15 12:00:59.137下午, 223.0, 33, 79, 30, 32
155, 0.77, 2017/11/15 12:00:59.142下午, 212.0, 33, 73, 30, 32
156, 0.775, 2017/11/15 12:00:59.147下午, 201.0, 33, 73, 31, 33
157, 0.78, 2017/11/15 12:00:59.152下午, 207.0, 32, 67, 31, 32
158, 0.785, 2017/11/15 12:00:59.157下午, 202.0, 33, 73, 30, 33
159, 0.79, 2017/11/15 12:00:59.162下午, 199.0, 35, 73, 31, 34
160, 0.795, 2017/11/15 12:00:59.167下午, 210.0, 34, 73, 32, 34
161, 0.8, 2017/11/15 12:00:59.172下午, 198.0, 35, 73, 32, 34
162, 0.805, 2017/11/15 12:00:59.177下午, 193.0, 35, 73, 31, 34
163, 0.81, 2017/11/15 12:00:59.182下午, 193.0, 33, 73, 32, 33
164, 0.815, 2017/11/15 12:00:59.187下午, 200.0, 33, 79, 31, 33
165, 0.82, 2017/11/15 12:00:59.192下午, 196.0, 34, 73, 33, 34
166, 0.825, 2017/11/15 12:00:59.197下午, 185.0, 34, 79, 32, 34
167, 0.83, 2017/11/15 12:00:59.202下午, 212.0, 33, 73, 30, 32
168, 0.835, 2017/11/15 12:00:59.207下午, 221.0, 33, 73, 31, 33
169, 0.84, 2017/11/15 12:00:59.212下午, 203.0, 33, 73, 31, 33
170, 0.845, 2017/11/15 12:00:59.217下午, 210.0, 34, 73, 30, 33
171, 0.85, 2017/11/15 12:00:59.222下午, 202.0, 34, 73, 31, 34
172, 0.855, 2017/11/15 12:00:59.227下午, 195.0, 34, 73, 31, 33
173, 0.86, 2017/11/15 12:00:59.232下午, 202.0, 33, 73, 32, 34
174, 0.865, 2017/11/15 12:00:59.237下午, 204.0, 33, 73, 31, 33
175, 0.87, 2017/11/15 12:00:59.242下午, 185.0, 33, 79, 32, 34
176, 0.875, 2017/11/15 12:00:59.247下午, 229.0, 33, 73, 31, 33
177, 0.88, 2017/11/15 12:00:59.252下午, 208.0, 33, 73, 30, 32
178, 0.885, 2017/11/15 12:00:59.257下午, 216.0, 32, 73, 31, 32
179, 0.89, 2017/11/15 12:00:59.262下午, 207.0, 33, 73, 31, 33
180, 0.895, 2017/11/15 12:00:59.267下午, 199.0, 33, 73, 31, 33
181, 0.9, 2017/11/15 12:00:59.272下午, 200.0, 34, 73, 31, 33
182, 0.905, 2017/11/15 12:00:59.277下午, 193.0, 34, 79, 31, 33
183, 0.91, 2017/11/15 12:00:59.282下午, 197.0, 34, 73, 32, 34
184, 0.915, 2017/11/15 12:00:59.287下午, 195.0, 33, 73, 32, 34
185, 0.92, 2017/11/15 12:00:59.292下午, 194.0, 34, 73, 33, 34
186, 0.925, 2017/11/15 12:00:59.297下午, 208.0, 33, 79, 32, 33
187, 0.93, 2017/11/15 12:00:59.302下午, 208.0, 32, 79, 31, 32
188, 0.935, 2017/11/15 12:00:59.307下午, 221.0, 32, 73, 31, 32
189, 0.94, 2017/11/15 12:00:59.312下午, 219.0, 32, 73, 30, 32
190, 0.945, 2017/11/15 12:00:59.317下午, 206.0, 33, 73, 31, 32
191, 0.95, 2017/11/15 12:00:59.322下午, 220.0, 32, 73, 30, 32
192, 0.955, 2017/11/15 12:00:59.327下午, 191.0, 33, 73, 31, 33
193, 0.96, 2017/11/15 12:00:59.332下午, 189.0, 34, 73, 31, 33
194, 0.965, 2017/11/15 12:00:59.337下午, 202.0, 35, 73, 31, 34
195, 0.97, 2017/11/15 12:00:59.342下午, 193.0, 33, 73, 32, 33
196, 0.975, 2017/11/15 12:00:59.347下午, 193.0, 32, 73, 32, 33
197, 0.98, 2017/11/15 12:00:59.352下午, 203.0, 32, 79, 31, 33
198, 0.985, 2017/11/15 12:00:59.357下午, 216.0, 33, 79, 30, 32
199, 0.99, 2017/11/15 12:00:59.362下午, 208.0, 32, 79, 30, 32
200, 0.995, 2017/11/15 12:00:59.367下午, 212.0, 32, 73, 30, 32
201, 1, 2017/11/15 12:00:59.372下午, 219.0, 33, 73, 30, 32
202, 1.005, 2017/11/15 12:00:59.377下午, 200.0, 33, 73, 31, 33
203, 1.01, 2017/11/15 12:00:59.382下午, 201.0, 33, 73, 32, 33
204, 1.015, 2017/11/15 12:00:59.387下午, 195.0, 33, 73, 30, 32
205, 1.02, 2017/11/15 12:00:59.392下午, 196.0, 34, 73, 31, 34
206, 1.025, 2017/11/15 12:00:59.397下午, 200.0, 33, 73, 31, 33
207, 1.03, 2017/11/15 12:00:59.402下午, 203.0, 33, 73, 31, 33
208, 1.035, 2017/11/15 12:00:59.407下午, 194.0, 32, 79, 32, 33
209, 1.04, 2017/11/15 12:00:59.412下午, 188.0, 33, 79, 32, 34
210, 1.045, 2017/11/15 12:00:59.417下午, 204.0, 32, 73, 31, 33
211, 1.05, 2017/11/15 12:00:59.422下午, 196.0, 33, 73, 32, 33
212, 1.055, 2017/11/15 12:00:59.427下午, 190.0, 32, 79, 32, 33
213, 1.06, 2017/11/15 12:00:59.432下午, 202.0, 32, 79, 32, 33
214, 1.065, 2017/11/15 12:00:59.437下午, 212.0, 32, 73, 31, 32
215, 1.07, 2017/11/15 12:00:59.442下午, 195.0, 32, 79, 31, 32
216, 1.075, 2017/11/15 12:00:59.447下午, 212.0, 32, 79, 30, 32
217, 1.08, 2017/11/15 12:00:59.452下午, 207.0, 32, 73, 30, 32
218, 1.085, 2017/11/15 12:00:59.457下午, 206.0, 32, 67, 31, 32
219, 1.09, 2017/11/15 12:00:59.462下午, 189.0, 31, 73, 31, 32
220, 1.095, 2017/11/15 12:00:59.467下午, 200.0, 31, 73, 31, 32
221, 1.1, 2017/11/15 12:00:59.472下午, 210.0, 31, 73, 31, 31
222, 1.105, 2017/11/15 12:00:59.477下午, 205.0, 31, 73, 30, 31
223, 1.11, 2017/11/15 12:00:59.482下午, 197.0, 33, 73, 31, 33
224, 1.115, 2017/11/15 12:00:59.487下午, 186.0, 32, 73, 32, 33
225, 1.12, 2017/11/15 12:00:59.492下午, 214.0, 32, 73, 32, 33
226, 1.125, 2017/11/15 12:00:59.497下午, 199.0, 33, 73, 32, 33
227, 1.13, 2017/11/15 12:00:59.502下午, 201.0, 32, 73, 31, 33
228, 1.135, 2017/11/15 12:00:59.507下午, 187.0, 32, 67, 31, 32
229, 1.14, 2017/11/15 12:00:59.512下午, 197.0, 32, 73, 32, 33
230, 1.145, 2017/11/15 12:00:59.517下午, 200.0, 33, 73, 33, 34
231, 1.15, 2017/11/15 12:00:59.522下午, 205.0, 32, 73, 32, 33
232, 1.155, 2017/11/15 12:00:59.527下午, 200.0, 33, 73, 32, 33
233, 1.16, 2017/11/15 12:00:59.532下午, 195.0, 33, 73, 32, 34
234, 1.165, 2017/11/15 12:00:59.537下午, 200.0, 32, 73, 32, 33
235, 1.17, 2017/11/15 12:00:59.542下午, 194.0, 32, 79, 32, 33
236, 1.175, 2017/11/15 12:00:59.547下午, 204.0, 32, 79, 31, 33
237, 1.18, 2017/11/15 12:00:59.552下午, 210.0, 32, 79, 30, 32
238, 1.185, 2017/11/15 12:00:59.557下午, 199.0, 31, 79, 31, 32
239, 1.19, 2017/11/15 12:00:59.562下午, 205.0, 31, 73, 31, 32
240, 1.195, 2017/11/15 12:00:59.567下午, 217.0, 31, 73, 30, 31
241, 1.2, 2017/11/15 12:00:59.572下午, 194.0, 31, 73, 32, 32
242, 1.205, 2017/11/15 12:00:59.577下午, 203.0, 31, 73, 31, 32
243, 1.21, 2017/11/15 12:00:59.582下午, 188.0, 33, 73, 31, 33
244, 1.215, 2017/11/15 12:00:59.587下午, 186.0, 32, 73, 32, 33
245, 1.22, 2017/11/15 12:00:59.592下午, 204.0, 33, 73, 32, 33
246, 1.225, 2017/11/15 12:00:59.597下午, 205.0, 33, 73, 33, 33
247, 1.23, 2017/11/15 12:00:59.602下午, 201.0, 32, 79, 31, 33
248, 1.235, 2017/11/15 12:00:59.607下午, 203.0, 33, 73, 33, 34
249, 1.24, 2017/11/15 12:00:59.612下午, 192.0, 33, 73, 32, 34
250, 1.245, 2017/11/15 12:00:59.617下午, 190.0, 32, 73, 32, 33
251, 1.25, 2017/11/15 12:00:59.622下午, 196.0, 31, 79, 32, 32
252, 1.255, 2017/11/15 12:00:59.627下午, 213.0, 31, 73, 31, 32
253, 1.26, 2017/11/15 12:00:59.632下午, 200.0, 31, 73, 31, 32
254, 1.265, 2017/11/15 12:00:59.637下午, 205.0, 31, 79, 31, 32
255, 1.27, 2017/11/15 12:00:59.642下午, 182.0, 32, 67, 31, 32
256, 1.275, 2017/11/15 12:00:59.647下午, 187.0, 32, 73, 32, 33
257, 1.28, 2017/11/15 12:00:59.652下午, 193.0, 32, 73, 33, 33
258, 1.285, 2017/11/15 12:00:59.657下午, 189.0, 31, 73, 33, 33
259, 1.29, 2017/11/15 12:00:59.662下午, 183.0, 32, 73, 32, 33
260, 1.295, 2017/11/15 12:00:59.667下午, 178.0, 31, 73, 32, 32
261, 1.3, 2017/11/15 12:00:59.672下午, 191.0, 31, 73, 34, 33
262, 1.305, 2017/11/15 12:00:59.677下午, 180.0, 31, 73, 33, 33
263, 1.31, 2017/11/15 12:00:59.682下午, 173.0, 32, 73, 33, 34
264, 1.315, 2017/11/15 12:00:59.687下午, 186.0, 31, 73, 32, 33
265, 1.32, 2017/11/15 12:00:59.692下午, 192.0, 30, 73, 32, 32
266, 1.325, 2017/11/15 12:00:59.697下午, 210.0, 31, 73, 33, 33
267, 1.33, 2017/11/15 12:00:59.702下午, 199.0, 31, 79, 33, 33
268, 1.335, 2017/11/15 12:00:59.707下午, 189.0, 31, 79, 32, 33
269, 1.34, 2017/11/15 12:00:59.712下午, 197.0, 32, 73, 32, 33
270, 1.345, 2017/11/15 12:00:59.717下午, 169.0, 32, 73, 33, 34
271, 1.35, 2017/11/15 12:00:59.722下午, 193.0, 31, 73, 33, 33
272, 1.355, 2017/11/15 12:00:59.727下午, 199.0, 31, 73, 32, 33
273, 1.36, 2017/11/15 12:00:59.732下午, 186.0, 31, 79, 32, 33
274, 1.365, 2017/11/15 12:00:59.737下午, 174.0, 31, 79, 33, 33
275, 1.37, 2017/11/15 12:00:59.742下午, 209.0, 31, 73, 33, 33
276, 1.375, 2017/11/15 12:00:59.747下午, 211.0, 30, 79, 32, 32
277, 1.38, 2017/11/15 12:00:59.752下午, 197.0, 30, 73, 31, 32
278, 1.385, 2017/11/15 12:00:59.757下午, 188.0, 31, 79, 32, 33
279, 1.39, 2017/11/15 12:00:59.762下午, 198.0, 31, 79, 31, 32
280, 1.395, 2017/11/15 12:00:59.767下午, 205.0, 30, 73, 31, 32
281, 1.4, 2017/11/15 12:00:59.772下午, 181.0, 32, 67, 32, 32
282, 1.405, 2017/11/15 12:00:59.777下午, 192.0, 31, 73, 33, 33
283, 1.41, 2017/11/15 12:00:59.782下午, 186.0, 32, 73, 33, 33
284, 1.415, 2017/11/15 12:00:59.787下午, 182.0, 31, 73, 32, 32
285, 1.42, 2017/11/15 12:00:59.792下午, 172.0, 31, 73, 32, 32
286, 1.425, 2017/11/15 12:00:59.797下午, 184.0, 31, 73, 32, 32
287, 1.43, 2017/11/15 12:00:59.802下午, 172.0, 31, 73, 32, 33
288, 1.435, 2017/11/15 12:00:59.807下午, 199.0, 31, 73, 32, 33
289, 1.44, 2017/11/15 12:00:59.812下午, 187.0, 32, 73, 33, 34
290, 1.445, 2017/11/15 12:00:59.817下午, 179.0, 31, 73, 33, 33
291, 1.45, 2017/11/15 12:00:59.822下午, 174.0, 32, 73, 32, 33
292, 1.455, 2017/11/15 12:00:59.827下午, 183.0, 32, 73, 32, 33
293, 1.46, 2017/11/15 12:00:59.832下午, 192.0, 31, 73, 33, 33
294, 1.465, 2017/11/15 12:00:59.837下午, 188.0, 31, 73, 33, 34
295, 1.47, 2017/11/15 12:00:59.842下午, 180.0, 31, 73, 33, 33
296, 1.475, 2017/11/15 12:00:59.847下午, 202.0, 31, 73, 33, 34
297, 1.48, 2017/11/15 12:00:59.852下午, 204.0, 31, 79, 32, 33
298, 1.485, 2017/11/15 12:00:59.857下午, 201.0, 32, 73, 32, 33
299, 1.49, 2017/11/15 12:00:59.862下午, 204.0, 31, 73, 32, 33
300, 1.495, 2017/11/15 12:00:59.867下午, 198.0, 31, 79, 32, 33
301, 1.5, 2017/11/15 12:00:59.872下午, 196.0, 31, 79, 32, 33
302, 1.505, 2017/11/15 12:00:59.877下午, 192.0, 31, 79, 32, 33
303, 1.51, 2017/11/15 12:00:59.882下午, 192.0, 32, 73, 32, 33
304, 1.515, 2017/11/15 12:00:59.887下午, 179.0, 32, 73, 33, 33
305, 1.52, 2017/11/15 12:00:59.892下午, 183.0, 31, 73, 33, 33
306, 1.525, 2017/11/15 12:00:59.897下午, 202.0, 31, 79, 33, 33
307, 1.53, 2017/11/15 12:00:59.902下午, 206.0, 30, 79, 32, 33
308, 1.535, 2017/11/15 12:00:59.907下午, 190.0, 30, 79, 32, 32
309, 1.54, 2017/11/15 12:00:59.912下午, 189.0, 31, 79, 32, 33
310, 1.545, 2017/11/15 12:00:59.917下午, 194.0, 32, 79, 32, 33
311, 1.55, 2017/11/15 12:00:59.922下午, 165.0, 31, 79, 32, 33
312, 1.555, 2017/11/15 12:00:59.927下午, 203.0, 31, 79, 32, 33
313, 1.56, 2017/11/15 12:00:59.932下午, 193.0, 32, 79, 32, 33
314, 1.565, 2017/11/15 12:00:59.937下午, 187.0, 33, 79, 33, 34
315, 1.57, 2017/11/15 12:00:59.942下午, 190.0, 31, 73, 32, 33
316, 1.575, 2017/11/15 12:00:59.947下午, 210.0, 31, 79, 32, 32
317, 1.58, 2017/11/15 12:00:59.952下午, 196.0, 31, 73, 31, 32
318, 1.585, 2017/11/15 12:00:59.957下午, 191.0, 31, 79, 32, 32
319, 1.59, 2017/11/15 12:00:59.962下午, 185.0, 30, 79, 31, 32
320, 1.595, 2017/11/15 12:00:59.967下午, 187.0, 32, 79, 31, 32
321, 1.6, 2017/11/15 12:00:59.972下午, 202.0, 30, 73, 32, 32
322, 1.605, 2017/11/15 12:00:59.977下午, 180.0, 31, 67, 33, 33
323, 1.61, 2017/11/15 12:00:59.982下午, 197.0, 33, 67, 33, 33
324, 1.615, 2017/11/15 12:00:59.987下午, 190.0, 30, 67, 33, 33
325, 1.62, 2017/11/15 12:00:59.992下午, 201.0, 30, 73, 33, 33
326, 1.625, 2017/11/15 12:00:59.997下午, 201.0, 31, 73, 32, 32
327, 1.63, 2017/11/15 12:01:00.002下午, 186.0, 32, 73, 32, 33
328, 1.635, 2017/11/15 12:01:00.007下午, 187.0, 32, 73, 32, 33
329, 1.64, 2017/11/15 12:01:00.012下午, 193.0, 30, 73, 33, 33
330, 1.645, 2017/11/15 12:01:00.017下午, 196.0, 31, 73, 34, 34
331, 1.65, 2017/11/15 12:01:00.022下午, 206.0, 31, 73, 33, 33
332, 1.655, 2017/11/15 12:01:00.027下午, 183.0, 33, 73, 33, 34
333, 1.66, 2017/11/15 12:01:00.032下午, 201.0, 33, 79, 32, 33
334, 1.665, 2017/11/15 12:01:00.037下午, 190.0, 32, 79, 32, 33
335, 1.67, 2017/11/15 12:01:00.042下午, 193.0, 33, 79, 32, 33
336, 1.675, 2017/11/15 12:01:00.047下午, 197.0, 32, 79, 33, 34
337, 1.68, 2017/11/15 12:01:00.052下午, 202.0, 31, 79, 32, 33
338, 1.685, 2017/11/15 12:01:00.057下午, 194.0, 31, 73, 33, 33
339, 1.69, 2017/11/15 12:01:00.062下午, 186.0, 31, 73, 32, 33
340, 1.695, 2017/11/15 12:01:00.067下午, 188.0, 31, 73, 33, 33
341, 1.7, 2017/11/15 12:01:00.072下午, 192.0, 31, 73, 32, 33
342, 1.705, 2017/11/15 12:01:00.077下午, 187.0, 32, 73, 32, 33
343, 1.71, 2017/11/15 12:01:00.082下午, 191.0, 32, 73, 32, 33
344, 1.715, 2017/11/15 12:01:00.087下午, 189.0, 31, 73, 34, 34
345, 1.72, 2017/11/15 12:01:00.092下午, 191.0, 30, 73, 34, 33
346, 1.725, 2017/11/15 12:01:00.097下午, 203.0, 30, 73, 33, 33
347, 1.73, 2017/11/15 12:01:00.102下午, 191.0, 31, 73, 34, 34
348, 1.735, 2017/11/15 12:01:00.107下午, 185.0, 32, 73, 34, 34
349, 1.74, 2017/11/15 12:01:00.112下午, 205.0, 32, 73, 33, 33
350, 1.745, 2017/11/15 12:01:00.117下午, 191.0, 33, 79, 33, 34
351, 1.75, 2017/11/15 12:01:00.122下午, 184.0, 31, 73, 33, 33
352, 1.755, 2017/11/15 12:01:00.127下午, 188.0, 32, 73, 32, 33
353, 1.76, 2017/11/15 12:01:00.132下午, 192.0, 32, 79, 33, 34
354, 1.765, 2017/11/15 12:01:00.137下午, 180.0, 31, 73, 33, 33
355, 1.77, 2017/11/15 12:01:00.142下午, 204.0, 31, 73, 32, 33
356, 1.775, 2017/11/15 12:01:00.147下午, 204.0, 32, 79, 31, 33
357, 1.78, 2017/11/15 12:01:00.152下午, 184.0, 32, 79, 32, 33
358, 1.785, 2017/11/15 12:01:00.157下午, 210.0, 31, 79, 33, 33
359, 1.79, 2017/11/15 12:01:00.162下午, 188.0, 31, 73, 32, 32
360, 1.795, 2017/11/15 12:01:00.167下午, 186.0, 32, 73, 33, 34
361, 1.8, 2017/11/15 12:01:00.172下午, 192.0, 31, 73, 32, 33
362, 1.805, 2017/11/15 12:01:00.177下午, 212.0, 30, 73, 32, 33
363, 1.81, 2017/11/15 12:01:00.182下午, 189.0, 32, 73, 32, 33
364, 1.815, 2017/11/15 12:01:00.187下午, 202.0, 32, 73, 33, 33
365, 1.82, 2017/11/15 12:01:00.192下午, 202.0, 32, 73, 33, 33
366, 1.825, 2017/11/15 12:01:00.197下午, 188.0, 32, 73, 32, 33
367, 1.83, 2017/11/15 12:01:00.202下午, 178.0, 33, 73, 32, 33
368, 1.835, 2017/11/15 12:01:00.207下午, 194.0, 31, 79, 32, 33
369, 1.84, 2017/11/15 12:01:00.212下午, 190.0, 33, 73, 33, 33
370, 1.845, 2017/11/15 12:01:00.217下午, 202.0, 31, 79, 32, 33
371, 1.85, 2017/11/15 12:01:00.222下午, 212.0, 31, 73, 31, 32
372, 1.855, 2017/11/15 12:01:00.227下午, 205.0, 32, 73, 32, 33
373, 1.86, 2017/11/15 12:01:00.232下午, 189.0, 32, 79, 32, 33
374, 1.865, 2017/11/15 12:01:00.237下午, 187.0, 30, 79, 32, 33
375, 1.87, 2017/11/15 12:01:00.242下午, 194.0, 30, 73, 31, 32
376, 1.875, 2017/11/15 12:01:00.247下午, 193.0, 32, 73, 33, 34
377, 1.88, 2017/11/15 12:01:00.252下午, 190.0, 33, 67, 33, 34
378, 1.885, 2017/11/15 12:01:00.257下午, 180.0, 32, 67, 33, 33
379, 1.89, 2017/11/15 12:01:00.262下午, 199.0, 32, 73, 33, 34
380, 1.895, 2017/11/15 12:01:00.267下午, 204.0, 33, 73, 33, 34
381, 1.9, 2017/11/15 12:01:00.272下午, 189.0, 33, 73, 33, 34
382, 1.905, 2017/11/15 12:01:00.277下午, 201.0, 32, 73, 33, 33
383, 1.91, 2017/11/15 12:01:00.282下午, 194.0, 33, 73, 32, 33
384, 1.915, 2017/11/15 12:01:00.287下午, 187.0, 33, 73, 32, 33
385, 1.92, 2017/11/15 12:01:00.292下午, 214.0, 32, 79, 33, 33
386, 1.925, 2017/11/15 12:01:00.297下午, 182.0, 31, 79, 32, 33
387, 1.93, 2017/11/15 12:01:00.302下午, 190.0, 33, 73, 32, 33
388, 1.935, 2017/11/15 12:01:00.307下午, 183.0, 32, 79, 33, 33
389, 1.94, 2017/11/15 12:01:00.312下午, 191.0, 32, 73, 32, 33
390, 1.945, 2017/11/15 12:01:00.317下午, 188.0, 31, 79, 32, 33
391, 1.95, 2017/11/15 12:01:00.322下午, 197.0, 31, 79, 32, 33
392, 1.955, 2017/11/15 12:01:00.327下午, 204.0, 31, 73, 32, 32
393, 1.96, 2017/11/15 12:01:00.332下午, 196.0, 31, 73, 32, 33
394, 1.965, 2017/11/15 12:01:00.337下午, 206.0, 31, 73, 32, 33
395, 1.97, 2017/11/15 12:01:00.342下午, 200.0, 31, 73, 32, 33
396, 1.975, 2017/11/15 12:01:00.347下午, 202.0, 33, 73, 32, 33
397, 1.98, 2017/11/15 12:01:00.352下午, 201.0, 33, 73, 32, 33
398, 1.985, 2017/11/15 12:01:00.357下午, 209.0, 33, 73, 32, 33
399, 1.99, 2017/11/15 12:01:00.362下午, 194.0, 33, 73, 33, 34
400, 1.995, 2017/11/15 12:01:00.367下午, 198.0, 32, 79, 33, 33
401, 2, 2017/11/15 12:01:00.372下午, 198.0, 33, 79, 32, 33
402, 2.005, 2017/11/15 12:01:00.377下午, 213.0, 31, 73, 32, 32
403, 2.01, 2017/11/15 12:01:00.382下午, 190.0, 31, 79, 32, 32
404, 2.015, 2017/11/15 12:01:00.387下午, 199.0, 32, 79, 32, 33
405, 2.02, 2017/11/15 12:01:00.392下午, 193.0, 32, 79, 32, 33
406, 2.025, 2017/11/15 12:01:00.397下午, 198.0, 31, 73, 32, 32
407, 2.03, 2017/11/15 12:01:00.402下午, 182.0, 33, 73, 32, 33
408, 2.035, 2017/11/15 12:01:00.407下午, 192.0, 31, 73, 33, 33
409, 2.04, 2017/11/15 12:01:00.412下午, 200.0, 31, 73, 32, 33
410, 2.045, 2017/11/15 12:01:00.417下午, 190.0, 32, 73, 32, 33
411, 2.05, 2017/11/15 12:01:00.422下午, 189.0, 31, 73, 32, 33
412, 2.055, 2017/11/15 12:01:00.427下午, 203.0, 33, 73, 32, 33
413, 2.06, 2017/11/15 12:01:00.432下午, 205.0, 32, 73, 33, 33
414, 2.065, 2017/11/15 12:01:00.437下午, 201.0, 34, 73, 32, 33
415, 2.07, 2017/11/15 12:01:00.442下午, 203.0, 32, 73, 32, 33
416, 2.075, 2017/11/15 12:01:00.447下午, 209.0, 32, 79, 32, 33
417, 2.08, 2017/11/15 12:01:00.452下午, 200.0, 31, 73, 32, 32
418, 2.085, 2017/11/15 12:01:00.457下午, 204.0, 31, 73, 33, 33
419, 2.09, 2017/11/15 12:01:00.462下午, 196.0, 31, 73, 31, 32
420, 2.095, 2017/11/15 12:01:00.467下午, 195.0, 31, 73, 34, 33
421, 2.1, 2017/11/15 12:01:00.472下午, 190.0, 32, 67, 32, 33
422, 2.105, 2017/11/15 12:01:00.477下午, 197.0, 33, 73, 33, 34
423, 2.11, 2017/11/15 12:01:00.482下午, 197.0, 33, 73, 32, 33
424, 2.115, 2017/11/15 12:01:00.487下午, 188.0, 34, 79, 32, 33
425, 2.12, 2017/11/15 12:01:00.492下午, 214.0, 32, 73, 32, 33
426, 2.125, 2017/11/15 12:01:00.497下午, 211.0, 33, 73, 32, 33
427, 2.13, 2017/11/15 12:01:00.502下午, 199.0, 33, 73, 32, 34
428, 2.135, 2017/11/15 12:01:00.507下午, 200.0, 32, 73, 33, 33
429, 2.14, 2017/11/15 12:01:00.512下午, 210.0, 32, 79, 32, 33
430, 2.145, 2017/11/15 12:01:00.517下午, 206.0, 32, 73, 32, 33
431, 2.15, 2017/11/15 12:01:00.522下午, 207.0, 31, 73, 32, 32
432, 2.155, 2017/11/15 12:01:00.527下午, 208.0, 31, 79, 32, 33
433, 2.16, 2017/11/15 12:01:00.532下午, 205.0, 31, 73, 32, 32
434, 2.165, 2017/11/15 12:01:00.537下午, 177.0, 31, 73, 32, 33
435, 2.17, 2017/11/15 12:01:00.542下午, 204.0, 31, 73, 33, 33
436, 2.175, 2017/11/15 12:01:00.547下午, 197.0, 30, 73, 33, 33
437, 2.18, 2017/11/15 12:01:00.552下午, 198.0, 32, 73, 32, 32
438, 2.185, 2017/11/15 12:01:00.557下午, 199.0, 33, 73, 33, 34
439, 2.19, 2017/11/15 12:01:00.562下午, 212.0, 33, 73, 32, 33
440, 2.195, 2017/11/15 12:01:00.567下午, 201.0, 33, 79, 33, 34
441, 2.2, 2017/11/15 12:01:00.572下午, 191.0, 32, 79, 32, 33
442, 2.205, 2017/11/15 12:01:00.577下午, 200.0, 32, 73, 32, 33
443, 2.21, 2017/11/15 12:01:00.582下午, 211.0, 30, 79, 32, 33
444, 2.215, 2017/11/15 12:01:00.587下午, 192.0, 30, 73, 32, 32
445, 2.22, 2017/11/15 12:01:00.592下午, 189.0, 32, 73, 32, 33
446, 2.225, 2017/11/15 12:01:00.597下午, 203.0, 31, 73, 33, 33
447, 2.23, 2017/11/15 12:01:00.602下午, 186.0, 31, 73, 33, 34
448, 2.235, 2017/11/15 12:01:00.607下午, 192.0, 32, 73, 33, 33
449, 2.24, 2017/11/15 12:01:00.612下午, 199.0, 33, 73, 32, 33
450, 2.245, 2017/11/15 12:01:00.617下午, 198.0, 33, 79, 32, 34
451, 2.25, 2017/11/15 12:01:00.622下午, 190.0, 33, 79, 32, 33
452, 2.255, 2017/11/15 12:01:00.627下午, 202.0, 32, 79, 32, 33
453, 2.26, 2017/11/15 12:01:00.632下午, 204.0, 32, 79, 31, 32
454, 2.265, 2017/11/15 12:01:00.637下午, 206.0, 32, 79, 32, 33
455, 2.27, 2017/11/15 12:01:00.642下午, 185.0, 31, 73, 32, 33
456, 2.275, 2017/11/15 12:01:00.647下午, 195.0, 31, 73, 33, 33
457, 2.28, 2017/11/15 12:01:00.652下午, 201.0, 31, 67, 33, 33
458, 2.285, 2017/11/15 12:01:00.657下午, 196.0, 30, 73, 32, 33
459, 2.29, 2017/11/15 12:01:00.662下午, 190.0, 33, 73, 34, 34
460, 2.295, 2017/11/15 12:01:00.667下午, 198.0, 32, 73, 33, 33
461, 2.3, 2017/11/15 12:01:00.672下午, 179.0, 32, 73, 32, 33
462, 2.305, 2017/11/15 12:01:00.677下午, 196.0, 34, 73, 31, 33
463, 2.31, 2017/11/15 12:01:00.682下午, 209.0, 34, 73, 33, 34
464, 2.315, 2017/11/15 12:01:00.687下午, 206.0, 32, 73, 33, 33
465, 2.32, 2017/11/15 12:01:00.692下午, 209.0, 31, 73, 32, 33
466, 2.325, 2017/11/15 12:01:00.697下午, 189.0, 31, 79, 32, 33
467, 2.33, 2017/11/15 12:01:00.702下午, 197.0, 33, 79, 32, 33
468, 2.335, 2017/11/15 12:01:00.707下午, 203.0, 33, 79, 33, 34
469, 2.34, 2017/11/15 12:01:00.712下午, 195.0, 32, 73, 32, 33
470, 2.345, 2017/11/15 12:01:00.717下午, 191.0, 32, 79, 32, 33
471, 2.35, 2017/11/15 12:01:00.722下午, 199.0, 31, 73, 32, 32
472, 2.355, 2017/11/15 12:01:00.727下午, 196.0, 31, 73, 32, 33
473, 2.36, 2017/11/15 12:01:00.732下午, 204.0, 31, 73, 32, 33
474, 2.365, 2017/11/15 12:01:00.737下午, 187.0, 31, 73, 32, 33
475, 2.37, 2017/11/15 12:01:00.742下午, 186.0, 33, 73, 32, 33
476, 2.375, 2017/11/15 12:01:00.747下午, 193.0, 32, 73, 33, 34
477, 2.38, 2017/11/15 12:01:00.752下午, 202.0, 32, 73, 32, 33
478, 2.385, 2017/11/15 12:01:00.757下午, 191.0, 32, 73, 32, 33
479, 2.39, 2017/11/15 12:01:00.762下午, 197.0, 32, 73, 32, 33
480, 2.395, 2017/11/15 12:01:00.767下午, 206.0, 33, 73, 33, 34
481, 2.4, 2017/11/15 12:01:00.772下午, 211.0, 32, 73, 32, 33
482, 2.405, 2017/11/15 12:01:00.777下午, 210.0, 34, 73, 32, 33
483, 2.41, 2017/11/15 12:01:00.782下午, 191.0, 32, 79, 32, 33
484, 2.415, 2017/11/15 12:01:00.787下午, 200.0, 32, 73, 32, 33
485, 2.42, 2017/11/15 12:01:00.792下午, 197.0, 33, 73, 32, 33
486, 2.425, 2017/11/15 12:01:00.797下午, 200.0, 32, 73, 33, 33
487, 2.43, 2017/11/15 12:01:00.802下午, 210.0, 33, 73, 33, 33
488, 2.435, 2017/11/15 12:01:00.807下午, 214.0, 32, 73, 32, 33
489, 2.44, 2017/11/15 12:01:00.812下午, 204.0, 31, 73, 33, 33
490, 2.445, 2017/11/15 12:01:00.817下午, 217.0, 32, 73, 32, 33
491, 2.45, 2017/11/15 12:01:00.822下午, 217.0, 32, 73, 32, 33
492, 2.455, 2017/11/15 12:01:00.827下午, 207.0, 33, 79, 33, 34
493, 2.46, 2017/11/15 12:01:00.832下午, 204.0, 32, 73, 32, 33
494, 2.465, 2017/11/15 12:01:00.837下午, 202.0, 33, 73, 31, 33
495, 2.47, 2017/11/15 12:01:00.842下午, 208.0, 32, 79, 32, 33
496, 2.475, 2017/11/15 12:01:00.847下午, 209.0, 32, 79, 32, 33
497, 2.48, 2017/11/15 12:01:00.852下午, 194.0, 33, 79, 32, 33
498, 2.485, 2017/11/15 12:01:00.857下午, 198.0, 32, 79, 31, 33
499, 2.49, 2017/11/15 12:01:00.862下午, 213.0, 32, 73, 32, 33
500, 2.495, 2017/11/15 12:01:00.867下午, 211.0, 32, 73, 31, 32
501, 2.5, 2017/11/15 12:01:00.872下午, 204.0, 33, 79, 32, 33
502, 2.505, 2017/11/15 12:01:00.877下午, 208.0, 32, 79, 32, 33
503, 2.51, 2017/11/15 12:01:00.882下午, 200.0, 32, 79, 32, 33
504, 2.515, 2017/11/15 12:01:00.887下午, 207.0, 33, 73, 33, 33
505, 2.52, 2017/11/15 12:01:00.892下午, 207.0, 32, 73, 31, 32
506, 2.525, 2017/11/15 12:01:00.897下午, 212.0, 32, 73, 32, 32
507, 2.53, 2017/11/15 12:01:00.902下午, 215.0, 32, 79, 32, 33
508, 2.535, 2017/11/15 12:01:00.907下午, 216.0, 31, 79, 32, 33
509, 2.54, 2017/11/15 12:01:00.912下午, 208.0, 32, 79, 32, 33
510, 2.545, 2017/11/15 12:01:00.917下午, 197.0, 32, 73, 31, 32
511, 2.55, 2017/11/15 12:01:00.922下午, 188.0, 33, 73, 33, 34
512, 2.555, 2017/11/15 12:01:00.927下午, 209.0, 33, 73, 32, 33
513, 2.56, 2017/11/15 12:01:00.932下午, 225.0, 32, 73, 32, 32
514, 2.565, 2017/11/15 12:01:00.937下午, 215.0, 32, 79, 31, 32
515, 2.57, 2017/11/15 12:01:00.942下午, 197.0, 32, 73, 32, 33
516, 2.575, 2017/11/15 12:01:00.947下午, 197.0, 32, 79, 32, 33
517, 2.58, 2017/11/15 12:01:00.952下午, 201.0, 32, 79, 31, 32
518, 2.585, 2017/11/15 12:01:00.957下午, 209.0, 31, 79, 31, 32
519, 2.59, 2017/11/15 12:01:00.962下午, 209.0, 32, 79, 32, 33
520, 2.595, 2017/11/15 12:01:00.967下午, 212.0, 32, 79, 32, 33
521, 2.6, 2017/11/15 12:01:00.972下午, 210.0, 32, 79, 31, 32
522, 2.605, 2017/11/15 12:01:00.977下午, 192.0, 33, 79, 31, 32
523, 2.61, 2017/11/15 12:01:00.982下午, 206.0, 32, 79, 31, 32
524, 2.615, 2017/11/15 12:01:00.987下午, 201.0, 32, 79, 31, 33
525, 2.62, 2017/11/15 12:01:00.992下午, 212.0, 32, 73, 32, 32
526, 2.625, 2017/11/15 12:01:00.997下午, 219.0, 32, 79, 32, 33
527, 2.63, 2017/11/15 12:01:01.002下午, 201.0, 32, 73, 32, 33
528, 2.635, 2017/11/15 12:01:01.007下午, 212.0, 32, 73, 32, 33
529, 2.64, 2017/11/15 12:01:01.012下午, 221.0, 32, 73, 32, 33
530, 2.645, 2017/11/15 12:01:01.017下午, 209.0, 32, 73, 32, 33
531, 2.65, 2017/11/15 12:01:01.022下午, 207.0, 31, 73, 32, 33
532, 2.655, 2017/11/15 12:01:01.027下午, 194.0, 32, 73, 32, 33
533, 2.66, 2017/11/15 12:01:01.032下午, 203.0, 33, 73, 31, 33
534, 2.665, 2017/11/15 12:01:01.037下午, 193.0, 33, 73, 33, 34
535, 2.67, 2017/11/15 12:01:01.042下午, 209.0, 33, 73, 31, 33
536, 2.675, 2017/11/15 12:01:01.047下午, 193.0, 33, 73, 33, 34
537, 2.68, 2017/11/15 12:01:01.052下午, 210.0, 32, 79, 33, 33
538, 2.685, 2017/11/15 12:01:01.057下午, 226.0, 32, 79, 32, 33
539, 2.69, 2017/11/15 12:01:01.062下午, 205.0, 32, 73, 32, 33
540, 2.695, 2017/11/15 12:01:01.067下午, 199.0, 33, 79, 32, 33
541, 2.7, 2017/11/15 12:01:01.072下午, 221.0, 31, 73, 32, 33
542, 2.705, 2017/11/15 12:01:01.077下午, 212.0, 31, 73, 32, 32
543, 2.71, 2017/11/15 12:01:01.082下午, 212.0, 31, 79, 32, 33
544, 2.715, 2017/11/15 12:01:01.087下午, 211.0, 33, 79, 32, 33
545, 2.72, 2017/11/15 12:01:01.092下午, 199.0, 32, 73, 32, 33
546, 2.725, 2017/11/15 12:01:01.097下午, 204.0, 32, 73, 32, 33
547, 2.73, 2017/11/15 12:01:01.102下午, 209.0, 31, 73, 32, 32
548, 2.735, 2017/11/15 12:01:01.107下午, 196.0, 33, 73, 32, 33
549, 2.74, 2017/11/15 12:01:01.112下午, 195.0, 32, 67, 31, 32
550, 2.745, 2017/11/15 12:01:01.117下午, 190.0, 32, 73, 32, 33
551, 2.75, 2017/11/15 12:01:01.122下午, 187.0, 32, 73, 32, 33
552, 2.755, 2017/11/15 12:01:01.127下午, 210.0, 32, 73, 32, 33
553, 2.76, 2017/11/15 12:01:01.132下午, 200.0, 32, 73, 31, 32
554, 2.765, 2017/11/15 12:01:01.137下午, 176.0, 32, 73, 31, 32
555, 2.77, 2017/11/15 12:01:01.142下午, 209.0, 33, 73, 32, 33
556, 2.775, 2017/11/15 12:01:01.147下午, 206.0, 31, 73, 31, 31
557, 2.78, 2017/11/15 12:01:01.152下午, 212.0, 31, 73, 31, 32
558, 2.785, 2017/11/15 12:01:01.157下午, 203.0, 32, 73, 30, 32
559, 2.79, 2017/11/15 12:01:01.162下午, 200.0, 32, 73, 31, 32
560, 2.795, 2017/11/15 12:01:01.167下午, 215.0, 31, 73, 31, 32
561, 2.8, 2017/11/15 12:01:01.172下午, 205.0, 32, 79, 31, 32
562, 2.805, 2017/11/15 12:01:01.177下午, 206.0, 31, 79, 32, 33
563, 2.81, 2017/11/15 12:01:01.182下午, 208.0, 31, 79, 31, 32
564, 2.815, 2017/11/15 12:01:01.187下午, 196.0, 31, 79, 31, 32
565, 2.82, 2017/11/15 12:01:01.192下午, 208.0, 32, 79, 31, 32
566, 2.825, 2017/11/15 12:01:01.197下午, 212.0, 32, 79, 31, 32
567, 2.83, 2017/11/15 12:01:01.202下午, 203.0, 32, 79, 32, 33
568, 2.835, 2017/11/15 12:01:01.207下午, 213.0, 32, 79, 31, 32
569, 2.84, 2017/11/15 12:01:01.212下午, 228.0, 32, 73, 32, 33
570, 2.845, 2017/11/15 12:01:01.217下午, 213.0, 31, 79, 31, 32
571, 2.85, 2017/11/15 12:01:01.222下午, 198.0, 32, 73, 31, 32
572, 2.855, 2017/11/15 12:01:01.227下午, 207.0, 32, 79, 32, 33
573, 2.86, 2017/11/15 12:01:01.232下午, 214.0, 33, 73, 31, 33
574, 2.865, 2017/11/15 12:01:01.237下午, 224.0, 32, 73, 31, 32
575, 2.87, 2017/11/15 12:01:01.242下午, 215.0, 32, 79, 31, 32
576, 2.875, 2017/11/15 12:01:01.247下午, 217.0, 32, 79, 31, 32
577, 2.88, 2017/11/15 12:01:01.252下午, 190.0, 32, 73, 32, 33
578, 2.885, 2017/11/15 12:01:01.257下午, 213.0, 31, 73, 31, 32
579, 2.89, 2017/11/15 12:01:01.262下午, 202.0, 32, 79, 32, 33
580, 2.895, 2017/11/15 12:01:01.267下午, 204.0, 31, 73, 32, 32
581, 2.9, 2017/11/15 12:01:01.272下午, 206.0, 31, 73, 32, 33
582, 2.905, 2017/11/15 12:01:01.277下午, 211.0, 32, 73, 31, 32
583, 2.91, 2017/11/15 12:01:01.282下午, 213.0, 34, 73, 31, 33
584, 2.915, 2017/11/15 12:01:01.287下午, 209.0, 31, 79, 32, 33
585, 2.92, 2017/11/15 12:01:01.292下午, 207.0, 32, 79, 32, 33
586, 2.925, 2017/11/15 12:01:01.297下午, 215.0, 32, 79, 32, 33
587, 2.93, 2017/11/15 12:01:01.302下午, 219.0, 32, 73, 32, 33
588, 2.935, 2017/11/15 12:01:01.307下午, 216.0, 31, 73, 32, 33
589, 2.94, 2017/11/15 12:01:01.312下午, 206.0, 32, 73, 32, 33
590, 2.945, 2017/11/15 12:01:01.317下午, 184.0, 33, 73, 32, 33
591, 2.95, 2017/11/15 12:01:01.322下午, 194.0, 32, 73, 32, 33
592, 2.955, 2017/11/15 12:01:01.327下午, 212.0, 31, 73, 32, 33
593, 2.96, 2017/11/15 12:01:01.332下午, 223.0, 32, 73, 32, 33
594, 2.965, 2017/11/15 12:01:01.337下午, 205.0, 32, 73, 32, 33
595, 2.97, 2017/11/15 12:01:01.342下午, 207.0, 31, 73, 32, 33
596, 2.975, 2017/11/15 12:01:01.347下午, 190.0, 33, 73, 33, 34
597, 2.98, 2017/11/15 12:01:01.352下午, 209.0, 31, 73, 32, 32
598, 2.985, 2017/11/15 12:01:01.357下午, 203.0, 32, 73, 32, 33
599, 2.99, 2017/11/15 12:01:01.362下午, 196.0, 32, 73, 33, 33
600, 2.995, 2017/11/15 12:01:01.367下午, 199.0, 32, 79, 32, 33
@@
