DATA_TYPE Graph
VERSION Tekscan Pressure Measurement System 6.70-03
HARDWARE 00114-3447
MAP_VERSION 6.5
HW_TYPE 4
VersaPogoFsx 0
檔案名 C:\Users\asus\Desktop\工研院_計畫\收案資料\Subject02\Plantar Pressure\FOAM_STAND_RIGHT_3.fsx
SENSOR_TYPE FSCAN
ROWS 60
COLS 21
ROW_SPACING 0.508 centimeters
COL_SPACING 0.508 centimeters
SENSEL_AREA 0.258064 cm2
NOISE_THRESHOLD 3
SECONDS_PER_FRAME 0.005
SECONDS_PER_FRAME 0
MICRO_SECOND 0
TIME 2017/11/15 12:03:28.695下午
SATURATION_PRESSURE 2347.96 KPa 
CALIBRATION_POINT_1 48.0001 (Kilograms) 1981 (Raw Sum) 199 (Number of Loaded Cells)
CALIBRATION_MODE_1 步態
CALIBRATION_INFO C:\Users\asus\Desktop\工研院_計畫\收案資料\Subject02\Plantar Pressure\FOAM_STAND_RIGHT_3.fsx
SENSITIVITY 自定義
MAP_INDEX 0
SUBMAP 0
Patient ID: 

Speed of Gait: 

Weight: 

Gender: 

Physician: 

Technician: 

Shoe: 

START_FRAME 1
END_FRAME 600
UNITS KPa
ASCII_DATA @@
畫面(X), 時間(X), 絕對時間(X), Raw Sum, 壓力(Y:藍色), 壓力(Y), 壓力(Y), 壓力(Y)
1, 0, 2017/11/15 12:03:28.695下午, 146.0, 33, 0, 30, 32
2, 0.005, 2017/11/15 12:03:28.7下午, 139.0, 33, 0, 30, 32
3, 0.01, 2017/11/15 12:03:28.705下午, 143.0, 36, 0, 30, 33
4, 0.015, 2017/11/15 12:03:28.71下午, 147.0, 35, 0, 29, 33
5, 0.02, 2017/11/15 12:03:28.715下午, 154.0, 36, 0, 29, 33
6, 0.025, 2017/11/15 12:03:28.72下午, 167.0, 33, 0, 29, 32
7, 0.03, 2017/11/15 12:03:28.725下午, 135.0, 34, 0, 31, 33
8, 0.035, 2017/11/15 12:03:28.73下午, 137.0, 35, 0, 30, 33
9, 0.04, 2017/11/15 12:03:28.735下午, 156.0, 35, 0, 29, 32
10, 0.045, 2017/11/15 12:03:28.74下午, 124.0, 34, 0, 33, 34
11, 0.05, 2017/11/15 12:03:28.745下午, 138.0, 34, 0, 31, 33
12, 0.055, 2017/11/15 12:03:28.75下午, 141.0, 35, 0, 30, 33
13, 0.06, 2017/11/15 12:03:28.755下午, 157.0, 34, 0, 29, 32
14, 0.065, 2017/11/15 12:03:28.76下午, 136.0, 34, 0, 32, 33
15, 0.07, 2017/11/15 12:03:28.765下午, 129.0, 37, 0, 30, 33
16, 0.075, 2017/11/15 12:03:28.77下午, 162.0, 33, 0, 29, 31
17, 0.08, 2017/11/15 12:03:28.775下午, 139.0, 34, 0, 30, 33
18, 0.085, 2017/11/15 12:03:28.78下午, 141.0, 34, 0, 29, 32
19, 0.09, 2017/11/15 12:03:28.785下午, 152.0, 35, 0, 29, 32
20, 0.095, 2017/11/15 12:03:28.79下午, 168.0, 33, 0, 30, 32
21, 0.1, 2017/11/15 12:03:28.795下午, 131.0, 37, 0, 30, 34
22, 0.105, 2017/11/15 12:03:28.8下午, 161.0, 34, 0, 29, 32
23, 0.11, 2017/11/15 12:03:28.805下午, 154.0, 34, 0, 29, 32
24, 0.115, 2017/11/15 12:03:28.81下午, 136.0, 34, 0, 32, 33
25, 0.12, 2017/11/15 12:03:28.815下午, 127.0, 35, 0, 30, 33
26, 0.125, 2017/11/15 12:03:28.82下午, 153.0, 34, 0, 30, 32
27, 0.13, 2017/11/15 12:03:28.825下午, 163.0, 32, 0, 30, 31
28, 0.135, 2017/11/15 12:03:28.83下午, 140.0, 36, 0, 31, 34
29, 0.14, 2017/11/15 12:03:28.835下午, 151.0, 34, 0, 29, 32
30, 0.145, 2017/11/15 12:03:28.84下午, 144.0, 34, 0, 30, 33
31, 0.15, 2017/11/15 12:03:28.845下午, 140.0, 34, 0, 31, 32
32, 0.155, 2017/11/15 12:03:28.85下午, 146.0, 34, 0, 29, 31
33, 0.16, 2017/11/15 12:03:28.855下午, 161.0, 33, 0, 30, 32
34, 0.165, 2017/11/15 12:03:28.86下午, 159.0, 36, 0, 30, 33
35, 0.17, 2017/11/15 12:03:28.865下午, 149.0, 33, 0, 29, 31
36, 0.175, 2017/11/15 12:03:28.87下午, 151.0, 34, 0, 30, 32
37, 0.18, 2017/11/15 12:03:28.875下午, 147.0, 34, 0, 30, 32
38, 0.185, 2017/11/15 12:03:28.88下午, 156.0, 34, 0, 29, 31
39, 0.19, 2017/11/15 12:03:28.885下午, 147.0, 33, 0, 31, 32
40, 0.195, 2017/11/15 12:03:28.89下午, 139.0, 34, 0, 30, 32
41, 0.2, 2017/11/15 12:03:28.895下午, 153.0, 34, 0, 29, 31
42, 0.205, 2017/11/15 12:03:28.9下午, 148.0, 33, 0, 30, 32
43, 0.21, 2017/11/15 12:03:28.905下午, 137.0, 36, 0, 30, 33
44, 0.215, 2017/11/15 12:03:28.91下午, 130.0, 37, 0, 30, 33
45, 0.22, 2017/11/15 12:03:28.915下午, 154.0, 33, 0, 29, 31
46, 0.225, 2017/11/15 12:03:28.92下午, 151.0, 32, 0, 31, 32
47, 0.23, 2017/11/15 12:03:28.925下午, 136.0, 34, 0, 30, 32
48, 0.235, 2017/11/15 12:03:28.93下午, 143.0, 36, 0, 30, 33
49, 0.24, 2017/11/15 12:03:28.935下午, 151.0, 33, 0, 29, 31
50, 0.245, 2017/11/15 12:03:28.94下午, 137.0, 33, 0, 31, 32
51, 0.25, 2017/11/15 12:03:28.945下午, 148.0, 35, 0, 30, 32
52, 0.255, 2017/11/15 12:03:28.95下午, 147.0, 33, 0, 29, 32
53, 0.26, 2017/11/15 12:03:28.955下午, 141.0, 34, 0, 30, 33
54, 0.265, 2017/11/15 12:03:28.96下午, 143.0, 35, 0, 29, 32
55, 0.27, 2017/11/15 12:03:28.965下午, 144.0, 33, 0, 30, 32
56, 0.275, 2017/11/15 12:03:28.97下午, 150.0, 33, 0, 31, 32
57, 0.28, 2017/11/15 12:03:28.975下午, 140.0, 32, 0, 30, 31
58, 0.285, 2017/11/15 12:03:28.98下午, 136.0, 33, 0, 29, 31
59, 0.29, 2017/11/15 12:03:28.985下午, 156.0, 32, 0, 29, 31
60, 0.295, 2017/11/15 12:03:28.99下午, 139.0, 36, 0, 31, 34
61, 0.3, 2017/11/15 12:03:28.995下午, 146.0, 35, 0, 29, 32
62, 0.305, 2017/11/15 12:03:29下午, 149.0, 33, 0, 29, 31
63, 0.31, 2017/11/15 12:03:29.005下午, 134.0, 33, 0, 32, 32
64, 0.315, 2017/11/15 12:03:29.01下午, 155.0, 33, 0, 30, 32
65, 0.32, 2017/11/15 12:03:29.015下午, 136.0, 34, 0, 31, 33
66, 0.325, 2017/11/15 12:03:29.02下午, 147.0, 32, 0, 29, 31
67, 0.33, 2017/11/15 12:03:29.025下午, 149.0, 32, 0, 31, 32
68, 0.335, 2017/11/15 12:03:29.03下午, 146.0, 32, 0, 30, 31
69, 0.34, 2017/11/15 12:03:29.035下午, 135.0, 34, 0, 31, 33
70, 0.345, 2017/11/15 12:03:29.04下午, 155.0, 32, 0, 29, 31
71, 0.35, 2017/11/15 12:03:29.045下午, 132.0, 32, 0, 31, 32
72, 0.355, 2017/11/15 12:03:29.05下午, 124.0, 35, 0, 30, 33
73, 0.36, 2017/11/15 12:03:29.055下午, 149.0, 33, 0, 29, 31
74, 0.365, 2017/11/15 12:03:29.06下午, 142.0, 33, 0, 31, 33
75, 0.37, 2017/11/15 12:03:29.065下午, 123.0, 35, 0, 32, 33
76, 0.375, 2017/11/15 12:03:29.07下午, 149.0, 34, 0, 29, 31
77, 0.38, 2017/11/15 12:03:29.075下午, 161.0, 33, 0, 30, 31
78, 0.385, 2017/11/15 12:03:29.08下午, 134.0, 32, 0, 31, 32
79, 0.39, 2017/11/15 12:03:29.085下午, 145.0, 33, 0, 30, 32
80, 0.395, 2017/11/15 12:03:29.09下午, 143.0, 33, 0, 31, 32
81, 0.4, 2017/11/15 12:03:29.095下午, 154.0, 32, 0, 31, 31
82, 0.405, 2017/11/15 12:03:29.1下午, 116.0, 35, 0, 31, 33
83, 0.41, 2017/11/15 12:03:29.105下午, 149.0, 33, 0, 29, 31
84, 0.415, 2017/11/15 12:03:29.11下午, 154.0, 33, 0, 29, 31
85, 0.42, 2017/11/15 12:03:29.115下午, 133.0, 33, 0, 31, 32
86, 0.425, 2017/11/15 12:03:29.12下午, 138.0, 34, 0, 31, 32
87, 0.43, 2017/11/15 12:03:29.125下午, 147.0, 33, 0, 29, 31
88, 0.435, 2017/11/15 12:03:29.13下午, 151.0, 32, 0, 31, 31
89, 0.44, 2017/11/15 12:03:29.135下午, 108.0, 35, 0, 31, 33
90, 0.445, 2017/11/15 12:03:29.14下午, 155.0, 32, 0, 29, 31
91, 0.45, 2017/11/15 12:03:29.145下午, 132.0, 33, 0, 31, 32
92, 0.455, 2017/11/15 12:03:29.15下午, 127.0, 33, 0, 32, 32
93, 0.46, 2017/11/15 12:03:29.155下午, 147.0, 33, 0, 30, 31
94, 0.465, 2017/11/15 12:03:29.16下午, 132.0, 33, 0, 32, 33
95, 0.47, 2017/11/15 12:03:29.165下午, 140.0, 33, 0, 33, 33
96, 0.475, 2017/11/15 12:03:29.17下午, 137.0, 34, 0, 30, 32
97, 0.48, 2017/11/15 12:03:29.175下午, 153.0, 32, 0, 29, 30
98, 0.485, 2017/11/15 12:03:29.18下午, 134.0, 33, 0, 31, 32
99, 0.49, 2017/11/15 12:03:29.185下午, 143.0, 32, 0, 32, 32
100, 0.495, 2017/11/15 12:03:29.19下午, 150.0, 32, 0, 30, 31
101, 0.5, 2017/11/15 12:03:29.195下午, 135.0, 33, 0, 31, 32
102, 0.505, 2017/11/15 12:03:29.2下午, 122.0, 34, 0, 30, 32
103, 0.51, 2017/11/15 12:03:29.205下午, 150.0, 33, 0, 29, 31
104, 0.515, 2017/11/15 12:03:29.21下午, 159.0, 32, 0, 29, 30
105, 0.52, 2017/11/15 12:03:29.215下午, 140.0, 33, 0, 31, 32
106, 0.525, 2017/11/15 12:03:29.22下午, 126.0, 35, 0, 31, 33
107, 0.53, 2017/11/15 12:03:29.225下午, 145.0, 33, 0, 29, 31
108, 0.535, 2017/11/15 12:03:29.23下午, 134.0, 33, 0, 31, 32
109, 0.54, 2017/11/15 12:03:29.235下午, 127.0, 33, 0, 32, 32
110, 0.545, 2017/11/15 12:03:29.24下午, 131.0, 33, 0, 30, 32
111, 0.55, 2017/11/15 12:03:29.245下午, 163.0, 32, 0, 29, 31
112, 0.555, 2017/11/15 12:03:29.25下午, 130.0, 34, 0, 31, 32
113, 0.56, 2017/11/15 12:03:29.255下午, 142.0, 32, 0, 31, 32
114, 0.565, 2017/11/15 12:03:29.26下午, 154.0, 32, 0, 30, 31
115, 0.57, 2017/11/15 12:03:29.265下午, 132.0, 33, 0, 31, 32
116, 0.575, 2017/11/15 12:03:29.27下午, 138.0, 33, 0, 31, 32
117, 0.58, 2017/11/15 12:03:29.275下午, 154.0, 32, 0, 29, 31
118, 0.585, 2017/11/15 12:03:29.28下午, 148.0, 31, 0, 31, 31
119, 0.59, 2017/11/15 12:03:29.285下午, 126.0, 33, 0, 31, 32
120, 0.595, 2017/11/15 12:03:29.29下午, 143.0, 33, 0, 31, 32
121, 0.6, 2017/11/15 12:03:29.295下午, 132.0, 32, 0, 34, 33
122, 0.605, 2017/11/15 12:03:29.3下午, 126.0, 31, 0, 32, 31
123, 0.61, 2017/11/15 12:03:29.305下午, 140.0, 33, 0, 34, 34
124, 0.615, 2017/11/15 12:03:29.31下午, 153.0, 33, 0, 30, 31
125, 0.62, 2017/11/15 12:03:29.315下午, 158.0, 31, 0, 30, 31
126, 0.625, 2017/11/15 12:03:29.32下午, 125.0, 33, 0, 33, 33
127, 0.63, 2017/11/15 12:03:29.325下午, 157.0, 32, 0, 29, 31
128, 0.635, 2017/11/15 12:03:29.33下午, 135.0, 31, 0, 30, 31
129, 0.64, 2017/11/15 12:03:29.335下午, 130.0, 32, 0, 32, 32
130, 0.645, 2017/11/15 12:03:29.34下午, 148.0, 32, 0, 29, 31
131, 0.65, 2017/11/15 12:03:29.345下午, 134.0, 33, 0, 32, 32
132, 0.655, 2017/11/15 12:03:29.35下午, 138.0, 33, 0, 30, 32
133, 0.66, 2017/11/15 12:03:29.355下午, 124.0, 30, 0, 31, 31
134, 0.665, 2017/11/15 12:03:29.36下午, 133.0, 34, 0, 32, 33
135, 0.67, 2017/11/15 12:03:29.365下午, 157.0, 32, 0, 30, 31
136, 0.675, 2017/11/15 12:03:29.37下午, 138.0, 31, 0, 31, 31
137, 0.68, 2017/11/15 12:03:29.375下午, 146.0, 32, 0, 31, 32
138, 0.685, 2017/11/15 12:03:29.38下午, 136.0, 34, 0, 30, 32
139, 0.69, 2017/11/15 12:03:29.385下午, 142.0, 30, 0, 31, 30
140, 0.695, 2017/11/15 12:03:29.39下午, 129.0, 34, 0, 32, 33
141, 0.7, 2017/11/15 12:03:29.395下午, 162.0, 32, 0, 30, 31
142, 0.705, 2017/11/15 12:03:29.4下午, 138.0, 32, 0, 31, 32
143, 0.71, 2017/11/15 12:03:29.405下午, 139.0, 33, 0, 30, 32
144, 0.715, 2017/11/15 12:03:29.41下午, 155.0, 33, 0, 29, 31
145, 0.72, 2017/11/15 12:03:29.415下午, 147.0, 31, 0, 31, 31
146, 0.725, 2017/11/15 12:03:29.42下午, 132.0, 33, 0, 33, 33
147, 0.73, 2017/11/15 12:03:29.425下午, 147.0, 32, 0, 30, 31
148, 0.735, 2017/11/15 12:03:29.43下午, 128.0, 32, 0, 32, 32
149, 0.74, 2017/11/15 12:03:29.435下午, 128.0, 32, 0, 33, 33
150, 0.745, 2017/11/15 12:03:29.44下午, 147.0, 34, 0, 30, 32
151, 0.75, 2017/11/15 12:03:29.445下午, 142.0, 31, 0, 31, 31
152, 0.755, 2017/11/15 12:03:29.45下午, 139.0, 33, 0, 33, 33
153, 0.76, 2017/11/15 12:03:29.455下午, 138.0, 32, 0, 30, 31
154, 0.765, 2017/11/15 12:03:29.46下午, 126.0, 31, 0, 31, 31
155, 0.77, 2017/11/15 12:03:29.465下午, 152.0, 33, 0, 32, 32
156, 0.775, 2017/11/15 12:03:29.47下午, 134.0, 33, 0, 32, 32
157, 0.78, 2017/11/15 12:03:29.475下午, 143.0, 32, 0, 32, 32
158, 0.785, 2017/11/15 12:03:29.48下午, 134.0, 33, 0, 31, 32
159, 0.79, 2017/11/15 12:03:29.485下午, 160.0, 31, 0, 30, 31
160, 0.795, 2017/11/15 12:03:29.49下午, 141.0, 32, 0, 31, 31
161, 0.8, 2017/11/15 12:03:29.495下午, 150.0, 32, 0, 30, 31
162, 0.805, 2017/11/15 12:03:29.5下午, 147.0, 32, 0, 30, 31
163, 0.81, 2017/11/15 12:03:29.505下午, 137.0, 32, 0, 31, 31
164, 0.815, 2017/11/15 12:03:29.51下午, 147.0, 33, 0, 30, 31
165, 0.82, 2017/11/15 12:03:29.515下午, 152.0, 31, 0, 29, 30
166, 0.825, 2017/11/15 12:03:29.52下午, 134.0, 32, 0, 31, 31
167, 0.83, 2017/11/15 12:03:29.525下午, 154.0, 32, 0, 30, 31
168, 0.835, 2017/11/15 12:03:29.53下午, 126.0, 31, 0, 31, 31
169, 0.84, 2017/11/15 12:03:29.535下午, 140.0, 32, 0, 32, 32
170, 0.845, 2017/11/15 12:03:29.54下午, 149.0, 33, 0, 30, 31
171, 0.85, 2017/11/15 12:03:29.545下午, 131.0, 31, 0, 32, 32
172, 0.855, 2017/11/15 12:03:29.55下午, 141.0, 33, 0, 32, 32
173, 0.86, 2017/11/15 12:03:29.555下午, 130.0, 31, 0, 30, 31
174, 0.865, 2017/11/15 12:03:29.56下午, 126.0, 33, 0, 31, 32
175, 0.87, 2017/11/15 12:03:29.565下午, 136.0, 32, 0, 31, 32
176, 0.875, 2017/11/15 12:03:29.57下午, 143.0, 30, 0, 31, 30
177, 0.88, 2017/11/15 12:03:29.575下午, 132.0, 32, 0, 33, 33
178, 0.885, 2017/11/15 12:03:29.58下午, 139.0, 33, 0, 31, 32
179, 0.89, 2017/11/15 12:03:29.585下午, 154.0, 31, 0, 29, 30
180, 0.895, 2017/11/15 12:03:29.59下午, 132.0, 33, 0, 32, 33
181, 0.9, 2017/11/15 12:03:29.595下午, 154.0, 32, 0, 30, 31
182, 0.905, 2017/11/15 12:03:29.6下午, 158.0, 31, 0, 31, 31
183, 0.91, 2017/11/15 12:03:29.605下午, 140.0, 32, 0, 32, 32
184, 0.915, 2017/11/15 12:03:29.61下午, 145.0, 32, 0, 31, 32
185, 0.92, 2017/11/15 12:03:29.615下午, 142.0, 33, 0, 30, 32
186, 0.925, 2017/11/15 12:03:29.62下午, 150.0, 30, 0, 31, 31
187, 0.93, 2017/11/15 12:03:29.625下午, 143.0, 33, 0, 32, 33
188, 0.935, 2017/11/15 12:03:29.63下午, 151.0, 32, 0, 29, 31
189, 0.94, 2017/11/15 12:03:29.635下午, 139.0, 32, 0, 31, 32
190, 0.945, 2017/11/15 12:03:29.64下午, 138.0, 32, 0, 31, 32
191, 0.95, 2017/11/15 12:03:29.645下午, 145.0, 33, 0, 31, 32
192, 0.955, 2017/11/15 12:03:29.65下午, 164.0, 31, 0, 29, 30
193, 0.96, 2017/11/15 12:03:29.655下午, 141.0, 32, 0, 31, 31
194, 0.965, 2017/11/15 12:03:29.66下午, 145.0, 32, 0, 31, 31
195, 0.97, 2017/11/15 12:03:29.665下午, 151.0, 31, 0, 30, 31
196, 0.975, 2017/11/15 12:03:29.67下午, 124.0, 34, 0, 31, 32
197, 0.98, 2017/11/15 12:03:29.675下午, 142.0, 33, 0, 30, 31
198, 0.985, 2017/11/15 12:03:29.68下午, 144.0, 33, 0, 31, 32
199, 0.99, 2017/11/15 12:03:29.685下午, 138.0, 32, 0, 31, 31
200, 0.995, 2017/11/15 12:03:29.69下午, 139.0, 34, 0, 33, 33
201, 1, 2017/11/15 12:03:29.695下午, 160.0, 32, 0, 30, 31
202, 1.005, 2017/11/15 12:03:29.7下午, 148.0, 31, 0, 32, 31
203, 1.01, 2017/11/15 12:03:29.705下午, 127.0, 32, 0, 32, 32
204, 1.015, 2017/11/15 12:03:29.71下午, 153.0, 33, 0, 31, 32
205, 1.02, 2017/11/15 12:03:29.715下午, 144.0, 32, 0, 29, 31
206, 1.025, 2017/11/15 12:03:29.72下午, 138.0, 32, 0, 31, 31
207, 1.03, 2017/11/15 12:03:29.725下午, 134.0, 34, 0, 32, 33
208, 1.035, 2017/11/15 12:03:29.73下午, 152.0, 32, 0, 30, 31
209, 1.04, 2017/11/15 12:03:29.735下午, 134.0, 31, 0, 31, 31
210, 1.045, 2017/11/15 12:03:29.74下午, 138.0, 32, 0, 32, 32
211, 1.05, 2017/11/15 12:03:29.745下午, 155.0, 33, 0, 29, 31
212, 1.055, 2017/11/15 12:03:29.75下午, 133.0, 32, 0, 32, 32
213, 1.06, 2017/11/15 12:03:29.755下午, 146.0, 33, 0, 33, 33
214, 1.065, 2017/11/15 12:03:29.76下午, 163.0, 33, 0, 29, 31
215, 1.07, 2017/11/15 12:03:29.765下午, 140.0, 32, 0, 29, 31
216, 1.075, 2017/11/15 12:03:29.77下午, 148.0, 33, 0, 30, 31
217, 1.08, 2017/11/15 12:03:29.775下午, 139.0, 31, 0, 31, 31
218, 1.085, 2017/11/15 12:03:29.78下午, 138.0, 33, 0, 31, 32
219, 1.09, 2017/11/15 12:03:29.785下午, 138.0, 35, 0, 29, 31
220, 1.095, 2017/11/15 12:03:29.79下午, 135.0, 32, 0, 31, 31
221, 1.1, 2017/11/15 12:03:29.795下午, 145.0, 32, 0, 31, 31
222, 1.105, 2017/11/15 12:03:29.8下午, 148.0, 32, 0, 29, 31
223, 1.11, 2017/11/15 12:03:29.805下午, 146.0, 31, 0, 30, 31
224, 1.115, 2017/11/15 12:03:29.81下午, 114.0, 33, 0, 31, 32
225, 1.12, 2017/11/15 12:03:29.815下午, 145.0, 33, 0, 30, 31
226, 1.125, 2017/11/15 12:03:29.82下午, 146.0, 33, 0, 29, 31
227, 1.13, 2017/11/15 12:03:29.825下午, 158.0, 33, 0, 31, 32
228, 1.135, 2017/11/15 12:03:29.83下午, 133.0, 33, 0, 32, 33
229, 1.14, 2017/11/15 12:03:29.835下午, 164.0, 32, 0, 29, 30
230, 1.145, 2017/11/15 12:03:29.84下午, 133.0, 33, 0, 31, 32
231, 1.15, 2017/11/15 12:03:29.845下午, 127.0, 34, 0, 32, 33
232, 1.155, 2017/11/15 12:03:29.85下午, 153.0, 32, 0, 30, 31
233, 1.16, 2017/11/15 12:03:29.855下午, 126.0, 33, 0, 31, 32
234, 1.165, 2017/11/15 12:03:29.86下午, 154.0, 33, 0, 29, 31
235, 1.17, 2017/11/15 12:03:29.865下午, 151.0, 32, 0, 30, 31
236, 1.175, 2017/11/15 12:03:29.87下午, 129.0, 32, 0, 31, 32
237, 1.18, 2017/11/15 12:03:29.875下午, 150.0, 32, 0, 30, 31
238, 1.185, 2017/11/15 12:03:29.88下午, 141.0, 32, 0, 31, 31
239, 1.19, 2017/11/15 12:03:29.885下午, 138.0, 33, 0, 31, 32
240, 1.195, 2017/11/15 12:03:29.89下午, 153.0, 32, 0, 31, 32
241, 1.2, 2017/11/15 12:03:29.895下午, 145.0, 32, 0, 31, 31
242, 1.205, 2017/11/15 12:03:29.9下午, 138.0, 33, 0, 32, 32
243, 1.21, 2017/11/15 12:03:29.905下午, 152.0, 32, 0, 29, 31
244, 1.215, 2017/11/15 12:03:29.91下午, 146.0, 33, 0, 31, 32
245, 1.22, 2017/11/15 12:03:29.915下午, 151.0, 34, 0, 30, 32
246, 1.225, 2017/11/15 12:03:29.92下午, 147.0, 32, 0, 30, 31
247, 1.23, 2017/11/15 12:03:29.925下午, 139.0, 32, 0, 31, 32
248, 1.235, 2017/11/15 12:03:29.93下午, 154.0, 32, 0, 30, 31
249, 1.24, 2017/11/15 12:03:29.935下午, 143.0, 32, 0, 31, 32
250, 1.245, 2017/11/15 12:03:29.94下午, 152.0, 32, 0, 30, 31
251, 1.25, 2017/11/15 12:03:29.945下午, 147.0, 33, 0, 29, 30
252, 1.255, 2017/11/15 12:03:29.95下午, 132.0, 31, 0, 32, 32
253, 1.26, 2017/11/15 12:03:29.955下午, 146.0, 34, 0, 30, 32
254, 1.265, 2017/11/15 12:03:29.96下午, 146.0, 32, 0, 31, 31
255, 1.27, 2017/11/15 12:03:29.965下午, 143.0, 34, 0, 32, 33
256, 1.275, 2017/11/15 12:03:29.97下午, 163.0, 32, 0, 29, 30
257, 1.28, 2017/11/15 12:03:29.975下午, 139.0, 33, 0, 31, 32
258, 1.285, 2017/11/15 12:03:29.98下午, 147.0, 32, 0, 30, 31
259, 1.29, 2017/11/15 12:03:29.985下午, 132.0, 32, 0, 32, 32
260, 1.295, 2017/11/15 12:03:29.99下午, 126.0, 34, 0, 31, 33
261, 1.3, 2017/11/15 12:03:29.995下午, 154.0, 32, 0, 29, 30
262, 1.305, 2017/11/15 12:03:30下午, 141.0, 32, 0, 30, 31
263, 1.31, 2017/11/15 12:03:30.005下午, 138.0, 33, 0, 32, 33
264, 1.315, 2017/11/15 12:03:30.01下午, 161.0, 32, 0, 30, 31
265, 1.32, 2017/11/15 12:03:30.015下午, 134.0, 32, 0, 30, 31
266, 1.325, 2017/11/15 12:03:30.02下午, 143.0, 32, 0, 33, 32
267, 1.33, 2017/11/15 12:03:30.025下午, 158.0, 32, 0, 30, 31
268, 1.335, 2017/11/15 12:03:30.03下午, 150.0, 32, 0, 31, 32
269, 1.34, 2017/11/15 12:03:30.035下午, 151.0, 33, 0, 30, 32
270, 1.345, 2017/11/15 12:03:30.04下午, 146.0, 32, 0, 31, 31
271, 1.35, 2017/11/15 12:03:30.045下午, 153.0, 32, 0, 31, 32
272, 1.355, 2017/11/15 12:03:30.05下午, 143.0, 33, 0, 29, 31
273, 1.36, 2017/11/15 12:03:30.055下午, 149.0, 32, 0, 30, 31
274, 1.365, 2017/11/15 12:03:30.06下午, 146.0, 34, 0, 30, 32
275, 1.37, 2017/11/15 12:03:30.065下午, 155.0, 33, 0, 31, 32
276, 1.375, 2017/11/15 12:03:30.07下午, 143.0, 33, 0, 32, 32
277, 1.38, 2017/11/15 12:03:30.075下午, 159.0, 31, 0, 29, 30
278, 1.385, 2017/11/15 12:03:30.08下午, 137.0, 32, 0, 31, 32
279, 1.39, 2017/11/15 12:03:30.085下午, 149.0, 35, 0, 30, 32
280, 1.395, 2017/11/15 12:03:30.09下午, 153.0, 32, 0, 31, 31
281, 1.4, 2017/11/15 12:03:30.095下午, 142.0, 33, 0, 31, 32
282, 1.405, 2017/11/15 12:03:30.1下午, 147.0, 32, 0, 30, 31
283, 1.41, 2017/11/15 12:03:30.105下午, 138.0, 32, 0, 30, 31
284, 1.415, 2017/11/15 12:03:30.11下午, 139.0, 32, 0, 30, 31
285, 1.42, 2017/11/15 12:03:30.115下午, 153.0, 32, 0, 29, 31
286, 1.425, 2017/11/15 12:03:30.12下午, 143.0, 33, 0, 30, 32
287, 1.43, 2017/11/15 12:03:30.125下午, 141.0, 33, 0, 32, 33
288, 1.435, 2017/11/15 12:03:30.13下午, 161.0, 32, 0, 29, 30
289, 1.44, 2017/11/15 12:03:30.135下午, 130.0, 33, 0, 30, 32
290, 1.445, 2017/11/15 12:03:30.14下午, 144.0, 32, 0, 30, 31
291, 1.45, 2017/11/15 12:03:30.145下午, 157.0, 31, 0, 30, 31
292, 1.455, 2017/11/15 12:03:30.15下午, 132.0, 34, 0, 31, 32
293, 1.46, 2017/11/15 12:03:30.155下午, 148.0, 33, 0, 31, 32
294, 1.465, 2017/11/15 12:03:30.16下午, 135.0, 33, 0, 32, 32
295, 1.47, 2017/11/15 12:03:30.165下午, 153.0, 32, 0, 30, 31
296, 1.475, 2017/11/15 12:03:30.17下午, 154.0, 32, 0, 31, 32
297, 1.48, 2017/11/15 12:03:30.175下午, 147.0, 34, 0, 31, 32
298, 1.485, 2017/11/15 12:03:30.18下午, 165.0, 32, 0, 29, 31
299, 1.49, 2017/11/15 12:03:30.185下午, 128.0, 33, 0, 32, 33
300, 1.495, 2017/11/15 12:03:30.19下午, 158.0, 32, 0, 29, 30
301, 1.5, 2017/11/15 12:03:30.195下午, 135.0, 32, 0, 32, 32
302, 1.505, 2017/11/15 12:03:30.2下午, 138.0, 32, 0, 30, 31
303, 1.51, 2017/11/15 12:03:30.205下午, 154.0, 32, 0, 29, 30
304, 1.515, 2017/11/15 12:03:30.21下午, 154.0, 33, 0, 31, 32
305, 1.52, 2017/11/15 12:03:30.215下午, 142.0, 33, 0, 32, 33
306, 1.525, 2017/11/15 12:03:30.22下午, 161.0, 33, 0, 29, 31
307, 1.53, 2017/11/15 12:03:30.225下午, 147.0, 32, 0, 33, 32
308, 1.535, 2017/11/15 12:03:30.23下午, 145.0, 34, 0, 31, 32
309, 1.54, 2017/11/15 12:03:30.235下午, 148.0, 33, 0, 31, 32
310, 1.545, 2017/11/15 12:03:30.24下午, 140.0, 34, 0, 31, 33
311, 1.55, 2017/11/15 12:03:30.245下午, 166.0, 32, 0, 29, 31
312, 1.555, 2017/11/15 12:03:30.25下午, 130.0, 32, 0, 32, 32
313, 1.56, 2017/11/15 12:03:30.255下午, 148.0, 34, 0, 30, 32
314, 1.565, 2017/11/15 12:03:30.26下午, 140.0, 32, 0, 32, 32
315, 1.57, 2017/11/15 12:03:30.265下午, 137.0, 35, 0, 32, 33
316, 1.575, 2017/11/15 12:03:30.27下午, 154.0, 32, 0, 29, 30
317, 1.58, 2017/11/15 12:03:30.275下午, 146.0, 32, 0, 30, 31
318, 1.585, 2017/11/15 12:03:30.28下午, 133.0, 34, 0, 33, 33
319, 1.59, 2017/11/15 12:03:30.285下午, 157.0, 31, 0, 29, 30
320, 1.595, 2017/11/15 12:03:30.29下午, 129.0, 32, 0, 33, 32
321, 1.6, 2017/11/15 12:03:30.295下午, 144.0, 33, 0, 30, 32
322, 1.605, 2017/11/15 12:03:30.3下午, 159.0, 33, 0, 29, 31
323, 1.61, 2017/11/15 12:03:30.305下午, 148.0, 31, 0, 31, 31
324, 1.615, 2017/11/15 12:03:30.31下午, 132.0, 34, 0, 33, 33
325, 1.62, 2017/11/15 12:03:30.315下午, 147.0, 33, 0, 30, 32
326, 1.625, 2017/11/15 12:03:30.32下午, 152.0, 33, 0, 29, 31
327, 1.63, 2017/11/15 12:03:30.325下午, 136.0, 33, 0, 32, 32
328, 1.635, 2017/11/15 12:03:30.33下午, 151.0, 32, 0, 30, 31
329, 1.64, 2017/11/15 12:03:30.335下午, 145.0, 33, 0, 31, 32
330, 1.645, 2017/11/15 12:03:30.34下午, 140.0, 32, 0, 31, 32
331, 1.65, 2017/11/15 12:03:30.345下午, 150.0, 33, 0, 30, 32
332, 1.655, 2017/11/15 12:03:30.35下午, 158.0, 32, 0, 29, 31
333, 1.66, 2017/11/15 12:03:30.355下午, 129.0, 32, 0, 31, 31
334, 1.665, 2017/11/15 12:03:30.36下午, 159.0, 32, 0, 30, 31
335, 1.67, 2017/11/15 12:03:30.365下午, 129.0, 33, 0, 32, 32
336, 1.675, 2017/11/15 12:03:30.37下午, 138.0, 33, 0, 32, 33
337, 1.68, 2017/11/15 12:03:30.375下午, 149.0, 32, 0, 31, 31
338, 1.685, 2017/11/15 12:03:30.38下午, 145.0, 33, 0, 31, 32
339, 1.69, 2017/11/15 12:03:30.385下午, 151.0, 34, 0, 30, 32
340, 1.695, 2017/11/15 12:03:30.39下午, 159.0, 32, 0, 29, 31
341, 1.7, 2017/11/15 12:03:30.395下午, 137.0, 33, 0, 32, 32
342, 1.705, 2017/11/15 12:03:30.4下午, 157.0, 33, 0, 29, 31
343, 1.71, 2017/11/15 12:03:30.405下午, 160.0, 32, 0, 31, 31
344, 1.715, 2017/11/15 12:03:30.41下午, 149.0, 32, 0, 32, 32
345, 1.72, 2017/11/15 12:03:30.415下午, 162.0, 33, 0, 29, 31
346, 1.725, 2017/11/15 12:03:30.42下午, 159.0, 32, 0, 30, 31
347, 1.73, 2017/11/15 12:03:30.425下午, 132.0, 33, 0, 31, 32
348, 1.735, 2017/11/15 12:03:30.43下午, 163.0, 31, 0, 29, 30
349, 1.74, 2017/11/15 12:03:30.435下午, 139.0, 33, 0, 31, 32
350, 1.745, 2017/11/15 12:03:30.44下午, 157.0, 33, 0, 29, 31
351, 1.75, 2017/11/15 12:03:30.445下午, 154.0, 32, 0, 31, 32
352, 1.755, 2017/11/15 12:03:30.45下午, 143.0, 32, 0, 33, 32
353, 1.76, 2017/11/15 12:03:30.455下午, 153.0, 32, 0, 29, 31
354, 1.765, 2017/11/15 12:03:30.46下午, 148.0, 32, 0, 32, 32
355, 1.77, 2017/11/15 12:03:30.465下午, 140.0, 34, 0, 33, 33
356, 1.775, 2017/11/15 12:03:30.47下午, 152.0, 33, 0, 30, 31
357, 1.78, 2017/11/15 12:03:30.475下午, 133.0, 34, 0, 33, 33
358, 1.785, 2017/11/15 12:03:30.48下午, 170.0, 32, 0, 29, 30
359, 1.79, 2017/11/15 12:03:30.485下午, 151.0, 31, 0, 31, 31
360, 1.795, 2017/11/15 12:03:30.49下午, 133.0, 34, 0, 33, 33
361, 1.8, 2017/11/15 12:03:30.495下午, 157.0, 32, 0, 30, 31
362, 1.805, 2017/11/15 12:03:30.5下午, 126.0, 32, 0, 33, 32
363, 1.81, 2017/11/15 12:03:30.505下午, 138.0, 32, 0, 32, 32
364, 1.815, 2017/11/15 12:03:30.51下午, 146.0, 33, 0, 30, 31
365, 1.82, 2017/11/15 12:03:30.515下午, 149.0, 32, 0, 31, 31
366, 1.825, 2017/11/15 12:03:30.52下午, 144.0, 32, 0, 33, 33
367, 1.83, 2017/11/15 12:03:30.525下午, 147.0, 32, 0, 31, 32
368, 1.835, 2017/11/15 12:03:30.53下午, 174.0, 32, 0, 30, 31
369, 1.84, 2017/11/15 12:03:30.535下午, 130.0, 32, 0, 31, 32
370, 1.845, 2017/11/15 12:03:30.54下午, 151.0, 33, 0, 30, 32
371, 1.85, 2017/11/15 12:03:30.545下午, 118.0, 32, 0, 33, 32
372, 1.855, 2017/11/15 12:03:30.55下午, 143.0, 32, 0, 33, 32
373, 1.86, 2017/11/15 12:03:30.555下午, 172.0, 32, 0, 29, 31
374, 1.865, 2017/11/15 12:03:30.56下午, 158.0, 32, 0, 30, 31
375, 1.87, 2017/11/15 12:03:30.565下午, 142.0, 32, 0, 32, 32
376, 1.875, 2017/11/15 12:03:30.57下午, 144.0, 32, 0, 29, 31
377, 1.88, 2017/11/15 12:03:30.575下午, 152.0, 32, 0, 31, 31
378, 1.885, 2017/11/15 12:03:30.58下午, 141.0, 34, 0, 31, 33
379, 1.89, 2017/11/15 12:03:30.585下午, 158.0, 32, 0, 29, 30
380, 1.895, 2017/11/15 12:03:30.59下午, 144.0, 31, 0, 31, 31
381, 1.9, 2017/11/15 12:03:30.595下午, 142.0, 31, 0, 33, 32
382, 1.905, 2017/11/15 12:03:30.6下午, 150.0, 32, 0, 30, 31
383, 1.91, 2017/11/15 12:03:30.605下午, 134.0, 32, 0, 32, 32
384, 1.915, 2017/11/15 12:03:30.61下午, 144.0, 31, 0, 31, 31
385, 1.92, 2017/11/15 12:03:30.615下午, 141.0, 33, 0, 31, 32
386, 1.925, 2017/11/15 12:03:30.62下午, 162.0, 32, 0, 29, 30
387, 1.93, 2017/11/15 12:03:30.625下午, 146.0, 32, 0, 31, 31
388, 1.935, 2017/11/15 12:03:30.63下午, 140.0, 33, 0, 33, 33
389, 1.94, 2017/11/15 12:03:30.635下午, 150.0, 32, 0, 30, 31
390, 1.945, 2017/11/15 12:03:30.64下午, 140.0, 32, 0, 31, 32
391, 1.95, 2017/11/15 12:03:30.645下午, 136.0, 34, 0, 30, 32
392, 1.955, 2017/11/15 12:03:30.65下午, 142.0, 32, 0, 32, 32
393, 1.96, 2017/11/15 12:03:30.655下午, 144.0, 32, 0, 33, 32
394, 1.965, 2017/11/15 12:03:30.66下午, 165.0, 32, 0, 29, 30
395, 1.97, 2017/11/15 12:03:30.665下午, 137.0, 30, 0, 32, 31
396, 1.975, 2017/11/15 12:03:30.67下午, 146.0, 31, 0, 33, 32
397, 1.98, 2017/11/15 12:03:30.675下午, 151.0, 34, 0, 30, 32
398, 1.985, 2017/11/15 12:03:30.68下午, 157.0, 32, 0, 30, 31
399, 1.99, 2017/11/15 12:03:30.685下午, 150.0, 31, 0, 30, 31
400, 1.995, 2017/11/15 12:03:30.69下午, 159.0, 32, 0, 29, 30
401, 2, 2017/11/15 12:03:30.695下午, 152.0, 32, 0, 32, 32
402, 2.005, 2017/11/15 12:03:30.7下午, 145.0, 33, 0, 31, 32
403, 2.01, 2017/11/15 12:03:30.705下午, 146.0, 33, 0, 31, 32
404, 2.015, 2017/11/15 12:03:30.71下午, 142.0, 33, 0, 30, 31
405, 2.02, 2017/11/15 12:03:30.715下午, 137.0, 31, 0, 32, 32
406, 2.025, 2017/11/15 12:03:30.72下午, 137.0, 33, 0, 32, 32
407, 2.03, 2017/11/15 12:03:30.725下午, 165.0, 32, 0, 29, 30
408, 2.035, 2017/11/15 12:03:30.73下午, 155.0, 32, 0, 30, 31
409, 2.04, 2017/11/15 12:03:30.735下午, 145.0, 33, 0, 31, 32
410, 2.045, 2017/11/15 12:03:30.74下午, 150.0, 33, 0, 30, 31
411, 2.05, 2017/11/15 12:03:30.745下午, 167.0, 32, 0, 29, 31
412, 2.055, 2017/11/15 12:03:30.75下午, 136.0, 33, 0, 30, 31
413, 2.06, 2017/11/15 12:03:30.755下午, 151.0, 33, 0, 30, 32
414, 2.065, 2017/11/15 12:03:30.76下午, 176.0, 31, 0, 30, 31
415, 2.07, 2017/11/15 12:03:30.765下午, 133.0, 32, 0, 31, 32
416, 2.075, 2017/11/15 12:03:30.77下午, 139.0, 33, 0, 31, 32
417, 2.08, 2017/11/15 12:03:30.775下午, 167.0, 32, 0, 30, 31
418, 2.085, 2017/11/15 12:03:30.78下午, 159.0, 32, 0, 31, 32
419, 2.09, 2017/11/15 12:03:30.785下午, 147.0, 32, 0, 31, 32
420, 2.095, 2017/11/15 12:03:30.79下午, 142.0, 33, 0, 31, 32
421, 2.1, 2017/11/15 12:03:30.795下午, 164.0, 31, 0, 29, 30
422, 2.105, 2017/11/15 12:03:30.8下午, 150.0, 31, 0, 31, 31
423, 2.11, 2017/11/15 12:03:30.805下午, 135.0, 32, 0, 30, 31
424, 2.115, 2017/11/15 12:03:30.81下午, 141.0, 32, 0, 30, 31
425, 2.12, 2017/11/15 12:03:30.815下午, 153.0, 32, 0, 29, 31
426, 2.125, 2017/11/15 12:03:30.82下午, 155.0, 32, 0, 30, 31
427, 2.13, 2017/11/15 12:03:30.825下午, 129.0, 34, 0, 32, 33
428, 2.135, 2017/11/15 12:03:30.83下午, 154.0, 32, 0, 31, 31
429, 2.14, 2017/11/15 12:03:30.835下午, 153.0, 32, 0, 31, 31
430, 2.145, 2017/11/15 12:03:30.84下午, 128.0, 32, 0, 32, 32
431, 2.15, 2017/11/15 12:03:30.845下午, 142.0, 32, 0, 30, 31
432, 2.155, 2017/11/15 12:03:30.85下午, 143.0, 33, 0, 31, 32
433, 2.16, 2017/11/15 12:03:30.855下午, 155.0, 32, 0, 30, 31
434, 2.165, 2017/11/15 12:03:30.86下午, 151.0, 32, 0, 31, 32
435, 2.17, 2017/11/15 12:03:30.865下午, 144.0, 32, 0, 31, 32
436, 2.175, 2017/11/15 12:03:30.87下午, 175.0, 31, 0, 29, 30
437, 2.18, 2017/11/15 12:03:30.875下午, 141.0, 31, 0, 31, 31
438, 2.185, 2017/11/15 12:03:30.88下午, 158.0, 32, 0, 30, 31
439, 2.19, 2017/11/15 12:03:30.885下午, 145.0, 32, 0, 31, 32
440, 2.195, 2017/11/15 12:03:30.89下午, 152.0, 31, 0, 31, 31
441, 2.2, 2017/11/15 12:03:30.895下午, 158.0, 34, 0, 32, 33
442, 2.205, 2017/11/15 12:03:30.9下午, 158.0, 31, 0, 29, 30
443, 2.21, 2017/11/15 12:03:30.905下午, 147.0, 31, 0, 30, 31
444, 2.215, 2017/11/15 12:03:30.91下午, 155.0, 31, 0, 31, 31
445, 2.22, 2017/11/15 12:03:30.915下午, 148.0, 33, 0, 32, 32
446, 2.225, 2017/11/15 12:03:30.92下午, 165.0, 32, 0, 29, 30
447, 2.23, 2017/11/15 12:03:30.925下午, 151.0, 32, 0, 31, 32
448, 2.235, 2017/11/15 12:03:30.93下午, 151.0, 32, 0, 31, 32
449, 2.24, 2017/11/15 12:03:30.935下午, 149.0, 32, 0, 32, 32
450, 2.245, 2017/11/15 12:03:30.94下午, 165.0, 31, 0, 29, 30
451, 2.25, 2017/11/15 12:03:30.945下午, 127.0, 33, 0, 32, 33
452, 2.255, 2017/11/15 12:03:30.95下午, 139.0, 35, 0, 30, 32
453, 2.26, 2017/11/15 12:03:30.955下午, 134.0, 32, 0, 31, 32
454, 2.265, 2017/11/15 12:03:30.96下午, 136.0, 32, 0, 32, 32
455, 2.27, 2017/11/15 12:03:30.965下午, 151.0, 32, 0, 29, 31
456, 2.275, 2017/11/15 12:03:30.97下午, 154.0, 31, 0, 31, 31
457, 2.28, 2017/11/15 12:03:30.975下午, 142.0, 32, 0, 32, 32
458, 2.285, 2017/11/15 12:03:30.98下午, 169.0, 31, 0, 29, 30
459, 2.29, 2017/11/15 12:03:30.985下午, 143.0, 32, 0, 32, 32
460, 2.295, 2017/11/15 12:03:30.99下午, 142.0, 33, 0, 30, 32
461, 2.3, 2017/11/15 12:03:30.995下午, 166.0, 32, 0, 29, 31
462, 2.305, 2017/11/15 12:03:31下午, 138.0, 31, 0, 31, 31
463, 2.31, 2017/11/15 12:03:31.005下午, 152.0, 32, 0, 30, 31
464, 2.315, 2017/11/15 12:03:31.01下午, 157.0, 32, 0, 30, 31
465, 2.32, 2017/11/15 12:03:31.015下午, 124.0, 32, 0, 32, 32
466, 2.325, 2017/11/15 12:03:31.02下午, 150.0, 32, 0, 31, 31
467, 2.33, 2017/11/15 12:03:31.025下午, 156.0, 32, 0, 30, 31
468, 2.335, 2017/11/15 12:03:31.03下午, 155.0, 31, 0, 31, 31
469, 2.34, 2017/11/15 12:03:31.035下午, 140.0, 33, 0, 32, 32
470, 2.345, 2017/11/15 12:03:31.04下午, 163.0, 32, 0, 30, 31
471, 2.35, 2017/11/15 12:03:31.045下午, 144.0, 32, 0, 32, 32
472, 2.355, 2017/11/15 12:03:31.05下午, 146.0, 33, 0, 30, 31
473, 2.36, 2017/11/15 12:03:31.055下午, 130.0, 31, 0, 32, 32
474, 2.365, 2017/11/15 12:03:31.06下午, 146.0, 33, 0, 31, 32
475, 2.37, 2017/11/15 12:03:31.065下午, 172.0, 32, 0, 29, 30
476, 2.375, 2017/11/15 12:03:31.07下午, 138.0, 32, 0, 32, 32
477, 2.38, 2017/11/15 12:03:31.075下午, 149.0, 31, 0, 33, 32
478, 2.385, 2017/11/15 12:03:31.08下午, 149.0, 33, 0, 31, 32
479, 2.39, 2017/11/15 12:03:31.085下午, 170.0, 30, 0, 30, 30
480, 2.395, 2017/11/15 12:03:31.09下午, 149.0, 31, 0, 32, 32
481, 2.4, 2017/11/15 12:03:31.095下午, 141.0, 33, 0, 30, 32
482, 2.405, 2017/11/15 12:03:31.1下午, 170.0, 32, 0, 29, 30
483, 2.41, 2017/11/15 12:03:31.105下午, 145.0, 31, 0, 32, 32
484, 2.415, 2017/11/15 12:03:31.11下午, 141.0, 32, 0, 33, 32
485, 2.42, 2017/11/15 12:03:31.115下午, 154.0, 31, 0, 30, 31
486, 2.425, 2017/11/15 12:03:31.12下午, 134.0, 32, 0, 32, 32
487, 2.43, 2017/11/15 12:03:31.125下午, 148.0, 32, 0, 33, 32
488, 2.435, 2017/11/15 12:03:31.13下午, 149.0, 32, 0, 30, 31
489, 2.44, 2017/11/15 12:03:31.135下午, 162.0, 31, 0, 31, 31
490, 2.445, 2017/11/15 12:03:31.14下午, 147.0, 32, 0, 31, 31
491, 2.45, 2017/11/15 12:03:31.145下午, 158.0, 32, 0, 31, 31
492, 2.455, 2017/11/15 12:03:31.15下午, 148.0, 32, 0, 31, 32
493, 2.46, 2017/11/15 12:03:31.155下午, 142.0, 32, 0, 32, 32
494, 2.465, 2017/11/15 12:03:31.16下午, 151.0, 32, 0, 30, 31
495, 2.47, 2017/11/15 12:03:31.165下午, 149.0, 31, 0, 31, 31
496, 2.475, 2017/11/15 12:03:31.17下午, 148.0, 30, 0, 32, 31
497, 2.48, 2017/11/15 12:03:31.175下午, 156.0, 32, 0, 31, 31
498, 2.485, 2017/11/15 12:03:31.18下午, 159.0, 31, 0, 30, 30
499, 2.49, 2017/11/15 12:03:31.185下午, 140.0, 32, 0, 32, 32
500, 2.495, 2017/11/15 12:03:31.19下午, 172.0, 31, 0, 29, 30
501, 2.5, 2017/11/15 12:03:31.195下午, 141.0, 31, 0, 32, 32
502, 2.505, 2017/11/15 12:03:31.2下午, 134.0, 31, 0, 30, 31
503, 2.51, 2017/11/15 12:03:31.205下午, 156.0, 32, 0, 30, 31
504, 2.515, 2017/11/15 12:03:31.21下午, 150.0, 32, 0, 31, 31
505, 2.52, 2017/11/15 12:03:31.215下午, 137.0, 32, 0, 31, 31
506, 2.525, 2017/11/15 12:03:31.22下午, 145.0, 31, 0, 30, 31
507, 2.53, 2017/11/15 12:03:31.225下午, 145.0, 32, 0, 30, 31
508, 2.535, 2017/11/15 12:03:31.23下午, 147.0, 31, 0, 31, 31
509, 2.54, 2017/11/15 12:03:31.235下午, 141.0, 31, 0, 31, 31
510, 2.545, 2017/11/15 12:03:31.24下午, 161.0, 31, 0, 31, 31
511, 2.55, 2017/11/15 12:03:31.245下午, 157.0, 31, 0, 30, 31
512, 2.555, 2017/11/15 12:03:31.25下午, 145.0, 33, 0, 31, 32
513, 2.56, 2017/11/15 12:03:31.255下午, 159.0, 32, 0, 30, 31
514, 2.565, 2017/11/15 12:03:31.26下午, 134.0, 32, 0, 31, 32
515, 2.57, 2017/11/15 12:03:31.265下午, 146.0, 33, 0, 33, 33
516, 2.575, 2017/11/15 12:03:31.27下午, 160.0, 32, 0, 29, 31
517, 2.58, 2017/11/15 12:03:31.275下午, 147.0, 31, 0, 31, 31
518, 2.585, 2017/11/15 12:03:31.28下午, 151.0, 32, 0, 32, 32
519, 2.59, 2017/11/15 12:03:31.285下午, 165.0, 32, 0, 30, 31
520, 2.595, 2017/11/15 12:03:31.29下午, 132.0, 31, 0, 31, 31
521, 2.6, 2017/11/15 12:03:31.295下午, 156.0, 33, 0, 32, 32
522, 2.605, 2017/11/15 12:03:31.3下午, 163.0, 31, 0, 30, 30
523, 2.61, 2017/11/15 12:03:31.305下午, 148.0, 31, 0, 32, 32
524, 2.615, 2017/11/15 12:03:31.31下午, 158.0, 33, 0, 30, 31
525, 2.62, 2017/11/15 12:03:31.315下午, 155.0, 31, 0, 29, 30
526, 2.625, 2017/11/15 12:03:31.32下午, 134.0, 31, 0, 32, 31
527, 2.63, 2017/11/15 12:03:31.325下午, 142.0, 33, 0, 31, 32
528, 2.635, 2017/11/15 12:03:31.33下午, 156.0, 32, 0, 30, 31
529, 2.64, 2017/11/15 12:03:31.335下午, 148.0, 31, 0, 32, 32
530, 2.645, 2017/11/15 12:03:31.34下午, 143.0, 33, 0, 33, 33
531, 2.65, 2017/11/15 12:03:31.345下午, 175.0, 32, 0, 29, 30
532, 2.655, 2017/11/15 12:03:31.35下午, 150.0, 33, 0, 31, 32
533, 2.66, 2017/11/15 12:03:31.355下午, 161.0, 32, 0, 31, 31
534, 2.665, 2017/11/15 12:03:31.36下午, 164.0, 32, 0, 31, 31
535, 2.67, 2017/11/15 12:03:31.365下午, 142.0, 32, 0, 33, 32
536, 2.675, 2017/11/15 12:03:31.37下午, 164.0, 31, 0, 30, 31
537, 2.68, 2017/11/15 12:03:31.375下午, 155.0, 32, 0, 32, 32
538, 2.685, 2017/11/15 12:03:31.38下午, 158.0, 33, 0, 31, 32
539, 2.69, 2017/11/15 12:03:31.385下午, 162.0, 31, 0, 31, 31
540, 2.695, 2017/11/15 12:03:31.39下午, 147.0, 33, 0, 31, 32
541, 2.7, 2017/11/15 12:03:31.395下午, 168.0, 32, 0, 30, 31
542, 2.705, 2017/11/15 12:03:31.4下午, 156.0, 31, 0, 32, 31
543, 2.71, 2017/11/15 12:03:31.405下午, 144.0, 34, 0, 32, 33
544, 2.715, 2017/11/15 12:03:31.41下午, 165.0, 31, 0, 30, 31
545, 2.72, 2017/11/15 12:03:31.415下午, 152.0, 31, 0, 31, 31
546, 2.725, 2017/11/15 12:03:31.42下午, 138.0, 32, 0, 33, 32
547, 2.73, 2017/11/15 12:03:31.425下午, 161.0, 32, 0, 31, 31
548, 2.735, 2017/11/15 12:03:31.43下午, 161.0, 32, 0, 33, 32
549, 2.74, 2017/11/15 12:03:31.435下午, 150.0, 32, 0, 30, 31
550, 2.745, 2017/11/15 12:03:31.44下午, 159.0, 31, 0, 31, 31
551, 2.75, 2017/11/15 12:03:31.445下午, 152.0, 33, 0, 31, 32
552, 2.755, 2017/11/15 12:03:31.45下午, 177.0, 32, 0, 29, 31
553, 2.76, 2017/11/15 12:03:31.455下午, 143.0, 33, 0, 32, 33
554, 2.765, 2017/11/15 12:03:31.46下午, 164.0, 32, 0, 30, 31
555, 2.77, 2017/11/15 12:03:31.465下午, 138.0, 32, 0, 32, 32
556, 2.775, 2017/11/15 12:03:31.47下午, 152.0, 32, 0, 30, 31
557, 2.78, 2017/11/15 12:03:31.475下午, 148.0, 32, 0, 31, 31
558, 2.785, 2017/11/15 12:03:31.48下午, 149.0, 31, 0, 32, 32
559, 2.79, 2017/11/15 12:03:31.485下午, 159.0, 31, 0, 29, 30
560, 2.795, 2017/11/15 12:03:31.49下午, 145.0, 32, 0, 31, 32
561, 2.8, 2017/11/15 12:03:31.495下午, 149.0, 33, 0, 32, 32
562, 2.805, 2017/11/15 12:03:31.5下午, 155.0, 31, 0, 30, 31
563, 2.81, 2017/11/15 12:03:31.505下午, 158.0, 31, 0, 31, 31
564, 2.815, 2017/11/15 12:03:31.51下午, 147.0, 32, 0, 32, 32
565, 2.82, 2017/11/15 12:03:31.515下午, 156.0, 32, 0, 31, 32
566, 2.825, 2017/11/15 12:03:31.52下午, 165.0, 31, 0, 29, 30
567, 2.83, 2017/11/15 12:03:31.525下午, 151.0, 32, 0, 31, 31
568, 2.835, 2017/11/15 12:03:31.53下午, 154.0, 32, 0, 31, 32
569, 2.84, 2017/11/15 12:03:31.535下午, 167.0, 31, 0, 30, 31
570, 2.845, 2017/11/15 12:03:31.54下午, 143.0, 31, 0, 32, 31
571, 2.85, 2017/11/15 12:03:31.545下午, 146.0, 32, 0, 33, 32
572, 2.855, 2017/11/15 12:03:31.55下午, 155.0, 32, 0, 30, 31
573, 2.86, 2017/11/15 12:03:31.555下午, 155.0, 30, 0, 31, 30
574, 2.865, 2017/11/15 12:03:31.56下午, 152.0, 33, 0, 32, 32
575, 2.87, 2017/11/15 12:03:31.565下午, 159.0, 31, 0, 30, 31
576, 2.875, 2017/11/15 12:03:31.57下午, 158.0, 31, 0, 31, 31
577, 2.88, 2017/11/15 12:03:31.575下午, 144.0, 33, 0, 33, 33
578, 2.885, 2017/11/15 12:03:31.58下午, 154.0, 32, 0, 31, 31
579, 2.89, 2017/11/15 12:03:31.585下午, 148.0, 31, 0, 30, 31
580, 2.895, 2017/11/15 12:03:31.59下午, 160.0, 31, 0, 31, 31
581, 2.9, 2017/11/15 12:03:31.595下午, 153.0, 33, 0, 32, 32
582, 2.905, 2017/11/15 12:03:31.6下午, 164.0, 31, 0, 30, 31
583, 2.91, 2017/11/15 12:03:31.605下午, 156.0, 32, 0, 29, 30
584, 2.915, 2017/11/15 12:03:31.61下午, 129.0, 31, 0, 33, 32
585, 2.92, 2017/11/15 12:03:31.615下午, 146.0, 32, 0, 33, 32
586, 2.925, 2017/11/15 12:03:31.62下午, 146.0, 32, 0, 30, 31
587, 2.93, 2017/11/15 12:03:31.625下午, 159.0, 32, 0, 29, 30
588, 2.935, 2017/11/15 12:03:31.63下午, 139.0, 31, 0, 31, 31
589, 2.94, 2017/11/15 12:03:31.635下午, 143.0, 32, 0, 32, 32
590, 2.945, 2017/11/15 12:03:31.64下午, 157.0, 32, 0, 30, 31
591, 2.95, 2017/11/15 12:03:31.645下午, 145.0, 31, 0, 31, 31
592, 2.955, 2017/11/15 12:03:31.65下午, 152.0, 31, 0, 32, 32
593, 2.96, 2017/11/15 12:03:31.655下午, 159.0, 31, 0, 30, 31
594, 2.965, 2017/11/15 12:03:31.66下午, 160.0, 31, 0, 31, 31
595, 2.97, 2017/11/15 12:03:31.665下午, 154.0, 30, 0, 32, 31
596, 2.975, 2017/11/15 12:03:31.67下午, 156.0, 31, 0, 30, 31
597, 2.98, 2017/11/15 12:03:31.675下午, 157.0, 31, 0, 30, 30
598, 2.985, 2017/11/15 12:03:31.68下午, 152.0, 32, 0, 31, 31
599, 2.99, 2017/11/15 12:03:31.685下午, 150.0, 31, 0, 30, 30
600, 2.995, 2017/11/15 12:03:31.69下午, 156.0, 31, 0, 31, 31
@@
