DATA_TYPE Graph,,,,,,,
VERSION Tekscan Pressure Measurement System 6.70-03,,,,,,,
HARDWARE 00114-3447,,,,,,,
MAP_VERSION 6.5,,,,,,,
HW_TYPE 4,,,,,,,
VersaPogoFsx 0,,,,,,,
檔案名 C:\Users\asus\Desktop\工研院_計畫\收案資料\Subject02\Plantar Pressure\R65_STAND_RIGHT_2.fsx,,,,,,,
SENSOR_TYPE FSCAN,,,,,,,
ROWS 60,,,,,,,
COLS 21,,,,,,,
ROW_SPACING 0.508 centimeters,,,,,,,
COL_SPACING 0.508 centimeters,,,,,,,
SENSEL_AREA 0.258064 cm2,,,,,,,
NOISE_THRESHOLD 3,,,,,,,
SECONDS_PER_FRAME 0.005,,,,,,,
SECONDS_PER_FRAME 0,,,,,,,
MICRO_SECOND 0,,,,,,,
TIME 2017/11/15 10:47:07.161上午,,,,,,,
SATURATION_PRESSURE 2347.96 KPa ,,,,,,,
CALIBRATION_POINT_1 48.0001 (Kilograms) 1981 (Raw Sum) 199 (Number of Loaded Cells),,,,,,,
CALIBRATION_MODE_1 步態,,,,,,,
CALIBRATION_INFO C:\Users\asus\Desktop\工研院_計畫\收案資料\Subject02\Plantar Pressure\R65_STAND_RIGHT_2.fsx,,,,,,,
SENSITIVITY 自定義,,,,,,,
MAP_INDEX 0,,,,,,,
SUBMAP 0,,,,,,,
Patient ID: ,,,,,,,
,,,,,,,
Speed of Gait: ,,,,,,,
,,,,,,,
Weight: ,,,,,,,
,,,,,,,
Gender: ,,,,,,,
,,,,,,,
Physician: ,,,,,,,
,,,,,,,
Technician: ,,,,,,,
,,,,,,,
Shoe: ,,,,,,,
,,,,,,,
START_FRAME 1,,,,,,,
END_FRAME 600,,,,,,,
UNITS KPa,,,,,,,
ASCII_DATA @@,,,,,,,
畫面(X), 時間(X), 絕對時間(X), Raw Sum, 峰值壓力(Y:深藍色), 峰值壓力(Y), 峰值壓力(Y), 峰值壓力(Y)
1,0, 2017/11/15 10:47:07.161上午,549,58,32,40,58
2,0.005, 2017/11/15 10:47:07.166上午,530,55,30,38,55
3,0.01, 2017/11/15 10:47:07.171上午,549,58,32,37,58
4,0.015, 2017/11/15 10:47:07.176上午,566,58,30,38,58
5,0.02, 2017/11/15 10:47:07.181上午,558,58,39,39,58
6,0.025, 2017/11/15 10:47:07.186上午,537,57,32,38,57
7,0.03, 2017/11/15 10:47:07.191上午,543,57,32,39,57
8,0.035, 2017/11/15 10:47:07.196上午,527,57,32,40,57
9,0.04, 2017/11/15 10:47:07.201上午,558,58,32,39,58
10,0.045, 2017/11/15 10:47:07.206上午,553,58,28,40,58
11,0.05, 2017/11/15 10:47:07.211上午,550,58,32,37,58
12,0.055, 2017/11/15 10:47:07.216上午,535,57,32,37,57
13,0.06, 2017/11/15 10:47:07.221上午,565,58,32,38,58
14,0.065, 2017/11/15 10:47:07.226上午,559,60,30,40,60
15,0.07, 2017/11/15 10:47:07.231上午,540,57,32,39,57
16,0.075, 2017/11/15 10:47:07.236上午,561,58,30,39,58
17,0.08, 2017/11/15 10:47:07.241上午,555,58,32,38,58
18,0.085, 2017/11/15 10:47:07.246上午,541,57,32,38,57
19,0.09, 2017/11/15 10:47:07.251上午,531,57,30,41,57
20,0.095, 2017/11/15 10:47:07.256上午,536,57,32,38,57
21,0.1, 2017/11/15 10:47:07.261上午,563,58,39,40,58
22,0.105, 2017/11/15 10:47:07.266上午,554,58,32,38,58
23,0.11, 2017/11/15 10:47:07.271上午,530,57,30,38,57
24,0.115, 2017/11/15 10:47:07.276上午,570,58,30,39,58
25,0.12, 2017/11/15 10:47:07.281上午,546,58,28,37,58
26,0.125, 2017/11/15 10:47:07.286上午,556,57,32,38,57
27,0.13, 2017/11/15 10:47:07.291上午,546,57,32,39,57
28,0.135, 2017/11/15 10:47:07.296上午,532,57,33,39,57
29,0.14, 2017/11/15 10:47:07.301上午,528,57,32,41,57
30,0.145, 2017/11/15 10:47:07.306上午,541,58,32,39,58
31,0.15, 2017/11/15 10:47:07.311上午,550,58,28,37,58
32,0.155, 2017/11/15 10:47:07.316上午,545,60,32,38,60
33,0.16, 2017/11/15 10:47:07.321上午,532,57,32,43,57
34,0.165, 2017/11/15 10:47:07.326上午,550,57,32,39,57
35,0.17, 2017/11/15 10:47:07.331上午,566,58,30,40,58
36,0.175, 2017/11/15 10:47:07.336上午,534,57,32,38,57
37,0.18, 2017/11/15 10:47:07.341上午,535,57,32,41,57
38,0.185, 2017/11/15 10:47:07.346上午,555,58,28,38,58
39,0.19, 2017/11/15 10:47:07.351上午,539,58,28,39,58
40,0.195, 2017/11/15 10:47:07.356上午,522,57,30,40,57
41,0.2, 2017/11/15 10:47:07.361上午,549,58,32,37,58
42,0.205, 2017/11/15 10:47:07.366上午,539,58,28,39,58
43,0.21, 2017/11/15 10:47:07.371上午,534,57,30,42,57
44,0.215, 2017/11/15 10:47:07.376上午,555,58,32,37,58
45,0.22, 2017/11/15 10:47:07.381上午,561,58,32,37,58
46,0.225, 2017/11/15 10:47:07.386上午,570,58,28,40,58
47,0.23, 2017/11/15 10:47:07.391上午,537,60,32,39,60
48,0.235, 2017/11/15 10:47:07.396上午,535,57,32,38,57
49,0.24, 2017/11/15 10:47:07.401上午,522,57,30,40,57
50,0.245, 2017/11/15 10:47:07.406上午,532,58,30,38,58
51,0.25, 2017/11/15 10:47:07.411上午,565,60,32,36,60
52,0.255, 2017/11/15 10:47:07.416上午,537,58,28,37,58
53,0.26, 2017/11/15 10:47:07.421上午,559,58,30,37,58
54,0.265, 2017/11/15 10:47:07.426上午,547,57,32,39,57
55,0.27, 2017/11/15 10:47:07.431上午,524,55,30,38,55
56,0.275, 2017/11/15 10:47:07.436上午,552,58,32,39,58
57,0.28, 2017/11/15 10:47:07.441上午,547,58,28,37,58
58,0.285, 2017/11/15 10:47:07.446上午,547,58,32,39,58
59,0.29, 2017/11/15 10:47:07.451上午,531,57,30,39,57
60,0.295, 2017/11/15 10:47:07.456上午,557,58,32,39,58
61,0.3, 2017/11/15 10:47:07.461上午,558,58,32,37,58
62,0.305, 2017/11/15 10:47:07.466上午,561,57,32,40,57
63,0.31, 2017/11/15 10:47:07.471上午,518,57,30,40,57
64,0.315, 2017/11/15 10:47:07.476上午,523,57,33,39,57
65,0.32, 2017/11/15 10:47:07.481上午,556,58,30,37,58
66,0.325, 2017/11/15 10:47:07.486上午,566,58,32,37,58
67,0.33, 2017/11/15 10:47:07.491上午,570,58,30,40,58
68,0.335, 2017/11/15 10:47:07.496上午,554,60,32,38,60
69,0.34, 2017/11/15 10:47:07.501上午,541,57,32,38,57
70,0.345, 2017/11/15 10:47:07.506上午,522,57,28,40,57
71,0.35, 2017/11/15 10:47:07.511上午,549,58,32,39,58
72,0.355, 2017/11/15 10:47:07.516上午,550,58,30,37,58
73,0.36, 2017/11/15 10:47:07.521上午,551,58,28,38,58
74,0.365, 2017/11/15 10:47:07.526上午,545,60,30,40,60
75,0.37, 2017/11/15 10:47:07.531上午,526,57,32,39,57
76,0.375, 2017/11/15 10:47:07.536上午,522,58,32,38,58
77,0.38, 2017/11/15 10:47:07.541上午,556,58,28,40,58
78,0.385, 2017/11/15 10:47:07.546上午,557,58,28,38,58
79,0.39, 2017/11/15 10:47:07.551上午,506,57,30,41,57
80,0.395, 2017/11/15 10:47:07.556上午,559,58,30,37,58
81,0.4, 2017/11/15 10:47:07.561上午,561,58,30,37,58
82,0.405, 2017/11/15 10:47:07.566上午,526,57,32,39,57
83,0.41, 2017/11/15 10:47:07.571上午,519,58,30,39,58
84,0.415, 2017/11/15 10:47:07.576上午,525,58,30,39,58
85,0.42, 2017/11/15 10:47:07.581上午,579,58,32,37,58
86,0.425, 2017/11/15 10:47:07.586上午,544,58,28,40,58
87,0.43, 2017/11/15 10:47:07.591上午,554,60,30,38,60
88,0.435, 2017/11/15 10:47:07.596上午,529,57,30,37,57
89,0.44, 2017/11/15 10:47:07.601上午,542,58,30,37,58
90,0.445, 2017/11/15 10:47:07.606上午,563,58,32,37,58
91,0.45, 2017/11/15 10:47:07.611上午,553,58,28,40,58
92,0.455, 2017/11/15 10:47:07.616上午,546,58,32,39,58
93,0.46, 2017/11/15 10:47:07.621上午,531,58,32,43,58
94,0.465, 2017/11/15 10:47:07.626上午,530,56,30,37,56
95,0.47, 2017/11/15 10:47:07.631上午,545,58,30,38,58
96,0.475, 2017/11/15 10:47:07.636上午,562,58,28,40,58
97,0.48, 2017/11/15 10:47:07.641上午,524,57,32,38,57
98,0.485, 2017/11/15 10:47:07.646上午,545,56,32,38,56
99,0.49, 2017/11/15 10:47:07.651上午,549,58,32,38,58
100,0.495, 2017/11/15 10:47:07.656上午,558,58,32,38,58
101,0.5, 2017/11/15 10:47:07.661上午,566,60,30,40,60
102,0.505, 2017/11/15 10:47:07.666上午,523,58,30,40,58
103,0.51, 2017/11/15 10:47:07.671上午,534,58,30,38,58
104,0.515, 2017/11/15 10:47:07.676上午,556,58,28,36,58
105,0.52, 2017/11/15 10:47:07.681上午,554,60,28,37,60
106,0.525, 2017/11/15 10:47:07.686上午,541,58,28,38,58
107,0.53, 2017/11/15 10:47:07.691上午,528,58,30,37,58
108,0.535, 2017/11/15 10:47:07.696上午,523,58,32,40,58
109,0.54, 2017/11/15 10:47:07.701上午,554,58,30,37,58
110,0.545, 2017/11/15 10:47:07.706上午,547,58,28,38,58
111,0.55, 2017/11/15 10:47:07.711上午,544,58,28,38,58
112,0.555, 2017/11/15 10:47:07.716上午,529,56,32,37,56
113,0.56, 2017/11/15 10:47:07.721上午,535,56,30,39,56
114,0.565, 2017/11/15 10:47:07.726上午,567,58,32,37,58
115,0.57, 2017/11/15 10:47:07.731上午,553,58,39,38,58
116,0.575, 2017/11/15 10:47:07.736上午,531,56,30,43,56
117,0.58, 2017/11/15 10:47:07.741上午,544,58,28,39,58
118,0.585, 2017/11/15 10:47:07.746上午,552,58,32,37,58
119,0.59, 2017/11/15 10:47:07.751上午,561,58,39,38,58
120,0.595, 2017/11/15 10:47:07.756上午,553,60,30,37,60
121,0.6, 2017/11/15 10:47:07.761上午,527,56,28,37,56
122,0.605, 2017/11/15 10:47:07.766上午,564,58,30,36,58
123,0.61, 2017/11/15 10:47:07.771上午,552,58,28,37,58
124,0.615, 2017/11/15 10:47:07.776上午,542,56,32,40,56
125,0.62, 2017/11/15 10:47:07.781上午,550,56,32,38,56
126,0.625, 2017/11/15 10:47:07.786上午,524,56,33,37,56
127,0.63, 2017/11/15 10:47:07.791上午,529,56,32,40,56
128,0.635, 2017/11/15 10:47:07.796上午,551,58,32,37,58
129,0.64, 2017/11/15 10:47:07.801上午,557,58,30,37,58
130,0.645, 2017/11/15 10:47:07.806上午,549,60,30,38,60
131,0.65, 2017/11/15 10:47:07.811上午,545,56,32,37,56
132,0.655, 2017/11/15 10:47:07.816上午,538,56,30,40,56
133,0.66, 2017/11/15 10:47:07.821上午,564,58,32,37,58
134,0.665, 2017/11/15 10:47:07.826上午,571,60,32,40,60
135,0.67, 2017/11/15 10:47:07.831上午,551,56,32,38,56
136,0.675, 2017/11/15 10:47:07.836上午,522,56,32,40,56
137,0.68, 2017/11/15 10:47:07.841上午,553,58,32,37,58
138,0.685, 2017/11/15 10:47:07.846上午,567,60,39,40,60
139,0.69, 2017/11/15 10:47:07.851上午,536,56,32,39,56
140,0.695, 2017/11/15 10:47:07.856上午,537,58,32,41,58
141,0.7, 2017/11/15 10:47:07.861上午,566,58,28,40,58
142,0.705, 2017/11/15 10:47:07.866上午,559,60,39,37,60
143,0.71, 2017/11/15 10:47:07.871上午,530,58,28,41,58
144,0.715, 2017/11/15 10:47:07.876上午,574,58,32,37,58
145,0.72, 2017/11/15 10:47:07.881上午,568,60,28,38,60
146,0.725, 2017/11/15 10:47:07.886上午,534,56,32,38,56
147,0.73, 2017/11/15 10:47:07.891上午,517,58,33,38,58
148,0.735, 2017/11/15 10:47:07.896上午,543,58,32,40,58
149,0.74, 2017/11/15 10:47:07.901上午,572,58,32,37,58
150,0.745, 2017/11/15 10:47:07.906上午,563,59,28,37,59
151,0.75, 2017/11/15 10:47:07.911上午,558,58,39,38,58
152,0.755, 2017/11/15 10:47:07.916上午,564,59,32,38,59
153,0.76, 2017/11/15 10:47:07.921上午,533,56,32,37,56
154,0.765, 2017/11/15 10:47:07.926上午,523,56,28,41,56
155,0.77, 2017/11/15 10:47:07.931上午,564,58,30,36,58
156,0.775, 2017/11/15 10:47:07.936上午,569,58,28,40,58
157,0.78, 2017/11/15 10:47:07.941上午,557,58,32,38,58
158,0.785, 2017/11/15 10:47:07.946上午,526,58,28,39,58
159,0.79, 2017/11/15 10:47:07.951上午,557,58,32,36,58
160,0.795, 2017/11/15 10:47:07.956上午,564,58,32,38,58
161,0.8, 2017/11/15 10:47:07.961上午,546,56,32,41,56
162,0.805, 2017/11/15 10:47:07.966上午,521,56,33,39,56
163,0.81, 2017/11/15 10:47:07.971上午,578,58,28,37,58
164,0.815, 2017/11/15 10:47:07.976上午,560,58,39,40,58
165,0.82, 2017/11/15 10:47:07.981上午,556,58,32,39,58
166,0.825, 2017/11/15 10:47:07.986上午,541,58,32,39,58
167,0.83, 2017/11/15 10:47:07.991上午,540,58,32,39,58
168,0.835, 2017/11/15 10:47:07.996上午,535,58,32,41,58
169,0.84, 2017/11/15 10:47:08.001上午,539,58,32,41,58
170,0.845, 2017/11/15 10:47:08.006上午,522,58,30,41,58
171,0.85, 2017/11/15 10:47:08.011上午,544,58,32,39,58
172,0.855, 2017/11/15 10:47:08.016上午,547,58,32,40,58
173,0.86, 2017/11/15 10:47:08.021上午,561,58,32,37,58
174,0.865, 2017/11/15 10:47:08.026上午,570,59,28,36,59
175,0.87, 2017/11/15 10:47:08.031上午,542,56,32,38,56
176,0.875, 2017/11/15 10:47:08.036上午,540,56,32,37,56
177,0.88, 2017/11/15 10:47:08.041上午,530,58,30,37,58
178,0.885, 2017/11/15 10:47:08.046上午,578,58,32,36,58
179,0.89, 2017/11/15 10:47:08.051上午,569,58,32,36,58
180,0.895, 2017/11/15 10:47:08.056上午,553,56,32,38,56
181,0.9, 2017/11/15 10:47:08.061上午,544,58,32,40,58
182,0.905, 2017/11/15 10:47:08.066上午,522,58,30,43,58
183,0.91, 2017/11/15 10:47:08.071上午,564,58,39,38,58
184,0.915, 2017/11/15 10:47:08.076上午,576,59,32,38,59
185,0.92, 2017/11/15 10:47:08.081上午,536,58,32,37,58
186,0.925, 2017/11/15 10:47:08.086上午,533,58,32,40,58
187,0.93, 2017/11/15 10:47:08.091上午,574,58,32,36,58
188,0.935, 2017/11/15 10:47:08.096上午,582,59,32,36,59
189,0.94, 2017/11/15 10:47:08.101上午,558,58,39,36,58
190,0.945, 2017/11/15 10:47:08.106上午,549,56,31,38,56
191,0.95, 2017/11/15 10:47:08.111上午,546,58,32,38,58
192,0.955, 2017/11/15 10:47:08.116上午,540,56,30,39,56
193,0.96, 2017/11/15 10:47:08.121上午,546,58,32,41,58
194,0.965, 2017/11/15 10:47:08.126上午,578,59,28,36,59
195,0.97, 2017/11/15 10:47:08.131上午,546,56,32,39,56
196,0.975, 2017/11/15 10:47:08.136上午,532,56,33,37,56
197,0.98, 2017/11/15 10:47:08.141上午,573,58,28,36,58
198,0.985, 2017/11/15 10:47:08.146上午,540,56,32,37,56
199,0.99, 2017/11/15 10:47:08.151上午,525,58,30,37,58
200,0.995, 2017/11/15 10:47:08.156上午,570,59,28,36,59
201,1, 2017/11/15 10:47:08.161上午,544,61,28,38,61
202,1.005, 2017/11/15 10:47:08.166上午,558,56,32,39,56
203,1.01, 2017/11/15 10:47:08.171上午,573,58,32,36,58
204,1.015, 2017/11/15 10:47:08.176上午,573,58,28,39,58
205,1.02, 2017/11/15 10:47:08.181上午,546,59,28,37,59
206,1.025, 2017/11/15 10:47:08.186上午,544,56,32,37,56
207,1.03, 2017/11/15 10:47:08.191上午,539,58,30,40,58
208,1.035, 2017/11/15 10:47:08.196上午,568,58,32,36,58
209,1.04, 2017/11/15 10:47:08.201上午,570,59,28,36,59
210,1.045, 2017/11/15 10:47:08.206上午,573,58,32,39,58
211,1.05, 2017/11/15 10:47:08.211上午,549,58,30,40,58
212,1.055, 2017/11/15 10:47:08.216上午,535,58,32,39,58
213,1.06, 2017/11/15 10:47:08.221上午,544,58,32,40,58
214,1.065, 2017/11/15 10:47:08.226上午,570,58,28,36,58
215,1.07, 2017/11/15 10:47:08.231上午,572,58,28,38,58
216,1.075, 2017/11/15 10:47:08.236上午,538,58,32,40,58
217,1.08, 2017/11/15 10:47:08.241上午,580,58,32,36,58
218,1.085, 2017/11/15 10:47:08.246上午,586,58,32,36,58
219,1.09, 2017/11/15 10:47:08.251上午,581,59,32,40,59
220,1.095, 2017/11/15 10:47:08.256上午,548,56,32,41,56
221,1.1, 2017/11/15 10:47:08.261上午,546,56,32,39,56
222,1.105, 2017/11/15 10:47:08.266上午,562,58,39,36,58
223,1.11, 2017/11/15 10:47:08.271上午,552,59,32,38,59
224,1.115, 2017/11/15 10:47:08.276上午,553,58,30,41,58
225,1.12, 2017/11/15 10:47:08.281上午,549,56,30,39,56
226,1.125, 2017/11/15 10:47:08.286上午,591,58,32,39,58
227,1.13, 2017/11/15 10:47:08.291上午,562,58,39,38,58
228,1.135, 2017/11/15 10:47:08.296上午,539,56,32,41,56
229,1.14, 2017/11/15 10:47:08.301上午,549,56,30,39,56
230,1.145, 2017/11/15 10:47:08.306上午,570,58,32,38,58
231,1.15, 2017/11/15 10:47:08.311上午,573,58,28,36,58
232,1.155, 2017/11/15 10:47:08.316上午,541,58,32,39,58
233,1.16, 2017/11/15 10:47:08.321上午,551,56,32,41,56
234,1.165, 2017/11/15 10:47:08.326上午,556,58,28,38,58
235,1.17, 2017/11/15 10:47:08.331上午,585,58,32,36,58
236,1.175, 2017/11/15 10:47:08.336上午,540,56,32,38,56
237,1.18, 2017/11/15 10:47:08.341上午,542,56,32,41,56
238,1.185, 2017/11/15 10:47:08.346上午,548,58,32,39,58
239,1.19, 2017/11/15 10:47:08.351上午,566,58,30,37,58
240,1.195, 2017/11/15 10:47:08.356上午,551,58,32,39,58
241,1.2, 2017/11/15 10:47:08.361上午,534,55,30,41,55
242,1.205, 2017/11/15 10:47:08.366上午,575,58,32,36,58
243,1.21, 2017/11/15 10:47:08.371上午,568,59,28,39,59
244,1.215, 2017/11/15 10:47:08.376上午,561,56,32,38,56
245,1.22, 2017/11/15 10:47:08.381上午,542,56,32,38,56
246,1.225, 2017/11/15 10:47:08.386上午,533,56,32,41,56
247,1.23, 2017/11/15 10:47:08.391上午,576,58,32,38,58
248,1.235, 2017/11/15 10:47:08.396上午,562,58,39,36,58
249,1.24, 2017/11/15 10:47:08.401上午,569,58,32,38,58
250,1.245, 2017/11/15 10:47:08.406上午,558,56,32,37,56
251,1.25, 2017/11/15 10:47:08.411上午,547,56,32,39,56
252,1.255, 2017/11/15 10:47:08.416上午,541,56,32,39,56
253,1.26, 2017/11/15 10:47:08.421上午,564,58,32,36,58
254,1.265, 2017/11/15 10:47:08.426上午,567,58,28,40,58
255,1.27, 2017/11/15 10:47:08.431上午,541,55,30,39,55
256,1.275, 2017/11/15 10:47:08.436上午,579,56,32,36,56
257,1.28, 2017/11/15 10:47:08.441上午,584,58,32,39,58
258,1.285, 2017/11/15 10:47:08.446上午,562,56,32,39,56
259,1.29, 2017/11/15 10:47:08.451上午,561,55,30,38,55
260,1.295, 2017/11/15 10:47:08.456上午,590,58,32,37,58
261,1.3, 2017/11/15 10:47:08.461上午,533,55,32,40,55
262,1.305, 2017/11/15 10:47:08.466上午,559,55,30,36,55
263,1.31, 2017/11/15 10:47:08.471上午,567,58,39,36,58
264,1.315, 2017/11/15 10:47:08.476上午,548,56,32,39,56
265,1.32, 2017/11/15 10:47:08.481上午,550,55,32,39,55
266,1.325, 2017/11/15 10:47:08.486上午,546,56,32,39,56
267,1.33, 2017/11/15 10:47:08.491上午,585,58,28,36,58
268,1.335, 2017/11/15 10:47:08.496上午,554,56,32,37,56
269,1.34, 2017/11/15 10:47:08.501上午,557,55,32,40,55
270,1.345, 2017/11/15 10:47:08.506上午,548,55,32,40,55
271,1.35, 2017/11/15 10:47:08.511上午,553,55,32,39,55
272,1.355, 2017/11/15 10:47:08.516上午,575,55,30,36,55
273,1.36, 2017/11/15 10:47:08.521上午,548,55,28,40,55
274,1.365, 2017/11/15 10:47:08.526上午,533,55,30,39,55
275,1.37, 2017/11/15 10:47:08.531上午,581,55,32,36,55
276,1.375, 2017/11/15 10:47:08.536上午,545,55,28,39,55
277,1.38, 2017/11/15 10:47:08.541上午,540,55,30,40,55
278,1.385, 2017/11/15 10:47:08.546上午,571,56,30,39,56
279,1.39, 2017/11/15 10:47:08.551上午,556,55,39,39,55
280,1.395, 2017/11/15 10:47:08.556上午,536,55,32,40,55
281,1.4, 2017/11/15 10:47:08.561上午,562,56,30,39,56
282,1.405, 2017/11/15 10:47:08.566上午,554,55,30,39,55
283,1.41, 2017/11/15 10:47:08.571上午,551,55,32,38,55
284,1.415, 2017/11/15 10:47:08.576上午,565,56,28,40,56
285,1.42, 2017/11/15 10:47:08.581上午,550,56,30,39,56
286,1.425, 2017/11/15 10:47:08.586上午,545,53,32,42,53
287,1.43, 2017/11/15 10:47:08.591上午,563,55,32,38,55
288,1.435, 2017/11/15 10:47:08.596上午,571,56,39,39,56
289,1.44, 2017/11/15 10:47:08.601上午,547,53,32,39,53
290,1.445, 2017/11/15 10:47:08.606上午,534,54,30,40,54
291,1.45, 2017/11/15 10:47:08.611上午,546,54,30,40,54
292,1.455, 2017/11/15 10:47:08.616上午,570,54,32,38,54
293,1.46, 2017/11/15 10:47:08.621上午,569,54,39,36,54
294,1.465, 2017/11/15 10:47:08.626上午,574,55,32,40,55
295,1.47, 2017/11/15 10:47:08.631上午,533,53,32,39,53
296,1.475, 2017/11/15 10:47:08.636上午,529,54,32,40,54
297,1.48, 2017/11/15 10:47:08.641上午,563,56,32,40,56
298,1.485, 2017/11/15 10:47:08.646上午,563,54,39,39,54
299,1.49, 2017/11/15 10:47:08.651上午,526,53,32,40,53
300,1.495, 2017/11/15 10:47:08.656上午,564,54,32,38,54
301,1.5, 2017/11/15 10:47:08.661上午,571,54,32,37,54
302,1.505, 2017/11/15 10:47:08.666上午,549,53,32,39,53
303,1.51, 2017/11/15 10:47:08.671上午,531,53,32,42,53
304,1.515, 2017/11/15 10:47:08.676上午,542,54,33,38,54
305,1.52, 2017/11/15 10:47:08.681上午,547,54,32,36,54
306,1.525, 2017/11/15 10:47:08.686上午,561,56,28,40,56
307,1.53, 2017/11/15 10:47:08.691上午,560,54,32,39,54
308,1.535, 2017/11/15 10:47:08.696上午,530,53,32,42,53
309,1.54, 2017/11/15 10:47:08.701上午,547,54,32,38,54
310,1.545, 2017/11/15 10:47:08.706上午,563,54,39,40,54
311,1.55, 2017/11/15 10:47:08.711上午,560,54,32,38,54
312,1.555, 2017/11/15 10:47:08.716上午,534,54,32,38,54
313,1.56, 2017/11/15 10:47:08.721上午,538,54,32,40,54
314,1.565, 2017/11/15 10:47:08.726上午,566,56,28,39,56
315,1.57, 2017/11/15 10:47:08.731上午,543,54,32,39,54
316,1.575, 2017/11/15 10:47:08.736上午,527,53,32,42,53
317,1.58, 2017/11/15 10:47:08.741上午,562,54,30,36,54
318,1.585, 2017/11/15 10:47:08.746上午,549,54,39,39,54
319,1.59, 2017/11/15 10:47:08.751上午,530,53,33,39,53
320,1.595, 2017/11/15 10:47:08.756上午,560,54,32,38,54
321,1.6, 2017/11/15 10:47:08.761上午,563,54,32,39,54
322,1.605, 2017/11/15 10:47:08.766上午,539,53,32,39,53
323,1.61, 2017/11/15 10:47:08.771上午,551,53,32,40,53
324,1.615, 2017/11/15 10:47:08.776上午,546,53,32,40,53
325,1.62, 2017/11/15 10:47:08.781上午,558,54,32,38,54
326,1.625, 2017/11/15 10:47:08.786上午,575,54,32,38,54
327,1.63, 2017/11/15 10:47:08.791上午,564,54,39,40,54
328,1.635, 2017/11/15 10:47:08.796上午,549,54,32,39,54
329,1.64, 2017/11/15 10:47:08.801上午,552,53,32,40,53
330,1.645, 2017/11/15 10:47:08.806上午,569,54,30,38,54
331,1.65, 2017/11/15 10:47:08.811上午,566,54,32,36,54
332,1.655, 2017/11/15 10:47:08.816上午,556,54,39,40,54
333,1.66, 2017/11/15 10:47:08.821上午,542,51,32,40,51
334,1.665, 2017/11/15 10:47:08.826上午,550,53,32,38,53
335,1.67, 2017/11/15 10:47:08.831上午,534,54,33,38,54
336,1.675, 2017/11/15 10:47:08.836上午,567,54,39,38,54
337,1.68, 2017/11/15 10:47:08.841上午,545,53,32,38,53
338,1.685, 2017/11/15 10:47:08.846上午,556,51,32,40,51
339,1.69, 2017/11/15 10:47:08.851上午,569,56,32,38,56
340,1.695, 2017/11/15 10:47:08.856上午,562,54,32,39,54
341,1.7, 2017/11/15 10:47:08.861上午,553,53,32,38,53
342,1.705, 2017/11/15 10:47:08.866上午,544,54,32,38,54
343,1.71, 2017/11/15 10:47:08.871上午,568,54,32,38,54
344,1.715, 2017/11/15 10:47:08.876上午,574,56,32,39,56
345,1.72, 2017/11/15 10:47:08.881上午,545,54,32,37,54
346,1.725, 2017/11/15 10:47:08.886上午,540,53,32,40,53
347,1.73, 2017/11/15 10:47:08.891上午,543,53,30,38,53
348,1.735, 2017/11/15 10:47:08.896上午,565,54,32,37,54
349,1.74, 2017/11/15 10:47:08.901上午,562,54,28,39,54
350,1.745, 2017/11/15 10:47:08.906上午,564,54,32,38,54
351,1.75, 2017/11/15 10:47:08.911上午,540,51,32,40,51
352,1.755, 2017/11/15 10:47:08.916上午,546,53,32,40,53
353,1.76, 2017/11/15 10:47:08.921上午,572,54,32,36,54
354,1.765, 2017/11/15 10:47:08.926上午,567,56,39,39,56
355,1.77, 2017/11/15 10:47:08.931上午,554,54,32,38,54
356,1.775, 2017/11/15 10:47:08.936上午,518,51,28,38,51
357,1.78, 2017/11/15 10:47:08.941上午,560,54,32,36,54
358,1.785, 2017/11/15 10:47:08.946上午,566,54,39,40,54
359,1.79, 2017/11/15 10:47:08.951上午,531,53,30,41,53
360,1.795, 2017/11/15 10:47:08.956上午,532,53,30,40,53
361,1.8, 2017/11/15 10:47:08.961上午,550,53,32,38,53
362,1.805, 2017/11/15 10:47:08.966上午,558,53,32,38,53
363,1.81, 2017/11/15 10:47:08.971上午,531,51,32,38,51
364,1.815, 2017/11/15 10:47:08.976上午,534,53,32,38,53
365,1.82, 2017/11/15 10:47:08.981上午,547,53,32,41,53
366,1.825, 2017/11/15 10:47:08.986上午,554,53,32,38,53
367,1.83, 2017/11/15 10:47:08.991上午,569,54,32,38,54
368,1.835, 2017/11/15 10:47:08.996上午,569,54,32,38,54
369,1.84, 2017/11/15 10:47:09.001上午,556,54,39,40,54
370,1.845, 2017/11/15 10:47:09.006上午,522,51,30,37,51
371,1.85, 2017/11/15 10:47:09.011上午,540,53,32,40,53
372,1.855, 2017/11/15 10:47:09.016上午,545,53,30,38,53
373,1.86, 2017/11/15 10:47:09.021上午,558,54,32,42,54
374,1.865, 2017/11/15 10:47:09.026上午,565,54,32,39,54
375,1.87, 2017/11/15 10:47:09.031上午,550,53,32,40,53
376,1.875, 2017/11/15 10:47:09.036上午,531,53,30,40,53
377,1.88, 2017/11/15 10:47:09.041上午,552,53,30,40,53
378,1.885, 2017/11/15 10:47:09.046上午,548,54,39,37,54
379,1.89, 2017/11/15 10:47:09.051上午,533,51,32,38,51
380,1.895, 2017/11/15 10:47:09.056上午,519,51,32,38,51
381,1.9, 2017/11/15 10:47:09.061上午,527,53,32,39,53
382,1.905, 2017/11/15 10:47:09.066上午,576,54,32,37,54
383,1.91, 2017/11/15 10:47:09.071上午,548,54,39,39,54
384,1.915, 2017/11/15 10:47:09.076上午,550,51,32,39,51
385,1.92, 2017/11/15 10:47:09.081上午,532,54,32,40,54
386,1.925, 2017/11/15 10:47:09.086上午,544,53,32,41,53
387,1.93, 2017/11/15 10:47:09.091上午,549,53,32,38,53
388,1.935, 2017/11/15 10:47:09.096上午,559,53,39,42,53
389,1.94, 2017/11/15 10:47:09.101上午,563,54,39,40,54
390,1.945, 2017/11/15 10:47:09.106上午,558,54,32,38,54
391,1.95, 2017/11/15 10:47:09.111上午,531,51,32,38,51
392,1.955, 2017/11/15 10:47:09.116上午,539,51,32,39,51
393,1.96, 2017/11/15 10:47:09.121上午,540,51,32,42,51
394,1.965, 2017/11/15 10:47:09.126上午,564,54,30,40,54
395,1.97, 2017/11/15 10:47:09.131上午,541,51,32,38,51
396,1.975, 2017/11/15 10:47:09.136上午,527,51,32,39,51
397,1.98, 2017/11/15 10:47:09.141上午,571,54,32,38,54
398,1.985, 2017/11/15 10:47:09.146上午,552,51,32,38,51
399,1.99, 2017/11/15 10:47:09.151上午,537,51,32,38,51
400,1.995, 2017/11/15 10:47:09.156上午,561,54,32,38,54
401,2, 2017/11/15 10:47:09.161上午,566,53,39,39,53
402,2.005, 2017/11/15 10:47:09.166上午,549,54,40,39,54
403,2.01, 2017/11/15 10:47:09.171上午,520,53,32,39,53
404,2.015, 2017/11/15 10:47:09.176上午,551,53,32,38,53
405,2.02, 2017/11/15 10:47:09.181上午,553,54,32,40,54
406,2.025, 2017/11/15 10:47:09.186上午,553,53,32,38,53
407,2.03, 2017/11/15 10:47:09.191上午,550,51,32,40,51
408,2.035, 2017/11/15 10:47:09.196上午,547,53,32,38,53
409,2.04, 2017/11/15 10:47:09.201上午,574,54,32,36,54
410,2.045, 2017/11/15 10:47:09.206上午,562,53,32,39,53
411,2.05, 2017/11/15 10:47:09.211上午,531,53,32,38,53
412,2.055, 2017/11/15 10:47:09.216上午,535,53,32,39,53
413,2.06, 2017/11/15 10:47:09.221上午,579,54,32,39,54
414,2.065, 2017/11/15 10:47:09.226上午,567,54,32,39,54
415,2.07, 2017/11/15 10:47:09.231上午,535,51,32,40,51
416,2.075, 2017/11/15 10:47:09.236上午,537,51,32,39,51
417,2.08, 2017/11/15 10:47:09.241上午,582,54,32,39,54
418,2.085, 2017/11/15 10:47:09.246上午,562,54,39,40,54
419,2.09, 2017/11/15 10:47:09.251上午,545,51,32,40,51
420,2.095, 2017/11/15 10:47:09.256上午,542,54,32,39,54
421,2.1, 2017/11/15 10:47:09.261上午,567,54,32,38,54
422,2.105, 2017/11/15 10:47:09.266上午,562,54,39,40,54
423,2.11, 2017/11/15 10:47:09.271上午,545,51,32,40,51
424,2.115, 2017/11/15 10:47:09.276上午,545,51,32,40,51
425,2.12, 2017/11/15 10:47:09.281上午,554,54,32,39,54
426,2.125, 2017/11/15 10:47:09.286上午,566,54,32,38,54
427,2.13, 2017/11/15 10:47:09.291上午,544,54,28,38,54
428,2.135, 2017/11/15 10:47:09.296上午,548,53,32,39,53
429,2.14, 2017/11/15 10:47:09.301上午,540,53,32,39,53
430,2.145, 2017/11/15 10:47:09.306上午,567,53,32,40,53
431,2.15, 2017/11/15 10:47:09.311上午,573,54,32,39,54
432,2.155, 2017/11/15 10:47:09.316上午,557,54,28,39,54
433,2.16, 2017/11/15 10:47:09.321上午,548,53,32,40,53
434,2.165, 2017/11/15 10:47:09.326上午,530,53,32,38,53
435,2.17, 2017/11/15 10:47:09.331上午,563,54,32,36,54
436,2.175, 2017/11/15 10:47:09.336上午,538,53,30,38,53
437,2.18, 2017/11/15 10:47:09.341上午,533,53,30,38,53
438,2.185, 2017/11/15 10:47:09.346上午,549,54,32,39,54
439,2.19, 2017/11/15 10:47:09.351上午,565,53,32,39,53
440,2.195, 2017/11/15 10:47:09.356上午,552,53,32,38,53
441,2.2, 2017/11/15 10:47:09.361上午,548,54,30,39,54
442,2.205, 2017/11/15 10:47:09.366上午,576,56,28,39,56
443,2.21, 2017/11/15 10:47:09.371上午,560,54,30,39,54
444,2.215, 2017/11/15 10:47:09.376上午,524,51,30,38,51
445,2.22, 2017/11/15 10:47:09.381上午,533,54,32,39,54
446,2.225, 2017/11/15 10:47:09.386上午,562,54,32,38,54
447,2.23, 2017/11/15 10:47:09.391上午,583,54,39,39,54
448,2.235, 2017/11/15 10:47:09.396上午,564,54,30,39,54
449,2.24, 2017/11/15 10:47:09.401上午,543,51,32,38,51
450,2.245, 2017/11/15 10:47:09.406上午,532,51,32,39,51
451,2.25, 2017/11/15 10:47:09.411上午,568,54,32,38,54
452,2.255, 2017/11/15 10:47:09.416上午,577,54,30,40,54
453,2.26, 2017/11/15 10:47:09.421上午,543,54,39,38,54
454,2.265, 2017/11/15 10:47:09.426上午,548,53,32,41,53
455,2.27, 2017/11/15 10:47:09.431上午,559,54,32,38,54
456,2.275, 2017/11/15 10:47:09.436上午,572,56,28,40,56
457,2.28, 2017/11/15 10:47:09.441上午,545,54,32,38,54
458,2.285, 2017/11/15 10:47:09.446上午,532,54,32,38,54
459,2.29, 2017/11/15 10:47:09.451上午,568,54,32,36,54
460,2.295, 2017/11/15 10:47:09.456上午,551,56,32,39,56
461,2.3, 2017/11/15 10:47:09.461上午,541,53,32,39,53
462,2.305, 2017/11/15 10:47:09.466上午,552,54,32,39,54
463,2.31, 2017/11/15 10:47:09.471上午,581,56,32,40,56
464,2.315, 2017/11/15 10:47:09.476上午,546,53,32,39,53
465,2.32, 2017/11/15 10:47:09.481上午,532,53,32,39,53
466,2.325, 2017/11/15 10:47:09.486上午,552,54,32,37,54
467,2.33, 2017/11/15 10:47:09.491上午,581,56,32,40,56
468,2.335, 2017/11/15 10:47:09.496上午,572,56,28,36,56
469,2.34, 2017/11/15 10:47:09.501上午,564,56,32,39,56
470,2.345, 2017/11/15 10:47:09.506上午,551,53,32,39,53
471,2.35, 2017/11/15 10:47:09.511上午,546,53,32,38,53
472,2.355, 2017/11/15 10:47:09.516上午,542,54,32,41,54
473,2.36, 2017/11/15 10:47:09.521上午,559,54,32,36,54
474,2.365, 2017/11/15 10:47:09.526上午,571,57,39,39,57
475,2.37, 2017/11/15 10:47:09.531上午,550,54,32,39,54
476,2.375, 2017/11/15 10:47:09.536上午,543,54,28,37,54
477,2.38, 2017/11/15 10:47:09.541上午,578,54,30,36,54
478,2.385, 2017/11/15 10:47:09.546上午,556,54,32,41,54
479,2.39, 2017/11/15 10:47:09.551上午,541,53,30,37,53
480,2.395, 2017/11/15 10:47:09.556上午,562,57,32,36,57
481,2.4, 2017/11/15 10:47:09.561上午,544,56,32,40,56
482,2.405, 2017/11/15 10:47:09.566上午,551,54,32,39,54
483,2.41, 2017/11/15 10:47:09.571上午,578,57,32,36,57
484,2.415, 2017/11/15 10:47:09.576上午,550,57,28,39,57
485,2.42, 2017/11/15 10:47:09.581上午,562,56,32,38,56
486,2.425, 2017/11/15 10:47:09.586上午,532,53,32,39,53
487,2.43, 2017/11/15 10:47:09.591上午,569,56,32,38,56
488,2.435, 2017/11/15 10:47:09.596上午,570,57,32,39,57
489,2.44, 2017/11/15 10:47:09.601上午,577,57,32,38,57
490,2.445, 2017/11/15 10:47:09.606上午,551,54,32,38,54
491,2.45, 2017/11/15 10:47:09.611上午,526,53,33,40,53
492,2.455, 2017/11/15 10:47:09.616上午,533,54,28,39,54
493,2.46, 2017/11/15 10:47:09.621上午,593,57,28,36,57
494,2.465, 2017/11/15 10:47:09.626上午,575,57,32,39,57
495,2.47, 2017/11/15 10:47:09.631上午,543,56,32,38,56
496,2.475, 2017/11/15 10:47:09.636上午,535,56,32,37,56
497,2.48, 2017/11/15 10:47:09.641上午,566,57,28,39,57
498,2.485, 2017/11/15 10:47:09.646上午,561,57,39,39,57
499,2.49, 2017/11/15 10:47:09.651上午,556,54,32,40,54
500,2.495, 2017/11/15 10:47:09.656上午,558,56,28,37,56
501,2.5, 2017/11/15 10:47:09.661上午,578,57,32,36,57
502,2.505, 2017/11/15 10:47:09.666上午,553,56,32,37,56
503,2.51, 2017/11/15 10:47:09.671上午,534,54,32,40,54
504,2.515, 2017/11/15 10:47:09.676上午,549,57,32,37,57
505,2.52, 2017/11/15 10:47:09.681上午,584,57,32,36,57
506,2.525, 2017/11/15 10:47:09.686上午,569,57,39,39,57
507,2.53, 2017/11/15 10:47:09.691上午,562,57,32,39,57
508,2.535, 2017/11/15 10:47:09.696上午,561,56,32,39,56
509,2.54, 2017/11/15 10:47:09.701上午,533,56,33,37,56
510,2.545, 2017/11/15 10:47:09.706上午,565,57,32,36,57
511,2.55, 2017/11/15 10:47:09.711上午,581,57,30,36,57
512,2.555, 2017/11/15 10:47:09.716上午,569,57,28,39,57
513,2.56, 2017/11/15 10:47:09.721上午,536,56,30,37,56
514,2.565, 2017/11/15 10:47:09.726上午,559,56,32,39,56
515,2.57, 2017/11/15 10:47:09.731上午,536,56,30,40,56
516,2.575, 2017/11/15 10:47:09.736上午,572,59,32,38,59
517,2.58, 2017/11/15 10:47:09.741上午,562,59,39,38,59
518,2.585, 2017/11/15 10:47:09.746上午,557,56,32,37,56
519,2.59, 2017/11/15 10:47:09.751上午,551,57,32,37,57
520,2.595, 2017/11/15 10:47:09.756上午,563,57,32,36,57
521,2.6, 2017/11/15 10:47:09.761上午,562,56,32,39,56
522,2.605, 2017/11/15 10:47:09.766上午,543,56,32,40,56
523,2.61, 2017/11/15 10:47:09.771上午,543,56,30,37,56
524,2.615, 2017/11/15 10:47:09.776上午,576,59,30,36,59
525,2.62, 2017/11/15 10:47:09.781上午,556,56,32,37,56
526,2.625, 2017/11/15 10:47:09.786上午,534,56,28,38,56
527,2.63, 2017/11/15 10:47:09.791上午,550,57,32,37,57
528,2.635, 2017/11/15 10:47:09.796上午,581,59,28,36,59
529,2.64, 2017/11/15 10:47:09.801上午,578,57,39,39,57
530,2.645, 2017/11/15 10:47:09.806上午,547,59,30,37,59
531,2.65, 2017/11/15 10:47:09.811上午,554,56,32,37,56
532,2.655, 2017/11/15 10:47:09.816上午,544,56,32,39,56
533,2.66, 2017/11/15 10:47:09.821上午,554,57,30,36,57
534,2.665, 2017/11/15 10:47:09.826上午,569,57,32,38,57
535,2.67, 2017/11/15 10:47:09.831上午,553,56,32,36,56
536,2.675, 2017/11/15 10:47:09.836上午,540,56,32,37,56
537,2.68, 2017/11/15 10:47:09.841上午,569,57,32,36,57
538,2.685, 2017/11/15 10:47:09.846上午,559,59,28,38,59
539,2.69, 2017/11/15 10:47:09.851上午,546,57,32,39,57
540,2.695, 2017/11/15 10:47:09.856上午,552,57,32,36,57
541,2.7, 2017/11/15 10:47:09.861上午,575,59,30,39,59
542,2.705, 2017/11/15 10:47:09.866上午,557,59,32,37,59
543,2.71, 2017/11/15 10:47:09.871上午,533,57,30,37,57
544,2.715, 2017/11/15 10:47:09.876上午,579,57,32,36,57
545,2.72, 2017/11/15 10:47:09.881上午,565,57,28,39,57
546,2.725, 2017/11/15 10:47:09.886上午,544,57,32,37,57
547,2.73, 2017/11/15 10:47:09.891上午,537,57,32,39,57
548,2.735, 2017/11/15 10:47:09.896上午,559,57,32,36,57
549,2.74, 2017/11/15 10:47:09.901上午,576,60,32,35,60
550,2.745, 2017/11/15 10:47:09.906上午,562,59,30,38,59
551,2.75, 2017/11/15 10:47:09.911上午,556,56,32,39,56
552,2.755, 2017/11/15 10:47:09.916上午,540,56,32,37,56
553,2.76, 2017/11/15 10:47:09.921上午,540,57,28,40,57
554,2.765, 2017/11/15 10:47:09.926上午,582,57,32,36,57
555,2.77, 2017/11/15 10:47:09.931上午,540,57,32,37,57
556,2.775, 2017/11/15 10:47:09.936上午,548,56,32,40,56
557,2.78, 2017/11/15 10:47:09.941上午,577,59,28,36,59
558,2.785, 2017/11/15 10:47:09.946上午,554,60,28,36,60
559,2.79, 2017/11/15 10:47:09.951上午,552,57,32,38,57
560,2.795, 2017/11/15 10:47:09.956上午,545,57,32,35,57
561,2.8, 2017/11/15 10:47:09.961上午,559,57,28,39,57
562,2.805, 2017/11/15 10:47:09.966上午,571,59,39,36,59
563,2.81, 2017/11/15 10:47:09.971上午,536,56,28,39,56
564,2.815, 2017/11/15 10:47:09.976上午,567,57,32,38,57
565,2.82, 2017/11/15 10:47:09.981上午,558,57,28,39,57
566,2.825, 2017/11/15 10:47:09.986上午,560,59,39,36,59
567,2.83, 2017/11/15 10:47:09.991上午,535,57,32,37,57
568,2.835, 2017/11/15 10:47:09.996上午,531,56,33,40,56
569,2.84, 2017/11/15 10:47:10.001上午,540,57,32,39,57
570,2.845, 2017/11/15 10:47:10.006上午,571,57,28,38,57
571,2.85, 2017/11/15 10:47:10.011上午,581,59,28,36,59
572,2.855, 2017/11/15 10:47:10.016上午,553,59,39,38,59
573,2.86, 2017/11/15 10:47:10.021上午,546,59,32,36,59
574,2.865, 2017/11/15 10:47:10.026上午,541,56,33,39,56
575,2.87, 2017/11/15 10:47:10.031上午,566,57,32,36,57
576,2.875, 2017/11/15 10:47:10.036上午,571,57,32,38,57
577,2.88, 2017/11/15 10:47:10.041上午,575,56,32,39,56
578,2.885, 2017/11/15 10:47:10.046上午,539,56,32,39,56
579,2.89, 2017/11/15 10:47:10.051上午,541,57,28,37,57
580,2.895, 2017/11/15 10:47:10.056上午,566,59,30,36,59
581,2.9, 2017/11/15 10:47:10.061上午,547,59,32,38,59
582,2.905, 2017/11/15 10:47:10.066上午,535,56,33,37,56
583,2.91, 2017/11/15 10:47:10.071上午,568,57,30,36,57
584,2.915, 2017/11/15 10:47:10.076上午,574,60,28,38,60
585,2.92, 2017/11/15 10:47:10.081上午,558,59,39,36,59
586,2.925, 2017/11/15 10:47:10.086上午,536,57,32,37,57
587,2.93, 2017/11/15 10:47:10.091上午,520,54,33,40,54
588,2.935, 2017/11/15 10:47:10.096上午,552,57,32,37,57
589,2.94, 2017/11/15 10:47:10.101上午,565,57,28,38,57
590,2.945, 2017/11/15 10:47:10.106上午,558,59,30,36,59
591,2.95, 2017/11/15 10:47:10.111上午,555,57,32,38,57
592,2.955, 2017/11/15 10:47:10.116上午,537,56,30,38,56
593,2.96, 2017/11/15 10:47:10.121上午,538,57,30,37,57
594,2.965, 2017/11/15 10:47:10.126上午,571,57,32,36,57
595,2.97, 2017/11/15 10:47:10.131上午,531,56,32,38,56
596,2.975, 2017/11/15 10:47:10.136上午,545,57,32,39,57
597,2.98, 2017/11/15 10:47:10.141上午,562,57,30,36,57
598,2.985, 2017/11/15 10:47:10.146上午,563,59,28,37,59
599,2.99, 2017/11/15 10:47:10.151上午,547,56,32,37,56
600,2.995, 2017/11/15 10:47:10.156上午,537,57,32,37,57
@@,,,,,,,
