DATA_TYPE Graph
VERSION Tekscan Pressure Measurement System 6.70-03
HARDWARE 00114-3447
MAP_VERSION 6.5
HW_TYPE 4
VersaPogoFsx 0
檔案名 C:\Users\asus\Desktop\工研院_計畫\收案資料\Subject02\Plantar Pressure\R65B_STAND_RIGHT_3.fsx
SENSOR_TYPE FSCAN
ROWS 60
COLS 21
ROW_SPACING 0.508 centimeters
COL_SPACING 0.508 centimeters
SENSEL_AREA 0.258064 cm2
NOISE_THRESHOLD 3
SECONDS_PER_FRAME 0.005
SECONDS_PER_FRAME 0
MICRO_SECOND 0
TIME 2017/11/15 11:46:55.521上午
SATURATION_PRESSURE 2347.96 KPa 
CALIBRATION_POINT_1 48.0001 (Kilograms) 1981 (Raw Sum) 199 (Number of Loaded Cells)
CALIBRATION_MODE_1 步態
CALIBRATION_INFO C:\Users\asus\Desktop\工研院_計畫\收案資料\Subject02\Plantar Pressure\R65B_STAND_RIGHT_3.fsx
SENSITIVITY 自定義
MAP_INDEX 0
SUBMAP 0
Patient ID: 

Speed of Gait: 

Weight: 

Gender: 

Physician: 

Technician: 

Shoe: 

START_FRAME 1
END_FRAME 600
UNITS KPa
ASCII_DATA @@
畫面(X), 時間(X), 絕對時間(X), Raw Sum, 壓力(Y:藍色), 壓力(Y), 壓力(Y), 壓力(Y)
1, 0, 2017/11/15 11:46:55.521上午, 393.0, 38, 32, 33, 36
2, 0.005, 2017/11/15 11:46:55.526上午, 369.0, 38, 0, 35, 37
3, 0.01, 2017/11/15 11:46:55.531上午, 377.0, 38, 28, 33, 36
4, 0.015, 2017/11/15 11:46:55.536上午, 373.0, 37, 0, 33, 35
5, 0.02, 2017/11/15 11:46:55.541上午, 359.0, 37, 0, 34, 36
6, 0.025, 2017/11/15 11:46:55.546上午, 385.0, 38, 28, 33, 35
7, 0.03, 2017/11/15 11:46:55.551上午, 375.0, 37, 0, 34, 36
8, 0.035, 2017/11/15 11:46:55.556上午, 375.0, 37, 0, 34, 36
9, 0.04, 2017/11/15 11:46:55.561上午, 379.0, 37, 28, 33, 35
10, 0.045, 2017/11/15 11:46:55.566上午, 371.0, 37, 0, 34, 36
11, 0.05, 2017/11/15 11:46:55.571上午, 397.0, 37, 32, 33, 35
12, 0.055, 2017/11/15 11:46:55.576上午, 373.0, 38, 0, 35, 37
13, 0.06, 2017/11/15 11:46:55.581上午, 395.0, 37, 32, 34, 36
14, 0.065, 2017/11/15 11:46:55.586上午, 392.0, 38, 29, 35, 36
15, 0.07, 2017/11/15 11:46:55.591上午, 377.0, 37, 28, 34, 36
16, 0.075, 2017/11/15 11:46:55.596上午, 392.0, 38, 29, 35, 36
17, 0.08, 2017/11/15 11:46:55.601上午, 362.0, 38, 0, 34, 36
18, 0.085, 2017/11/15 11:46:55.606上午, 371.0, 39, 0, 33, 36
19, 0.09, 2017/11/15 11:46:55.611上午, 364.0, 37, 0, 35, 36
20, 0.095, 2017/11/15 11:46:55.616上午, 383.0, 37, 33, 34, 36
21, 0.1, 2017/11/15 11:46:55.621上午, 396.0, 38, 29, 33, 35
22, 0.105, 2017/11/15 11:46:55.626上午, 368.0, 37, 0, 34, 36
23, 0.11, 2017/11/15 11:46:55.631上午, 377.0, 38, 33, 33, 35
24, 0.115, 2017/11/15 11:46:55.636上午, 374.0, 38, 0, 33, 36
25, 0.12, 2017/11/15 11:46:55.641上午, 373.0, 37, 33, 35, 36
26, 0.125, 2017/11/15 11:46:55.646上午, 374.0, 37, 28, 33, 35
27, 0.13, 2017/11/15 11:46:55.651上午, 372.0, 37, 0, 35, 36
28, 0.135, 2017/11/15 11:46:55.656上午, 370.0, 36, 0, 34, 35
29, 0.14, 2017/11/15 11:46:55.661上午, 360.0, 37, 0, 34, 36
30, 0.145, 2017/11/15 11:46:55.666上午, 376.0, 37, 31, 34, 35
31, 0.15, 2017/11/15 11:46:55.671上午, 390.0, 36, 29, 34, 34
32, 0.155, 2017/11/15 11:46:55.676上午, 386.0, 37, 29, 34, 35
33, 0.16, 2017/11/15 11:46:55.681上午, 390.0, 37, 33, 34, 35
34, 0.165, 2017/11/15 11:46:55.686上午, 366.0, 37, 0, 34, 36
35, 0.17, 2017/11/15 11:46:55.691上午, 373.0, 36, 0, 33, 35
36, 0.175, 2017/11/15 11:46:55.696上午, 369.0, 37, 0, 35, 36
37, 0.18, 2017/11/15 11:46:55.701上午, 365.0, 37, 0, 34, 35
38, 0.185, 2017/11/15 11:46:55.706上午, 377.0, 37, 29, 35, 35
39, 0.19, 2017/11/15 11:46:55.711上午, 363.0, 37, 0, 33, 36
40, 0.195, 2017/11/15 11:46:55.716上午, 387.0, 36, 28, 33, 35
41, 0.2, 2017/11/15 11:46:55.721上午, 365.0, 36, 0, 35, 35
42, 0.205, 2017/11/15 11:46:55.726上午, 377.0, 37, 28, 33, 35
43, 0.21, 2017/11/15 11:46:55.731上午, 387.0, 37, 29, 33, 35
44, 0.215, 2017/11/15 11:46:55.736上午, 363.0, 37, 0, 35, 36
45, 0.22, 2017/11/15 11:46:55.741上午, 378.0, 36, 28, 34, 35
46, 0.225, 2017/11/15 11:46:55.746上午, 371.0, 37, 30, 35, 36
47, 0.23, 2017/11/15 11:46:55.751上午, 366.0, 37, 0, 35, 36
48, 0.235, 2017/11/15 11:46:55.756上午, 384.0, 37, 33, 33, 35
49, 0.24, 2017/11/15 11:46:55.761上午, 379.0, 37, 30, 35, 36
50, 0.245, 2017/11/15 11:46:55.766上午, 383.0, 37, 28, 34, 35
51, 0.25, 2017/11/15 11:46:55.771上午, 365.0, 37, 0, 34, 36
52, 0.255, 2017/11/15 11:46:55.776上午, 375.0, 37, 0, 33, 35
53, 0.26, 2017/11/15 11:46:55.781上午, 364.0, 37, 0, 34, 36
54, 0.265, 2017/11/15 11:46:55.786上午, 364.0, 36, 0, 34, 35
55, 0.27, 2017/11/15 11:46:55.791上午, 386.0, 37, 29, 34, 35
56, 0.275, 2017/11/15 11:46:55.796上午, 369.0, 36, 0, 34, 35
57, 0.28, 2017/11/15 11:46:55.801上午, 379.0, 36, 28, 34, 35
58, 0.285, 2017/11/15 11:46:55.806上午, 363.0, 37, 0, 34, 36
59, 0.29, 2017/11/15 11:46:55.811上午, 392.0, 37, 29, 34, 35
60, 0.295, 2017/11/15 11:46:55.816上午, 363.0, 36, 0, 35, 36
61, 0.3, 2017/11/15 11:46:55.821上午, 364.0, 37, 0, 34, 35
62, 0.305, 2017/11/15 11:46:55.826上午, 379.0, 36, 29, 35, 35
63, 0.31, 2017/11/15 11:46:55.831上午, 367.0, 37, 0, 35, 36
64, 0.315, 2017/11/15 11:46:55.836上午, 373.0, 37, 0, 34, 35
65, 0.32, 2017/11/15 11:46:55.841上午, 366.0, 36, 33, 35, 36
66, 0.325, 2017/11/15 11:46:55.846上午, 373.0, 36, 28, 34, 35
67, 0.33, 2017/11/15 11:46:55.851上午, 363.0, 36, 0, 35, 36
68, 0.335, 2017/11/15 11:46:55.856上午, 366.0, 36, 0, 34, 35
69, 0.34, 2017/11/15 11:46:55.861上午, 366.0, 36, 0, 33, 35
70, 0.345, 2017/11/15 11:46:55.866上午, 359.0, 37, 0, 34, 36
71, 0.35, 2017/11/15 11:46:55.871上午, 366.0, 36, 0, 33, 35
72, 0.355, 2017/11/15 11:46:55.876上午, 366.0, 37, 0, 35, 36
73, 0.36, 2017/11/15 11:46:55.881上午, 370.0, 36, 0, 34, 35
74, 0.365, 2017/11/15 11:46:55.886上午, 384.0, 37, 30, 34, 35
75, 0.37, 2017/11/15 11:46:55.891上午, 375.0, 36, 0, 34, 35
76, 0.375, 2017/11/15 11:46:55.896上午, 364.0, 36, 0, 34, 35
77, 0.38, 2017/11/15 11:46:55.901上午, 365.0, 36, 0, 35, 36
78, 0.385, 2017/11/15 11:46:55.906上午, 387.0, 37, 30, 33, 35
79, 0.39, 2017/11/15 11:46:55.911上午, 382.0, 36, 29, 35, 35
80, 0.395, 2017/11/15 11:46:55.916上午, 369.0, 36, 28, 34, 35
81, 0.4, 2017/11/15 11:46:55.921上午, 384.0, 37, 29, 33, 35
82, 0.405, 2017/11/15 11:46:55.926上午, 368.0, 37, 0, 34, 36
83, 0.41, 2017/11/15 11:46:55.931上午, 370.0, 37, 0, 34, 36
84, 0.415, 2017/11/15 11:46:55.936上午, 386.0, 37, 30, 34, 35
85, 0.42, 2017/11/15 11:46:55.941上午, 358.0, 37, 0, 35, 36
86, 0.425, 2017/11/15 11:46:55.946上午, 374.0, 37, 33, 34, 36
87, 0.43, 2017/11/15 11:46:55.951上午, 386.0, 37, 29, 34, 35
88, 0.435, 2017/11/15 11:46:55.956上午, 367.0, 36, 0, 35, 36
89, 0.44, 2017/11/15 11:46:55.961上午, 386.0, 36, 28, 34, 35
90, 0.445, 2017/11/15 11:46:55.966上午, 380.0, 37, 31, 35, 36
91, 0.45, 2017/11/15 11:46:55.971上午, 385.0, 37, 33, 34, 35
92, 0.455, 2017/11/15 11:46:55.976上午, 377.0, 37, 29, 35, 35
93, 0.46, 2017/11/15 11:46:55.981上午, 365.0, 37, 0, 35, 36
94, 0.465, 2017/11/15 11:46:55.986上午, 395.0, 37, 29, 34, 35
95, 0.47, 2017/11/15 11:46:55.991上午, 381.0, 37, 31, 34, 35
96, 0.475, 2017/11/15 11:46:55.996上午, 374.0, 37, 30, 34, 35
97, 0.48, 2017/11/15 11:46:56.001上午, 376.0, 37, 28, 34, 35
98, 0.485, 2017/11/15 11:46:56.006上午, 392.0, 36, 29, 33, 34
99, 0.49, 2017/11/15 11:46:56.011上午, 374.0, 36, 29, 34, 35
100, 0.495, 2017/11/15 11:46:56.016上午, 370.0, 36, 0, 33, 35
101, 0.5, 2017/11/15 11:46:56.021上午, 394.0, 36, 29, 33, 34
102, 0.505, 2017/11/15 11:46:56.026上午, 364.0, 37, 0, 35, 37
103, 0.51, 2017/11/15 11:46:56.031上午, 368.0, 37, 0, 34, 35
104, 0.515, 2017/11/15 11:46:56.036上午, 363.0, 37, 0, 34, 36
105, 0.52, 2017/11/15 11:46:56.041上午, 374.0, 36, 29, 34, 35
106, 0.525, 2017/11/15 11:46:56.046上午, 386.0, 36, 31, 33, 35
107, 0.53, 2017/11/15 11:46:56.051上午, 358.0, 36, 0, 34, 36
108, 0.535, 2017/11/15 11:46:56.056上午, 365.0, 37, 0, 34, 35
109, 0.54, 2017/11/15 11:46:56.061上午, 402.0, 37, 29, 34, 35
110, 0.545, 2017/11/15 11:46:56.066上午, 380.0, 36, 29, 34, 35
111, 0.55, 2017/11/15 11:46:56.071上午, 383.0, 37, 0, 34, 36
112, 0.555, 2017/11/15 11:46:56.076上午, 390.0, 36, 31, 34, 35
113, 0.56, 2017/11/15 11:46:56.081上午, 381.0, 37, 0, 33, 35
114, 0.565, 2017/11/15 11:46:56.086上午, 379.0, 37, 29, 34, 35
115, 0.57, 2017/11/15 11:46:56.091上午, 364.0, 36, 0, 34, 35
116, 0.575, 2017/11/15 11:46:56.096上午, 383.0, 37, 29, 33, 35
117, 0.58, 2017/11/15 11:46:56.101上午, 371.0, 37, 0, 35, 36
118, 0.585, 2017/11/15 11:46:56.106上午, 375.0, 37, 0, 34, 36
119, 0.59, 2017/11/15 11:46:56.111上午, 388.0, 37, 29, 34, 35
120, 0.595, 2017/11/15 11:46:56.116上午, 369.0, 37, 0, 35, 36
121, 0.6, 2017/11/15 11:46:56.121上午, 366.0, 37, 0, 34, 36
122, 0.605, 2017/11/15 11:46:56.126上午, 383.0, 37, 32, 34, 35
123, 0.61, 2017/11/15 11:46:56.131上午, 365.0, 37, 0, 36, 37
124, 0.615, 2017/11/15 11:46:56.136上午, 371.0, 36, 0, 33, 35
125, 0.62, 2017/11/15 11:46:56.141上午, 399.0, 38, 29, 33, 35
126, 0.625, 2017/11/15 11:46:56.146上午, 358.0, 37, 0, 35, 36
127, 0.63, 2017/11/15 11:46:56.151上午, 358.0, 37, 0, 34, 36
128, 0.635, 2017/11/15 11:46:56.156上午, 388.0, 37, 30, 34, 36
129, 0.64, 2017/11/15 11:46:56.161上午, 370.0, 37, 30, 35, 35
130, 0.645, 2017/11/15 11:46:56.166上午, 385.0, 37, 31, 34, 35
131, 0.65, 2017/11/15 11:46:56.171上午, 386.0, 37, 29, 33, 35
132, 0.655, 2017/11/15 11:46:56.176上午, 360.0, 37, 0, 35, 36
133, 0.66, 2017/11/15 11:46:56.181上午, 374.0, 36, 0, 33, 35
134, 0.665, 2017/11/15 11:46:56.186上午, 368.0, 37, 0, 35, 36
135, 0.67, 2017/11/15 11:46:56.191上午, 390.0, 37, 31, 34, 36
136, 0.675, 2017/11/15 11:46:56.196上午, 384.0, 37, 30, 33, 35
137, 0.68, 2017/11/15 11:46:56.201上午, 358.0, 37, 0, 34, 36
138, 0.685, 2017/11/15 11:46:56.206上午, 377.0, 36, 28, 33, 35
139, 0.69, 2017/11/15 11:46:56.211上午, 388.0, 37, 29, 34, 35
140, 0.695, 2017/11/15 11:46:56.216上午, 365.0, 36, 0, 34, 35
141, 0.7, 2017/11/15 11:46:56.221上午, 372.0, 37, 28, 33, 35
142, 0.705, 2017/11/15 11:46:56.226上午, 381.0, 36, 0, 33, 35
143, 0.71, 2017/11/15 11:46:56.231上午, 386.0, 37, 29, 34, 35
144, 0.715, 2017/11/15 11:46:56.236上午, 361.0, 37, 0, 34, 36
145, 0.72, 2017/11/15 11:46:56.241上午, 374.0, 36, 0, 34, 35
146, 0.725, 2017/11/15 11:46:56.246上午, 386.0, 37, 29, 34, 35
147, 0.73, 2017/11/15 11:46:56.251上午, 364.0, 37, 0, 34, 35
148, 0.735, 2017/11/15 11:46:56.256上午, 372.0, 36, 0, 34, 35
149, 0.74, 2017/11/15 11:46:56.261上午, 378.0, 37, 0, 34, 36
150, 0.745, 2017/11/15 11:46:56.266上午, 392.0, 37, 31, 35, 36
151, 0.75, 2017/11/15 11:46:56.271上午, 375.0, 37, 0, 35, 36
152, 0.755, 2017/11/15 11:46:56.276上午, 368.0, 37, 0, 33, 35
153, 0.76, 2017/11/15 11:46:56.281上午, 383.0, 37, 31, 34, 35
154, 0.765, 2017/11/15 11:46:56.286上午, 381.0, 37, 33, 33, 35
155, 0.77, 2017/11/15 11:46:56.291上午, 371.0, 37, 0, 34, 36
156, 0.775, 2017/11/15 11:46:56.296上午, 367.0, 36, 0, 33, 35
157, 0.78, 2017/11/15 11:46:56.301上午, 376.0, 36, 28, 33, 35
158, 0.785, 2017/11/15 11:46:56.306上午, 362.0, 36, 0, 35, 36
159, 0.79, 2017/11/15 11:46:56.311上午, 363.0, 37, 0, 34, 35
160, 0.795, 2017/11/15 11:46:56.316上午, 382.0, 36, 28, 35, 36
161, 0.8, 2017/11/15 11:46:56.321上午, 378.0, 36, 30, 33, 34
162, 0.805, 2017/11/15 11:46:56.326上午, 360.0, 37, 0, 35, 36
163, 0.81, 2017/11/15 11:46:56.331上午, 363.0, 38, 0, 34, 36
164, 0.815, 2017/11/15 11:46:56.336上午, 403.0, 37, 29, 34, 35
165, 0.82, 2017/11/15 11:46:56.341上午, 368.0, 37, 0, 33, 35
166, 0.825, 2017/11/15 11:46:56.346上午, 394.0, 37, 30, 35, 36
167, 0.83, 2017/11/15 11:46:56.351上午, 357.0, 37, 0, 33, 35
168, 0.835, 2017/11/15 11:46:56.356上午, 376.0, 36, 34, 33, 35
169, 0.84, 2017/11/15 11:46:56.361上午, 370.0, 37, 0, 33, 35
170, 0.845, 2017/11/15 11:46:56.366上午, 409.0, 36, 30, 34, 35
171, 0.85, 2017/11/15 11:46:56.371上午, 382.0, 37, 31, 34, 35
172, 0.855, 2017/11/15 11:46:56.376上午, 382.0, 37, 0, 33, 35
173, 0.86, 2017/11/15 11:46:56.381上午, 373.0, 36, 0, 34, 35
174, 0.865, 2017/11/15 11:46:56.386上午, 364.0, 37, 0, 33, 35
175, 0.87, 2017/11/15 11:46:56.391上午, 371.0, 36, 0, 34, 35
176, 0.875, 2017/11/15 11:46:56.396上午, 384.0, 37, 31, 35, 35
177, 0.88, 2017/11/15 11:46:56.401上午, 374.0, 36, 0, 33, 35
178, 0.885, 2017/11/15 11:46:56.406上午, 387.0, 37, 29, 35, 35
179, 0.89, 2017/11/15 11:46:56.411上午, 369.0, 36, 0, 33, 35
180, 0.895, 2017/11/15 11:46:56.416上午, 386.0, 37, 0, 33, 35
181, 0.9, 2017/11/15 11:46:56.421上午, 391.0, 37, 29, 35, 36
182, 0.905, 2017/11/15 11:46:56.426上午, 387.0, 37, 31, 35, 36
183, 0.91, 2017/11/15 11:46:56.431上午, 389.0, 36, 0, 33, 35
184, 0.915, 2017/11/15 11:46:56.436上午, 379.0, 37, 29, 34, 35
185, 0.92, 2017/11/15 11:46:56.441上午, 367.0, 36, 0, 33, 35
186, 0.925, 2017/11/15 11:46:56.446上午, 386.0, 37, 32, 33, 35
187, 0.93, 2017/11/15 11:46:56.451上午, 363.0, 36, 0, 34, 35
188, 0.935, 2017/11/15 11:46:56.456上午, 386.0, 37, 31, 34, 35
189, 0.94, 2017/11/15 11:46:56.461上午, 393.0, 37, 29, 34, 35
190, 0.945, 2017/11/15 11:46:56.466上午, 391.0, 37, 30, 34, 35
191, 0.95, 2017/11/15 11:46:56.471上午, 371.0, 37, 0, 33, 35
192, 0.955, 2017/11/15 11:46:56.476上午, 369.0, 36, 0, 34, 35
193, 0.96, 2017/11/15 11:46:56.481上午, 371.0, 37, 28, 34, 35
194, 0.965, 2017/11/15 11:46:56.486上午, 384.0, 37, 33, 33, 35
195, 0.97, 2017/11/15 11:46:56.491上午, 363.0, 37, 0, 34, 36
196, 0.975, 2017/11/15 11:46:56.496上午, 383.0, 36, 28, 34, 35
197, 0.98, 2017/11/15 11:46:56.501上午, 397.0, 37, 29, 33, 35
198, 0.985, 2017/11/15 11:46:56.506上午, 365.0, 37, 0, 34, 35
199, 0.99, 2017/11/15 11:46:56.511上午, 372.0, 36, 0, 33, 35
200, 0.995, 2017/11/15 11:46:56.516上午, 370.0, 36, 30, 34, 35
201, 1, 2017/11/15 11:46:56.521上午, 363.0, 36, 0, 34, 35
202, 1.005, 2017/11/15 11:46:56.526上午, 377.0, 37, 28, 33, 35
203, 1.01, 2017/11/15 11:46:56.531上午, 390.0, 37, 29, 32, 34
204, 1.015, 2017/11/15 11:46:56.536上午, 379.0, 36, 31, 34, 35
205, 1.02, 2017/11/15 11:46:56.541上午, 373.0, 36, 28, 33, 35
206, 1.025, 2017/11/15 11:46:56.546上午, 378.0, 36, 30, 33, 35
207, 1.03, 2017/11/15 11:46:56.551上午, 369.0, 36, 0, 34, 35
208, 1.035, 2017/11/15 11:46:56.556上午, 358.0, 36, 0, 34, 35
209, 1.04, 2017/11/15 11:46:56.561上午, 379.0, 37, 30, 35, 36
210, 1.045, 2017/11/15 11:46:56.566上午, 380.0, 37, 29, 34, 35
211, 1.05, 2017/11/15 11:46:56.571上午, 390.0, 37, 29, 34, 35
212, 1.055, 2017/11/15 11:46:56.576上午, 347.0, 36, 0, 35, 36
213, 1.06, 2017/11/15 11:46:56.581上午, 361.0, 36, 0, 33, 35
214, 1.065, 2017/11/15 11:46:56.586上午, 356.0, 36, 0, 34, 35
215, 1.07, 2017/11/15 11:46:56.591上午, 372.0, 36, 0, 32, 35
216, 1.075, 2017/11/15 11:46:56.596上午, 402.0, 37, 29, 33, 35
217, 1.08, 2017/11/15 11:46:56.601上午, 367.0, 37, 0, 34, 36
218, 1.085, 2017/11/15 11:46:56.606上午, 369.0, 37, 0, 33, 35
219, 1.09, 2017/11/15 11:46:56.611上午, 390.0, 37, 29, 33, 34
220, 1.095, 2017/11/15 11:46:56.616上午, 368.0, 36, 0, 34, 35
221, 1.1, 2017/11/15 11:46:56.621上午, 384.0, 36, 31, 34, 35
222, 1.105, 2017/11/15 11:46:56.626上午, 393.0, 36, 33, 33, 35
223, 1.11, 2017/11/15 11:46:56.631上午, 387.0, 37, 29, 34, 35
224, 1.115, 2017/11/15 11:46:56.636上午, 365.0, 36, 0, 34, 35
225, 1.12, 2017/11/15 11:46:56.641上午, 364.0, 36, 0, 34, 35
226, 1.125, 2017/11/15 11:46:56.646上午, 387.0, 37, 29, 33, 35
227, 1.13, 2017/11/15 11:46:56.651上午, 372.0, 37, 0, 34, 35
228, 1.135, 2017/11/15 11:46:56.656上午, 374.0, 36, 28, 33, 35
229, 1.14, 2017/11/15 11:46:56.661上午, 373.0, 37, 0, 33, 35
230, 1.145, 2017/11/15 11:46:56.666上午, 366.0, 37, 0, 33, 35
231, 1.15, 2017/11/15 11:46:56.671上午, 406.0, 36, 32, 34, 35
232, 1.155, 2017/11/15 11:46:56.676上午, 361.0, 37, 0, 34, 36
233, 1.16, 2017/11/15 11:46:56.681上午, 371.0, 37, 0, 33, 35
234, 1.165, 2017/11/15 11:46:56.686上午, 393.0, 37, 29, 34, 35
235, 1.17, 2017/11/15 11:46:56.691上午, 357.0, 36, 0, 33, 35
236, 1.175, 2017/11/15 11:46:56.696上午, 390.0, 36, 30, 33, 35
237, 1.18, 2017/11/15 11:46:56.701上午, 364.0, 36, 0, 35, 36
238, 1.185, 2017/11/15 11:46:56.706上午, 376.0, 37, 28, 34, 35
239, 1.19, 2017/11/15 11:46:56.711上午, 384.0, 37, 29, 33, 34
240, 1.195, 2017/11/15 11:46:56.716上午, 381.0, 37, 31, 34, 35
241, 1.2, 2017/11/15 11:46:56.721上午, 365.0, 36, 0, 33, 35
242, 1.205, 2017/11/15 11:46:56.726上午, 405.0, 37, 29, 34, 35
243, 1.21, 2017/11/15 11:46:56.731上午, 368.0, 37, 0, 33, 35
244, 1.215, 2017/11/15 11:46:56.736上午, 372.0, 36, 0, 34, 35
245, 1.22, 2017/11/15 11:46:56.741上午, 390.0, 37, 29, 34, 35
246, 1.225, 2017/11/15 11:46:56.746上午, 364.0, 37, 0, 33, 35
247, 1.23, 2017/11/15 11:46:56.751上午, 362.0, 37, 0, 35, 36
248, 1.235, 2017/11/15 11:46:56.756上午, 372.0, 36, 28, 33, 35
249, 1.24, 2017/11/15 11:46:56.761上午, 359.0, 36, 0, 34, 35
250, 1.245, 2017/11/15 11:46:56.766上午, 359.0, 36, 0, 34, 35
251, 1.25, 2017/11/15 11:46:56.771上午, 375.0, 37, 0, 33, 35
252, 1.255, 2017/11/15 11:46:56.776上午, 362.0, 36, 0, 34, 35
253, 1.26, 2017/11/15 11:46:56.781上午, 375.0, 36, 0, 33, 35
254, 1.265, 2017/11/15 11:46:56.786上午, 377.0, 36, 36, 34, 35
255, 1.27, 2017/11/15 11:46:56.791上午, 363.0, 36, 0, 33, 35
256, 1.275, 2017/11/15 11:46:56.796上午, 397.0, 37, 29, 33, 35
257, 1.28, 2017/11/15 11:46:56.801上午, 382.0, 37, 31, 35, 35
258, 1.285, 2017/11/15 11:46:56.806上午, 378.0, 36, 0, 33, 35
259, 1.29, 2017/11/15 11:46:56.811上午, 368.0, 36, 0, 34, 35
260, 1.295, 2017/11/15 11:46:56.816上午, 369.0, 37, 0, 34, 36
261, 1.3, 2017/11/15 11:46:56.821上午, 368.0, 36, 0, 33, 35
262, 1.305, 2017/11/15 11:46:56.826上午, 373.0, 37, 0, 33, 35
263, 1.31, 2017/11/15 11:46:56.831上午, 351.0, 36, 0, 34, 35
264, 1.315, 2017/11/15 11:46:56.836上午, 367.0, 36, 28, 33, 35
265, 1.32, 2017/11/15 11:46:56.841上午, 371.0, 36, 0, 33, 35
266, 1.325, 2017/11/15 11:46:56.846上午, 389.0, 36, 29, 34, 35
267, 1.33, 2017/11/15 11:46:56.851上午, 373.0, 36, 28, 33, 35
268, 1.335, 2017/11/15 11:46:56.856上午, 363.0, 37, 0, 34, 35
269, 1.34, 2017/11/15 11:46:56.861上午, 354.0, 36, 0, 34, 35
270, 1.345, 2017/11/15 11:46:56.866上午, 390.0, 36, 28, 34, 35
271, 1.35, 2017/11/15 11:46:56.871上午, 369.0, 36, 30, 34, 35
272, 1.355, 2017/11/15 11:46:56.876上午, 379.0, 36, 28, 33, 35
273, 1.36, 2017/11/15 11:46:56.881上午, 398.0, 37, 29, 33, 35
274, 1.365, 2017/11/15 11:46:56.886上午, 360.0, 36, 0, 34, 35
275, 1.37, 2017/11/15 11:46:56.891上午, 358.0, 37, 0, 32, 35
276, 1.375, 2017/11/15 11:46:56.896上午, 389.0, 37, 29, 34, 35
277, 1.38, 2017/11/15 11:46:56.901上午, 377.0, 36, 0, 33, 35
278, 1.385, 2017/11/15 11:46:56.906上午, 381.0, 35, 33, 33, 34
279, 1.39, 2017/11/15 11:46:56.911上午, 388.0, 36, 29, 33, 34
280, 1.395, 2017/11/15 11:46:56.916上午, 371.0, 37, 0, 34, 36
281, 1.4, 2017/11/15 11:46:56.921上午, 361.0, 37, 0, 34, 36
282, 1.405, 2017/11/15 11:46:56.926上午, 400.0, 37, 29, 34, 35
283, 1.41, 2017/11/15 11:46:56.931上午, 369.0, 36, 0, 33, 35
284, 1.415, 2017/11/15 11:46:56.936上午, 360.0, 36, 0, 34, 35
285, 1.42, 2017/11/15 11:46:56.941上午, 379.0, 36, 33, 33, 35
286, 1.425, 2017/11/15 11:46:56.946上午, 376.0, 36, 0, 32, 35
287, 1.43, 2017/11/15 11:46:56.951上午, 389.0, 36, 31, 34, 35
288, 1.435, 2017/11/15 11:46:56.956上午, 368.0, 36, 0, 32, 34
289, 1.44, 2017/11/15 11:46:56.961上午, 365.0, 36, 0, 34, 35
290, 1.445, 2017/11/15 11:46:56.966上午, 355.0, 37, 0, 35, 36
291, 1.45, 2017/11/15 11:46:56.971上午, 384.0, 36, 30, 33, 35
292, 1.455, 2017/11/15 11:46:56.976上午, 366.0, 36, 0, 35, 35
293, 1.46, 2017/11/15 11:46:56.981上午, 369.0, 36, 0, 33, 35
294, 1.465, 2017/11/15 11:46:56.986上午, 390.0, 37, 29, 34, 35
295, 1.47, 2017/11/15 11:46:56.991上午, 386.0, 36, 29, 34, 35
296, 1.475, 2017/11/15 11:46:56.996上午, 388.0, 37, 0, 33, 35
297, 1.48, 2017/11/15 11:46:57.001上午, 385.0, 36, 29, 34, 35
298, 1.485, 2017/11/15 11:46:57.006上午, 379.0, 37, 0, 34, 36
299, 1.49, 2017/11/15 11:46:57.011上午, 374.0, 37, 0, 33, 35
300, 1.495, 2017/11/15 11:46:57.016上午, 385.0, 37, 30, 33, 35
301, 1.5, 2017/11/15 11:46:57.021上午, 372.0, 36, 0, 34, 35
302, 1.505, 2017/11/15 11:46:57.026上午, 379.0, 37, 33, 33, 35
303, 1.51, 2017/11/15 11:46:57.031上午, 368.0, 37, 0, 33, 35
304, 1.515, 2017/11/15 11:46:57.036上午, 358.0, 37, 0, 34, 36
305, 1.52, 2017/11/15 11:46:57.041上午, 367.0, 36, 0, 33, 35
306, 1.525, 2017/11/15 11:46:57.046上午, 379.0, 37, 30, 33, 35
307, 1.53, 2017/11/15 11:46:57.051上午, 353.0, 36, 0, 35, 36
308, 1.535, 2017/11/15 11:46:57.056上午, 379.0, 36, 0, 33, 35
309, 1.54, 2017/11/15 11:46:57.061上午, 385.0, 37, 30, 33, 35
310, 1.545, 2017/11/15 11:46:57.066上午, 360.0, 36, 0, 34, 35
311, 1.55, 2017/11/15 11:46:57.071上午, 370.0, 36, 0, 33, 35
312, 1.555, 2017/11/15 11:46:57.076上午, 368.0, 36, 0, 34, 35
313, 1.56, 2017/11/15 11:46:57.081上午, 372.0, 36, 0, 33, 35
314, 1.565, 2017/11/15 11:46:57.086上午, 370.0, 37, 0, 34, 36
315, 1.57, 2017/11/15 11:46:57.091上午, 370.0, 37, 0, 33, 35
316, 1.575, 2017/11/15 11:46:57.096上午, 377.0, 37, 30, 34, 36
317, 1.58, 2017/11/15 11:46:57.101上午, 378.0, 36, 28, 34, 35
318, 1.585, 2017/11/15 11:46:57.106上午, 395.0, 37, 29, 33, 35
319, 1.59, 2017/11/15 11:46:57.111上午, 376.0, 37, 31, 34, 35
320, 1.595, 2017/11/15 11:46:57.116上午, 371.0, 36, 0, 33, 35
321, 1.6, 2017/11/15 11:46:57.121上午, 383.0, 37, 29, 32, 35
322, 1.605, 2017/11/15 11:46:57.126上午, 390.0, 36, 31, 34, 35
323, 1.61, 2017/11/15 11:46:57.131上午, 389.0, 37, 33, 34, 36
324, 1.615, 2017/11/15 11:46:57.136上午, 368.0, 36, 0, 34, 35
325, 1.62, 2017/11/15 11:46:57.141上午, 364.0, 36, 0, 33, 35
326, 1.625, 2017/11/15 11:46:57.146上午, 384.0, 36, 29, 32, 34
327, 1.63, 2017/11/15 11:46:57.151上午, 370.0, 36, 0, 34, 35
328, 1.635, 2017/11/15 11:46:57.156上午, 375.0, 36, 0, 33, 35
329, 1.64, 2017/11/15 11:46:57.161上午, 359.0, 37, 0, 33, 35
330, 1.645, 2017/11/15 11:46:57.166上午, 368.0, 37, 0, 33, 35
331, 1.65, 2017/11/15 11:46:57.171上午, 371.0, 36, 0, 34, 35
332, 1.655, 2017/11/15 11:46:57.176上午, 365.0, 37, 0, 32, 35
333, 1.66, 2017/11/15 11:46:57.181上午, 394.0, 36, 29, 33, 34
334, 1.665, 2017/11/15 11:46:57.186上午, 370.0, 37, 28, 33, 35
335, 1.67, 2017/11/15 11:46:57.191上午, 378.0, 36, 28, 32, 34
336, 1.675, 2017/11/15 11:46:57.196上午, 366.0, 36, 0, 33, 35
337, 1.68, 2017/11/15 11:46:57.201上午, 377.0, 36, 0, 33, 35
338, 1.685, 2017/11/15 11:46:57.206上午, 375.0, 36, 0, 34, 35
339, 1.69, 2017/11/15 11:46:57.211上午, 381.0, 36, 28, 33, 35
340, 1.695, 2017/11/15 11:46:57.216上午, 369.0, 36, 0, 33, 35
341, 1.7, 2017/11/15 11:46:57.221上午, 364.0, 36, 0, 34, 35
342, 1.705, 2017/11/15 11:46:57.226上午, 393.0, 36, 33, 33, 35
343, 1.71, 2017/11/15 11:46:57.231上午, 389.0, 36, 29, 34, 35
344, 1.715, 2017/11/15 11:46:57.236上午, 380.0, 37, 0, 33, 35
345, 1.72, 2017/11/15 11:46:57.241上午, 391.0, 37, 29, 34, 35
346, 1.725, 2017/11/15 11:46:57.246上午, 390.0, 37, 33, 33, 35
347, 1.73, 2017/11/15 11:46:57.251上午, 394.0, 36, 32, 33, 34
348, 1.735, 2017/11/15 11:46:57.256上午, 378.0, 36, 29, 34, 35
349, 1.74, 2017/11/15 11:46:57.261上午, 368.0, 37, 0, 33, 35
350, 1.745, 2017/11/15 11:46:57.266上午, 386.0, 36, 29, 35, 35
351, 1.75, 2017/11/15 11:46:57.271上午, 384.0, 36, 29, 32, 34
352, 1.755, 2017/11/15 11:46:57.276上午, 402.0, 37, 29, 33, 34
353, 1.76, 2017/11/15 11:46:57.281上午, 369.0, 36, 0, 33, 35
354, 1.765, 2017/11/15 11:46:57.286上午, 397.0, 36, 32, 33, 35
355, 1.77, 2017/11/15 11:46:57.291上午, 371.0, 36, 0, 34, 35
356, 1.775, 2017/11/15 11:46:57.296上午, 395.0, 37, 29, 33, 34
357, 1.78, 2017/11/15 11:46:57.301上午, 355.0, 36, 0, 34, 35
358, 1.785, 2017/11/15 11:46:57.306上午, 395.0, 37, 29, 32, 34
359, 1.79, 2017/11/15 11:46:57.311上午, 382.0, 37, 31, 34, 35
360, 1.795, 2017/11/15 11:46:57.316上午, 369.0, 37, 0, 33, 35
361, 1.8, 2017/11/15 11:46:57.321上午, 373.0, 35, 0, 33, 34
362, 1.805, 2017/11/15 11:46:57.326上午, 374.0, 36, 0, 34, 35
363, 1.81, 2017/11/15 11:46:57.331上午, 384.0, 36, 30, 33, 35
364, 1.815, 2017/11/15 11:46:57.336上午, 364.0, 36, 0, 34, 35
365, 1.82, 2017/11/15 11:46:57.341上午, 369.0, 36, 0, 32, 34
366, 1.825, 2017/11/15 11:46:57.346上午, 382.0, 36, 30, 33, 34
367, 1.83, 2017/11/15 11:46:57.351上午, 375.0, 36, 0, 34, 35
368, 1.835, 2017/11/15 11:46:57.356上午, 369.0, 37, 0, 34, 35
369, 1.84, 2017/11/15 11:46:57.361上午, 361.0, 37, 0, 33, 35
370, 1.845, 2017/11/15 11:46:57.366上午, 371.0, 37, 0, 33, 35
371, 1.85, 2017/11/15 11:46:57.371上午, 369.0, 36, 0, 33, 35
372, 1.855, 2017/11/15 11:46:57.376上午, 370.0, 37, 0, 33, 35
373, 1.86, 2017/11/15 11:46:57.381上午, 382.0, 36, 29, 35, 35
374, 1.865, 2017/11/15 11:46:57.386上午, 365.0, 37, 0, 33, 35
375, 1.87, 2017/11/15 11:46:57.391上午, 392.0, 37, 29, 33, 35
376, 1.875, 2017/11/15 11:46:57.396上午, 368.0, 35, 0, 34, 35
377, 1.88, 2017/11/15 11:46:57.401上午, 378.0, 36, 0, 33, 35
378, 1.885, 2017/11/15 11:46:57.406上午, 379.0, 36, 31, 34, 35
379, 1.89, 2017/11/15 11:46:57.411上午, 369.0, 36, 0, 33, 35
380, 1.895, 2017/11/15 11:46:57.416上午, 371.0, 36, 0, 33, 35
381, 1.9, 2017/11/15 11:46:57.421上午, 379.0, 36, 30, 33, 35
382, 1.905, 2017/11/15 11:46:57.426上午, 377.0, 37, 0, 34, 35
383, 1.91, 2017/11/15 11:46:57.431上午, 388.0, 37, 30, 33, 35
384, 1.915, 2017/11/15 11:46:57.436上午, 374.0, 36, 0, 34, 35
385, 1.92, 2017/11/15 11:46:57.441上午, 388.0, 36, 33, 32, 35
386, 1.925, 2017/11/15 11:46:57.446上午, 396.0, 37, 29, 34, 35
387, 1.93, 2017/11/15 11:46:57.451上午, 359.0, 36, 0, 34, 35
388, 1.935, 2017/11/15 11:46:57.456上午, 382.0, 36, 28, 33, 34
389, 1.94, 2017/11/15 11:46:57.461上午, 374.0, 36, 0, 34, 35
390, 1.945, 2017/11/15 11:46:57.466上午, 381.0, 36, 28, 33, 35
391, 1.95, 2017/11/15 11:46:57.471上午, 366.0, 35, 0, 34, 35
392, 1.955, 2017/11/15 11:46:57.476上午, 374.0, 36, 0, 33, 35
393, 1.96, 2017/11/15 11:46:57.481上午, 389.0, 36, 29, 35, 35
394, 1.965, 2017/11/15 11:46:57.486上午, 382.0, 36, 31, 32, 34
395, 1.97, 2017/11/15 11:46:57.491上午, 383.0, 36, 29, 33, 34
396, 1.975, 2017/11/15 11:46:57.496上午, 386.0, 36, 31, 32, 34
397, 1.98, 2017/11/15 11:46:57.501上午, 391.0, 36, 29, 33, 34
398, 1.985, 2017/11/15 11:46:57.506上午, 369.0, 36, 28, 34, 35
399, 1.99, 2017/11/15 11:46:57.511上午, 383.0, 36, 30, 34, 35
400, 1.995, 2017/11/15 11:46:57.516上午, 366.0, 35, 0, 34, 35
401, 2, 2017/11/15 11:46:57.521上午, 364.0, 36, 0, 33, 35
402, 2.005, 2017/11/15 11:46:57.526上午, 388.0, 37, 30, 33, 35
403, 2.01, 2017/11/15 11:46:57.531上午, 369.0, 36, 0, 34, 35
404, 2.015, 2017/11/15 11:46:57.536上午, 369.0, 36, 0, 32, 35
405, 2.02, 2017/11/15 11:46:57.541上午, 398.0, 37, 29, 33, 35
406, 2.025, 2017/11/15 11:46:57.546上午, 376.0, 36, 28, 34, 35
407, 2.03, 2017/11/15 11:46:57.551上午, 370.0, 36, 0, 33, 34
408, 2.035, 2017/11/15 11:46:57.556上午, 385.0, 37, 29, 34, 35
409, 2.04, 2017/11/15 11:46:57.561上午, 373.0, 37, 0, 33, 35
410, 2.045, 2017/11/15 11:46:57.566上午, 389.0, 37, 29, 33, 35
411, 2.05, 2017/11/15 11:46:57.571上午, 365.0, 37, 0, 33, 35
412, 2.055, 2017/11/15 11:46:57.576上午, 364.0, 37, 0, 33, 35
413, 2.06, 2017/11/15 11:46:57.581上午, 372.0, 36, 0, 34, 35
414, 2.065, 2017/11/15 11:46:57.586上午, 377.0, 36, 0, 33, 35
415, 2.07, 2017/11/15 11:46:57.591上午, 365.0, 36, 0, 34, 35
416, 2.075, 2017/11/15 11:46:57.596上午, 375.0, 37, 33, 33, 35
417, 2.08, 2017/11/15 11:46:57.601上午, 365.0, 36, 0, 34, 35
418, 2.085, 2017/11/15 11:46:57.606上午, 367.0, 36, 0, 32, 35
419, 2.09, 2017/11/15 11:46:57.611上午, 390.0, 37, 29, 33, 35
420, 2.095, 2017/11/15 11:46:57.616上午, 375.0, 36, 29, 34, 35
421, 2.1, 2017/11/15 11:46:57.621上午, 371.0, 36, 0, 33, 35
422, 2.105, 2017/11/15 11:46:57.626上午, 393.0, 37, 29, 33, 35
423, 2.11, 2017/11/15 11:46:57.631上午, 375.0, 36, 0, 33, 35
424, 2.115, 2017/11/15 11:46:57.636上午, 377.0, 36, 28, 33, 35
425, 2.12, 2017/11/15 11:46:57.641上午, 382.0, 36, 29, 33, 35
426, 2.125, 2017/11/15 11:46:57.646上午, 369.0, 36, 0, 33, 35
427, 2.13, 2017/11/15 11:46:57.651上午, 374.0, 37, 0, 33, 35
428, 2.135, 2017/11/15 11:46:57.656上午, 385.0, 36, 29, 34, 34
429, 2.14, 2017/11/15 11:46:57.661上午, 372.0, 36, 0, 33, 35
430, 2.145, 2017/11/15 11:46:57.666上午, 381.0, 37, 30, 32, 35
431, 2.15, 2017/11/15 11:46:57.671上午, 387.0, 36, 31, 34, 35
432, 2.155, 2017/11/15 11:46:57.676上午, 376.0, 35, 28, 33, 34
433, 2.16, 2017/11/15 11:46:57.681上午, 370.0, 36, 0, 34, 35
434, 2.165, 2017/11/15 11:46:57.686上午, 366.0, 36, 0, 33, 35
435, 2.17, 2017/11/15 11:46:57.691上午, 389.0, 37, 29, 33, 35
436, 2.175, 2017/11/15 11:46:57.696上午, 366.0, 36, 0, 34, 35
437, 2.18, 2017/11/15 11:46:57.701上午, 388.0, 37, 29, 33, 35
438, 2.185, 2017/11/15 11:46:57.706上午, 383.0, 36, 31, 33, 35
439, 2.19, 2017/11/15 11:46:57.711上午, 369.0, 36, 0, 32, 34
440, 2.195, 2017/11/15 11:46:57.716上午, 375.0, 36, 0, 32, 34
441, 2.2, 2017/11/15 11:46:57.721上午, 378.0, 36, 0, 34, 35
442, 2.205, 2017/11/15 11:46:57.726上午, 371.0, 36, 0, 34, 35
443, 2.21, 2017/11/15 11:46:57.731上午, 371.0, 37, 0, 33, 35
444, 2.215, 2017/11/15 11:46:57.736上午, 395.0, 37, 29, 32, 34
445, 2.22, 2017/11/15 11:46:57.741上午, 376.0, 36, 31, 33, 35
446, 2.225, 2017/11/15 11:46:57.746上午, 371.0, 36, 28, 33, 34
447, 2.23, 2017/11/15 11:46:57.751上午, 414.0, 36, 29, 33, 34
448, 2.235, 2017/11/15 11:46:57.756上午, 371.0, 36, 0, 34, 35
449, 2.24, 2017/11/15 11:46:57.761上午, 402.0, 36, 31, 33, 35
450, 2.245, 2017/11/15 11:46:57.766上午, 366.0, 37, 0, 33, 35
451, 2.25, 2017/11/15 11:46:57.771上午, 392.0, 36, 31, 34, 35
452, 2.255, 2017/11/15 11:46:57.776上午, 393.0, 37, 31, 32, 35
453, 2.26, 2017/11/15 11:46:57.781上午, 369.0, 36, 0, 33, 35
454, 2.265, 2017/11/15 11:46:57.786上午, 385.0, 36, 32, 32, 35
455, 2.27, 2017/11/15 11:46:57.791上午, 382.0, 36, 29, 34, 35
456, 2.275, 2017/11/15 11:46:57.796上午, 365.0, 37, 0, 32, 35
457, 2.28, 2017/11/15 11:46:57.801上午, 379.0, 36, 0, 32, 34
458, 2.285, 2017/11/15 11:46:57.806上午, 370.0, 36, 0, 32, 34
459, 2.29, 2017/11/15 11:46:57.811上午, 383.0, 36, 30, 32, 34
460, 2.295, 2017/11/15 11:46:57.816上午, 369.0, 36, 0, 34, 35
461, 2.3, 2017/11/15 11:46:57.821上午, 368.0, 36, 0, 32, 34
462, 2.305, 2017/11/15 11:46:57.826上午, 393.0, 37, 29, 33, 34
463, 2.31, 2017/11/15 11:46:57.831上午, 361.0, 37, 0, 34, 36
464, 2.315, 2017/11/15 11:46:57.836上午, 371.0, 36, 0, 32, 34
465, 2.32, 2017/11/15 11:46:57.841上午, 375.0, 37, 0, 32, 35
466, 2.325, 2017/11/15 11:46:57.846上午, 381.0, 36, 33, 34, 35
467, 2.33, 2017/11/15 11:46:57.851上午, 377.0, 36, 0, 32, 34
468, 2.335, 2017/11/15 11:46:57.856上午, 379.0, 36, 0, 33, 35
469, 2.34, 2017/11/15 11:46:57.861上午, 370.0, 36, 0, 33, 35
470, 2.345, 2017/11/15 11:46:57.866上午, 376.0, 37, 0, 32, 35
471, 2.35, 2017/11/15 11:46:57.871上午, 373.0, 37, 0, 32, 35
472, 2.355, 2017/11/15 11:46:57.876上午, 383.0, 37, 29, 33, 35
473, 2.36, 2017/11/15 11:46:57.881上午, 388.0, 36, 31, 33, 35
474, 2.365, 2017/11/15 11:46:57.886上午, 383.0, 37, 30, 32, 35
475, 2.37, 2017/11/15 11:46:57.891上午, 372.0, 36, 0, 33, 35
476, 2.375, 2017/11/15 11:46:57.896上午, 384.0, 35, 32, 32, 34
477, 2.38, 2017/11/15 11:46:57.901上午, 368.0, 36, 0, 33, 35
478, 2.385, 2017/11/15 11:46:57.906上午, 373.0, 36, 0, 33, 35
479, 2.39, 2017/11/15 11:46:57.911上午, 370.0, 37, 0, 33, 35
480, 2.395, 2017/11/15 11:46:57.916上午, 384.0, 36, 29, 34, 35
481, 2.4, 2017/11/15 11:46:57.921上午, 369.0, 36, 0, 33, 34
482, 2.405, 2017/11/15 11:46:57.926上午, 389.0, 36, 29, 33, 34
483, 2.41, 2017/11/15 11:46:57.931上午, 370.0, 36, 0, 34, 35
484, 2.415, 2017/11/15 11:46:57.936上午, 373.0, 36, 0, 33, 35
485, 2.42, 2017/11/15 11:46:57.941上午, 384.0, 36, 29, 34, 35
486, 2.425, 2017/11/15 11:46:57.946上午, 368.0, 36, 0, 34, 35
487, 2.43, 2017/11/15 11:46:57.951上午, 377.0, 37, 0, 33, 35
488, 2.435, 2017/11/15 11:46:57.956上午, 392.0, 36, 29, 33, 34
489, 2.44, 2017/11/15 11:46:57.961上午, 371.0, 36, 0, 33, 35
490, 2.445, 2017/11/15 11:46:57.966上午, 393.0, 36, 31, 34, 35
491, 2.45, 2017/11/15 11:46:57.971上午, 396.0, 36, 31, 32, 34
492, 2.455, 2017/11/15 11:46:57.976上午, 375.0, 36, 0, 32, 34
493, 2.46, 2017/11/15 11:46:57.981上午, 370.0, 36, 0, 32, 34
494, 2.465, 2017/11/15 11:46:57.986上午, 386.0, 36, 28, 32, 35
495, 2.47, 2017/11/15 11:46:57.991上午, 376.0, 36, 0, 34, 35
496, 2.475, 2017/11/15 11:46:57.996上午, 373.0, 36, 0, 32, 34
497, 2.48, 2017/11/15 11:46:58.001上午, 370.0, 36, 0, 34, 35
498, 2.485, 2017/11/15 11:46:58.006上午, 380.0, 36, 30, 32, 34
499, 2.49, 2017/11/15 11:46:58.011上午, 373.0, 36, 31, 34, 35
500, 2.495, 2017/11/15 11:46:58.016上午, 365.0, 36, 0, 33, 35
501, 2.5, 2017/11/15 11:46:58.021上午, 374.0, 36, 0, 33, 35
502, 2.505, 2017/11/15 11:46:58.026上午, 367.0, 36, 0, 32, 34
503, 2.51, 2017/11/15 11:46:58.031上午, 374.0, 36, 0, 34, 35
504, 2.515, 2017/11/15 11:46:58.036上午, 365.0, 36, 0, 33, 34
505, 2.52, 2017/11/15 11:46:58.041上午, 386.0, 36, 29, 32, 34
506, 2.525, 2017/11/15 11:46:58.046上午, 391.0, 36, 30, 34, 35
507, 2.53, 2017/11/15 11:46:58.051上午, 386.0, 36, 28, 33, 35
508, 2.535, 2017/11/15 11:46:58.056上午, 374.0, 36, 30, 32, 34
509, 2.54, 2017/11/15 11:46:58.061上午, 378.0, 36, 0, 32, 35
510, 2.545, 2017/11/15 11:46:58.066上午, 381.0, 36, 29, 33, 34
511, 2.55, 2017/11/15 11:46:58.071上午, 384.0, 37, 31, 34, 35
512, 2.555, 2017/11/15 11:46:58.076上午, 389.0, 37, 29, 33, 35
513, 2.56, 2017/11/15 11:46:58.081上午, 383.0, 36, 29, 34, 34
514, 2.565, 2017/11/15 11:46:58.086上午, 367.0, 36, 0, 32, 35
515, 2.57, 2017/11/15 11:46:58.091上午, 381.0, 36, 29, 34, 35
516, 2.575, 2017/11/15 11:46:58.096上午, 369.0, 36, 0, 33, 35
517, 2.58, 2017/11/15 11:46:58.101上午, 393.0, 36, 29, 33, 34
518, 2.585, 2017/11/15 11:46:58.106上午, 380.0, 36, 0, 34, 35
519, 2.59, 2017/11/15 11:46:58.111上午, 391.0, 36, 31, 33, 35
520, 2.595, 2017/11/15 11:46:58.116上午, 364.0, 36, 0, 33, 35
521, 2.6, 2017/11/15 11:46:58.121上午, 381.0, 36, 31, 34, 35
522, 2.605, 2017/11/15 11:46:58.126上午, 373.0, 37, 0, 33, 35
523, 2.61, 2017/11/15 11:46:58.131上午, 369.0, 36, 0, 32, 34
524, 2.615, 2017/11/15 11:46:58.136上午, 390.0, 36, 31, 34, 35
525, 2.62, 2017/11/15 11:46:58.141上午, 369.0, 37, 0, 32, 35
526, 2.625, 2017/11/15 11:46:58.146上午, 392.0, 36, 29, 33, 34
527, 2.63, 2017/11/15 11:46:58.151上午, 379.0, 35, 29, 33, 34
528, 2.635, 2017/11/15 11:46:58.156上午, 359.0, 35, 0, 33, 34
529, 2.64, 2017/11/15 11:46:58.161上午, 385.0, 37, 29, 33, 35
530, 2.645, 2017/11/15 11:46:58.166上午, 370.0, 36, 0, 34, 35
531, 2.65, 2017/11/15 11:46:58.171上午, 380.0, 35, 28, 32, 34
532, 2.655, 2017/11/15 11:46:58.176上午, 376.0, 36, 30, 34, 35
533, 2.66, 2017/11/15 11:46:58.181上午, 372.0, 36, 28, 34, 35
534, 2.665, 2017/11/15 11:46:58.186上午, 394.0, 37, 29, 33, 35
535, 2.67, 2017/11/15 11:46:58.191上午, 372.0, 36, 0, 34, 35
536, 2.675, 2017/11/15 11:46:58.196上午, 392.0, 36, 29, 33, 34
537, 2.68, 2017/11/15 11:46:58.201上午, 360.0, 36, 0, 34, 35
538, 2.685, 2017/11/15 11:46:58.206上午, 365.0, 36, 0, 33, 34
539, 2.69, 2017/11/15 11:46:58.211上午, 393.0, 36, 30, 33, 34
540, 2.695, 2017/11/15 11:46:58.216上午, 379.0, 36, 0, 33, 35
541, 2.7, 2017/11/15 11:46:58.221上午, 371.0, 35, 0, 32, 34
542, 2.705, 2017/11/15 11:46:58.226上午, 380.0, 36, 30, 33, 35
543, 2.71, 2017/11/15 11:46:58.231上午, 373.0, 35, 0, 34, 35
544, 2.715, 2017/11/15 11:46:58.236上午, 392.0, 36, 33, 33, 34
545, 2.72, 2017/11/15 11:46:58.241上午, 390.0, 37, 29, 34, 35
546, 2.725, 2017/11/15 11:46:58.246上午, 365.0, 36, 28, 33, 34
547, 2.73, 2017/11/15 11:46:58.251上午, 365.0, 36, 0, 33, 35
548, 2.735, 2017/11/15 11:46:58.256上午, 363.0, 36, 0, 34, 35
549, 2.74, 2017/11/15 11:46:58.261上午, 367.0, 36, 0, 33, 35
550, 2.745, 2017/11/15 11:46:58.266上午, 377.0, 35, 31, 34, 34
551, 2.75, 2017/11/15 11:46:58.271上午, 362.0, 36, 0, 32, 34
552, 2.755, 2017/11/15 11:46:58.276上午, 369.0, 36, 0, 32, 34
553, 2.76, 2017/11/15 11:46:58.281上午, 364.0, 36, 0, 33, 34
554, 2.765, 2017/11/15 11:46:58.286上午, 383.0, 36, 33, 33, 34
555, 2.77, 2017/11/15 11:46:58.291上午, 364.0, 36, 0, 33, 35
556, 2.775, 2017/11/15 11:46:58.296上午, 382.0, 36, 30, 33, 35
557, 2.78, 2017/11/15 11:46:58.301上午, 364.0, 36, 0, 33, 35
558, 2.785, 2017/11/15 11:46:58.306上午, 396.0, 36, 32, 33, 34
559, 2.79, 2017/11/15 11:46:58.311上午, 372.0, 35, 0, 34, 35
560, 2.795, 2017/11/15 11:46:58.316上午, 362.0, 35, 0, 32, 34
561, 2.8, 2017/11/15 11:46:58.321上午, 373.0, 36, 0, 33, 35
562, 2.805, 2017/11/15 11:46:58.326上午, 374.0, 36, 0, 34, 35
563, 2.81, 2017/11/15 11:46:58.331上午, 381.0, 36, 28, 33, 35
564, 2.815, 2017/11/15 11:46:58.336上午, 374.0, 37, 30, 33, 35
565, 2.82, 2017/11/15 11:46:58.341上午, 378.0, 35, 0, 32, 34
566, 2.825, 2017/11/15 11:46:58.346上午, 370.0, 35, 28, 33, 34
567, 2.83, 2017/11/15 11:46:58.351上午, 380.0, 35, 28, 32, 34
568, 2.835, 2017/11/15 11:46:58.356上午, 396.0, 36, 29, 33, 34
569, 2.84, 2017/11/15 11:46:58.361上午, 367.0, 36, 0, 34, 35
570, 2.845, 2017/11/15 11:46:58.366上午, 375.0, 36, 0, 33, 35
571, 2.85, 2017/11/15 11:46:58.371上午, 369.0, 36, 0, 33, 35
572, 2.855, 2017/11/15 11:46:58.376上午, 373.0, 36, 0, 33, 34
573, 2.86, 2017/11/15 11:46:58.381上午, 375.0, 36, 0, 33, 35
574, 2.865, 2017/11/15 11:46:58.386上午, 389.0, 36, 31, 33, 35
575, 2.87, 2017/11/15 11:46:58.391上午, 371.0, 37, 0, 33, 35
576, 2.875, 2017/11/15 11:46:58.396上午, 368.0, 36, 0, 33, 35
577, 2.88, 2017/11/15 11:46:58.401上午, 372.0, 36, 0, 33, 35
578, 2.885, 2017/11/15 11:46:58.406上午, 382.0, 35, 30, 33, 34
579, 2.89, 2017/11/15 11:46:58.411上午, 364.0, 36, 0, 34, 35
580, 2.895, 2017/11/15 11:46:58.416上午, 374.0, 36, 28, 32, 34
581, 2.9, 2017/11/15 11:46:58.421上午, 393.0, 36, 29, 33, 34
582, 2.905, 2017/11/15 11:46:58.426上午, 363.0, 36, 0, 34, 35
583, 2.91, 2017/11/15 11:46:58.431上午, 372.0, 36, 0, 33, 35
584, 2.915, 2017/11/15 11:46:58.436上午, 389.0, 37, 29, 33, 35
585, 2.92, 2017/11/15 11:46:58.441上午, 391.0, 36, 31, 33, 34
586, 2.925, 2017/11/15 11:46:58.446上午, 392.0, 36, 28, 33, 35
587, 2.93, 2017/11/15 11:46:58.451上午, 375.0, 36, 30, 33, 35
588, 2.935, 2017/11/15 11:46:58.456上午, 372.0, 35, 0, 32, 34
589, 2.94, 2017/11/15 11:46:58.461上午, 360.0, 36, 0, 32, 35
590, 2.945, 2017/11/15 11:46:58.466上午, 386.0, 36, 31, 33, 34
591, 2.95, 2017/11/15 11:46:58.471上午, 369.0, 36, 28, 32, 34
592, 2.955, 2017/11/15 11:46:58.476上午, 382.0, 36, 31, 33, 34
593, 2.96, 2017/11/15 11:46:58.481上午, 385.0, 36, 29, 33, 34
594, 2.965, 2017/11/15 11:46:58.486上午, 394.0, 36, 29, 33, 34
595, 2.97, 2017/11/15 11:46:58.491上午, 369.0, 35, 0, 32, 34
596, 2.975, 2017/11/15 11:46:58.496上午, 374.0, 36, 30, 33, 35
597, 2.98, 2017/11/15 11:46:58.501上午, 366.0, 37, 0, 33, 35
598, 2.985, 2017/11/15 11:46:58.506上午, 385.0, 37, 30, 33, 35
599, 2.99, 2017/11/15 11:46:58.511上午, 372.0, 37, 0, 32, 35
600, 2.995, 2017/11/15 11:46:58.516上午, 387.0, 36, 31, 34, 35
@@
