DATA_TYPE Graph
VERSION Tekscan Pressure Measurement System 6.70-03
HARDWARE 00114-3443
MAP_VERSION 6.5
HW_TYPE 4
VersaPogoFsx 0
FILENAME C:\Users\User\Desktop\Subject01\plantar pressure\EVA_STAND_LEFT_SUPPORT_2.fsx
SENSOR_TYPE FSCAN
ROWS 60
COLS 21
ROW_SPACING 0.508 centimeters
COL_SPACING 0.508 centimeters
SENSEL_AREA 0.258064 cm2
NOISE_THRESHOLD 3
SECONDS_PER_FRAME 0.005
SECONDS_PER_FRAME 0
MICRO_SECOND 0
TIME 2017/11/14 06:17:05.372下午
SATURATION_PRESSURE 2976.18 KPa 
CALIBRATION_POINT_1 59.0001 (Kilograms) 1921 (Raw Sum) 193 (Number of Loaded Cells)
CALIBRATION_MODE_1 Step
CALIBRATION_INFO C:\Users\User\Desktop\Subject01\plantar pressure\EVA_STAND_LEFT_SUPPORT_2.fsx
SENSITIVITY Custom
MAP_INDEX 1
SUBMAP 1
Patient ID: 

Speed of Gait: 

Weight: 

Gender: 

Physician: 

Technician: 

Shoe: 

START_FRAME 1
END_FRAME 600
UNITS cm2
ASCII_DATA @@
Frames(X), Time(X), Absolute Time(X), Raw Sum, Area(Y:blue), Area(Y), Area(Y), Area(Y)
1, 0, 2017/11/14 06:17:05.372下午, 484.0, 11.35, 9.29, 7.23, 27.87
2, 0.005, 2017/11/14 06:17:05.377下午, 501.0, 11.10, 8.26, 9.81, 29.16
3, 0.01, 2017/11/14 06:17:05.382下午, 485.0, 10.58, 8.77, 8.77, 28.13
4, 0.015, 2017/11/14 06:17:05.387下午, 488.0, 11.35, 8.77, 8.00, 28.13
5, 0.02, 2017/11/14 06:17:05.392下午, 506.0, 10.58, 9.29, 9.29, 29.16
6, 0.025, 2017/11/14 06:17:05.397下午, 482.0, 10.58, 8.00, 8.77, 27.35
7, 0.03, 2017/11/14 06:17:05.402下午, 481.0, 11.10, 8.52, 8.00, 27.61
8, 0.035, 2017/11/14 06:17:05.407下午, 495.0, 10.84, 8.77, 8.77, 28.39
9, 0.04, 2017/11/14 06:17:05.412下午, 480.0, 10.84, 8.26, 8.26, 27.35
10, 0.045, 2017/11/14 06:17:05.417下午, 488.0, 11.10, 8.77, 8.00, 27.87
11, 0.05, 2017/11/14 06:17:05.422下午, 503.0, 11.10, 9.29, 8.77, 29.16
12, 0.055, 2017/11/14 06:17:05.427下午, 505.0, 10.84, 8.00, 9.81, 28.65
13, 0.06, 2017/11/14 06:17:05.432下午, 500.0, 11.10, 8.77, 9.55, 29.42
14, 0.065, 2017/11/14 06:17:05.437下午, 488.0, 11.87, 8.77, 7.74, 28.39
15, 0.07, 2017/11/14 06:17:05.442下午, 498.0, 11.10, 9.03, 8.26, 28.39
16, 0.075, 2017/11/14 06:17:05.447下午, 477.0, 11.10, 8.00, 8.26, 27.35
17, 0.08, 2017/11/14 06:17:05.452下午, 490.0, 11.61, 8.77, 8.00, 28.39
18, 0.085, 2017/11/14 06:17:05.457下午, 493.0, 11.35, 8.26, 8.52, 28.13
19, 0.09, 2017/11/14 06:17:05.462下午, 482.0, 10.58, 8.00, 9.03, 27.61
20, 0.095, 2017/11/14 06:17:05.467下午, 492.0, 12.39, 8.77, 7.23, 28.39
21, 0.1, 2017/11/14 06:17:05.472下午, 506.0, 11.35, 9.29, 8.77, 29.42
22, 0.105, 2017/11/14 06:17:05.477下午, 479.0, 10.06, 8.00, 9.55, 27.61
23, 0.11, 2017/11/14 06:17:05.482下午, 481.0, 10.58, 8.77, 8.00, 27.35
24, 0.115, 2017/11/14 06:17:05.487下午, 494.0, 10.84, 8.77, 8.77, 28.39
25, 0.12, 2017/11/14 06:17:05.492下午, 477.0, 10.06, 8.77, 8.77, 27.61
26, 0.125, 2017/11/14 06:17:05.497下午, 485.0, 11.61, 8.77, 8.00, 28.39
27, 0.13, 2017/11/14 06:17:05.502下午, 496.0, 10.58, 9.29, 9.03, 28.90
28, 0.135, 2017/11/14 06:17:05.507下午, 481.0, 11.10, 9.03, 6.97, 27.10
29, 0.14, 2017/11/14 06:17:05.512下午, 476.0, 10.84, 8.26, 8.52, 27.61
30, 0.145, 2017/11/14 06:17:05.517下午, 498.0, 11.87, 9.29, 7.48, 28.65
31, 0.15, 2017/11/14 06:17:05.522下午, 482.0, 11.10, 8.00, 8.26, 27.35
32, 0.155, 2017/11/14 06:17:05.527下午, 476.0, 11.10, 8.00, 8.26, 27.35
33, 0.16, 2017/11/14 06:17:05.532下午, 475.0, 11.10, 8.52, 7.48, 27.10
34, 0.165, 2017/11/14 06:17:05.537下午, 487.0, 11.35, 8.77, 7.74, 27.87
35, 0.17, 2017/11/14 06:17:05.542下午, 480.0, 11.10, 8.00, 8.52, 27.61
36, 0.175, 2017/11/14 06:17:05.547下午, 486.0, 11.61, 8.52, 8.00, 28.13
37, 0.18, 2017/11/14 06:17:05.552下午, 501.0, 12.39, 8.77, 7.74, 28.90
38, 0.185, 2017/11/14 06:17:05.557下午, 495.0, 11.10, 8.77, 9.29, 29.16
39, 0.19, 2017/11/14 06:17:05.562下午, 490.0, 10.84, 8.26, 9.03, 28.13
40, 0.195, 2017/11/14 06:17:05.567下午, 490.0, 11.10, 8.77, 8.00, 27.87
41, 0.2, 2017/11/14 06:17:05.572下午, 512.0, 11.35, 9.03, 9.29, 29.68
42, 0.205, 2017/11/14 06:17:05.577下午, 491.0, 10.58, 8.00, 9.55, 28.13
43, 0.21, 2017/11/14 06:17:05.582下午, 497.0, 11.61, 9.03, 8.00, 28.65
44, 0.215, 2017/11/14 06:17:05.587下午, 475.0, 10.84, 8.77, 7.48, 27.10
45, 0.22, 2017/11/14 06:17:05.592下午, 465.0, 10.06, 8.00, 8.26, 26.32
46, 0.225, 2017/11/14 06:17:05.597下午, 490.0, 11.35, 9.29, 7.74, 28.39
47, 0.23, 2017/11/14 06:17:05.602下午, 476.0, 10.84, 8.00, 8.26, 27.10
48, 0.235, 2017/11/14 06:17:05.607下午, 493.0, 11.61, 8.52, 8.52, 28.65
49, 0.24, 2017/11/14 06:17:05.612下午, 525.0, 11.87, 9.29, 9.29, 30.45
50, 0.245, 2017/11/14 06:17:05.617下午, 495.0, 10.58, 8.26, 9.81, 28.65
51, 0.25, 2017/11/14 06:17:05.622下午, 484.0, 11.10, 8.77, 7.74, 27.61
52, 0.255, 2017/11/14 06:17:05.627下午, 496.0, 11.87, 9.29, 7.48, 28.65
53, 0.26, 2017/11/14 06:17:05.632下午, 500.0, 11.35, 8.77, 8.77, 28.90
54, 0.265, 2017/11/14 06:17:05.637下午, 472.0, 10.32, 8.00, 8.52, 26.84
55, 0.27, 2017/11/14 06:17:05.642下午, 484.0, 11.61, 8.52, 8.00, 28.13
56, 0.275, 2017/11/14 06:17:05.647下午, 492.0, 10.84, 9.03, 8.26, 28.13
57, 0.28, 2017/11/14 06:17:05.652下午, 470.0, 10.06, 8.77, 8.26, 27.10
58, 0.285, 2017/11/14 06:17:05.657下午, 495.0, 11.10, 9.55, 7.74, 28.39
59, 0.29, 2017/11/14 06:17:05.662下午, 498.0, 10.84, 9.29, 8.26, 28.39
60, 0.295, 2017/11/14 06:17:05.667下午, 482.0, 11.35, 8.52, 8.26, 28.13
61, 0.3, 2017/11/14 06:17:05.672下午, 505.0, 11.87, 9.03, 8.00, 28.90
62, 0.305, 2017/11/14 06:17:05.677下午, 498.0, 10.84, 8.00, 9.81, 28.65
63, 0.31, 2017/11/14 06:17:05.682下午, 502.0, 10.58, 8.77, 10.06, 29.42
64, 0.315, 2017/11/14 06:17:05.687下午, 489.0, 11.35, 9.03, 7.48, 27.87
65, 0.32, 2017/11/14 06:17:05.692下午, 484.0, 10.06, 8.52, 9.29, 27.87
66, 0.325, 2017/11/14 06:17:05.697下午, 486.0, 11.10, 8.26, 8.77, 28.13
67, 0.33, 2017/11/14 06:17:05.702下午, 477.0, 11.10, 8.77, 7.48, 27.35
68, 0.335, 2017/11/14 06:17:05.707下午, 507.0, 10.58, 8.77, 9.81, 29.16
69, 0.34, 2017/11/14 06:17:05.712下午, 479.0, 9.55, 8.77, 9.29, 27.61
70, 0.345, 2017/11/14 06:17:05.717下午, 487.0, 11.35, 8.77, 8.00, 28.13
71, 0.35, 2017/11/14 06:17:05.722下午, 517.0, 10.84, 9.29, 9.81, 29.94
72, 0.355, 2017/11/14 06:17:05.727下午, 515.0, 10.84, 9.29, 9.81, 29.94
73, 0.36, 2017/11/14 06:17:05.732下午, 486.0, 10.58, 8.77, 9.03, 28.39
74, 0.365, 2017/11/14 06:17:05.737下午, 483.0, 10.32, 9.29, 7.74, 27.35
75, 0.37, 2017/11/14 06:17:05.742下午, 501.0, 10.58, 9.29, 8.77, 28.65
76, 0.375, 2017/11/14 06:17:05.747下午, 476.0, 9.81, 8.52, 9.03, 27.35
77, 0.38, 2017/11/14 06:17:05.752下午, 488.0, 11.61, 8.77, 8.26, 28.65
78, 0.385, 2017/11/14 06:17:05.757下午, 486.0, 10.58, 8.52, 8.77, 27.87
79, 0.39, 2017/11/14 06:17:05.762下午, 464.0, 9.29, 8.52, 9.29, 27.10
80, 0.395, 2017/11/14 06:17:05.767下午, 501.0, 10.32, 9.29, 9.29, 28.90
81, 0.4, 2017/11/14 06:17:05.772下午, 488.0, 10.06, 9.29, 8.52, 27.87
82, 0.405, 2017/11/14 06:17:05.777下午, 484.0, 11.10, 8.26, 8.77, 28.13
83, 0.41, 2017/11/14 06:17:05.782下午, 499.0, 10.58, 9.55, 8.77, 28.90
84, 0.415, 2017/11/14 06:17:05.787下午, 499.0, 10.06, 9.29, 9.29, 28.65
85, 0.42, 2017/11/14 06:17:05.792下午, 481.0, 10.32, 8.77, 9.29, 28.39
86, 0.425, 2017/11/14 06:17:05.797下午, 482.0, 10.58, 9.81, 7.48, 27.87
87, 0.43, 2017/11/14 06:17:05.802下午, 502.0, 10.58, 9.03, 9.03, 28.65
88, 0.435, 2017/11/14 06:17:05.807下午, 469.0, 11.10, 8.00, 8.26, 27.35
89, 0.44, 2017/11/14 06:17:05.812下午, 482.0, 11.10, 8.77, 8.26, 28.13
90, 0.445, 2017/11/14 06:17:05.817下午, 497.0, 10.84, 9.81, 8.00, 28.65
91, 0.45, 2017/11/14 06:17:05.822下午, 476.0, 9.81, 8.26, 9.29, 27.35
92, 0.455, 2017/11/14 06:17:05.827下午, 466.0, 10.32, 8.00, 8.52, 26.84
93, 0.46, 2017/11/14 06:17:05.832下午, 472.0, 10.32, 8.77, 8.52, 27.61
94, 0.465, 2017/11/14 06:17:05.837下午, 476.0, 10.84, 8.77, 8.00, 27.61
95, 0.47, 2017/11/14 06:17:05.842下午, 477.0, 9.55, 8.77, 9.03, 27.35
96, 0.475, 2017/11/14 06:17:05.847下午, 491.0, 10.84, 8.77, 9.29, 28.90
97, 0.48, 2017/11/14 06:17:05.852下午, 486.0, 10.32, 8.77, 9.29, 28.39
98, 0.485, 2017/11/14 06:17:05.857下午, 490.0, 9.55, 9.29, 9.29, 28.13
99, 0.49, 2017/11/14 06:17:05.862下午, 476.0, 9.29, 8.77, 9.55, 27.61
100, 0.495, 2017/11/14 06:17:05.867下午, 502.0, 11.61, 9.55, 8.52, 29.68
101, 0.5, 2017/11/14 06:17:05.872下午, 475.0, 9.81, 9.29, 8.00, 27.10
102, 0.505, 2017/11/14 06:17:05.877下午, 477.0, 9.81, 8.52, 9.29, 27.61
103, 0.51, 2017/11/14 06:17:05.882下午, 489.0, 10.58, 9.03, 9.29, 28.90
104, 0.515, 2017/11/14 06:17:05.887下午, 486.0, 9.55, 9.29, 9.03, 27.87
105, 0.52, 2017/11/14 06:17:05.892下午, 476.0, 9.29, 8.77, 9.55, 27.61
106, 0.525, 2017/11/14 06:17:05.897下午, 484.0, 10.84, 8.77, 8.77, 28.39
107, 0.53, 2017/11/14 06:17:05.902下午, 506.0, 10.32, 9.55, 10.06, 29.94
108, 0.535, 2017/11/14 06:17:05.907下午, 475.0, 8.77, 9.29, 9.03, 27.10
109, 0.54, 2017/11/14 06:17:05.912下午, 473.0, 9.29, 9.03, 9.55, 27.87
110, 0.545, 2017/11/14 06:17:05.917下午, 470.0, 9.81, 9.03, 8.26, 27.10
111, 0.55, 2017/11/14 06:17:05.922下午, 479.0, 8.77, 9.29, 9.55, 27.61
112, 0.555, 2017/11/14 06:17:05.927下午, 472.0, 9.29, 8.77, 9.29, 27.35
113, 0.56, 2017/11/14 06:17:05.932下午, 479.0, 10.06, 8.77, 9.29, 28.13
114, 0.565, 2017/11/14 06:17:05.937下午, 485.0, 9.29, 9.55, 9.55, 28.39
115, 0.57, 2017/11/14 06:17:05.942下午, 483.0, 9.29, 8.77, 10.06, 28.13
116, 0.575, 2017/11/14 06:17:05.947下午, 456.0, 9.03, 8.00, 9.29, 26.32
117, 0.58, 2017/11/14 06:17:05.952下午, 496.0, 10.84, 9.55, 9.03, 29.42
118, 0.585, 2017/11/14 06:17:05.957下午, 488.0, 8.26, 9.29, 10.32, 27.87
119, 0.59, 2017/11/14 06:17:05.962下午, 452.0, 8.52, 8.26, 9.29, 26.06
120, 0.595, 2017/11/14 06:17:05.967下午, 470.0, 9.81, 8.77, 8.52, 27.10
121, 0.6, 2017/11/14 06:17:05.972下午, 471.0, 9.29, 9.03, 8.77, 27.10
122, 0.605, 2017/11/14 06:17:05.977下午, 456.0, 7.74, 8.77, 9.03, 25.55
123, 0.61, 2017/11/14 06:17:05.982下午, 479.0, 8.77, 8.77, 9.81, 27.35
124, 0.615, 2017/11/14 06:17:05.987下午, 473.0, 9.29, 9.29, 9.29, 27.87
125, 0.62, 2017/11/14 06:17:05.992下午, 479.0, 9.29, 9.03, 9.29, 27.61
126, 0.625, 2017/11/14 06:17:05.997下午, 450.0, 8.00, 8.26, 9.29, 25.55
127, 0.63, 2017/11/14 06:17:06.002下午, 475.0, 9.29, 9.03, 9.55, 27.87
128, 0.635, 2017/11/14 06:17:06.007下午, 477.0, 9.03, 9.29, 9.55, 27.87
129, 0.64, 2017/11/14 06:17:06.012下午, 460.0, 7.48, 8.77, 9.81, 26.06
130, 0.645, 2017/11/14 06:17:06.017下午, 464.0, 8.77, 8.77, 9.29, 26.84
131, 0.65, 2017/11/14 06:17:06.022下午, 462.0, 9.03, 9.29, 8.52, 26.84
132, 0.655, 2017/11/14 06:17:06.027下午, 464.0, 7.74, 9.29, 9.81, 26.84
133, 0.66, 2017/11/14 06:17:06.032下午, 466.0, 7.48, 8.77, 10.32, 26.58
134, 0.665, 2017/11/14 06:17:06.037下午, 465.0, 8.77, 9.03, 9.29, 27.10
135, 0.67, 2017/11/14 06:17:06.042下午, 466.0, 9.03, 9.03, 9.55, 27.61
136, 0.675, 2017/11/14 06:17:06.047下午, 479.0, 8.26, 9.55, 10.32, 28.13
137, 0.68, 2017/11/14 06:17:06.052下午, 462.0, 8.00, 9.29, 9.03, 26.32
138, 0.685, 2017/11/14 06:17:06.057下午, 464.0, 8.77, 8.52, 9.29, 26.58
139, 0.69, 2017/11/14 06:17:06.062下午, 456.0, 8.26, 9.03, 9.03, 26.32
140, 0.695, 2017/11/14 06:17:06.067下午, 480.0, 9.03, 9.29, 9.55, 27.87
141, 0.7, 2017/11/14 06:17:06.072下午, 466.0, 8.52, 9.03, 9.29, 26.84
142, 0.705, 2017/11/14 06:17:06.077下午, 470.0, 8.26, 9.29, 10.06, 27.61
143, 0.71, 2017/11/14 06:17:06.082下午, 484.0, 8.77, 9.55, 10.06, 28.39
144, 0.715, 2017/11/14 06:17:06.087下午, 448.0, 6.71, 9.29, 9.55, 25.55
145, 0.72, 2017/11/14 06:17:06.092下午, 456.0, 8.26, 8.77, 9.29, 26.32
146, 0.725, 2017/11/14 06:17:06.097下午, 464.0, 8.26, 9.29, 9.55, 27.10
147, 0.73, 2017/11/14 06:17:06.102下午, 463.0, 8.77, 9.29, 8.52, 26.58
148, 0.735, 2017/11/14 06:17:06.107下午, 458.0, 8.00, 8.00, 10.32, 26.32
149, 0.74, 2017/11/14 06:17:06.112下午, 469.0, 7.74, 9.03, 10.32, 27.10
150, 0.745, 2017/11/14 06:17:06.117下午, 505.0, 8.77, 9.03, 12.13, 29.94
151, 0.75, 2017/11/14 06:17:06.122下午, 481.0, 8.52, 9.55, 10.06, 28.13
152, 0.755, 2017/11/14 06:17:06.127下午, 468.0, 8.26, 9.29, 9.29, 26.84
153, 0.76, 2017/11/14 06:17:06.132下午, 487.0, 9.03, 9.29, 10.58, 28.90
154, 0.765, 2017/11/14 06:17:06.137下午, 481.0, 9.03, 9.81, 9.81, 28.65
155, 0.77, 2017/11/14 06:17:06.142下午, 478.0, 7.74, 8.77, 10.58, 27.10
156, 0.775, 2017/11/14 06:17:06.147下午, 462.0, 8.26, 9.03, 9.55, 26.84
157, 0.78, 2017/11/14 06:17:06.152下午, 490.0, 9.29, 9.81, 10.06, 29.16
158, 0.785, 2017/11/14 06:17:06.157下午, 462.0, 7.23, 9.81, 9.29, 26.32
159, 0.79, 2017/11/14 06:17:06.162下午, 457.0, 8.00, 8.77, 9.29, 26.06
160, 0.795, 2017/11/14 06:17:06.167下午, 471.0, 8.26, 9.03, 10.32, 27.61
161, 0.8, 2017/11/14 06:17:06.172下午, 484.0, 9.03, 9.81, 9.81, 28.65
162, 0.805, 2017/11/14 06:17:06.177下午, 444.0, 6.97, 9.29, 8.52, 24.77
163, 0.81, 2017/11/14 06:17:06.182下午, 479.0, 8.52, 9.29, 10.32, 28.13
164, 0.815, 2017/11/14 06:17:06.187下午, 486.0, 9.29, 9.55, 9.81, 28.65
165, 0.82, 2017/11/14 06:17:06.192下午, 470.0, 6.97, 9.55, 10.32, 26.84
166, 0.825, 2017/11/14 06:17:06.197下午, 480.0, 8.52, 9.29, 9.81, 27.61
167, 0.83, 2017/11/14 06:17:06.202下午, 470.0, 8.52, 9.03, 9.81, 27.35
168, 0.835, 2017/11/14 06:17:06.207下午, 463.0, 8.52, 9.55, 8.77, 26.84
169, 0.84, 2017/11/14 06:17:06.212下午, 430.0, 6.97, 8.26, 8.26, 23.48
170, 0.845, 2017/11/14 06:17:06.217下午, 513.0, 8.77, 10.06, 11.61, 30.45
171, 0.85, 2017/11/14 06:17:06.222下午, 467.0, 6.97, 9.81, 9.81, 26.58
172, 0.855, 2017/11/14 06:17:06.227下午, 478.0, 7.48, 9.29, 10.58, 27.35
173, 0.86, 2017/11/14 06:17:06.232下午, 471.0, 8.77, 9.03, 9.81, 27.61
174, 0.865, 2017/11/14 06:17:06.237下午, 463.0, 9.29, 9.03, 9.03, 27.35
175, 0.87, 2017/11/14 06:17:06.242下午, 468.0, 8.00, 9.81, 9.29, 27.10
176, 0.875, 2017/11/14 06:17:06.247下午, 466.0, 8.26, 9.29, 9.29, 26.84
177, 0.88, 2017/11/14 06:17:06.252下午, 463.0, 8.00, 9.29, 9.55, 26.84
178, 0.885, 2017/11/14 06:17:06.257下午, 468.0, 9.55, 9.55, 8.52, 27.61
179, 0.89, 2017/11/14 06:17:06.262下午, 474.0, 7.74, 9.29, 10.06, 27.10
180, 0.895, 2017/11/14 06:17:06.267下午, 482.0, 9.03, 9.29, 9.81, 28.13
181, 0.9, 2017/11/14 06:17:06.272下午, 487.0, 9.03, 9.29, 10.32, 28.65
182, 0.905, 2017/11/14 06:17:06.277下午, 481.0, 8.26, 9.55, 10.06, 27.87
183, 0.91, 2017/11/14 06:17:06.282下午, 483.0, 9.03, 8.52, 10.58, 28.13
184, 0.915, 2017/11/14 06:17:06.287下午, 496.0, 9.81, 9.03, 10.58, 29.42
185, 0.92, 2017/11/14 06:17:06.292下午, 460.0, 8.77, 8.77, 8.77, 26.32
186, 0.925, 2017/11/14 06:17:06.297下午, 475.0, 8.52, 9.03, 10.32, 27.87
187, 0.93, 2017/11/14 06:17:06.302下午, 498.0, 9.29, 9.55, 10.32, 29.16
188, 0.935, 2017/11/14 06:17:06.307下午, 469.0, 8.77, 9.03, 9.29, 27.10
189, 0.94, 2017/11/14 06:17:06.312下午, 460.0, 9.03, 8.52, 9.03, 26.58
190, 0.945, 2017/11/14 06:17:06.317下午, 486.0, 9.55, 8.77, 10.58, 28.90
191, 0.95, 2017/11/14 06:17:06.322下午, 463.0, 8.26, 8.77, 9.29, 26.32
192, 0.955, 2017/11/14 06:17:06.327下午, 477.0, 9.55, 9.03, 9.03, 27.61
193, 0.96, 2017/11/14 06:17:06.332下午, 478.0, 9.55, 9.03, 9.55, 28.13
194, 0.965, 2017/11/14 06:17:06.337下午, 481.0, 8.77, 8.77, 10.06, 27.61
195, 0.97, 2017/11/14 06:17:06.342下午, 466.0, 9.03, 8.77, 9.29, 27.10
196, 0.975, 2017/11/14 06:17:06.347下午, 483.0, 9.55, 9.29, 9.29, 28.13
197, 0.98, 2017/11/14 06:17:06.352下午, 472.0, 8.77, 9.29, 9.29, 27.35
198, 0.985, 2017/11/14 06:17:06.357下午, 467.0, 9.29, 8.77, 9.03, 27.10
199, 0.99, 2017/11/14 06:17:06.362下午, 466.0, 9.29, 9.29, 9.03, 27.61
200, 0.995, 2017/11/14 06:17:06.367下午, 490.0, 9.81, 9.29, 9.55, 28.65
201, 1, 2017/11/14 06:17:06.372下午, 469.0, 9.81, 8.00, 9.29, 27.10
202, 1.005, 2017/11/14 06:17:06.377下午, 484.0, 9.55, 9.55, 9.55, 28.65
203, 1.01, 2017/11/14 06:17:06.382下午, 477.0, 9.03, 8.77, 9.29, 27.10
204, 1.015, 2017/11/14 06:17:06.387下午, 471.0, 9.81, 8.77, 9.03, 27.61
205, 1.02, 2017/11/14 06:17:06.392下午, 474.0, 9.55, 9.29, 8.52, 27.35
206, 1.025, 2017/11/14 06:17:06.397下午, 480.0, 9.55, 9.29, 8.77, 27.61
207, 1.03, 2017/11/14 06:17:06.402下午, 476.0, 9.81, 9.03, 9.03, 27.87
208, 1.035, 2017/11/14 06:17:06.407下午, 470.0, 9.81, 9.29, 7.74, 26.84
209, 1.04, 2017/11/14 06:17:06.412下午, 499.0, 9.29, 8.77, 11.10, 29.16
210, 1.045, 2017/11/14 06:17:06.417下午, 511.0, 11.10, 9.29, 10.06, 30.45
211, 1.05, 2017/11/14 06:17:06.422下午, 480.0, 9.29, 9.29, 8.77, 27.35
212, 1.055, 2017/11/14 06:17:06.427下午, 475.0, 9.03, 8.77, 9.29, 27.10
213, 1.06, 2017/11/14 06:17:06.432下午, 479.0, 9.55, 9.03, 9.29, 27.87
214, 1.065, 2017/11/14 06:17:06.437下午, 484.0, 9.55, 9.55, 9.03, 28.13
215, 1.07, 2017/11/14 06:17:06.442下午, 479.0, 9.29, 9.29, 9.03, 27.61
216, 1.075, 2017/11/14 06:17:06.447下午, 479.0, 10.32, 9.03, 8.77, 28.13
217, 1.08, 2017/11/14 06:17:06.452下午, 495.0, 9.81, 9.29, 9.55, 28.65
218, 1.085, 2017/11/14 06:17:06.457下午, 471.0, 9.55, 8.00, 9.29, 26.84
219, 1.09, 2017/11/14 06:17:06.462下午, 474.0, 9.81, 9.03, 9.03, 27.87
220, 1.095, 2017/11/14 06:17:06.467下午, 456.0, 9.55, 9.29, 7.74, 26.58
221, 1.1, 2017/11/14 06:17:06.472下午, 471.0, 9.55, 9.29, 8.52, 27.35
222, 1.105, 2017/11/14 06:17:06.477下午, 475.0, 9.55, 8.77, 9.29, 27.61
223, 1.11, 2017/11/14 06:17:06.482下午, 464.0, 9.81, 9.29, 7.74, 26.84
224, 1.115, 2017/11/14 06:17:06.487下午, 477.0, 9.55, 9.29, 8.77, 27.61
225, 1.12, 2017/11/14 06:17:06.492下午, 462.0, 9.81, 8.00, 9.03, 26.84
226, 1.125, 2017/11/14 06:17:06.497下午, 484.0, 10.06, 9.03, 9.03, 28.13
227, 1.13, 2017/11/14 06:17:06.502下午, 467.0, 9.55, 8.77, 8.26, 26.58
228, 1.135, 2017/11/14 06:17:06.507下午, 471.0, 9.29, 8.52, 9.29, 27.10
229, 1.14, 2017/11/14 06:17:06.512下午, 491.0, 10.84, 8.77, 9.29, 28.90
230, 1.145, 2017/11/14 06:17:06.517下午, 466.0, 9.55, 9.29, 7.48, 26.32
231, 1.15, 2017/11/14 06:17:06.522下午, 465.0, 9.29, 8.52, 9.29, 27.10
232, 1.155, 2017/11/14 06:17:06.527下午, 500.0, 11.10, 9.03, 9.55, 29.68
233, 1.16, 2017/11/14 06:17:06.532下午, 482.0, 9.55, 9.29, 8.77, 27.61
234, 1.165, 2017/11/14 06:17:06.537下午, 477.0, 9.55, 8.52, 9.29, 27.35
235, 1.17, 2017/11/14 06:17:06.542下午, 483.0, 9.81, 9.03, 9.81, 28.65
236, 1.175, 2017/11/14 06:17:06.547下午, 502.0, 10.84, 9.55, 8.77, 29.16
237, 1.18, 2017/11/14 06:17:06.552下午, 481.0, 9.81, 9.29, 8.77, 27.87
238, 1.185, 2017/11/14 06:17:06.557下午, 471.0, 9.29, 8.52, 9.03, 26.84
239, 1.19, 2017/11/14 06:17:06.562下午, 483.0, 11.10, 8.77, 8.52, 28.39
240, 1.195, 2017/11/14 06:17:06.567下午, 489.0, 10.58, 9.29, 8.26, 28.13
241, 1.2, 2017/11/14 06:17:06.572下午, 473.0, 9.81, 8.26, 9.03, 27.10
242, 1.205, 2017/11/14 06:17:06.577下午, 507.0, 11.61, 8.77, 9.55, 29.94
243, 1.21, 2017/11/14 06:17:06.582下午, 494.0, 10.58, 8.77, 9.03, 28.39
244, 1.215, 2017/11/14 06:17:06.587下午, 486.0, 10.32, 8.26, 9.55, 28.13
245, 1.22, 2017/11/14 06:17:06.592下午, 488.0, 11.61, 8.77, 8.00, 28.39
246, 1.225, 2017/11/14 06:17:06.597下午, 489.0, 10.58, 9.55, 8.26, 28.39
247, 1.23, 2017/11/14 06:17:06.602下午, 501.0, 10.84, 8.52, 9.29, 28.65
248, 1.235, 2017/11/14 06:17:06.607下午, 499.0, 11.10, 9.03, 8.77, 28.90
249, 1.24, 2017/11/14 06:17:06.612下午, 503.0, 10.84, 9.29, 9.55, 29.68
250, 1.245, 2017/11/14 06:17:06.617下午, 479.0, 10.58, 8.77, 8.00, 27.35
251, 1.25, 2017/11/14 06:17:06.622下午, 458.0, 9.81, 8.00, 8.00, 25.81
252, 1.255, 2017/11/14 06:17:06.627下午, 488.0, 11.10, 8.77, 8.00, 27.87
253, 1.26, 2017/11/14 06:17:06.632下午, 511.0, 11.35, 9.29, 9.03, 29.68
254, 1.265, 2017/11/14 06:17:06.637下午, 471.0, 9.81, 8.52, 8.26, 26.58
255, 1.27, 2017/11/14 06:17:06.642下午, 465.0, 9.81, 8.77, 8.26, 26.84
256, 1.275, 2017/11/14 06:17:06.647下午, 494.0, 11.10, 9.03, 8.00, 28.13
257, 1.28, 2017/11/14 06:17:06.652下午, 494.0, 11.10, 8.26, 9.03, 28.39
258, 1.285, 2017/11/14 06:17:06.657下午, 483.0, 11.10, 8.77, 8.26, 28.13
259, 1.29, 2017/11/14 06:17:06.662下午, 501.0, 11.87, 8.77, 8.77, 29.42
260, 1.295, 2017/11/14 06:17:06.667下午, 508.0, 11.61, 9.29, 8.52, 29.42
261, 1.3, 2017/11/14 06:17:06.672下午, 486.0, 11.10, 8.26, 8.26, 27.61
262, 1.305, 2017/11/14 06:17:06.677下午, 489.0, 11.10, 8.52, 8.26, 27.87
263, 1.31, 2017/11/14 06:17:06.682下午, 485.0, 11.35, 9.29, 6.97, 27.61
264, 1.315, 2017/11/14 06:17:06.687下午, 490.0, 11.61, 8.26, 8.00, 27.87
265, 1.32, 2017/11/14 06:17:06.692下午, 497.0, 11.10, 8.77, 9.03, 28.90
266, 1.325, 2017/11/14 06:17:06.697下午, 490.0, 11.35, 8.77, 8.00, 28.13
267, 1.33, 2017/11/14 06:17:06.702下午, 493.0, 11.10, 8.77, 8.52, 28.39
268, 1.335, 2017/11/14 06:17:06.707下午, 487.0, 11.35, 8.00, 8.77, 28.13
269, 1.34, 2017/11/14 06:17:06.712下午, 484.0, 11.61, 8.77, 7.48, 27.87
270, 1.345, 2017/11/14 06:17:06.717下午, 514.0, 11.35, 8.77, 9.55, 29.68
271, 1.35, 2017/11/14 06:17:06.722下午, 495.0, 11.61, 8.77, 8.00, 28.39
272, 1.355, 2017/11/14 06:17:06.727下午, 497.0, 12.13, 8.77, 7.48, 28.39
273, 1.36, 2017/11/14 06:17:06.732下午, 508.0, 11.87, 8.52, 9.03, 29.42
274, 1.365, 2017/11/14 06:17:06.737下午, 501.0, 12.13, 8.77, 8.00, 28.90
275, 1.37, 2017/11/14 06:17:06.742下午, 489.0, 11.35, 8.77, 7.74, 27.87
276, 1.375, 2017/11/14 06:17:06.747下午, 501.0, 11.87, 8.52, 8.26, 28.65
277, 1.38, 2017/11/14 06:17:06.752下午, 495.0, 12.65, 8.52, 7.48, 28.65
278, 1.385, 2017/11/14 06:17:06.757下午, 484.0, 11.87, 9.29, 6.45, 27.61
279, 1.39, 2017/11/14 06:17:06.762下午, 506.0, 12.13, 8.00, 8.77, 28.90
280, 1.395, 2017/11/14 06:17:06.767下午, 496.0, 11.87, 8.77, 8.52, 29.16
281, 1.4, 2017/11/14 06:17:06.772下午, 518.0, 12.39, 8.77, 9.03, 30.19
282, 1.405, 2017/11/14 06:17:06.777下午, 496.0, 12.13, 8.26, 7.48, 27.87
283, 1.41, 2017/11/14 06:17:06.782下午, 511.0, 13.42, 8.77, 7.23, 29.42
284, 1.415, 2017/11/14 06:17:06.787下午, 509.0, 11.61, 8.77, 8.52, 28.90
285, 1.42, 2017/11/14 06:17:06.792下午, 518.0, 12.90, 8.00, 9.03, 29.94
286, 1.425, 2017/11/14 06:17:06.797下午, 518.0, 12.39, 8.77, 9.03, 30.19
287, 1.43, 2017/11/14 06:17:06.802下午, 514.0, 11.87, 8.26, 9.03, 29.16
288, 1.435, 2017/11/14 06:17:06.807下午, 509.0, 13.16, 8.26, 7.48, 28.90
289, 1.44, 2017/11/14 06:17:06.812下午, 503.0, 13.16, 8.77, 6.97, 28.90
290, 1.445, 2017/11/14 06:17:06.817下午, 511.0, 12.65, 8.26, 8.26, 29.16
291, 1.45, 2017/11/14 06:17:06.822下午, 517.0, 13.16, 8.77, 8.00, 29.94
292, 1.455, 2017/11/14 06:17:06.827下午, 489.0, 12.13, 8.77, 6.71, 27.61
293, 1.46, 2017/11/14 06:17:06.832下午, 513.0, 12.13, 9.29, 8.00, 29.42
294, 1.465, 2017/11/14 06:17:06.837下午, 507.0, 12.90, 8.77, 7.48, 29.16
295, 1.47, 2017/11/14 06:17:06.842下午, 503.0, 12.90, 8.77, 6.45, 28.13
296, 1.475, 2017/11/14 06:17:06.847下午, 505.0, 11.87, 8.00, 8.77, 28.65
297, 1.48, 2017/11/14 06:17:06.852下午, 512.0, 13.42, 8.52, 7.48, 29.42
298, 1.485, 2017/11/14 06:17:06.857下午, 518.0, 12.13, 8.77, 9.03, 29.94
299, 1.49, 2017/11/14 06:17:06.862下午, 518.0, 12.90, 8.00, 8.77, 29.68
300, 1.495, 2017/11/14 06:17:06.867下午, 512.0, 12.90, 8.77, 7.48, 29.16
301, 1.5, 2017/11/14 06:17:06.872下午, 515.0, 12.13, 8.00, 9.29, 29.42
302, 1.505, 2017/11/14 06:17:06.877下午, 510.0, 13.16, 8.77, 7.48, 29.42
303, 1.51, 2017/11/14 06:17:06.882下午, 526.0, 12.90, 8.77, 8.26, 29.94
304, 1.515, 2017/11/14 06:17:06.887下午, 495.0, 12.90, 8.26, 6.97, 28.13
305, 1.52, 2017/11/14 06:17:06.892下午, 520.0, 13.68, 8.77, 7.23, 29.68
306, 1.525, 2017/11/14 06:17:06.897下午, 515.0, 12.65, 7.74, 8.52, 28.90
307, 1.53, 2017/11/14 06:17:06.902下午, 503.0, 12.90, 8.52, 7.48, 28.90
308, 1.535, 2017/11/14 06:17:06.907下午, 511.0, 13.16, 8.77, 7.48, 29.42
309, 1.54, 2017/11/14 06:17:06.912下午, 498.0, 12.90, 8.00, 7.48, 28.39
310, 1.545, 2017/11/14 06:17:06.917下午, 522.0, 13.16, 8.77, 8.00, 29.94
311, 1.55, 2017/11/14 06:17:06.922下午, 522.0, 13.94, 8.00, 8.26, 30.19
312, 1.555, 2017/11/14 06:17:06.927下午, 529.0, 13.68, 8.77, 8.52, 30.97
313, 1.56, 2017/11/14 06:17:06.932下午, 527.0, 12.90, 8.77, 8.52, 30.19
314, 1.565, 2017/11/14 06:17:06.937下午, 512.0, 13.94, 8.00, 7.48, 29.42
315, 1.57, 2017/11/14 06:17:06.942下午, 525.0, 14.19, 8.77, 7.23, 30.19
316, 1.575, 2017/11/14 06:17:06.947下午, 526.0, 13.16, 8.00, 9.03, 30.19
317, 1.58, 2017/11/14 06:17:06.952下午, 515.0, 13.42, 8.77, 7.48, 29.68
318, 1.585, 2017/11/14 06:17:06.957下午, 513.0, 13.16, 8.77, 7.23, 29.16
319, 1.59, 2017/11/14 06:17:06.962下午, 517.0, 13.42, 8.00, 8.00, 29.42
320, 1.595, 2017/11/14 06:17:06.967下午, 526.0, 14.19, 8.77, 7.23, 30.19
321, 1.6, 2017/11/14 06:17:06.972下午, 525.0, 13.94, 9.29, 6.97, 30.19
322, 1.605, 2017/11/14 06:17:06.977下午, 511.0, 13.16, 8.00, 8.00, 29.16
323, 1.61, 2017/11/14 06:17:06.982下午, 533.0, 14.45, 8.77, 7.48, 30.71
324, 1.615, 2017/11/14 06:17:06.987下午, 511.0, 13.42, 8.00, 8.26, 29.68
325, 1.62, 2017/11/14 06:17:06.992下午, 527.0, 14.19, 8.77, 8.00, 30.97
326, 1.625, 2017/11/14 06:17:06.997下午, 535.0, 13.42, 8.77, 8.52, 30.71
327, 1.63, 2017/11/14 06:17:07.002下午, 510.0, 13.16, 8.00, 7.48, 28.65
328, 1.635, 2017/11/14 06:17:07.007下午, 518.0, 13.94, 8.77, 6.97, 29.68
329, 1.64, 2017/11/14 06:17:07.012下午, 513.0, 12.65, 8.77, 7.48, 28.90
330, 1.645, 2017/11/14 06:17:07.017下午, 515.0, 12.90, 8.77, 8.00, 29.68
331, 1.65, 2017/11/14 06:17:07.022下午, 527.0, 13.16, 9.29, 7.48, 29.94
332, 1.655, 2017/11/14 06:17:07.027下午, 520.0, 13.42, 8.26, 8.00, 29.68
333, 1.66, 2017/11/14 06:17:07.032下午, 513.0, 13.42, 8.77, 7.48, 29.68
334, 1.665, 2017/11/14 06:17:07.037下午, 530.0, 14.45, 9.29, 6.71, 30.45
335, 1.67, 2017/11/14 06:17:07.042下午, 534.0, 13.42, 8.77, 8.52, 30.71
336, 1.675, 2017/11/14 06:17:07.047下午, 504.0, 12.90, 8.00, 7.48, 28.39
337, 1.68, 2017/11/14 06:17:07.052下午, 522.0, 13.94, 8.77, 6.97, 29.68
338, 1.685, 2017/11/14 06:17:07.057下午, 534.0, 13.42, 8.26, 8.77, 30.45
339, 1.69, 2017/11/14 06:17:07.062下午, 513.0, 12.90, 8.77, 7.74, 29.42
340, 1.695, 2017/11/14 06:17:07.067下午, 519.0, 13.42, 8.77, 6.97, 29.16
341, 1.7, 2017/11/14 06:17:07.072下午, 532.0, 13.68, 8.26, 8.52, 30.45
342, 1.705, 2017/11/14 06:17:07.077下午, 524.0, 14.45, 8.77, 7.23, 30.45
343, 1.71, 2017/11/14 06:17:07.082下午, 510.0, 12.65, 8.77, 7.48, 28.90
344, 1.715, 2017/11/14 06:17:07.087下午, 508.0, 13.16, 8.00, 7.48, 28.65
345, 1.72, 2017/11/14 06:17:07.092下午, 527.0, 13.94, 8.77, 7.74, 30.45
346, 1.725, 2017/11/14 06:17:07.097下午, 517.0, 12.65, 8.26, 8.26, 29.16
347, 1.73, 2017/11/14 06:17:07.102下午, 521.0, 13.68, 8.26, 8.00, 29.94
348, 1.735, 2017/11/14 06:17:07.107下午, 515.0, 13.94, 8.77, 6.97, 29.68
349, 1.74, 2017/11/14 06:17:07.112下午, 544.0, 13.42, 9.29, 8.77, 31.48
350, 1.745, 2017/11/14 06:17:07.117下午, 515.0, 13.42, 8.00, 7.48, 28.90
351, 1.75, 2017/11/14 06:17:07.122下午, 531.0, 14.45, 8.77, 7.23, 30.45
352, 1.755, 2017/11/14 06:17:07.127下午, 525.0, 13.16, 8.26, 8.00, 29.42
353, 1.76, 2017/11/14 06:17:07.132下午, 501.0, 13.16, 8.00, 6.97, 28.13
354, 1.765, 2017/11/14 06:17:07.137下午, 517.0, 12.90, 8.77, 8.00, 29.68
355, 1.77, 2017/11/14 06:17:07.142下午, 533.0, 13.42, 8.26, 9.29, 30.97
356, 1.775, 2017/11/14 06:17:07.147下午, 502.0, 12.90, 8.52, 7.48, 28.90
357, 1.78, 2017/11/14 06:17:07.152下午, 527.0, 13.94, 8.52, 7.74, 30.19
358, 1.785, 2017/11/14 06:17:07.157下午, 519.0, 13.94, 8.26, 7.74, 29.94
359, 1.79, 2017/11/14 06:17:07.162下午, 524.0, 14.19, 9.03, 6.97, 30.19
360, 1.795, 2017/11/14 06:17:07.167下午, 530.0, 13.42, 8.52, 8.26, 30.19
361, 1.8, 2017/11/14 06:17:07.172下午, 516.0, 13.42, 8.77, 7.48, 29.68
362, 1.805, 2017/11/14 06:17:07.177下午, 532.0, 14.45, 9.29, 6.71, 30.45
363, 1.81, 2017/11/14 06:17:07.182下午, 522.0, 13.42, 8.00, 7.74, 29.16
364, 1.815, 2017/11/14 06:17:07.187下午, 519.0, 13.94, 8.77, 6.97, 29.68
365, 1.82, 2017/11/14 06:17:07.192下午, 534.0, 13.42, 8.77, 8.00, 30.19
366, 1.825, 2017/11/14 06:17:07.197下午, 505.0, 13.42, 8.00, 7.48, 28.90
367, 1.83, 2017/11/14 06:17:07.202下午, 527.0, 14.45, 8.77, 7.23, 30.45
368, 1.835, 2017/11/14 06:17:07.207下午, 533.0, 13.42, 8.26, 9.03, 30.71
369, 1.84, 2017/11/14 06:17:07.212下午, 510.0, 13.42, 8.52, 7.48, 29.42
370, 1.845, 2017/11/14 06:17:07.217下午, 529.0, 13.68, 8.52, 8.00, 30.19
371, 1.85, 2017/11/14 06:17:07.222下午, 518.0, 13.68, 8.00, 8.00, 29.68
372, 1.855, 2017/11/14 06:17:07.227下午, 503.0, 13.94, 8.52, 5.94, 28.39
373, 1.86, 2017/11/14 06:17:07.232下午, 536.0, 13.42, 8.00, 8.77, 30.19
374, 1.865, 2017/11/14 06:17:07.237下午, 528.0, 14.45, 8.77, 6.97, 30.19
375, 1.87, 2017/11/14 06:17:07.242下午, 507.0, 13.42, 8.77, 5.94, 28.13
376, 1.875, 2017/11/14 06:17:07.247下午, 516.0, 13.68, 8.00, 8.52, 30.19
377, 1.88, 2017/11/14 06:17:07.252下午, 521.0, 13.68, 8.77, 6.97, 29.42
378, 1.885, 2017/11/14 06:17:07.257下午, 523.0, 13.94, 8.00, 8.00, 29.94
379, 1.89, 2017/11/14 06:17:07.262下午, 535.0, 14.45, 9.29, 6.97, 30.71
380, 1.895, 2017/11/14 06:17:07.267下午, 518.0, 13.94, 7.74, 7.74, 29.42
381, 1.9, 2017/11/14 06:17:07.272下午, 533.0, 14.45, 8.26, 8.00, 30.71
382, 1.905, 2017/11/14 06:17:07.277下午, 520.0, 13.42, 8.77, 7.23, 29.42
383, 1.91, 2017/11/14 06:17:07.282下午, 526.0, 14.45, 8.77, 6.97, 30.19
384, 1.915, 2017/11/14 06:17:07.287下午, 542.0, 14.71, 8.52, 8.26, 31.48
385, 1.92, 2017/11/14 06:17:07.292下午, 524.0, 13.94, 8.00, 8.00, 29.94
386, 1.925, 2017/11/14 06:17:07.297下午, 537.0, 14.45, 9.29, 6.97, 30.71
387, 1.93, 2017/11/14 06:17:07.302下午, 521.0, 14.19, 8.00, 7.48, 29.68
388, 1.935, 2017/11/14 06:17:07.307下午, 525.0, 14.19, 8.52, 7.48, 30.19
389, 1.94, 2017/11/14 06:17:07.312下午, 523.0, 13.42, 8.26, 8.00, 29.68
390, 1.945, 2017/11/14 06:17:07.317下午, 506.0, 12.90, 8.52, 7.48, 28.90
391, 1.95, 2017/11/14 06:17:07.322下午, 508.0, 13.42, 8.52, 6.45, 28.39
392, 1.955, 2017/11/14 06:17:07.327下午, 528.0, 13.94, 8.00, 8.00, 29.94
393, 1.96, 2017/11/14 06:17:07.332下午, 534.0, 14.19, 8.77, 8.00, 30.97
394, 1.965, 2017/11/14 06:17:07.337下午, 525.0, 13.42, 8.00, 8.77, 30.19
395, 1.97, 2017/11/14 06:17:07.342下午, 525.0, 14.19, 8.77, 7.48, 30.45
396, 1.975, 2017/11/14 06:17:07.347下午, 532.0, 13.42, 8.77, 8.26, 30.45
397, 1.98, 2017/11/14 06:17:07.352下午, 511.0, 13.94, 8.00, 6.97, 28.90
398, 1.985, 2017/11/14 06:17:07.357下午, 545.0, 13.68, 9.03, 8.52, 31.23
399, 1.99, 2017/11/14 06:17:07.362下午, 532.0, 14.19, 8.26, 8.00, 30.45
400, 1.995, 2017/11/14 06:17:07.367下午, 522.0, 14.19, 8.77, 6.45, 29.42
401, 2, 2017/11/14 06:17:07.372下午, 533.0, 13.94, 8.00, 8.77, 30.71
402, 2.005, 2017/11/14 06:17:07.377下午, 525.0, 14.19, 8.77, 6.97, 29.94
403, 2.01, 2017/11/14 06:17:07.382下午, 525.0, 14.45, 8.00, 7.48, 29.94
404, 2.015, 2017/11/14 06:17:07.387下午, 525.0, 13.94, 8.52, 7.48, 29.94
405, 2.02, 2017/11/14 06:17:07.392下午, 518.0, 13.68, 7.74, 8.26, 29.68
406, 2.025, 2017/11/14 06:17:07.397下午, 525.0, 14.45, 8.00, 7.48, 29.94
407, 2.03, 2017/11/14 06:17:07.402下午, 514.0, 14.45, 8.00, 6.45, 28.90
408, 2.035, 2017/11/14 06:17:07.407下午, 532.0, 13.42, 8.00, 9.03, 30.45
409, 2.04, 2017/11/14 06:17:07.412下午, 531.0, 14.45, 8.52, 7.48, 30.45
410, 2.045, 2017/11/14 06:17:07.417下午, 540.0, 13.42, 8.52, 9.29, 31.23
411, 2.05, 2017/11/14 06:17:07.422下午, 520.0, 13.94, 8.00, 7.48, 29.42
412, 2.055, 2017/11/14 06:17:07.427下午, 536.0, 14.19, 8.77, 7.48, 30.45
413, 2.06, 2017/11/14 06:17:07.432下午, 523.0, 13.42, 8.00, 7.74, 29.16
414, 2.065, 2017/11/14 06:17:07.437下午, 527.0, 14.45, 7.74, 7.48, 29.68
415, 2.07, 2017/11/14 06:17:07.442下午, 533.0, 14.19, 8.77, 7.48, 30.45
416, 2.075, 2017/11/14 06:17:07.447下午, 538.0, 14.19, 8.00, 8.26, 30.45
417, 2.08, 2017/11/14 06:17:07.452下午, 538.0, 14.45, 8.52, 8.00, 30.97
418, 2.085, 2017/11/14 06:17:07.457下午, 521.0, 13.42, 8.52, 7.48, 29.42
419, 2.09, 2017/11/14 06:17:07.462下午, 536.0, 14.45, 8.00, 8.00, 30.45
420, 2.095, 2017/11/14 06:17:07.467下午, 511.0, 14.45, 8.52, 5.94, 28.90
421, 2.1, 2017/11/14 06:17:07.472下午, 504.0, 13.42, 8.00, 6.45, 27.87
422, 2.105, 2017/11/14 06:17:07.477下午, 530.0, 14.19, 8.77, 7.48, 30.45
423, 2.11, 2017/11/14 06:17:07.482下午, 532.0, 14.19, 8.00, 8.00, 30.19
424, 2.115, 2017/11/14 06:17:07.487下午, 528.0, 14.45, 8.77, 6.97, 30.19
425, 2.12, 2017/11/14 06:17:07.492下午, 517.0, 14.19, 8.52, 6.45, 29.16
426, 2.125, 2017/11/14 06:17:07.497下午, 511.0, 13.68, 8.00, 7.48, 29.16
427, 2.13, 2017/11/14 06:17:07.502下午, 523.0, 14.19, 8.77, 6.97, 29.94
428, 2.135, 2017/11/14 06:17:07.507下午, 513.0, 13.16, 8.00, 8.00, 29.16
429, 2.14, 2017/11/14 06:17:07.512下午, 534.0, 14.45, 8.52, 7.48, 30.45
430, 2.145, 2017/11/14 06:17:07.517下午, 528.0, 13.16, 8.52, 8.52, 30.19
431, 2.15, 2017/11/14 06:17:07.522下午, 517.0, 13.94, 8.52, 6.97, 29.42
432, 2.155, 2017/11/14 06:17:07.527下午, 528.0, 14.45, 8.77, 7.23, 30.45
433, 2.16, 2017/11/14 06:17:07.532下午, 535.0, 14.45, 8.26, 8.00, 30.71
434, 2.165, 2017/11/14 06:17:07.537下午, 525.0, 14.45, 8.52, 6.97, 29.94
435, 2.17, 2017/11/14 06:17:07.542下午, 517.0, 14.19, 8.26, 6.71, 29.16
436, 2.175, 2017/11/14 06:17:07.547下午, 526.0, 14.45, 8.52, 6.97, 29.94
437, 2.18, 2017/11/14 06:17:07.552下午, 513.0, 13.16, 8.00, 7.48, 28.65
438, 2.185, 2017/11/14 06:17:07.557下午, 535.0, 14.19, 8.00, 8.52, 30.71
439, 2.19, 2017/11/14 06:17:07.562下午, 525.0, 13.94, 8.52, 7.48, 29.94
440, 2.195, 2017/11/14 06:17:07.567下午, 537.0, 14.19, 8.77, 7.23, 30.19
441, 2.2, 2017/11/14 06:17:07.572下午, 521.0, 14.45, 8.00, 6.97, 29.42
442, 2.205, 2017/11/14 06:17:07.577下午, 536.0, 14.45, 8.77, 7.48, 30.71
443, 2.21, 2017/11/14 06:17:07.582下午, 530.0, 14.19, 8.26, 7.48, 29.94
444, 2.215, 2017/11/14 06:17:07.587下午, 531.0, 14.45, 8.52, 7.48, 30.45
445, 2.22, 2017/11/14 06:17:07.592下午, 505.0, 13.42, 8.26, 6.71, 28.39
446, 2.225, 2017/11/14 06:17:07.597下午, 529.0, 14.19, 8.52, 7.48, 30.19
447, 2.23, 2017/11/14 06:17:07.602下午, 508.0, 13.42, 7.74, 6.97, 28.13
448, 2.235, 2017/11/14 06:17:07.607下午, 524.0, 13.68, 8.00, 8.00, 29.68
449, 2.24, 2017/11/14 06:17:07.612下午, 523.0, 14.19, 8.52, 6.97, 29.68
450, 2.245, 2017/11/14 06:17:07.617下午, 532.0, 13.68, 8.77, 7.74, 30.19
451, 2.25, 2017/11/14 06:17:07.622下午, 530.0, 14.45, 8.26, 8.00, 30.71
452, 2.255, 2017/11/14 06:17:07.627下午, 524.0, 14.45, 8.52, 6.97, 29.94
453, 2.26, 2017/11/14 06:17:07.632下午, 553.0, 15.23, 8.52, 8.26, 32.00
454, 2.265, 2017/11/14 06:17:07.637下午, 536.0, 14.71, 8.26, 8.26, 31.23
455, 2.27, 2017/11/14 06:17:07.642下午, 520.0, 14.71, 8.26, 6.45, 29.42
456, 2.275, 2017/11/14 06:17:07.647下午, 538.0, 14.45, 8.00, 8.00, 30.45
457, 2.28, 2017/11/14 06:17:07.652下午, 530.0, 14.45, 8.52, 7.23, 30.19
458, 2.285, 2017/11/14 06:17:07.657下午, 534.0, 14.45, 8.77, 7.48, 30.71
459, 2.29, 2017/11/14 06:17:07.662下午, 513.0, 13.94, 8.00, 6.97, 28.90
460, 2.295, 2017/11/14 06:17:07.667下午, 535.0, 14.45, 8.52, 7.48, 30.45
461, 2.3, 2017/11/14 06:17:07.672下午, 508.0, 14.19, 8.00, 6.19, 28.39
462, 2.305, 2017/11/14 06:17:07.677下午, 538.0, 14.45, 8.00, 8.00, 30.45
463, 2.31, 2017/11/14 06:17:07.682下午, 533.0, 14.45, 8.52, 7.48, 30.45
464, 2.315, 2017/11/14 06:17:07.687下午, 527.0, 14.71, 7.74, 7.23, 29.68
465, 2.32, 2017/11/14 06:17:07.692下午, 523.0, 13.94, 8.00, 8.00, 29.94
466, 2.325, 2017/11/14 06:17:07.697下午, 532.0, 14.45, 8.77, 6.97, 30.19
467, 2.33, 2017/11/14 06:17:07.702下午, 561.0, 14.71, 8.26, 9.29, 32.26
468, 2.335, 2017/11/14 06:17:07.707下午, 529.0, 14.19, 8.52, 8.00, 30.71
469, 2.34, 2017/11/14 06:17:07.712下午, 514.0, 14.19, 8.00, 6.45, 28.65
470, 2.345, 2017/11/14 06:17:07.717下午, 539.0, 14.71, 8.26, 8.00, 30.97
471, 2.35, 2017/11/14 06:17:07.722下午, 531.0, 14.45, 8.26, 7.48, 30.19
472, 2.355, 2017/11/14 06:17:07.727下午, 522.0, 14.71, 8.26, 6.45, 29.42
473, 2.36, 2017/11/14 06:17:07.732下午, 522.0, 14.71, 8.00, 7.48, 30.19
474, 2.365, 2017/11/14 06:17:07.737下午, 529.0, 14.45, 8.52, 6.97, 29.94
475, 2.37, 2017/11/14 06:17:07.742下午, 548.0, 13.94, 8.52, 8.77, 31.23
476, 2.375, 2017/11/14 06:17:07.747下午, 530.0, 14.45, 8.26, 7.48, 30.19
477, 2.38, 2017/11/14 06:17:07.752下午, 514.0, 14.45, 8.26, 6.19, 28.90
478, 2.385, 2017/11/14 06:17:07.757下午, 529.0, 14.71, 8.00, 7.48, 30.19
479, 2.39, 2017/11/14 06:17:07.762下午, 513.0, 13.68, 8.52, 6.97, 29.16
480, 2.395, 2017/11/14 06:17:07.767下午, 561.0, 14.71, 8.77, 8.77, 32.26
481, 2.4, 2017/11/14 06:17:07.772下午, 536.0, 14.45, 8.52, 7.48, 30.45
482, 2.405, 2017/11/14 06:17:07.777下午, 543.0, 14.71, 8.77, 7.48, 30.97
483, 2.41, 2017/11/14 06:17:07.782下午, 527.0, 13.94, 8.52, 7.48, 29.94
484, 2.415, 2017/11/14 06:17:07.787下午, 513.0, 14.19, 8.00, 6.19, 28.39
485, 2.42, 2017/11/14 06:17:07.792下午, 541.0, 14.97, 8.00, 8.00, 30.97
486, 2.425, 2017/11/14 06:17:07.797下午, 528.0, 13.94, 8.52, 7.48, 29.94
487, 2.43, 2017/11/14 06:17:07.802下午, 550.0, 14.97, 8.26, 8.00, 31.23
488, 2.435, 2017/11/14 06:17:07.807下午, 531.0, 13.94, 8.77, 7.48, 30.19
489, 2.44, 2017/11/14 06:17:07.812下午, 535.0, 14.97, 8.52, 6.97, 30.45
490, 2.445, 2017/11/14 06:17:07.817下午, 540.0, 14.45, 8.52, 8.52, 31.48
491, 2.45, 2017/11/14 06:17:07.822下午, 534.0, 14.71, 8.00, 7.48, 30.19
492, 2.455, 2017/11/14 06:17:07.827下午, 545.0, 14.97, 8.00, 8.00, 30.97
493, 2.46, 2017/11/14 06:17:07.832下午, 532.0, 14.45, 8.52, 6.97, 29.94
494, 2.465, 2017/11/14 06:17:07.837下午, 554.0, 14.71, 8.00, 8.77, 31.48
495, 2.47, 2017/11/14 06:17:07.842下午, 524.0, 14.45, 8.26, 6.97, 29.68
496, 2.475, 2017/11/14 06:17:07.847下午, 551.0, 15.23, 8.00, 8.26, 31.48
497, 2.48, 2017/11/14 06:17:07.852下午, 535.0, 14.97, 8.00, 8.00, 30.97
498, 2.485, 2017/11/14 06:17:07.857下午, 522.0, 14.45, 8.00, 6.45, 28.90
499, 2.49, 2017/11/14 06:17:07.862下午, 533.0, 14.97, 8.00, 7.48, 30.45
500, 2.495, 2017/11/14 06:17:07.867下午, 527.0, 14.19, 8.77, 6.97, 29.94
501, 2.5, 2017/11/14 06:17:07.872下午, 532.0, 14.97, 8.00, 7.48, 30.45
502, 2.505, 2017/11/14 06:17:07.877下午, 541.0, 14.45, 8.77, 7.48, 30.71
503, 2.51, 2017/11/14 06:17:07.882下午, 545.0, 14.97, 8.26, 7.74, 30.97
504, 2.515, 2017/11/14 06:17:07.887下午, 545.0, 14.19, 8.77, 8.00, 30.97
505, 2.52, 2017/11/14 06:17:07.892下午, 556.0, 14.71, 8.00, 9.29, 32.00
506, 2.525, 2017/11/14 06:17:07.897下午, 534.0, 14.45, 8.52, 7.48, 30.45
507, 2.53, 2017/11/14 06:17:07.902下午, 540.0, 14.45, 7.74, 8.00, 30.19
508, 2.535, 2017/11/14 06:17:07.907下午, 542.0, 14.71, 8.26, 7.48, 30.45
509, 2.54, 2017/11/14 06:17:07.912下午, 553.0, 15.23, 8.77, 8.00, 32.00
510, 2.545, 2017/11/14 06:17:07.917下午, 553.0, 14.71, 8.26, 8.00, 30.97
511, 2.55, 2017/11/14 06:17:07.922下午, 521.0, 14.19, 9.03, 5.94, 29.16
512, 2.555, 2017/11/14 06:17:07.927下午, 542.0, 13.94, 8.00, 8.77, 30.71
513, 2.56, 2017/11/14 06:17:07.932下午, 530.0, 15.23, 8.00, 6.97, 30.19
514, 2.565, 2017/11/14 06:17:07.937下午, 547.0, 15.48, 8.26, 6.71, 30.45
515, 2.57, 2017/11/14 06:17:07.942下午, 549.0, 15.23, 8.52, 8.00, 31.74
516, 2.575, 2017/11/14 06:17:07.947下午, 543.0, 14.71, 8.77, 6.97, 30.45
517, 2.58, 2017/11/14 06:17:07.952下午, 543.0, 14.97, 8.26, 7.48, 30.71
518, 2.585, 2017/11/14 06:17:07.957下午, 541.0, 14.97, 8.00, 7.74, 30.71
519, 2.59, 2017/11/14 06:17:07.962下午, 540.0, 14.97, 8.00, 7.48, 30.45
520, 2.595, 2017/11/14 06:17:07.967下午, 518.0, 14.45, 8.00, 6.71, 29.16
521, 2.6, 2017/11/14 06:17:07.972下午, 549.0, 14.71, 8.00, 8.26, 30.97
522, 2.605, 2017/11/14 06:17:07.977下午, 537.0, 14.19, 8.52, 7.48, 30.19
523, 2.61, 2017/11/14 06:17:07.982下午, 557.0, 14.71, 8.00, 9.03, 31.74
524, 2.615, 2017/11/14 06:17:07.987下午, 520.0, 14.19, 8.52, 6.45, 29.16
525, 2.62, 2017/11/14 06:17:07.992下午, 549.0, 14.97, 8.00, 8.00, 30.97
526, 2.625, 2017/11/14 06:17:07.997下午, 528.0, 14.19, 8.77, 6.97, 29.94
527, 2.63, 2017/11/14 06:17:08.002下午, 552.0, 15.23, 8.52, 7.48, 31.23
528, 2.635, 2017/11/14 06:17:08.007下午, 533.0, 13.68, 8.52, 8.00, 30.19
529, 2.64, 2017/11/14 06:17:08.012下午, 544.0, 14.71, 8.00, 8.00, 30.71
530, 2.645, 2017/11/14 06:17:08.017下午, 539.0, 14.71, 8.52, 7.48, 30.71
531, 2.65, 2017/11/14 06:17:08.022下午, 546.0, 14.97, 8.52, 7.48, 30.97
532, 2.655, 2017/11/14 06:17:08.027下午, 538.0, 14.71, 7.74, 7.48, 29.94
533, 2.66, 2017/11/14 06:17:08.032下午, 521.0, 15.23, 8.26, 5.42, 28.90
534, 2.665, 2017/11/14 06:17:08.037下午, 555.0, 14.71, 8.00, 8.77, 31.48
535, 2.67, 2017/11/14 06:17:08.042下午, 534.0, 14.45, 8.52, 7.23, 30.19
536, 2.675, 2017/11/14 06:17:08.047下午, 503.0, 13.94, 8.26, 5.42, 27.61
537, 2.68, 2017/11/14 06:17:08.052下午, 554.0, 14.97, 8.52, 7.48, 30.97
538, 2.685, 2017/11/14 06:17:08.057下午, 522.0, 14.45, 8.26, 6.45, 29.16
539, 2.69, 2017/11/14 06:17:08.062下午, 540.0, 14.71, 8.00, 8.00, 30.71
540, 2.695, 2017/11/14 06:17:08.067下午, 529.0, 14.45, 8.52, 6.97, 29.94
541, 2.7, 2017/11/14 06:17:08.072下午, 544.0, 14.71, 8.00, 8.00, 30.71
542, 2.705, 2017/11/14 06:17:08.077下午, 535.0, 14.45, 8.52, 6.97, 29.94
543, 2.71, 2017/11/14 06:17:08.082下午, 548.0, 14.97, 8.52, 7.23, 30.71
544, 2.715, 2017/11/14 06:17:08.087下午, 542.0, 14.45, 8.52, 7.48, 30.45
545, 2.72, 2017/11/14 06:17:08.092下午, 553.0, 14.97, 8.52, 7.48, 30.97
546, 2.725, 2017/11/14 06:17:08.097下午, 552.0, 14.97, 8.52, 7.48, 30.97
547, 2.73, 2017/11/14 06:17:08.102下午, 527.0, 14.71, 8.26, 6.45, 29.42
548, 2.735, 2017/11/14 06:17:08.107下午, 559.0, 15.23, 8.77, 7.48, 31.48
549, 2.74, 2017/11/14 06:17:08.112下午, 557.0, 14.71, 9.03, 8.00, 31.74
550, 2.745, 2017/11/14 06:17:08.117下午, 542.0, 14.97, 8.00, 7.48, 30.45
551, 2.75, 2017/11/14 06:17:08.122下午, 518.0, 14.45, 8.00, 6.45, 28.90
552, 2.755, 2017/11/14 06:17:08.127下午, 546.0, 14.71, 8.00, 8.00, 30.71
553, 2.76, 2017/11/14 06:17:08.132下午, 533.0, 14.45, 8.77, 6.97, 30.19
554, 2.765, 2017/11/14 06:17:08.137下午, 549.0, 14.71, 8.26, 8.00, 30.97
555, 2.77, 2017/11/14 06:17:08.142下午, 543.0, 14.97, 8.52, 7.48, 30.97
556, 2.775, 2017/11/14 06:17:08.147下午, 560.0, 15.48, 8.00, 8.00, 31.48
557, 2.78, 2017/11/14 06:17:08.152下午, 544.0, 15.23, 8.26, 7.48, 30.97
558, 2.785, 2017/11/14 06:17:08.157下午, 544.0, 14.71, 8.77, 7.48, 30.97
559, 2.79, 2017/11/14 06:17:08.162下午, 557.0, 14.97, 8.00, 8.52, 31.48
560, 2.795, 2017/11/14 06:17:08.167下午, 520.0, 14.45, 8.00, 6.45, 28.90
561, 2.8, 2017/11/14 06:17:08.172下午, 544.0, 14.97, 8.00, 7.48, 30.45
562, 2.805, 2017/11/14 06:17:08.177下午, 533.0, 14.45, 8.52, 6.97, 29.94
563, 2.81, 2017/11/14 06:17:08.182下午, 547.0, 14.71, 8.00, 8.00, 30.71
564, 2.815, 2017/11/14 06:17:08.187下午, 532.0, 14.45, 8.52, 6.97, 29.94
565, 2.82, 2017/11/14 06:17:08.192下午, 543.0, 13.94, 8.52, 7.74, 30.19
566, 2.825, 2017/11/14 06:17:08.197下午, 536.0, 14.71, 8.00, 7.48, 30.19
567, 2.83, 2017/11/14 06:17:08.202下午, 533.0, 14.45, 8.77, 6.45, 29.68
568, 2.835, 2017/11/14 06:17:08.207下午, 539.0, 14.71, 8.00, 7.48, 30.19
569, 2.84, 2017/11/14 06:17:08.212下午, 541.0, 14.71, 8.52, 7.48, 30.71
570, 2.845, 2017/11/14 06:17:08.217下午, 510.0, 14.97, 7.48, 5.16, 27.61
571, 2.85, 2017/11/14 06:17:08.222下午, 543.0, 14.97, 8.00, 7.48, 30.45
572, 2.855, 2017/11/14 06:17:08.227下午, 527.0, 13.94, 8.52, 6.71, 29.16
573, 2.86, 2017/11/14 06:17:08.232下午, 544.0, 14.97, 8.00, 7.48, 30.45
574, 2.865, 2017/11/14 06:17:08.237下午, 533.0, 14.45, 8.77, 6.97, 30.19
575, 2.87, 2017/11/14 06:17:08.242下午, 554.0, 15.48, 8.00, 7.74, 31.23
576, 2.875, 2017/11/14 06:17:08.247下午, 557.0, 15.48, 8.26, 8.00, 31.74
577, 2.88, 2017/11/14 06:17:08.252下午, 533.0, 14.45, 8.52, 6.45, 29.42
578, 2.885, 2017/11/14 06:17:08.257下午, 555.0, 14.97, 8.00, 8.00, 30.97
579, 2.89, 2017/11/14 06:17:08.262下午, 538.0, 14.45, 8.77, 6.97, 30.19
580, 2.895, 2017/11/14 06:17:08.267下午, 528.0, 15.23, 8.52, 5.42, 29.16
581, 2.9, 2017/11/14 06:17:08.272下午, 539.0, 14.19, 8.00, 7.48, 29.68
582, 2.905, 2017/11/14 06:17:08.277下午, 530.0, 14.19, 8.52, 6.45, 29.16
583, 2.91, 2017/11/14 06:17:08.282下午, 537.0, 14.71, 8.00, 7.48, 30.19
584, 2.915, 2017/11/14 06:17:08.287下午, 508.0, 14.19, 8.26, 5.42, 27.87
585, 2.92, 2017/11/14 06:17:08.292下午, 542.0, 14.71, 7.74, 7.23, 29.68
586, 2.925, 2017/11/14 06:17:08.297下午, 548.0, 14.97, 8.26, 7.48, 30.71
587, 2.93, 2017/11/14 06:17:08.302下午, 533.0, 14.19, 8.52, 6.97, 29.68
588, 2.935, 2017/11/14 06:17:08.307下午, 534.0, 14.97, 7.74, 7.23, 29.94
589, 2.94, 2017/11/14 06:17:08.312下午, 546.0, 14.45, 8.00, 8.00, 30.45
590, 2.945, 2017/11/14 06:17:08.317下午, 512.0, 14.45, 8.26, 5.42, 28.13
591, 2.95, 2017/11/14 06:17:08.322下午, 548.0, 14.71, 8.00, 8.00, 30.71
592, 2.955, 2017/11/14 06:17:08.327下午, 546.0, 14.71, 8.00, 7.48, 30.19
593, 2.96, 2017/11/14 06:17:08.332下午, 536.0, 14.45, 8.52, 6.71, 29.68
594, 2.965, 2017/11/14 06:17:08.337下午, 552.0, 14.45, 8.00, 8.77, 31.23
595, 2.97, 2017/11/14 06:17:08.342下午, 557.0, 15.23, 8.77, 7.48, 31.48
596, 2.975, 2017/11/14 06:17:08.347下午, 525.0, 14.45, 8.26, 6.45, 29.16
597, 2.98, 2017/11/14 06:17:08.352下午, 531.0, 14.71, 8.00, 6.45, 29.16
598, 2.985, 2017/11/14 06:17:08.357下午, 552.0, 14.97, 8.52, 7.48, 30.97
599, 2.99, 2017/11/14 06:17:08.362下午, 532.0, 14.71, 8.00, 6.45, 29.16
600, 2.995, 2017/11/14 06:17:08.367下午, 537.0, 14.97, 7.74, 6.97, 29.68
@@
