DATA_TYPE Graph
VERSION Tekscan Pressure Measurement System 6.70-03
HARDWARE 00114-3447
MAP_VERSION 6.5
HW_TYPE 4
VersaPogoFsx 0
FILENAME C:\Users\User\Desktop\Subject01\plantar pressure\EVA_STAND_RIGHT_SUPPORT_3.fsx
SENSOR_TYPE FSCAN
ROWS 60
COLS 21
ROW_SPACING 0.508 centimeters
COL_SPACING 0.508 centimeters
SENSEL_AREA 0.258064 cm2
NOISE_THRESHOLD 3
SECONDS_PER_FRAME 0.005
SECONDS_PER_FRAME 0
MICRO_SECOND 0
TIME 2017/11/14 06:18:14.079下午
SATURATION_PRESSURE 2514.18 KPa 
CALIBRATION_POINT_1 59.0001 (Kilograms) 2274 (Raw Sum) 286 (Number of Loaded Cells)
CALIBRATION_MODE_1 Step
CALIBRATION_INFO C:\Users\User\Desktop\Subject01\plantar pressure\EVA_STAND_RIGHT_SUPPORT_3.fsx
SENSITIVITY Custom
MAP_INDEX 0
SUBMAP 0
Patient ID: 

Speed of Gait: 

Weight: 

Gender: 

Physician: 

Technician: 

Shoe: 

START_FRAME 1
END_FRAME 600
UNITS KPa
ASCII_DATA @@
Frames(X), Time(X), Absolute Time(X), Raw Sum, Pressure(Y:dark-blue), Pressure(Y), Pressure(Y), Pressure(Y)
1, 0, 2017/11/14 06:18:14.079下午, 223.0, 0, 39, 32, 37
2, 0.005, 2017/11/14 06:18:14.084下午, 217.0, 0, 38, 33, 36
3, 0.01, 2017/11/14 06:18:14.089下午, 229.0, 30, 40, 34, 37
4, 0.015, 2017/11/14 06:18:14.094下午, 214.0, 0, 39, 32, 36
5, 0.02, 2017/11/14 06:18:14.099下午, 226.0, 0, 39, 32, 37
6, 0.025, 2017/11/14 06:18:14.104下午, 232.0, 0, 39, 33, 36
7, 0.03, 2017/11/14 06:18:14.109下午, 231.0, 0, 39, 34, 37
8, 0.035, 2017/11/14 06:18:14.114下午, 239.0, 0, 40, 33, 37
9, 0.04, 2017/11/14 06:18:14.119下午, 228.0, 0, 39, 33, 37
10, 0.045, 2017/11/14 06:18:14.124下午, 230.0, 0, 39, 34, 37
11, 0.05, 2017/11/14 06:18:14.129下午, 238.0, 0, 38, 34, 37
12, 0.055, 2017/11/14 06:18:14.134下午, 233.0, 0, 39, 33, 37
13, 0.06, 2017/11/14 06:18:14.139下午, 230.0, 0, 39, 32, 37
14, 0.065, 2017/11/14 06:18:14.144下午, 226.0, 0, 39, 34, 37
15, 0.07, 2017/11/14 06:18:14.149下午, 239.0, 0, 39, 35, 37
16, 0.075, 2017/11/14 06:18:14.154下午, 237.0, 0, 40, 34, 37
17, 0.08, 2017/11/14 06:18:14.159下午, 244.0, 0, 37, 33, 36
18, 0.085, 2017/11/14 06:18:14.164下午, 231.0, 0, 38, 34, 36
19, 0.09, 2017/11/14 06:18:14.169下午, 238.0, 0, 38, 35, 37
20, 0.095, 2017/11/14 06:18:14.174下午, 227.0, 0, 38, 34, 36
21, 0.1, 2017/11/14 06:18:14.179下午, 235.0, 0, 39, 34, 37
22, 0.105, 2017/11/14 06:18:14.184下午, 241.0, 0, 39, 33, 36
23, 0.11, 2017/11/14 06:18:14.189下午, 240.0, 0, 39, 33, 37
24, 0.115, 2017/11/14 06:18:14.194下午, 214.0, 0, 39, 33, 36
25, 0.12, 2017/11/14 06:18:14.199下午, 225.0, 0, 39, 33, 37
26, 0.125, 2017/11/14 06:18:14.204下午, 222.0, 0, 39, 33, 36
27, 0.13, 2017/11/14 06:18:14.209下午, 236.0, 0, 38, 34, 37
28, 0.135, 2017/11/14 06:18:14.214下午, 229.0, 0, 39, 34, 37
29, 0.14, 2017/11/14 06:18:14.219下午, 245.0, 0, 39, 34, 37
30, 0.145, 2017/11/14 06:18:14.224下午, 219.0, 0, 40, 32, 37
31, 0.15, 2017/11/14 06:18:14.229下午, 240.0, 0, 40, 34, 37
32, 0.155, 2017/11/14 06:18:14.234下午, 243.0, 0, 38, 33, 36
33, 0.16, 2017/11/14 06:18:14.239下午, 236.0, 0, 38, 34, 37
34, 0.165, 2017/11/14 06:18:14.244下午, 237.0, 0, 38, 34, 37
35, 0.17, 2017/11/14 06:18:14.249下午, 229.0, 0, 39, 33, 36
36, 0.175, 2017/11/14 06:18:14.254下午, 227.0, 0, 40, 33, 37
37, 0.18, 2017/11/14 06:18:14.259下午, 219.0, 0, 39, 32, 36
38, 0.185, 2017/11/14 06:18:14.264下午, 242.0, 0, 38, 33, 36
39, 0.19, 2017/11/14 06:18:14.269下午, 230.0, 0, 38, 32, 36
40, 0.195, 2017/11/14 06:18:14.274下午, 228.0, 0, 38, 33, 36
41, 0.2, 2017/11/14 06:18:14.279下午, 224.0, 0, 38, 33, 36
42, 0.205, 2017/11/14 06:18:14.284下午, 251.0, 0, 37, 33, 36
43, 0.21, 2017/11/14 06:18:14.289下午, 252.0, 0, 38, 33, 37
44, 0.215, 2017/11/14 06:18:14.294下午, 235.0, 0, 38, 35, 36
45, 0.22, 2017/11/14 06:18:14.299下午, 231.0, 0, 38, 35, 37
46, 0.225, 2017/11/14 06:18:14.304下午, 251.0, 0, 38, 34, 36
47, 0.23, 2017/11/14 06:18:14.309下午, 245.0, 0, 39, 35, 37
48, 0.235, 2017/11/14 06:18:14.314下午, 220.0, 0, 39, 32, 37
49, 0.24, 2017/11/14 06:18:14.319下午, 216.0, 0, 39, 31, 36
50, 0.245, 2017/11/14 06:18:14.324下午, 251.0, 0, 39, 33, 37
51, 0.25, 2017/11/14 06:18:14.329下午, 256.0, 0, 38, 33, 37
52, 0.255, 2017/11/14 06:18:14.334下午, 230.0, 0, 38, 34, 37
53, 0.26, 2017/11/14 06:18:14.339下午, 236.0, 0, 38, 35, 37
54, 0.265, 2017/11/14 06:18:14.344下午, 225.0, 0, 39, 32, 36
55, 0.27, 2017/11/14 06:18:14.349下午, 226.0, 0, 38, 33, 36
56, 0.275, 2017/11/14 06:18:14.354下午, 226.0, 0, 39, 32, 36
57, 0.28, 2017/11/14 06:18:14.359下午, 251.0, 0, 39, 33, 36
58, 0.285, 2017/11/14 06:18:14.364下午, 255.0, 0, 38, 33, 36
59, 0.29, 2017/11/14 06:18:14.369下午, 249.0, 0, 39, 33, 36
60, 0.295, 2017/11/14 06:18:14.374下午, 252.0, 0, 38, 34, 37
61, 0.3, 2017/11/14 06:18:14.379下午, 234.0, 0, 40, 33, 37
62, 0.305, 2017/11/14 06:18:14.384下午, 239.0, 0, 38, 34, 36
63, 0.31, 2017/11/14 06:18:14.389下午, 240.0, 0, 39, 33, 37
64, 0.315, 2017/11/14 06:18:14.394下午, 225.0, 0, 39, 32, 36
65, 0.32, 2017/11/14 06:18:14.399下午, 239.0, 0, 38, 33, 36
66, 0.325, 2017/11/14 06:18:14.404下午, 237.0, 0, 39, 33, 37
67, 0.33, 2017/11/14 06:18:14.409下午, 238.0, 0, 39, 32, 36
68, 0.335, 2017/11/14 06:18:14.414下午, 242.0, 0, 39, 33, 37
69, 0.34, 2017/11/14 06:18:14.419下午, 246.0, 0, 38, 33, 36
70, 0.345, 2017/11/14 06:18:14.424下午, 242.0, 0, 38, 35, 37
71, 0.35, 2017/11/14 06:18:14.429下午, 241.0, 0, 37, 34, 36
72, 0.355, 2017/11/14 06:18:14.434下午, 227.0, 0, 38, 31, 36
73, 0.36, 2017/11/14 06:18:14.439下午, 229.0, 0, 39, 32, 36
74, 0.365, 2017/11/14 06:18:14.444下午, 232.0, 0, 39, 33, 36
75, 0.37, 2017/11/14 06:18:14.449下午, 246.0, 0, 38, 34, 37
76, 0.375, 2017/11/14 06:18:14.454下午, 233.0, 0, 38, 34, 37
77, 0.38, 2017/11/14 06:18:14.459下午, 239.0, 0, 38, 35, 37
78, 0.385, 2017/11/14 06:18:14.464下午, 221.0, 0, 38, 32, 36
79, 0.39, 2017/11/14 06:18:14.469下午, 246.0, 0, 38, 34, 36
80, 0.395, 2017/11/14 06:18:14.474下午, 232.0, 0, 38, 33, 36
81, 0.4, 2017/11/14 06:18:14.479下午, 245.0, 0, 39, 34, 37
82, 0.405, 2017/11/14 06:18:14.484下午, 246.0, 0, 39, 33, 36
83, 0.41, 2017/11/14 06:18:14.489下午, 236.0, 0, 39, 34, 37
84, 0.415, 2017/11/14 06:18:14.494下午, 257.0, 0, 39, 33, 37
85, 0.42, 2017/11/14 06:18:14.499下午, 230.0, 0, 38, 33, 36
86, 0.425, 2017/11/14 06:18:14.504下午, 240.0, 0, 38, 34, 36
87, 0.43, 2017/11/14 06:18:14.509下午, 256.0, 0, 39, 34, 37
88, 0.435, 2017/11/14 06:18:14.514下午, 237.0, 0, 38, 33, 36
89, 0.44, 2017/11/14 06:18:14.519下午, 250.0, 0, 39, 33, 36
90, 0.445, 2017/11/14 06:18:14.524下午, 230.0, 0, 39, 33, 37
91, 0.45, 2017/11/14 06:18:14.529下午, 246.0, 0, 38, 33, 36
92, 0.455, 2017/11/14 06:18:14.534下午, 255.0, 0, 39, 33, 36
93, 0.46, 2017/11/14 06:18:14.539下午, 238.0, 0, 38, 34, 37
94, 0.465, 2017/11/14 06:18:14.544下午, 233.0, 0, 38, 35, 36
95, 0.47, 2017/11/14 06:18:14.549下午, 224.0, 0, 38, 32, 36
96, 0.475, 2017/11/14 06:18:14.554下午, 229.0, 0, 39, 32, 36
97, 0.48, 2017/11/14 06:18:14.559下午, 239.0, 0, 38, 33, 36
98, 0.485, 2017/11/14 06:18:14.564下午, 262.0, 0, 38, 33, 36
99, 0.49, 2017/11/14 06:18:14.569下午, 245.0, 0, 38, 34, 37
100, 0.495, 2017/11/14 06:18:14.574下午, 262.0, 0, 38, 32, 36
101, 0.5, 2017/11/14 06:18:14.579下午, 240.0, 0, 37, 34, 36
102, 0.505, 2017/11/14 06:18:14.584下午, 255.0, 0, 38, 34, 37
103, 0.51, 2017/11/14 06:18:14.589下午, 243.0, 0, 38, 34, 36
104, 0.515, 2017/11/14 06:18:14.594下午, 231.0, 0, 39, 32, 36
105, 0.52, 2017/11/14 06:18:14.599下午, 244.0, 0, 39, 34, 37
106, 0.525, 2017/11/14 06:18:14.604下午, 227.0, 0, 39, 32, 36
107, 0.53, 2017/11/14 06:18:14.609下午, 239.0, 0, 39, 34, 37
108, 0.535, 2017/11/14 06:18:14.614下午, 239.0, 0, 39, 34, 37
109, 0.54, 2017/11/14 06:18:14.619下午, 243.0, 0, 38, 34, 37
110, 0.545, 2017/11/14 06:18:14.624下午, 230.0, 0, 38, 32, 36
111, 0.55, 2017/11/14 06:18:14.629下午, 242.0, 0, 39, 34, 37
112, 0.555, 2017/11/14 06:18:14.634下午, 253.0, 0, 39, 33, 36
113, 0.56, 2017/11/14 06:18:14.639下午, 270.0, 0, 38, 33, 36
114, 0.565, 2017/11/14 06:18:14.644下午, 240.0, 0, 38, 35, 37
115, 0.57, 2017/11/14 06:18:14.649下午, 246.0, 0, 38, 34, 36
116, 0.575, 2017/11/14 06:18:14.654下午, 232.0, 0, 38, 32, 36
117, 0.58, 2017/11/14 06:18:14.659下午, 250.0, 0, 38, 33, 36
118, 0.585, 2017/11/14 06:18:14.664下午, 230.0, 0, 39, 32, 36
119, 0.59, 2017/11/14 06:18:14.669下午, 221.0, 0, 39, 32, 36
120, 0.595, 2017/11/14 06:18:14.674下午, 252.0, 0, 39, 33, 36
121, 0.6, 2017/11/14 06:18:14.679下午, 236.0, 0, 39, 34, 37
122, 0.605, 2017/11/14 06:18:14.684下午, 257.0, 0, 38, 34, 36
123, 0.61, 2017/11/14 06:18:14.689下午, 262.0, 0, 39, 33, 37
124, 0.615, 2017/11/14 06:18:14.694下午, 259.0, 0, 39, 33, 37
125, 0.62, 2017/11/14 06:18:14.699下午, 247.0, 0, 37, 34, 36
126, 0.625, 2017/11/14 06:18:14.704下午, 249.0, 0, 37, 35, 36
127, 0.63, 2017/11/14 06:18:14.709下午, 244.0, 0, 38, 32, 36
128, 0.635, 2017/11/14 06:18:14.714下午, 215.0, 0, 39, 32, 36
129, 0.64, 2017/11/14 06:18:14.719下午, 222.0, 0, 39, 32, 36
130, 0.645, 2017/11/14 06:18:14.724下午, 258.0, 0, 38, 34, 37
131, 0.65, 2017/11/14 06:18:14.729下午, 253.0, 0, 38, 33, 36
132, 0.655, 2017/11/14 06:18:14.734下午, 259.0, 0, 39, 33, 37
133, 0.66, 2017/11/14 06:18:14.739下午, 250.0, 0, 38, 33, 36
134, 0.665, 2017/11/14 06:18:14.744下午, 241.0, 0, 38, 34, 36
135, 0.67, 2017/11/14 06:18:14.749下午, 246.0, 0, 39, 33, 36
136, 0.675, 2017/11/14 06:18:14.754下午, 246.0, 0, 39, 33, 37
137, 0.68, 2017/11/14 06:18:14.759下午, 226.0, 0, 38, 32, 36
138, 0.685, 2017/11/14 06:18:14.764下午, 254.0, 0, 38, 33, 36
139, 0.69, 2017/11/14 06:18:14.769下午, 253.0, 0, 39, 34, 37
140, 0.695, 2017/11/14 06:18:14.774下午, 240.0, 0, 39, 34, 37
141, 0.7, 2017/11/14 06:18:14.779下午, 238.0, 0, 38, 33, 36
142, 0.705, 2017/11/14 06:18:14.784下午, 250.0, 0, 39, 35, 37
143, 0.71, 2017/11/14 06:18:14.789下午, 233.0, 0, 39, 32, 36
144, 0.715, 2017/11/14 06:18:14.794下午, 236.0, 0, 39, 32, 36
145, 0.72, 2017/11/14 06:18:14.799下午, 229.0, 0, 39, 32, 36
146, 0.725, 2017/11/14 06:18:14.804下午, 238.0, 0, 39, 34, 37
147, 0.73, 2017/11/14 06:18:14.809下午, 255.0, 0, 39, 33, 37
148, 0.735, 2017/11/14 06:18:14.814下午, 265.0, 0, 37, 33, 36
149, 0.74, 2017/11/14 06:18:14.819下午, 249.0, 0, 38, 34, 36
150, 0.745, 2017/11/14 06:18:14.824下午, 230.0, 0, 39, 32, 36
151, 0.75, 2017/11/14 06:18:14.829下午, 257.0, 0, 39, 33, 37
152, 0.755, 2017/11/14 06:18:14.834下午, 251.0, 0, 38, 33, 37
153, 0.76, 2017/11/14 06:18:14.839下午, 257.0, 0, 39, 33, 37
154, 0.765, 2017/11/14 06:18:14.844下午, 246.0, 0, 38, 34, 36
155, 0.77, 2017/11/14 06:18:14.849下午, 230.0, 0, 39, 32, 36
156, 0.775, 2017/11/14 06:18:14.854下午, 268.0, 0, 39, 33, 36
157, 0.78, 2017/11/14 06:18:14.859下午, 242.0, 0, 38, 34, 36
158, 0.785, 2017/11/14 06:18:14.864下午, 250.0, 0, 39, 33, 36
159, 0.79, 2017/11/14 06:18:14.869下午, 249.0, 0, 38, 34, 36
160, 0.795, 2017/11/14 06:18:14.874下午, 248.0, 0, 38, 34, 37
161, 0.8, 2017/11/14 06:18:14.879下午, 227.0, 0, 39, 33, 36
162, 0.805, 2017/11/14 06:18:14.884下午, 225.0, 0, 38, 33, 36
163, 0.81, 2017/11/14 06:18:14.889下午, 231.0, 0, 39, 32, 36
164, 0.815, 2017/11/14 06:18:14.894下午, 246.0, 0, 39, 33, 36
165, 0.82, 2017/11/14 06:18:14.899下午, 258.0, 0, 38, 33, 36
166, 0.825, 2017/11/14 06:18:14.904下午, 242.0, 0, 38, 34, 36
167, 0.83, 2017/11/14 06:18:14.909下午, 245.0, 0, 38, 34, 36
168, 0.835, 2017/11/14 06:18:14.914下午, 250.0, 0, 39, 33, 36
169, 0.84, 2017/11/14 06:18:14.919下午, 231.0, 0, 39, 33, 36
170, 0.845, 2017/11/14 06:18:14.924下午, 248.0, 0, 40, 34, 37
171, 0.85, 2017/11/14 06:18:14.929下午, 242.0, 0, 38, 34, 36
172, 0.855, 2017/11/14 06:18:14.934下午, 234.0, 0, 38, 34, 36
173, 0.86, 2017/11/14 06:18:14.939下午, 228.0, 0, 39, 32, 36
174, 0.865, 2017/11/14 06:18:14.944下午, 241.0, 0, 39, 33, 37
175, 0.87, 2017/11/14 06:18:14.949下午, 245.0, 0, 39, 34, 37
176, 0.875, 2017/11/14 06:18:14.954下午, 260.0, 0, 38, 34, 37
177, 0.88, 2017/11/14 06:18:14.959下午, 233.0, 0, 39, 34, 37
178, 0.885, 2017/11/14 06:18:14.964下午, 238.0, 0, 38, 34, 36
179, 0.89, 2017/11/14 06:18:14.969下午, 237.0, 0, 38, 32, 36
180, 0.895, 2017/11/14 06:18:14.974下午, 248.0, 0, 39, 35, 37
181, 0.9, 2017/11/14 06:18:14.979下午, 238.0, 0, 38, 32, 36
182, 0.905, 2017/11/14 06:18:14.984下午, 247.0, 0, 39, 33, 36
183, 0.91, 2017/11/14 06:18:14.989下午, 239.0, 30, 39, 32, 36
184, 0.915, 2017/11/14 06:18:14.994下午, 258.0, 0, 39, 33, 37
185, 0.92, 2017/11/14 06:18:14.999下午, 231.0, 0, 39, 34, 37
186, 0.925, 2017/11/14 06:18:15.004下午, 257.0, 0, 38, 34, 36
187, 0.93, 2017/11/14 06:18:15.009下午, 241.0, 0, 38, 34, 36
188, 0.935, 2017/11/14 06:18:15.014下午, 228.0, 0, 37, 34, 36
189, 0.94, 2017/11/14 06:18:15.019下午, 241.0, 0, 38, 34, 36
190, 0.945, 2017/11/14 06:18:15.024下午, 231.0, 0, 38, 32, 36
191, 0.95, 2017/11/14 06:18:15.029下午, 229.0, 0, 39, 33, 37
192, 0.955, 2017/11/14 06:18:15.034下午, 257.0, 0, 39, 33, 37
193, 0.96, 2017/11/14 06:18:15.039下午, 243.0, 0, 37, 34, 36
194, 0.965, 2017/11/14 06:18:15.044下午, 242.0, 0, 38, 35, 37
195, 0.97, 2017/11/14 06:18:15.049下午, 241.0, 0, 38, 34, 36
196, 0.975, 2017/11/14 06:18:15.054下午, 247.0, 0, 39, 34, 37
197, 0.98, 2017/11/14 06:18:15.059下午, 232.0, 0, 39, 32, 36
198, 0.985, 2017/11/14 06:18:15.064下午, 229.0, 0, 38, 32, 36
199, 0.99, 2017/11/14 06:18:15.069下午, 245.0, 0, 38, 33, 36
200, 0.995, 2017/11/14 06:18:15.074下午, 248.0, 0, 38, 33, 36
201, 1, 2017/11/14 06:18:15.079下午, 221.0, 0, 39, 32, 36
202, 1.005, 2017/11/14 06:18:15.084下午, 257.0, 0, 39, 33, 36
203, 1.01, 2017/11/14 06:18:15.089下午, 230.0, 0, 39, 32, 36
204, 1.015, 2017/11/14 06:18:15.094下午, 234.0, 0, 40, 34, 37
205, 1.02, 2017/11/14 06:18:15.099下午, 241.0, 0, 38, 33, 36
206, 1.025, 2017/11/14 06:18:15.104下午, 249.0, 0, 39, 34, 37
207, 1.03, 2017/11/14 06:18:15.109下午, 237.0, 0, 38, 33, 36
208, 1.035, 2017/11/14 06:18:15.114下午, 246.0, 0, 39, 34, 37
209, 1.04, 2017/11/14 06:18:15.119下午, 238.0, 0, 39, 33, 36
210, 1.045, 2017/11/14 06:18:15.124下午, 236.0, 0, 38, 32, 36
211, 1.05, 2017/11/14 06:18:15.129下午, 255.0, 0, 38, 33, 37
212, 1.055, 2017/11/14 06:18:15.134下午, 253.0, 0, 39, 33, 36
213, 1.06, 2017/11/14 06:18:15.139下午, 243.0, 0, 39, 33, 37
214, 1.065, 2017/11/14 06:18:15.144下午, 243.0, 0, 37, 34, 36
215, 1.07, 2017/11/14 06:18:15.149下午, 242.0, 0, 38, 33, 36
216, 1.075, 2017/11/14 06:18:15.154下午, 243.0, 0, 39, 32, 36
217, 1.08, 2017/11/14 06:18:15.159下午, 222.0, 0, 39, 32, 36
218, 1.085, 2017/11/14 06:18:15.164下午, 245.0, 0, 39, 33, 36
219, 1.09, 2017/11/14 06:18:15.169下午, 234.0, 0, 39, 32, 36
220, 1.095, 2017/11/14 06:18:15.174下午, 227.0, 0, 39, 34, 37
221, 1.1, 2017/11/14 06:18:15.179下午, 234.0, 0, 39, 32, 36
222, 1.105, 2017/11/14 06:18:15.184下午, 228.0, 0, 39, 31, 36
223, 1.11, 2017/11/14 06:18:15.189下午, 240.0, 0, 39, 33, 37
224, 1.115, 2017/11/14 06:18:15.194下午, 244.0, 0, 39, 32, 36
225, 1.12, 2017/11/14 06:18:15.199下午, 247.0, 0, 38, 33, 36
226, 1.125, 2017/11/14 06:18:15.204下午, 228.0, 0, 39, 34, 37
227, 1.13, 2017/11/14 06:18:15.209下午, 249.0, 0, 38, 34, 36
228, 1.135, 2017/11/14 06:18:15.214下午, 236.0, 0, 38, 33, 36
229, 1.14, 2017/11/14 06:18:15.219下午, 238.0, 0, 37, 33, 36
230, 1.145, 2017/11/14 06:18:15.224下午, 248.0, 0, 38, 34, 37
231, 1.15, 2017/11/14 06:18:15.229下午, 230.0, 0, 39, 32, 36
232, 1.155, 2017/11/14 06:18:15.234下午, 226.0, 0, 39, 32, 36
233, 1.16, 2017/11/14 06:18:15.239下午, 236.0, 0, 39, 32, 36
234, 1.165, 2017/11/14 06:18:15.244下午, 254.0, 0, 39, 33, 36
235, 1.17, 2017/11/14 06:18:15.249下午, 238.0, 0, 38, 33, 36
236, 1.175, 2017/11/14 06:18:15.254下午, 245.0, 0, 38, 35, 37
237, 1.18, 2017/11/14 06:18:15.259下午, 248.0, 0, 38, 33, 36
238, 1.185, 2017/11/14 06:18:15.264下午, 237.0, 0, 39, 33, 36
239, 1.19, 2017/11/14 06:18:15.269下午, 229.0, 0, 39, 32, 36
240, 1.195, 2017/11/14 06:18:15.274下午, 256.0, 0, 38, 34, 37
241, 1.2, 2017/11/14 06:18:15.279下午, 249.0, 0, 38, 33, 36
242, 1.205, 2017/11/14 06:18:15.284下午, 239.0, 0, 39, 34, 37
243, 1.21, 2017/11/14 06:18:15.289下午, 251.0, 0, 39, 33, 36
244, 1.215, 2017/11/14 06:18:15.294下午, 248.0, 0, 39, 34, 37
245, 1.22, 2017/11/14 06:18:15.299下午, 233.0, 0, 39, 32, 36
246, 1.225, 2017/11/14 06:18:15.304下午, 236.0, 0, 38, 32, 36
247, 1.23, 2017/11/14 06:18:15.309下午, 225.0, 0, 39, 31, 36
248, 1.235, 2017/11/14 06:18:15.314下午, 236.0, 0, 38, 33, 36
249, 1.24, 2017/11/14 06:18:15.319下午, 243.0, 0, 38, 34, 37
250, 1.245, 2017/11/14 06:18:15.324下午, 242.0, 0, 38, 34, 36
251, 1.25, 2017/11/14 06:18:15.329下午, 246.0, 0, 38, 33, 36
252, 1.255, 2017/11/14 06:18:15.334下午, 227.0, 0, 39, 32, 36
253, 1.26, 2017/11/14 06:18:15.339下午, 246.0, 0, 38, 32, 36
254, 1.265, 2017/11/14 06:18:15.344下午, 244.0, 0, 38, 33, 36
255, 1.27, 2017/11/14 06:18:15.349下午, 235.0, 0, 37, 33, 36
256, 1.275, 2017/11/14 06:18:15.354下午, 248.0, 0, 38, 34, 37
257, 1.28, 2017/11/14 06:18:15.359下午, 244.0, 0, 39, 33, 37
258, 1.285, 2017/11/14 06:18:15.364下午, 235.0, 0, 39, 32, 36
259, 1.29, 2017/11/14 06:18:15.369下午, 230.0, 0, 39, 32, 36
260, 1.295, 2017/11/14 06:18:15.374下午, 256.0, 0, 38, 32, 36
261, 1.3, 2017/11/14 06:18:15.379下午, 237.0, 0, 38, 33, 36
262, 1.305, 2017/11/14 06:18:15.384下午, 237.0, 0, 38, 33, 36
263, 1.31, 2017/11/14 06:18:15.389下午, 241.0, 0, 38, 33, 36
264, 1.315, 2017/11/14 06:18:15.394下午, 237.0, 0, 38, 32, 36
265, 1.32, 2017/11/14 06:18:15.399下午, 229.0, 0, 39, 32, 36
266, 1.325, 2017/11/14 06:18:15.404下午, 226.0, 0, 38, 33, 36
267, 1.33, 2017/11/14 06:18:15.409下午, 237.0, 0, 39, 33, 36
268, 1.335, 2017/11/14 06:18:15.414下午, 252.0, 0, 38, 33, 36
269, 1.34, 2017/11/14 06:18:15.419下午, 239.0, 0, 39, 33, 37
270, 1.345, 2017/11/14 06:18:15.424下午, 248.0, 0, 38, 34, 37
271, 1.35, 2017/11/14 06:18:15.429下午, 239.0, 0, 39, 32, 36
272, 1.355, 2017/11/14 06:18:15.434下午, 253.0, 0, 39, 33, 37
273, 1.36, 2017/11/14 06:18:15.439下午, 234.0, 0, 38, 33, 36
274, 1.365, 2017/11/14 06:18:15.444下午, 243.0, 0, 38, 33, 36
275, 1.37, 2017/11/14 06:18:15.449下午, 238.0, 0, 39, 33, 36
276, 1.375, 2017/11/14 06:18:15.454下午, 247.0, 0, 39, 33, 37
277, 1.38, 2017/11/14 06:18:15.459下午, 236.0, 0, 38, 33, 36
278, 1.385, 2017/11/14 06:18:15.464下午, 231.0, 0, 38, 34, 37
279, 1.39, 2017/11/14 06:18:15.469下午, 242.0, 0, 39, 33, 36
280, 1.395, 2017/11/14 06:18:15.474下午, 247.0, 0, 38, 32, 36
281, 1.4, 2017/11/14 06:18:15.479下午, 222.0, 0, 38, 31, 36
282, 1.405, 2017/11/14 06:18:15.484下午, 241.0, 0, 40, 33, 37
283, 1.41, 2017/11/14 06:18:15.489下午, 233.0, 0, 39, 33, 36
284, 1.415, 2017/11/14 06:18:15.494下午, 252.0, 0, 38, 32, 36
285, 1.42, 2017/11/14 06:18:15.499下午, 255.0, 0, 39, 33, 37
286, 1.425, 2017/11/14 06:18:15.504下午, 254.0, 0, 38, 32, 36
287, 1.43, 2017/11/14 06:18:15.509下午, 232.0, 0, 38, 34, 37
288, 1.435, 2017/11/14 06:18:15.514下午, 241.0, 0, 38, 32, 36
289, 1.44, 2017/11/14 06:18:15.519下午, 234.0, 0, 38, 31, 36
290, 1.445, 2017/11/14 06:18:15.524下午, 243.0, 0, 38, 33, 36
291, 1.45, 2017/11/14 06:18:15.529下午, 247.0, 0, 38, 33, 36
292, 1.455, 2017/11/14 06:18:15.534下午, 237.0, 0, 38, 33, 36
293, 1.46, 2017/11/14 06:18:15.539下午, 243.0, 0, 39, 32, 36
294, 1.465, 2017/11/14 06:18:15.544下午, 239.0, 0, 39, 33, 36
295, 1.47, 2017/11/14 06:18:15.549下午, 235.0, 0, 39, 34, 37
296, 1.475, 2017/11/14 06:18:15.554下午, 237.0, 0, 38, 33, 36
297, 1.48, 2017/11/14 06:18:15.559下午, 249.0, 0, 38, 33, 36
298, 1.485, 2017/11/14 06:18:15.564下午, 242.0, 0, 38, 33, 36
299, 1.49, 2017/11/14 06:18:15.569下午, 244.0, 0, 38, 32, 36
300, 1.495, 2017/11/14 06:18:15.574下午, 229.0, 0, 38, 33, 37
301, 1.5, 2017/11/14 06:18:15.579下午, 231.0, 0, 39, 32, 36
302, 1.505, 2017/11/14 06:18:15.584下午, 250.0, 0, 38, 33, 36
303, 1.51, 2017/11/14 06:18:15.589下午, 235.0, 0, 39, 32, 36
304, 1.515, 2017/11/14 06:18:15.594下午, 235.0, 0, 39, 33, 36
305, 1.52, 2017/11/14 06:18:15.599下午, 237.0, 0, 39, 34, 37
306, 1.525, 2017/11/14 06:18:15.604下午, 247.0, 0, 38, 34, 36
307, 1.53, 2017/11/14 06:18:15.609下午, 231.0, 0, 39, 31, 36
308, 1.535, 2017/11/14 06:18:15.614下午, 252.0, 0, 39, 34, 37
309, 1.54, 2017/11/14 06:18:15.619下午, 233.0, 0, 38, 33, 36
310, 1.545, 2017/11/14 06:18:15.624下午, 245.0, 0, 39, 33, 37
311, 1.55, 2017/11/14 06:18:15.629下午, 241.0, 0, 38, 31, 36
312, 1.555, 2017/11/14 06:18:15.634下午, 249.0, 0, 39, 31, 36
313, 1.56, 2017/11/14 06:18:15.639下午, 252.0, 0, 39, 32, 36
314, 1.565, 2017/11/14 06:18:15.644下午, 234.0, 0, 38, 33, 36
315, 1.57, 2017/11/14 06:18:15.649下午, 247.0, 0, 39, 33, 36
316, 1.575, 2017/11/14 06:18:15.654下午, 233.0, 0, 38, 32, 36
317, 1.58, 2017/11/14 06:18:15.659下午, 216.0, 0, 39, 33, 37
318, 1.585, 2017/11/14 06:18:15.664下午, 224.0, 0, 39, 33, 37
319, 1.59, 2017/11/14 06:18:15.669下午, 233.0, 0, 39, 33, 36
320, 1.595, 2017/11/14 06:18:15.674下午, 231.0, 0, 38, 33, 36
321, 1.6, 2017/11/14 06:18:15.679下午, 235.0, 0, 38, 35, 37
322, 1.605, 2017/11/14 06:18:15.684下午, 242.0, 0, 38, 34, 36
323, 1.61, 2017/11/14 06:18:15.689下午, 241.0, 0, 39, 32, 36
324, 1.615, 2017/11/14 06:18:15.694下午, 236.0, 0, 38, 32, 36
325, 1.62, 2017/11/14 06:18:15.699下午, 255.0, 0, 39, 33, 37
326, 1.625, 2017/11/14 06:18:15.704下午, 235.0, 0, 38, 33, 36
327, 1.63, 2017/11/14 06:18:15.709下午, 237.0, 0, 38, 34, 36
328, 1.635, 2017/11/14 06:18:15.714下午, 238.0, 0, 39, 33, 36
329, 1.64, 2017/11/14 06:18:15.719下午, 227.0, 0, 39, 31, 36
330, 1.645, 2017/11/14 06:18:15.724下午, 238.0, 0, 38, 33, 36
331, 1.65, 2017/11/14 06:18:15.729下午, 233.0, 0, 38, 33, 36
332, 1.655, 2017/11/14 06:18:15.734下午, 239.0, 0, 37, 34, 36
333, 1.66, 2017/11/14 06:18:15.739下午, 236.0, 0, 39, 33, 37
334, 1.665, 2017/11/14 06:18:15.744下午, 220.0, 0, 39, 31, 36
335, 1.67, 2017/11/14 06:18:15.749下午, 242.0, 0, 38, 33, 37
336, 1.675, 2017/11/14 06:18:15.754下午, 239.0, 0, 38, 33, 36
337, 1.68, 2017/11/14 06:18:15.759下午, 242.0, 0, 38, 34, 36
338, 1.685, 2017/11/14 06:18:15.764下午, 239.0, 0, 38, 31, 35
339, 1.69, 2017/11/14 06:18:15.769下午, 229.0, 0, 38, 32, 36
340, 1.695, 2017/11/14 06:18:15.774下午, 253.0, 0, 39, 32, 36
341, 1.7, 2017/11/14 06:18:15.779下午, 239.0, 0, 39, 33, 37
342, 1.705, 2017/11/14 06:18:15.784下午, 246.0, 0, 38, 33, 36
343, 1.71, 2017/11/14 06:18:15.789下午, 245.0, 32, 38, 33, 36
344, 1.715, 2017/11/14 06:18:15.794下午, 237.0, 0, 38, 34, 36
345, 1.72, 2017/11/14 06:18:15.799下午, 225.0, 0, 38, 31, 35
346, 1.725, 2017/11/14 06:18:15.804下午, 234.0, 0, 38, 31, 35
347, 1.73, 2017/11/14 06:18:15.809下午, 224.0, 0, 39, 32, 36
348, 1.735, 2017/11/14 06:18:15.814下午, 255.0, 0, 38, 32, 36
349, 1.74, 2017/11/14 06:18:15.819下午, 231.0, 0, 38, 33, 36
350, 1.745, 2017/11/14 06:18:15.824下午, 245.0, 0, 38, 34, 36
351, 1.75, 2017/11/14 06:18:15.829下午, 234.0, 0, 39, 32, 36
352, 1.755, 2017/11/14 06:18:15.834下午, 222.0, 0, 38, 31, 35
353, 1.76, 2017/11/14 06:18:15.839下午, 249.0, 0, 38, 33, 36
354, 1.765, 2017/11/14 06:18:15.844下午, 239.0, 0, 37, 34, 36
355, 1.77, 2017/11/14 06:18:15.849下午, 237.0, 0, 38, 34, 36
356, 1.775, 2017/11/14 06:18:15.854下午, 242.0, 30, 39, 32, 35
357, 1.78, 2017/11/14 06:18:15.859下午, 226.0, 0, 39, 31, 36
358, 1.785, 2017/11/14 06:18:15.864下午, 236.0, 0, 39, 32, 36
359, 1.79, 2017/11/14 06:18:15.869下午, 261.0, 0, 39, 33, 36
360, 1.795, 2017/11/14 06:18:15.874下午, 233.0, 0, 38, 35, 37
361, 1.8, 2017/11/14 06:18:15.879下午, 222.0, 0, 37, 33, 36
362, 1.805, 2017/11/14 06:18:15.884下午, 246.0, 0, 38, 34, 36
363, 1.81, 2017/11/14 06:18:15.889下午, 233.0, 0, 38, 32, 36
364, 1.815, 2017/11/14 06:18:15.894下午, 235.0, 30, 38, 31, 36
365, 1.82, 2017/11/14 06:18:15.899下午, 243.0, 0, 39, 33, 37
366, 1.825, 2017/11/14 06:18:15.904下午, 227.0, 0, 38, 33, 36
367, 1.83, 2017/11/14 06:18:15.909下午, 253.0, 0, 38, 33, 36
368, 1.835, 2017/11/14 06:18:15.914下午, 238.0, 0, 38, 34, 36
369, 1.84, 2017/11/14 06:18:15.919下午, 240.0, 0, 38, 34, 36
370, 1.845, 2017/11/14 06:18:15.924下午, 243.0, 30, 39, 32, 36
371, 1.85, 2017/11/14 06:18:15.929下午, 238.0, 0, 38, 33, 36
372, 1.855, 2017/11/14 06:18:15.934下午, 249.0, 0, 38, 33, 36
373, 1.86, 2017/11/14 06:18:15.939下午, 234.0, 0, 38, 34, 36
374, 1.865, 2017/11/14 06:18:15.944下午, 241.0, 0, 39, 33, 36
375, 1.87, 2017/11/14 06:18:15.949下午, 219.0, 0, 39, 32, 36
376, 1.875, 2017/11/14 06:18:15.954下午, 260.0, 0, 39, 33, 36
377, 1.88, 2017/11/14 06:18:15.959下午, 236.0, 0, 38, 34, 37
378, 1.885, 2017/11/14 06:18:15.964下午, 239.0, 0, 39, 34, 37
379, 1.89, 2017/11/14 06:18:15.969下午, 244.0, 0, 38, 33, 36
380, 1.895, 2017/11/14 06:18:15.974下午, 243.0, 0, 39, 32, 36
381, 1.9, 2017/11/14 06:18:15.979下午, 239.0, 0, 39, 33, 37
382, 1.905, 2017/11/14 06:18:15.984下午, 235.0, 0, 38, 33, 36
383, 1.91, 2017/11/14 06:18:15.989下午, 241.0, 0, 38, 33, 36
384, 1.915, 2017/11/14 06:18:15.994下午, 234.0, 0, 38, 34, 36
385, 1.92, 2017/11/14 06:18:15.999下午, 236.0, 0, 38, 34, 36
386, 1.925, 2017/11/14 06:18:16.004下午, 223.0, 0, 38, 32, 36
387, 1.93, 2017/11/14 06:18:16.009下午, 234.0, 0, 38, 33, 36
388, 1.935, 2017/11/14 06:18:16.014下午, 236.0, 0, 39, 33, 37
389, 1.94, 2017/11/14 06:18:16.019下午, 235.0, 0, 38, 34, 37
390, 1.945, 2017/11/14 06:18:16.024下午, 241.0, 0, 39, 32, 36
391, 1.95, 2017/11/14 06:18:16.029下午, 244.0, 0, 38, 34, 36
392, 1.955, 2017/11/14 06:18:16.034下午, 233.0, 0, 38, 33, 36
393, 1.96, 2017/11/14 06:18:16.039下午, 227.0, 0, 38, 33, 36
394, 1.965, 2017/11/14 06:18:16.044下午, 231.0, 0, 38, 31, 35
395, 1.97, 2017/11/14 06:18:16.049下午, 254.0, 0, 38, 33, 36
396, 1.975, 2017/11/14 06:18:16.054下午, 235.0, 0, 38, 33, 36
397, 1.98, 2017/11/14 06:18:16.059下午, 238.0, 0, 39, 33, 36
398, 1.985, 2017/11/14 06:18:16.064下午, 243.0, 0, 39, 34, 37
399, 1.99, 2017/11/14 06:18:16.069下午, 236.0, 0, 38, 31, 35
400, 1.995, 2017/11/14 06:18:16.074下午, 238.0, 30, 39, 32, 36
401, 2, 2017/11/14 06:18:16.079下午, 242.0, 0, 39, 33, 36
402, 2.005, 2017/11/14 06:18:16.084下午, 237.0, 0, 39, 33, 36
403, 2.01, 2017/11/14 06:18:16.089下午, 248.0, 0, 38, 33, 36
404, 2.015, 2017/11/14 06:18:16.094下午, 242.0, 0, 39, 33, 36
405, 2.02, 2017/11/14 06:18:16.099下午, 241.0, 0, 39, 32, 36
406, 2.025, 2017/11/14 06:18:16.104下午, 233.0, 0, 38, 32, 36
407, 2.03, 2017/11/14 06:18:16.109下午, 257.0, 0, 39, 33, 37
408, 2.035, 2017/11/14 06:18:16.114下午, 236.0, 0, 39, 34, 37
409, 2.04, 2017/11/14 06:18:16.119下午, 243.0, 0, 39, 34, 37
410, 2.045, 2017/11/14 06:18:16.124下午, 229.0, 0, 39, 32, 36
411, 2.05, 2017/11/14 06:18:16.129下午, 231.0, 0, 38, 33, 36
412, 2.055, 2017/11/14 06:18:16.134下午, 251.0, 0, 39, 33, 37
413, 2.06, 2017/11/14 06:18:16.139下午, 239.0, 0, 39, 34, 37
414, 2.065, 2017/11/14 06:18:16.144下午, 235.0, 0, 38, 33, 36
415, 2.07, 2017/11/14 06:18:16.149下午, 240.0, 0, 38, 32, 36
416, 2.075, 2017/11/14 06:18:16.154下午, 235.0, 0, 39, 33, 37
417, 2.08, 2017/11/14 06:18:16.159下午, 237.0, 0, 39, 33, 37
418, 2.085, 2017/11/14 06:18:16.164下午, 232.0, 0, 39, 33, 36
419, 2.09, 2017/11/14 06:18:16.169下午, 235.0, 0, 39, 34, 37
420, 2.095, 2017/11/14 06:18:16.174下午, 234.0, 0, 39, 34, 37
421, 2.1, 2017/11/14 06:18:16.179下午, 244.0, 0, 39, 33, 37
422, 2.105, 2017/11/14 06:18:16.184下午, 226.0, 0, 39, 33, 37
423, 2.11, 2017/11/14 06:18:16.189下午, 241.0, 0, 39, 32, 36
424, 2.115, 2017/11/14 06:18:16.194下午, 253.0, 0, 39, 33, 36
425, 2.12, 2017/11/14 06:18:16.199下午, 251.0, 0, 39, 34, 37
426, 2.125, 2017/11/14 06:18:16.204下午, 244.0, 0, 39, 34, 37
427, 2.13, 2017/11/14 06:18:16.209下午, 252.0, 0, 39, 34, 37
428, 2.135, 2017/11/14 06:18:16.214下午, 245.0, 0, 38, 34, 37
429, 2.14, 2017/11/14 06:18:16.219下午, 239.0, 0, 38, 33, 36
430, 2.145, 2017/11/14 06:18:16.224下午, 234.0, 0, 39, 34, 37
431, 2.15, 2017/11/14 06:18:16.229下午, 239.0, 0, 39, 34, 37
432, 2.155, 2017/11/14 06:18:16.234下午, 234.0, 0, 39, 35, 37
433, 2.16, 2017/11/14 06:18:16.239下午, 241.0, 0, 39, 33, 37
434, 2.165, 2017/11/14 06:18:16.244下午, 236.0, 0, 39, 33, 36
435, 2.17, 2017/11/14 06:18:16.249下午, 248.0, 0, 39, 34, 37
436, 2.175, 2017/11/14 06:18:16.254下午, 245.0, 0, 39, 34, 37
437, 2.18, 2017/11/14 06:18:16.259下午, 243.0, 0, 38, 35, 37
438, 2.185, 2017/11/14 06:18:16.264下午, 243.0, 0, 38, 34, 37
439, 2.19, 2017/11/14 06:18:16.269下午, 249.0, 0, 38, 34, 37
440, 2.195, 2017/11/14 06:18:16.274下午, 232.0, 0, 39, 33, 36
441, 2.2, 2017/11/14 06:18:16.279下午, 235.0, 0, 38, 32, 36
442, 2.205, 2017/11/14 06:18:16.284下午, 245.0, 0, 39, 33, 37
443, 2.21, 2017/11/14 06:18:16.289下午, 251.0, 0, 39, 34, 37
444, 2.215, 2017/11/14 06:18:16.294下午, 239.0, 0, 39, 34, 37
445, 2.22, 2017/11/14 06:18:16.299下午, 233.0, 0, 39, 34, 37
446, 2.225, 2017/11/14 06:18:16.304下午, 258.0, 0, 38, 34, 37
447, 2.23, 2017/11/14 06:18:16.309下午, 239.0, 0, 38, 33, 36
448, 2.235, 2017/11/14 06:18:16.314下午, 237.0, 0, 38, 34, 36
449, 2.24, 2017/11/14 06:18:16.319下午, 244.0, 0, 39, 34, 37
450, 2.245, 2017/11/14 06:18:16.324下午, 235.0, 0, 39, 32, 36
451, 2.25, 2017/11/14 06:18:16.329下午, 237.0, 0, 38, 32, 36
452, 2.255, 2017/11/14 06:18:16.334下午, 250.0, 0, 39, 33, 37
453, 2.26, 2017/11/14 06:18:16.339下午, 254.0, 0, 39, 34, 37
454, 2.265, 2017/11/14 06:18:16.344下午, 259.0, 0, 39, 34, 37
455, 2.27, 2017/11/14 06:18:16.349下午, 252.0, 0, 39, 34, 37
456, 2.275, 2017/11/14 06:18:16.354下午, 244.0, 0, 38, 35, 37
457, 2.28, 2017/11/14 06:18:16.359下午, 233.0, 0, 39, 32, 36
458, 2.285, 2017/11/14 06:18:16.364下午, 249.0, 0, 38, 34, 37
459, 2.29, 2017/11/14 06:18:16.369下午, 227.0, 0, 39, 31, 36
460, 2.295, 2017/11/14 06:18:16.374下午, 261.0, 0, 39, 33, 37
461, 2.3, 2017/11/14 06:18:16.379下午, 243.0, 0, 40, 34, 38
462, 2.305, 2017/11/14 06:18:16.384下午, 257.0, 0, 39, 34, 37
463, 2.31, 2017/11/14 06:18:16.389下午, 245.0, 0, 39, 34, 37
464, 2.315, 2017/11/14 06:18:16.394下午, 242.0, 0, 38, 34, 37
465, 2.32, 2017/11/14 06:18:16.399下午, 241.0, 0, 39, 34, 37
466, 2.325, 2017/11/14 06:18:16.404下午, 243.0, 0, 39, 32, 36
467, 2.33, 2017/11/14 06:18:16.409下午, 240.0, 0, 39, 32, 36
468, 2.335, 2017/11/14 06:18:16.414下午, 247.0, 0, 39, 33, 37
469, 2.34, 2017/11/14 06:18:16.419下午, 247.0, 0, 39, 34, 37
470, 2.345, 2017/11/14 06:18:16.424下午, 252.0, 0, 39, 33, 37
471, 2.35, 2017/11/14 06:18:16.429下午, 245.0, 0, 38, 33, 36
472, 2.355, 2017/11/14 06:18:16.434下午, 248.0, 0, 39, 34, 37
473, 2.36, 2017/11/14 06:18:16.439下午, 251.0, 30, 38, 32, 36
474, 2.365, 2017/11/14 06:18:16.444下午, 224.0, 0, 39, 32, 36
475, 2.37, 2017/11/14 06:18:16.449下午, 262.0, 0, 39, 34, 37
476, 2.375, 2017/11/14 06:18:16.454下午, 261.0, 0, 39, 34, 37
477, 2.38, 2017/11/14 06:18:16.459下午, 239.0, 0, 39, 34, 37
478, 2.385, 2017/11/14 06:18:16.464下午, 250.0, 0, 39, 34, 37
479, 2.39, 2017/11/14 06:18:16.469下午, 247.0, 0, 39, 33, 37
480, 2.395, 2017/11/14 06:18:16.474下午, 253.0, 0, 39, 34, 37
481, 2.4, 2017/11/14 06:18:16.479下午, 229.0, 0, 39, 34, 37
482, 2.405, 2017/11/14 06:18:16.484下午, 242.0, 0, 39, 33, 37
483, 2.41, 2017/11/14 06:18:16.489下午, 255.0, 0, 39, 34, 37
484, 2.415, 2017/11/14 06:18:16.494下午, 244.0, 0, 39, 34, 37
485, 2.42, 2017/11/14 06:18:16.499下午, 244.0, 0, 39, 35, 37
486, 2.425, 2017/11/14 06:18:16.504下午, 240.0, 0, 40, 34, 37
487, 2.43, 2017/11/14 06:18:16.509下午, 240.0, 0, 39, 35, 37
488, 2.435, 2017/11/14 06:18:16.514下午, 245.0, 0, 39, 32, 36
489, 2.44, 2017/11/14 06:18:16.519下午, 242.0, 0, 39, 34, 37
490, 2.445, 2017/11/14 06:18:16.524下午, 259.0, 0, 39, 34, 37
491, 2.45, 2017/11/14 06:18:16.529下午, 253.0, 0, 38, 34, 37
492, 2.455, 2017/11/14 06:18:16.534下午, 241.0, 0, 40, 34, 37
493, 2.46, 2017/11/14 06:18:16.539下午, 227.0, 0, 40, 33, 37
494, 2.465, 2017/11/14 06:18:16.544下午, 268.0, 0, 40, 34, 37
495, 2.47, 2017/11/14 06:18:16.549下午, 251.0, 0, 38, 34, 37
496, 2.475, 2017/11/14 06:18:16.554下午, 242.0, 0, 39, 34, 37
497, 2.48, 2017/11/14 06:18:16.559下午, 237.0, 0, 39, 33, 37
498, 2.485, 2017/11/14 06:18:16.564下午, 239.0, 0, 40, 32, 37
499, 2.49, 2017/11/14 06:18:16.569下午, 235.0, 0, 40, 34, 38
500, 2.495, 2017/11/14 06:18:16.574下午, 248.0, 0, 40, 35, 38
501, 2.5, 2017/11/14 06:18:16.579下午, 265.0, 0, 40, 34, 38
502, 2.505, 2017/11/14 06:18:16.584下午, 240.0, 0, 39, 33, 37
503, 2.51, 2017/11/14 06:18:16.589下午, 245.0, 0, 40, 34, 37
504, 2.515, 2017/11/14 06:18:16.594下午, 249.0, 0, 39, 35, 37
505, 2.52, 2017/11/14 06:18:16.599下午, 249.0, 0, 40, 33, 37
506, 2.525, 2017/11/14 06:18:16.604下午, 242.0, 0, 39, 34, 37
507, 2.53, 2017/11/14 06:18:16.609下午, 230.0, 0, 40, 33, 37
508, 2.535, 2017/11/14 06:18:16.614下午, 255.0, 0, 40, 35, 38
509, 2.54, 2017/11/14 06:18:16.619下午, 259.0, 0, 40, 35, 38
510, 2.545, 2017/11/14 06:18:16.624下午, 261.0, 0, 39, 34, 37
511, 2.55, 2017/11/14 06:18:16.629下午, 246.0, 0, 39, 34, 37
512, 2.555, 2017/11/14 06:18:16.634下午, 234.0, 0, 39, 34, 37
513, 2.56, 2017/11/14 06:18:16.639下午, 265.0, 0, 40, 34, 38
514, 2.565, 2017/11/14 06:18:16.644下午, 255.0, 0, 40, 34, 38
515, 2.57, 2017/11/14 06:18:16.649下午, 235.0, 0, 39, 34, 37
516, 2.575, 2017/11/14 06:18:16.654下午, 248.0, 0, 40, 34, 37
517, 2.58, 2017/11/14 06:18:16.659下午, 246.0, 0, 40, 33, 37
518, 2.585, 2017/11/14 06:18:16.664下午, 247.0, 0, 40, 35, 38
519, 2.59, 2017/11/14 06:18:16.669下午, 256.0, 0, 39, 34, 37
520, 2.595, 2017/11/14 06:18:16.674下午, 246.0, 0, 40, 34, 37
521, 2.6, 2017/11/14 06:18:16.679下午, 260.0, 0, 40, 33, 37
522, 2.605, 2017/11/14 06:18:16.684下午, 262.0, 0, 40, 34, 37
523, 2.61, 2017/11/14 06:18:16.689下午, 253.0, 0, 39, 33, 37
524, 2.615, 2017/11/14 06:18:16.694下午, 253.0, 0, 39, 34, 37
525, 2.62, 2017/11/14 06:18:16.699下午, 226.0, 0, 40, 32, 37
526, 2.625, 2017/11/14 06:18:16.704下午, 251.0, 0, 40, 33, 37
527, 2.63, 2017/11/14 06:18:16.709下午, 257.0, 0, 39, 34, 37
528, 2.635, 2017/11/14 06:18:16.714下午, 257.0, 0, 40, 33, 37
529, 2.64, 2017/11/14 06:18:16.719下午, 238.0, 0, 39, 35, 38
530, 2.645, 2017/11/14 06:18:16.724下午, 247.0, 0, 39, 34, 37
531, 2.65, 2017/11/14 06:18:16.729下午, 233.0, 0, 40, 32, 37
532, 2.655, 2017/11/14 06:18:16.734下午, 252.0, 0, 40, 34, 37
533, 2.66, 2017/11/14 06:18:16.739下午, 253.0, 0, 39, 34, 37
534, 2.665, 2017/11/14 06:18:16.744下午, 235.0, 0, 39, 34, 37
535, 2.67, 2017/11/14 06:18:16.749下午, 247.0, 0, 39, 34, 37
536, 2.675, 2017/11/14 06:18:16.754下午, 254.0, 0, 39, 34, 37
537, 2.68, 2017/11/14 06:18:16.759下午, 242.0, 0, 39, 34, 37
538, 2.685, 2017/11/14 06:18:16.764下午, 247.0, 0, 39, 34, 37
539, 2.69, 2017/11/14 06:18:16.769下午, 264.0, 0, 40, 33, 37
540, 2.695, 2017/11/14 06:18:16.774下午, 241.0, 0, 40, 34, 37
541, 2.7, 2017/11/14 06:18:16.779下午, 247.0, 0, 39, 34, 37
542, 2.705, 2017/11/14 06:18:16.784下午, 250.0, 0, 40, 34, 38
543, 2.71, 2017/11/14 06:18:16.789下午, 247.0, 0, 39, 33, 37
544, 2.715, 2017/11/14 06:18:16.794下午, 251.0, 0, 40, 35, 38
545, 2.72, 2017/11/14 06:18:16.799下午, 258.0, 0, 40, 35, 38
546, 2.725, 2017/11/14 06:18:16.804下午, 251.0, 0, 40, 35, 38
547, 2.73, 2017/11/14 06:18:16.809下午, 251.0, 0, 39, 34, 37
548, 2.735, 2017/11/14 06:18:16.814下午, 251.0, 0, 39, 33, 37
549, 2.74, 2017/11/14 06:18:16.819下午, 233.0, 0, 40, 34, 37
550, 2.745, 2017/11/14 06:18:16.824下午, 272.0, 0, 40, 34, 38
551, 2.75, 2017/11/14 06:18:16.829下午, 244.0, 0, 39, 34, 37
552, 2.755, 2017/11/14 06:18:16.834下午, 253.0, 0, 39, 34, 37
553, 2.76, 2017/11/14 06:18:16.839下午, 253.0, 0, 40, 34, 37
554, 2.765, 2017/11/14 06:18:16.844下午, 236.0, 0, 39, 34, 37
555, 2.77, 2017/11/14 06:18:16.849下午, 272.0, 0, 40, 33, 37
556, 2.775, 2017/11/14 06:18:16.854下午, 269.0, 0, 40, 35, 38
557, 2.78, 2017/11/14 06:18:16.859下午, 261.0, 0, 40, 34, 38
558, 2.785, 2017/11/14 06:18:16.864下午, 244.0, 0, 40, 33, 37
559, 2.79, 2017/11/14 06:18:16.869下午, 251.0, 0, 40, 33, 37
560, 2.795, 2017/11/14 06:18:16.874下午, 236.0, 0, 40, 33, 37
561, 2.8, 2017/11/14 06:18:16.879下午, 266.0, 0, 39, 34, 37
562, 2.805, 2017/11/14 06:18:16.884下午, 264.0, 0, 39, 34, 37
563, 2.81, 2017/11/14 06:18:16.889下午, 264.0, 0, 40, 34, 38
564, 2.815, 2017/11/14 06:18:16.894下午, 242.0, 0, 40, 34, 37
565, 2.82, 2017/11/14 06:18:16.899下午, 241.0, 0, 40, 35, 38
566, 2.825, 2017/11/14 06:18:16.904下午, 252.0, 0, 39, 34, 37
567, 2.83, 2017/11/14 06:18:16.909下午, 249.0, 0, 40, 34, 37
568, 2.835, 2017/11/14 06:18:16.914下午, 249.0, 0, 39, 34, 37
569, 2.84, 2017/11/14 06:18:16.919下午, 245.0, 0, 39, 34, 37
570, 2.845, 2017/11/14 06:18:16.924下午, 250.0, 0, 40, 36, 38
571, 2.85, 2017/11/14 06:18:16.929下午, 261.0, 0, 39, 33, 37
572, 2.855, 2017/11/14 06:18:16.934下午, 267.0, 0, 39, 35, 38
573, 2.86, 2017/11/14 06:18:16.939下午, 238.0, 0, 39, 34, 37
574, 2.865, 2017/11/14 06:18:16.944下午, 244.0, 0, 39, 34, 37
575, 2.87, 2017/11/14 06:18:16.949下午, 251.0, 0, 40, 33, 37
576, 2.875, 2017/11/14 06:18:16.954下午, 268.0, 0, 39, 34, 37
577, 2.88, 2017/11/14 06:18:16.959下午, 258.0, 0, 39, 35, 38
578, 2.885, 2017/11/14 06:18:16.964下午, 266.0, 0, 39, 34, 37
579, 2.89, 2017/11/14 06:18:16.969下午, 248.0, 0, 40, 34, 38
580, 2.895, 2017/11/14 06:18:16.974下午, 238.0, 0, 39, 35, 37
581, 2.9, 2017/11/14 06:18:16.979下午, 246.0, 0, 40, 34, 37
582, 2.905, 2017/11/14 06:18:16.984下午, 265.0, 0, 39, 34, 37
583, 2.91, 2017/11/14 06:18:16.989下午, 241.0, 0, 39, 34, 37
584, 2.915, 2017/11/14 06:18:16.994下午, 256.0, 0, 39, 34, 37
585, 2.92, 2017/11/14 06:18:16.999下午, 257.0, 0, 39, 35, 38
586, 2.925, 2017/11/14 06:18:17.004下午, 253.0, 0, 39, 34, 37
587, 2.93, 2017/11/14 06:18:17.009下午, 252.0, 0, 41, 34, 38
588, 2.935, 2017/11/14 06:18:17.014下午, 245.0, 0, 39, 32, 36
589, 2.94, 2017/11/14 06:18:17.019下午, 263.0, 0, 40, 34, 37
590, 2.945, 2017/11/14 06:18:17.024下午, 254.0, 0, 39, 35, 37
591, 2.95, 2017/11/14 06:18:17.029下午, 251.0, 0, 40, 34, 38
592, 2.955, 2017/11/14 06:18:17.034下午, 249.0, 0, 39, 33, 37
593, 2.96, 2017/11/14 06:18:17.039下午, 252.0, 0, 40, 35, 38
594, 2.965, 2017/11/14 06:18:17.044下午, 238.0, 0, 39, 36, 37
595, 2.97, 2017/11/14 06:18:17.049下午, 244.0, 0, 40, 35, 38
596, 2.975, 2017/11/14 06:18:17.054下午, 251.0, 0, 39, 33, 37
597, 2.98, 2017/11/14 06:18:17.059下午, 251.0, 0, 39, 34, 37
598, 2.985, 2017/11/14 06:18:17.064下午, 252.0, 0, 39, 33, 37
599, 2.99, 2017/11/14 06:18:17.069下午, 241.0, 0, 39, 33, 37
600, 2.995, 2017/11/14 06:18:17.074下午, 262.0, 0, 39, 34, 37
@@
