DATA_TYPE Graph
VERSION Tekscan Pressure Measurement System 6.70-03
HARDWARE 00114-3447
MAP_VERSION 6.5
HW_TYPE 4
VersaPogoFsx 0
檔案名 C:\Users\asus\Desktop\工研院_計畫\收案資料\Subject02\Plantar Pressure\R65_STAND_RIGHT_1.fsx
SENSOR_TYPE FSCAN
ROWS 60
COLS 21
ROW_SPACING 0.508 centimeters
COL_SPACING 0.508 centimeters
SENSEL_AREA 0.258064 cm2
NOISE_THRESHOLD 3
SECONDS_PER_FRAME 0.005
SECONDS_PER_FRAME 0
MICRO_SECOND 0
TIME 2017/11/15 10:45:02.275上午
SATURATION_PRESSURE 2347.96 KPa 
CALIBRATION_POINT_1 48.0001 (Kilograms) 1981 (Raw Sum) 199 (Number of Loaded Cells)
CALIBRATION_MODE_1 步態
CALIBRATION_INFO C:\Users\asus\Desktop\工研院_計畫\收案資料\Subject02\Plantar Pressure\R65_STAND_RIGHT_1.fsx
SENSITIVITY 自定義
MAP_INDEX 0
SUBMAP 0
Patient ID: 

Speed of Gait: 

Weight: 

Gender: 

Physician: 

Technician: 

Shoe: 

START_FRAME 1
END_FRAME 600
UNITS KPa
ASCII_DATA @@
畫面(X), 時間(X), 絕對時間(X), Raw Sum, 壓力(Y:天藍色), 壓力(Y), 壓力(Y), 壓力(Y)
1, 0, 2017/11/15 10:45:02.275上午, 564.0, 39, 32, 33, 36
2, 0.005, 2017/11/15 10:45:02.28上午, 575.0, 39, 31, 34, 36
3, 0.01, 2017/11/15 10:45:02.285上午, 578.0, 39, 32, 33, 36
4, 0.015, 2017/11/15 10:45:02.29上午, 564.0, 40, 32, 33, 36
5, 0.02, 2017/11/15 10:45:02.295上午, 570.0, 40, 31, 33, 36
6, 0.025, 2017/11/15 10:45:02.3上午, 582.0, 40, 32, 34, 36
7, 0.03, 2017/11/15 10:45:02.305上午, 573.0, 40, 30, 32, 35
8, 0.035, 2017/11/15 10:45:02.31上午, 584.0, 40, 30, 33, 36
9, 0.04, 2017/11/15 10:45:02.315上午, 568.0, 39, 31, 34, 36
10, 0.045, 2017/11/15 10:45:02.32上午, 560.0, 39, 33, 34, 36
11, 0.05, 2017/11/15 10:45:02.325上午, 561.0, 39, 31, 33, 36
12, 0.055, 2017/11/15 10:45:02.33上午, 572.0, 39, 32, 33, 36
13, 0.06, 2017/11/15 10:45:02.335上午, 571.0, 39, 32, 33, 36
14, 0.065, 2017/11/15 10:45:02.34上午, 571.0, 39, 32, 34, 36
15, 0.07, 2017/11/15 10:45:02.345上午, 566.0, 38, 32, 34, 36
16, 0.075, 2017/11/15 10:45:02.35上午, 574.0, 39, 32, 34, 36
17, 0.08, 2017/11/15 10:45:02.355上午, 564.0, 39, 31, 34, 36
18, 0.085, 2017/11/15 10:45:02.36上午, 574.0, 38, 32, 34, 36
19, 0.09, 2017/11/15 10:45:02.365上午, 572.0, 39, 32, 34, 36
20, 0.095, 2017/11/15 10:45:02.37上午, 578.0, 39, 31, 33, 36
21, 0.1, 2017/11/15 10:45:02.375上午, 565.0, 39, 34, 34, 36
22, 0.105, 2017/11/15 10:45:02.38上午, 569.0, 39, 33, 34, 36
23, 0.11, 2017/11/15 10:45:02.385上午, 569.0, 39, 32, 34, 36
24, 0.115, 2017/11/15 10:45:02.39上午, 571.0, 38, 30, 34, 36
25, 0.12, 2017/11/15 10:45:02.395上午, 560.0, 38, 31, 33, 35
26, 0.125, 2017/11/15 10:45:02.4上午, 554.0, 38, 32, 34, 36
27, 0.13, 2017/11/15 10:45:02.405上午, 562.0, 38, 33, 34, 36
28, 0.135, 2017/11/15 10:45:02.41上午, 549.0, 38, 34, 33, 35
29, 0.14, 2017/11/15 10:45:02.415上午, 547.0, 38, 33, 33, 35
30, 0.145, 2017/11/15 10:45:02.42上午, 562.0, 38, 31, 33, 35
31, 0.15, 2017/11/15 10:45:02.425上午, 546.0, 38, 28, 34, 36
32, 0.155, 2017/11/15 10:45:02.43上午, 550.0, 38, 33, 35, 36
33, 0.16, 2017/11/15 10:45:02.435上午, 569.0, 38, 31, 35, 36
34, 0.165, 2017/11/15 10:45:02.44上午, 567.0, 38, 31, 34, 36
35, 0.17, 2017/11/15 10:45:02.445上午, 559.0, 38, 31, 34, 35
36, 0.175, 2017/11/15 10:45:02.45上午, 566.0, 38, 31, 35, 36
37, 0.18, 2017/11/15 10:45:02.455上午, 559.0, 37, 32, 35, 36
38, 0.185, 2017/11/15 10:45:02.46上午, 563.0, 37, 32, 34, 35
39, 0.19, 2017/11/15 10:45:02.465上午, 564.0, 38, 32, 35, 36
40, 0.195, 2017/11/15 10:45:02.47上午, 558.0, 38, 31, 34, 36
41, 0.2, 2017/11/15 10:45:02.475上午, 557.0, 38, 33, 34, 36
42, 0.205, 2017/11/15 10:45:02.48上午, 540.0, 38, 32, 34, 36
43, 0.21, 2017/11/15 10:45:02.485上午, 548.0, 37, 31, 34, 35
44, 0.215, 2017/11/15 10:45:02.49上午, 556.0, 38, 32, 33, 35
45, 0.22, 2017/11/15 10:45:02.495上午, 536.0, 38, 30, 34, 35
46, 0.225, 2017/11/15 10:45:02.5上午, 569.0, 37, 31, 34, 35
47, 0.23, 2017/11/15 10:45:02.505上午, 568.0, 37, 31, 34, 35
48, 0.235, 2017/11/15 10:45:02.51上午, 566.0, 38, 31, 33, 35
49, 0.24, 2017/11/15 10:45:02.515上午, 562.0, 38, 31, 34, 35
50, 0.245, 2017/11/15 10:45:02.52上午, 560.0, 38, 31, 35, 36
51, 0.25, 2017/11/15 10:45:02.525上午, 568.0, 38, 32, 34, 36
52, 0.255, 2017/11/15 10:45:02.53上午, 550.0, 37, 32, 35, 36
53, 0.26, 2017/11/15 10:45:02.535上午, 564.0, 37, 32, 35, 36
54, 0.265, 2017/11/15 10:45:02.54上午, 561.0, 37, 32, 35, 36
55, 0.27, 2017/11/15 10:45:02.545上午, 552.0, 37, 33, 34, 35
56, 0.275, 2017/11/15 10:45:02.55上午, 567.0, 38, 33, 35, 36
57, 0.28, 2017/11/15 10:45:02.555上午, 578.0, 37, 31, 34, 35
58, 0.285, 2017/11/15 10:45:02.56上午, 560.0, 37, 33, 34, 35
59, 0.29, 2017/11/15 10:45:02.565上午, 565.0, 36, 32, 35, 35
60, 0.295, 2017/11/15 10:45:02.57上午, 554.0, 37, 33, 34, 35
61, 0.3, 2017/11/15 10:45:02.575上午, 552.0, 36, 34, 35, 36
62, 0.305, 2017/11/15 10:45:02.58上午, 551.0, 36, 34, 35, 36
63, 0.31, 2017/11/15 10:45:02.585上午, 564.0, 37, 31, 34, 35
64, 0.315, 2017/11/15 10:45:02.59上午, 553.0, 37, 34, 34, 35
65, 0.32, 2017/11/15 10:45:02.595上午, 562.0, 37, 31, 34, 35
66, 0.325, 2017/11/15 10:45:02.6上午, 554.0, 36, 30, 34, 34
67, 0.33, 2017/11/15 10:45:02.605上午, 565.0, 37, 30, 34, 35
68, 0.335, 2017/11/15 10:45:02.61上午, 557.0, 37, 32, 34, 35
69, 0.34, 2017/11/15 10:45:02.615上午, 556.0, 37, 31, 34, 35
70, 0.345, 2017/11/15 10:45:02.62上午, 561.0, 37, 31, 33, 35
71, 0.35, 2017/11/15 10:45:02.625上午, 544.0, 37, 28, 34, 35
72, 0.355, 2017/11/15 10:45:02.63上午, 553.0, 37, 31, 34, 35
73, 0.36, 2017/11/15 10:45:02.635上午, 552.0, 37, 30, 34, 35
74, 0.365, 2017/11/15 10:45:02.64上午, 553.0, 36, 31, 34, 35
75, 0.37, 2017/11/15 10:45:02.645上午, 556.0, 36, 30, 34, 35
76, 0.375, 2017/11/15 10:45:02.65上午, 555.0, 37, 33, 34, 35
77, 0.38, 2017/11/15 10:45:02.655上午, 560.0, 37, 32, 34, 35
78, 0.385, 2017/11/15 10:45:02.66上午, 558.0, 37, 32, 35, 36
79, 0.39, 2017/11/15 10:45:02.665上午, 565.0, 37, 31, 34, 35
80, 0.395, 2017/11/15 10:45:02.67上午, 558.0, 37, 33, 34, 35
81, 0.4, 2017/11/15 10:45:02.675上午, 556.0, 37, 35, 34, 35
82, 0.405, 2017/11/15 10:45:02.68上午, 562.0, 37, 32, 34, 35
83, 0.41, 2017/11/15 10:45:02.685上午, 550.0, 37, 34, 35, 36
84, 0.415, 2017/11/15 10:45:02.69上午, 556.0, 36, 32, 35, 35
85, 0.42, 2017/11/15 10:45:02.695上午, 573.0, 37, 31, 34, 35
86, 0.425, 2017/11/15 10:45:02.7上午, 564.0, 37, 33, 34, 35
87, 0.43, 2017/11/15 10:45:02.705上午, 563.0, 36, 31, 34, 35
88, 0.435, 2017/11/15 10:45:02.71上午, 558.0, 36, 30, 33, 34
89, 0.44, 2017/11/15 10:45:02.715上午, 562.0, 36, 31, 33, 34
90, 0.445, 2017/11/15 10:45:02.72上午, 554.0, 36, 32, 34, 35
91, 0.45, 2017/11/15 10:45:02.725上午, 558.0, 37, 31, 34, 35
92, 0.455, 2017/11/15 10:45:02.73上午, 563.0, 37, 30, 34, 35
93, 0.46, 2017/11/15 10:45:02.735上午, 552.0, 37, 32, 34, 35
94, 0.465, 2017/11/15 10:45:02.74上午, 551.0, 37, 33, 33, 35
95, 0.47, 2017/11/15 10:45:02.745上午, 554.0, 36, 31, 34, 35
96, 0.475, 2017/11/15 10:45:02.75上午, 560.0, 37, 30, 33, 35
97, 0.48, 2017/11/15 10:45:02.755上午, 559.0, 36, 31, 34, 35
98, 0.485, 2017/11/15 10:45:02.76上午, 556.0, 36, 30, 34, 35
99, 0.49, 2017/11/15 10:45:02.765上午, 548.0, 37, 32, 34, 35
100, 0.495, 2017/11/15 10:45:02.77上午, 556.0, 36, 32, 34, 35
101, 0.5, 2017/11/15 10:45:02.775上午, 560.0, 36, 31, 34, 35
102, 0.505, 2017/11/15 10:45:02.78上午, 554.0, 37, 31, 33, 35
103, 0.51, 2017/11/15 10:45:02.785上午, 558.0, 36, 30, 34, 34
104, 0.515, 2017/11/15 10:45:02.79上午, 539.0, 37, 28, 35, 36
105, 0.52, 2017/11/15 10:45:02.795上午, 528.0, 37, 28, 35, 36
106, 0.525, 2017/11/15 10:45:02.8上午, 555.0, 37, 31, 34, 35
107, 0.53, 2017/11/15 10:45:02.805上午, 555.0, 37, 31, 33, 35
108, 0.535, 2017/11/15 10:45:02.81上午, 563.0, 36, 31, 35, 35
109, 0.54, 2017/11/15 10:45:02.815上午, 559.0, 37, 31, 35, 35
110, 0.545, 2017/11/15 10:45:02.82上午, 553.0, 37, 32, 35, 35
111, 0.55, 2017/11/15 10:45:02.825上午, 561.0, 37, 32, 35, 35
112, 0.555, 2017/11/15 10:45:02.83上午, 558.0, 36, 31, 35, 35
113, 0.56, 2017/11/15 10:45:02.835上午, 557.0, 37, 33, 34, 35
114, 0.565, 2017/11/15 10:45:02.84上午, 561.0, 36, 30, 34, 34
115, 0.57, 2017/11/15 10:45:02.845上午, 562.0, 37, 32, 34, 35
116, 0.575, 2017/11/15 10:45:02.85上午, 566.0, 37, 33, 34, 35
117, 0.58, 2017/11/15 10:45:02.855上午, 564.0, 37, 32, 34, 35
118, 0.585, 2017/11/15 10:45:02.86上午, 551.0, 37, 33, 34, 35
119, 0.59, 2017/11/15 10:45:02.865上午, 560.0, 37, 30, 34, 35
120, 0.595, 2017/11/15 10:45:02.87上午, 566.0, 37, 33, 34, 35
121, 0.6, 2017/11/15 10:45:02.875上午, 555.0, 37, 32, 34, 35
122, 0.605, 2017/11/15 10:45:02.88上午, 573.0, 37, 30, 34, 35
123, 0.61, 2017/11/15 10:45:02.885上午, 549.0, 37, 32, 34, 35
124, 0.615, 2017/11/15 10:45:02.89上午, 560.0, 37, 33, 33, 35
125, 0.62, 2017/11/15 10:45:02.895上午, 559.0, 36, 31, 33, 34
126, 0.625, 2017/11/15 10:45:02.9上午, 559.0, 36, 30, 33, 34
127, 0.63, 2017/11/15 10:45:02.905上午, 550.0, 37, 32, 35, 36
128, 0.635, 2017/11/15 10:45:02.91上午, 548.0, 37, 29, 34, 35
129, 0.64, 2017/11/15 10:45:02.915上午, 560.0, 37, 31, 35, 36
130, 0.645, 2017/11/15 10:45:02.92上午, 559.0, 37, 31, 35, 35
131, 0.65, 2017/11/15 10:45:02.925上午, 557.0, 37, 33, 34, 35
132, 0.655, 2017/11/15 10:45:02.93上午, 561.0, 37, 35, 34, 36
133, 0.66, 2017/11/15 10:45:02.935上午, 567.0, 37, 30, 34, 35
134, 0.665, 2017/11/15 10:45:02.94上午, 549.0, 37, 34, 34, 35
135, 0.67, 2017/11/15 10:45:02.945上午, 553.0, 37, 33, 34, 35
136, 0.675, 2017/11/15 10:45:02.95上午, 564.0, 37, 30, 34, 35
137, 0.68, 2017/11/15 10:45:02.955上午, 562.0, 37, 31, 34, 35
138, 0.685, 2017/11/15 10:45:02.96上午, 561.0, 37, 31, 34, 35
139, 0.69, 2017/11/15 10:45:02.965上午, 564.0, 36, 32, 33, 35
140, 0.695, 2017/11/15 10:45:02.97上午, 561.0, 37, 31, 34, 35
141, 0.7, 2017/11/15 10:45:02.975上午, 564.0, 37, 31, 34, 35
142, 0.705, 2017/11/15 10:45:02.98上午, 564.0, 37, 31, 33, 35
143, 0.71, 2017/11/15 10:45:02.985上午, 559.0, 37, 32, 34, 35
144, 0.715, 2017/11/15 10:45:02.99上午, 557.0, 38, 32, 33, 35
145, 0.72, 2017/11/15 10:45:02.995上午, 539.0, 37, 28, 33, 35
146, 0.725, 2017/11/15 10:45:03上午, 532.0, 37, 28, 34, 35
147, 0.73, 2017/11/15 10:45:03.005上午, 557.0, 37, 31, 34, 35
148, 0.735, 2017/11/15 10:45:03.01上午, 557.0, 37, 31, 34, 35
149, 0.74, 2017/11/15 10:45:03.015上午, 559.0, 37, 31, 34, 35
150, 0.745, 2017/11/15 10:45:03.02上午, 560.0, 37, 31, 35, 36
151, 0.75, 2017/11/15 10:45:03.025上午, 559.0, 37, 32, 34, 35
152, 0.755, 2017/11/15 10:45:03.03上午, 560.0, 37, 31, 34, 35
153, 0.76, 2017/11/15 10:45:03.035上午, 560.0, 37, 32, 33, 35
154, 0.765, 2017/11/15 10:45:03.04上午, 553.0, 37, 33, 33, 35
155, 0.77, 2017/11/15 10:45:03.045上午, 554.0, 37, 31, 33, 35
156, 0.775, 2017/11/15 10:45:03.05上午, 560.0, 37, 30, 34, 35
157, 0.78, 2017/11/15 10:45:03.055上午, 548.0, 37, 28, 33, 35
158, 0.785, 2017/11/15 10:45:03.06上午, 561.0, 37, 31, 33, 34
159, 0.79, 2017/11/15 10:45:03.065上午, 534.0, 37, 28, 33, 35
160, 0.795, 2017/11/15 10:45:03.07上午, 547.0, 37, 32, 34, 35
161, 0.8, 2017/11/15 10:45:03.075上午, 553.0, 37, 32, 33, 35
162, 0.805, 2017/11/15 10:45:03.08上午, 553.0, 37, 31, 33, 35
163, 0.81, 2017/11/15 10:45:03.085上午, 560.0, 37, 32, 35, 35
164, 0.815, 2017/11/15 10:45:03.09上午, 533.0, 37, 30, 34, 35
165, 0.82, 2017/11/15 10:45:03.095上午, 563.0, 38, 31, 34, 36
166, 0.825, 2017/11/15 10:45:03.1上午, 562.0, 37, 33, 34, 36
167, 0.83, 2017/11/15 10:45:03.105上午, 569.0, 38, 33, 33, 35
168, 0.835, 2017/11/15 10:45:03.11上午, 569.0, 37, 30, 34, 35
169, 0.84, 2017/11/15 10:45:03.115上午, 550.0, 37, 31, 33, 35
170, 0.845, 2017/11/15 10:45:03.12上午, 549.0, 37, 28, 34, 35
171, 0.85, 2017/11/15 10:45:03.125上午, 541.0, 37, 30, 33, 35
172, 0.855, 2017/11/15 10:45:03.13上午, 566.0, 37, 31, 33, 35
173, 0.86, 2017/11/15 10:45:03.135上午, 564.0, 37, 31, 34, 35
174, 0.865, 2017/11/15 10:45:03.14上午, 554.0, 38, 31, 34, 35
175, 0.87, 2017/11/15 10:45:03.145上午, 560.0, 38, 31, 34, 36
176, 0.875, 2017/11/15 10:45:03.15上午, 547.0, 37, 31, 34, 35
177, 0.88, 2017/11/15 10:45:03.155上午, 557.0, 38, 31, 34, 35
178, 0.885, 2017/11/15 10:45:03.16上午, 554.0, 38, 31, 34, 36
179, 0.89, 2017/11/15 10:45:03.165上午, 567.0, 37, 32, 34, 35
180, 0.895, 2017/11/15 10:45:03.17上午, 556.0, 37, 32, 34, 35
181, 0.9, 2017/11/15 10:45:03.175上午, 565.0, 38, 32, 35, 36
182, 0.905, 2017/11/15 10:45:03.18上午, 559.0, 37, 33, 34, 35
183, 0.91, 2017/11/15 10:45:03.185上午, 564.0, 38, 34, 34, 36
184, 0.915, 2017/11/15 10:45:03.19上午, 560.0, 37, 32, 34, 35
185, 0.92, 2017/11/15 10:45:03.195上午, 557.0, 37, 31, 33, 35
186, 0.925, 2017/11/15 10:45:03.2上午, 556.0, 37, 32, 33, 35
187, 0.93, 2017/11/15 10:45:03.205上午, 542.0, 37, 31, 34, 35
188, 0.935, 2017/11/15 10:45:03.21上午, 537.0, 37, 28, 34, 35
189, 0.94, 2017/11/15 10:45:03.215上午, 566.0, 37, 31, 35, 36
190, 0.945, 2017/11/15 10:45:03.22上午, 563.0, 38, 31, 33, 35
191, 0.95, 2017/11/15 10:45:03.225上午, 563.0, 37, 34, 33, 35
192, 0.955, 2017/11/15 10:45:03.23上午, 559.0, 37, 31, 34, 35
193, 0.96, 2017/11/15 10:45:03.235上午, 566.0, 37, 30, 33, 35
194, 0.965, 2017/11/15 10:45:03.24上午, 562.0, 37, 30, 33, 34
195, 0.97, 2017/11/15 10:45:03.245上午, 542.0, 38, 28, 33, 35
196, 0.975, 2017/11/15 10:45:03.25上午, 560.0, 37, 31, 33, 35
197, 0.98, 2017/11/15 10:45:03.255上午, 544.0, 37, 28, 33, 35
198, 0.985, 2017/11/15 10:45:03.26上午, 560.0, 38, 31, 34, 36
199, 0.99, 2017/11/15 10:45:03.265上午, 532.0, 37, 28, 34, 35
200, 0.995, 2017/11/15 10:45:03.27上午, 550.0, 37, 28, 33, 35
201, 1, 2017/11/15 10:45:03.275上午, 550.0, 37, 32, 34, 35
202, 1.005, 2017/11/15 10:45:03.28上午, 541.0, 37, 30, 34, 36
203, 1.01, 2017/11/15 10:45:03.285上午, 560.0, 38, 31, 35, 36
204, 1.015, 2017/11/15 10:45:03.29上午, 558.0, 37, 31, 34, 35
205, 1.02, 2017/11/15 10:45:03.295上午, 553.0, 37, 33, 34, 35
206, 1.025, 2017/11/15 10:45:03.3上午, 565.0, 37, 32, 34, 35
207, 1.03, 2017/11/15 10:45:03.305上午, 556.0, 37, 33, 33, 35
208, 1.035, 2017/11/15 10:45:03.31上午, 560.0, 38, 33, 33, 35
209, 1.04, 2017/11/15 10:45:03.315上午, 552.0, 37, 31, 33, 35
210, 1.045, 2017/11/15 10:45:03.32上午, 550.0, 37, 31, 34, 35
211, 1.05, 2017/11/15 10:45:03.325上午, 557.0, 37, 31, 35, 36
212, 1.055, 2017/11/15 10:45:03.33上午, 568.0, 38, 31, 34, 35
213, 1.06, 2017/11/15 10:45:03.335上午, 566.0, 38, 32, 33, 35
214, 1.065, 2017/11/15 10:45:03.34上午, 572.0, 38, 31, 33, 35
215, 1.07, 2017/11/15 10:45:03.345上午, 564.0, 37, 30, 34, 35
216, 1.075, 2017/11/15 10:45:03.35上午, 572.0, 38, 30, 33, 35
217, 1.08, 2017/11/15 10:45:03.355上午, 546.0, 38, 28, 33, 35
218, 1.085, 2017/11/15 10:45:03.36上午, 563.0, 38, 32, 33, 35
219, 1.09, 2017/11/15 10:45:03.365上午, 558.0, 38, 32, 33, 35
220, 1.095, 2017/11/15 10:45:03.37上午, 570.0, 37, 31, 33, 35
221, 1.1, 2017/11/15 10:45:03.375上午, 560.0, 38, 30, 35, 36
222, 1.105, 2017/11/15 10:45:03.38上午, 554.0, 38, 31, 34, 35
223, 1.11, 2017/11/15 10:45:03.385上午, 559.0, 38, 32, 34, 35
224, 1.115, 2017/11/15 10:45:03.39上午, 572.0, 38, 31, 34, 35
225, 1.12, 2017/11/15 10:45:03.395上午, 553.0, 37, 33, 33, 35
226, 1.125, 2017/11/15 10:45:03.4上午, 564.0, 37, 33, 34, 35
227, 1.13, 2017/11/15 10:45:03.405上午, 559.0, 37, 31, 33, 34
228, 1.135, 2017/11/15 10:45:03.41上午, 575.0, 37, 31, 33, 35
229, 1.14, 2017/11/15 10:45:03.415上午, 572.0, 38, 31, 33, 35
230, 1.145, 2017/11/15 10:45:03.42上午, 563.0, 38, 32, 34, 36
231, 1.15, 2017/11/15 10:45:03.425上午, 565.0, 38, 32, 34, 36
232, 1.155, 2017/11/15 10:45:03.43上午, 557.0, 37, 32, 34, 35
233, 1.16, 2017/11/15 10:45:03.435上午, 572.0, 37, 31, 34, 35
234, 1.165, 2017/11/15 10:45:03.44上午, 570.0, 38, 33, 34, 35
235, 1.17, 2017/11/15 10:45:03.445上午, 565.0, 38, 32, 33, 35
236, 1.175, 2017/11/15 10:45:03.45上午, 565.0, 37, 32, 34, 35
237, 1.18, 2017/11/15 10:45:03.455上午, 573.0, 38, 32, 34, 35
238, 1.185, 2017/11/15 10:45:03.46上午, 558.0, 37, 33, 33, 35
239, 1.19, 2017/11/15 10:45:03.465上午, 574.0, 38, 32, 34, 36
240, 1.195, 2017/11/15 10:45:03.47上午, 568.0, 38, 33, 34, 35
241, 1.2, 2017/11/15 10:45:03.475上午, 553.0, 38, 35, 34, 36
242, 1.205, 2017/11/15 10:45:03.48上午, 577.0, 38, 31, 34, 35
243, 1.21, 2017/11/15 10:45:03.485上午, 557.0, 38, 33, 33, 35
244, 1.215, 2017/11/15 10:45:03.49上午, 560.0, 37, 31, 33, 35
245, 1.22, 2017/11/15 10:45:03.495上午, 542.0, 37, 31, 33, 35
246, 1.225, 2017/11/15 10:45:03.5上午, 566.0, 38, 30, 34, 35
247, 1.23, 2017/11/15 10:45:03.505上午, 576.0, 38, 31, 34, 36
248, 1.235, 2017/11/15 10:45:03.51上午, 570.0, 38, 31, 34, 36
249, 1.24, 2017/11/15 10:45:03.515上午, 571.0, 38, 32, 34, 36
250, 1.245, 2017/11/15 10:45:03.52上午, 571.0, 37, 31, 34, 35
251, 1.25, 2017/11/15 10:45:03.525上午, 579.0, 38, 30, 34, 35
252, 1.255, 2017/11/15 10:45:03.53上午, 571.0, 38, 31, 34, 35
253, 1.26, 2017/11/15 10:45:03.535上午, 571.0, 37, 32, 34, 36
254, 1.265, 2017/11/15 10:45:03.54上午, 553.0, 38, 34, 34, 36
255, 1.27, 2017/11/15 10:45:03.545上午, 569.0, 37, 30, 33, 34
256, 1.275, 2017/11/15 10:45:03.55上午, 565.0, 37, 31, 33, 35
257, 1.28, 2017/11/15 10:45:03.555上午, 557.0, 37, 32, 34, 35
258, 1.285, 2017/11/15 10:45:03.56上午, 546.0, 37, 28, 34, 35
259, 1.29, 2017/11/15 10:45:03.565上午, 561.0, 37, 31, 34, 35
260, 1.295, 2017/11/15 10:45:03.57上午, 553.0, 38, 29, 34, 36
261, 1.3, 2017/11/15 10:45:03.575上午, 559.0, 38, 31, 34, 35
262, 1.305, 2017/11/15 10:45:03.58上午, 567.0, 37, 31, 34, 35
263, 1.31, 2017/11/15 10:45:03.585上午, 567.0, 38, 31, 34, 35
264, 1.315, 2017/11/15 10:45:03.59上午, 567.0, 37, 31, 33, 35
265, 1.32, 2017/11/15 10:45:03.595上午, 567.0, 38, 33, 33, 35
266, 1.325, 2017/11/15 10:45:03.6上午, 573.0, 37, 31, 33, 35
267, 1.33, 2017/11/15 10:45:03.605上午, 560.0, 37, 33, 33, 35
268, 1.335, 2017/11/15 10:45:03.61上午, 563.0, 38, 31, 34, 35
269, 1.34, 2017/11/15 10:45:03.615上午, 557.0, 37, 31, 34, 35
270, 1.345, 2017/11/15 10:45:03.62上午, 562.0, 38, 32, 34, 35
271, 1.35, 2017/11/15 10:45:03.625上午, 573.0, 38, 32, 34, 35
272, 1.355, 2017/11/15 10:45:03.63上午, 576.0, 37, 31, 34, 35
273, 1.36, 2017/11/15 10:45:03.635上午, 568.0, 37, 30, 34, 35
274, 1.365, 2017/11/15 10:45:03.64上午, 570.0, 37, 31, 33, 35
275, 1.37, 2017/11/15 10:45:03.645上午, 557.0, 37, 32, 33, 35
276, 1.375, 2017/11/15 10:45:03.65上午, 570.0, 38, 31, 34, 35
277, 1.38, 2017/11/15 10:45:03.655上午, 568.0, 37, 31, 33, 35
278, 1.385, 2017/11/15 10:45:03.66上午, 572.0, 38, 30, 33, 35
279, 1.39, 2017/11/15 10:45:03.665上午, 551.0, 37, 28, 34, 35
280, 1.395, 2017/11/15 10:45:03.67上午, 556.0, 37, 32, 33, 35
281, 1.4, 2017/11/15 10:45:03.675上午, 545.0, 37, 30, 33, 35
282, 1.405, 2017/11/15 10:45:03.68上午, 565.0, 37, 32, 34, 35
283, 1.41, 2017/11/15 10:45:03.685上午, 554.0, 38, 32, 33, 35
284, 1.415, 2017/11/15 10:45:03.69上午, 564.0, 37, 30, 34, 35
285, 1.42, 2017/11/15 10:45:03.695上午, 573.0, 38, 31, 34, 36
286, 1.425, 2017/11/15 10:45:03.7上午, 562.0, 38, 31, 35, 36
287, 1.43, 2017/11/15 10:45:03.705上午, 561.0, 38, 31, 34, 35
288, 1.435, 2017/11/15 10:45:03.71上午, 573.0, 38, 31, 33, 35
289, 1.44, 2017/11/15 10:45:03.715上午, 570.0, 37, 31, 33, 35
290, 1.445, 2017/11/15 10:45:03.72上午, 549.0, 37, 28, 33, 35
291, 1.45, 2017/11/15 10:45:03.725上午, 569.0, 38, 29, 34, 36
292, 1.455, 2017/11/15 10:45:03.73上午, 562.0, 38, 31, 34, 35
293, 1.46, 2017/11/15 10:45:03.735上午, 568.0, 38, 32, 35, 36
294, 1.465, 2017/11/15 10:45:03.74上午, 561.0, 38, 32, 34, 36
295, 1.47, 2017/11/15 10:45:03.745上午, 556.0, 38, 32, 34, 35
296, 1.475, 2017/11/15 10:45:03.75上午, 569.0, 38, 33, 34, 36
297, 1.48, 2017/11/15 10:45:03.755上午, 567.0, 38, 31, 34, 36
298, 1.485, 2017/11/15 10:45:03.76上午, 567.0, 38, 31, 34, 35
299, 1.49, 2017/11/15 10:45:03.765上午, 566.0, 38, 32, 33, 35
300, 1.495, 2017/11/15 10:45:03.77上午, 572.0, 37, 32, 33, 35
301, 1.5, 2017/11/15 10:45:03.775上午, 573.0, 38, 32, 33, 35
302, 1.505, 2017/11/15 10:45:03.78上午, 560.0, 38, 32, 33, 35
303, 1.51, 2017/11/15 10:45:03.785上午, 568.0, 38, 31, 34, 35
304, 1.515, 2017/11/15 10:45:03.79上午, 575.0, 38, 30, 33, 35
305, 1.52, 2017/11/15 10:45:03.795上午, 556.0, 37, 33, 33, 35
306, 1.525, 2017/11/15 10:45:03.8上午, 553.0, 37, 35, 33, 35
307, 1.53, 2017/11/15 10:45:03.805上午, 557.0, 37, 32, 33, 35
308, 1.535, 2017/11/15 10:45:03.81上午, 570.0, 37, 32, 33, 35
309, 1.54, 2017/11/15 10:45:03.815上午, 574.0, 38, 31, 34, 36
310, 1.545, 2017/11/15 10:45:03.82上午, 577.0, 39, 32, 34, 36
311, 1.55, 2017/11/15 10:45:03.825上午, 566.0, 38, 32, 33, 35
312, 1.555, 2017/11/15 10:45:03.83上午, 578.0, 38, 31, 33, 35
313, 1.56, 2017/11/15 10:45:03.835上午, 574.0, 38, 32, 32, 35
314, 1.565, 2017/11/15 10:45:03.84上午, 566.0, 38, 31, 33, 35
315, 1.57, 2017/11/15 10:45:03.845上午, 566.0, 38, 32, 33, 35
316, 1.575, 2017/11/15 10:45:03.85上午, 567.0, 38, 32, 33, 35
317, 1.58, 2017/11/15 10:45:03.855上午, 553.0, 38, 28, 33, 35
318, 1.585, 2017/11/15 10:45:03.86上午, 549.0, 38, 30, 33, 35
319, 1.59, 2017/11/15 10:45:03.865上午, 559.0, 38, 32, 33, 35
320, 1.595, 2017/11/15 10:45:03.87上午, 578.0, 39, 31, 32, 35
321, 1.6, 2017/11/15 10:45:03.875上午, 566.0, 37, 32, 34, 35
322, 1.605, 2017/11/15 10:45:03.88上午, 559.0, 38, 32, 33, 35
323, 1.61, 2017/11/15 10:45:03.885上午, 568.0, 38, 31, 33, 35
324, 1.615, 2017/11/15 10:45:03.89上午, 568.0, 38, 31, 34, 35
325, 1.62, 2017/11/15 10:45:03.895上午, 571.0, 38, 31, 33, 35
326, 1.625, 2017/11/15 10:45:03.9上午, 571.0, 38, 31, 33, 35
327, 1.63, 2017/11/15 10:45:03.905上午, 576.0, 38, 30, 33, 35
328, 1.635, 2017/11/15 10:45:03.91上午, 565.0, 38, 32, 33, 35
329, 1.64, 2017/11/15 10:45:03.915上午, 570.0, 38, 30, 33, 35
330, 1.645, 2017/11/15 10:45:03.92上午, 569.0, 39, 31, 32, 35
331, 1.65, 2017/11/15 10:45:03.925上午, 562.0, 38, 32, 33, 35
332, 1.655, 2017/11/15 10:45:03.93上午, 547.0, 38, 30, 33, 35
333, 1.66, 2017/11/15 10:45:03.935上午, 579.0, 38, 31, 34, 36
334, 1.665, 2017/11/15 10:45:03.94上午, 569.0, 39, 31, 34, 36
335, 1.67, 2017/11/15 10:45:03.945上午, 562.0, 39, 31, 33, 35
336, 1.675, 2017/11/15 10:45:03.95上午, 571.0, 38, 31, 33, 35
337, 1.68, 2017/11/15 10:45:03.955上午, 569.0, 38, 31, 33, 35
338, 1.685, 2017/11/15 10:45:03.96上午, 581.0, 39, 31, 33, 35
339, 1.69, 2017/11/15 10:45:03.965上午, 567.0, 38, 32, 33, 35
340, 1.695, 2017/11/15 10:45:03.97上午, 573.0, 39, 31, 33, 36
341, 1.7, 2017/11/15 10:45:03.975上午, 561.0, 38, 33, 33, 35
342, 1.705, 2017/11/15 10:45:03.98上午, 565.0, 38, 32, 33, 35
343, 1.71, 2017/11/15 10:45:03.985上午, 571.0, 38, 32, 33, 35
344, 1.715, 2017/11/15 10:45:03.99上午, 564.0, 39, 34, 33, 36
345, 1.72, 2017/11/15 10:45:03.995上午, 577.0, 39, 31, 32, 35
346, 1.725, 2017/11/15 10:45:04上午, 575.0, 38, 31, 33, 35
347, 1.73, 2017/11/15 10:45:04.005上午, 578.0, 38, 30, 33, 35
348, 1.735, 2017/11/15 10:45:04.01上午, 578.0, 38, 31, 32, 35
349, 1.74, 2017/11/15 10:45:04.015上午, 552.0, 38, 28, 32, 35
350, 1.745, 2017/11/15 10:45:04.02上午, 554.0, 38, 28, 32, 35
351, 1.75, 2017/11/15 10:45:04.025上午, 568.0, 38, 30, 32, 35
352, 1.755, 2017/11/15 10:45:04.03上午, 576.0, 39, 31, 32, 35
353, 1.76, 2017/11/15 10:45:04.035上午, 574.0, 38, 31, 33, 35
354, 1.765, 2017/11/15 10:45:04.04上午, 572.0, 38, 32, 34, 36
355, 1.77, 2017/11/15 10:45:04.045上午, 570.0, 39, 33, 33, 36
356, 1.775, 2017/11/15 10:45:04.05上午, 584.0, 38, 31, 33, 35
357, 1.78, 2017/11/15 10:45:04.055上午, 573.0, 39, 31, 33, 36
358, 1.785, 2017/11/15 10:45:04.06上午, 564.0, 39, 31, 33, 36
359, 1.79, 2017/11/15 10:45:04.065上午, 568.0, 39, 32, 33, 36
360, 1.795, 2017/11/15 10:45:04.07上午, 561.0, 39, 31, 32, 35
361, 1.8, 2017/11/15 10:45:04.075上午, 567.0, 38, 32, 34, 36
362, 1.805, 2017/11/15 10:45:04.08上午, 558.0, 39, 31, 34, 36
363, 1.81, 2017/11/15 10:45:04.085上午, 573.0, 39, 31, 33, 35
364, 1.815, 2017/11/15 10:45:04.09上午, 577.0, 39, 32, 32, 35
365, 1.82, 2017/11/15 10:45:04.095上午, 567.0, 39, 33, 33, 35
366, 1.825, 2017/11/15 10:45:04.1上午, 569.0, 39, 32, 32, 35
367, 1.83, 2017/11/15 10:45:04.105上午, 574.0, 39, 30, 32, 35
368, 1.835, 2017/11/15 10:45:04.11上午, 576.0, 39, 30, 31, 34
369, 1.84, 2017/11/15 10:45:04.115上午, 565.0, 38, 28, 33, 35
370, 1.845, 2017/11/15 10:45:04.12上午, 578.0, 39, 31, 34, 36
371, 1.85, 2017/11/15 10:45:04.125上午, 576.0, 39, 31, 33, 35
372, 1.855, 2017/11/15 10:45:04.13上午, 571.0, 39, 33, 33, 36
373, 1.86, 2017/11/15 10:45:04.135上午, 569.0, 39, 32, 32, 35
374, 1.865, 2017/11/15 10:45:04.14上午, 576.0, 39, 31, 33, 35
375, 1.87, 2017/11/15 10:45:04.145上午, 581.0, 38, 32, 33, 35
376, 1.875, 2017/11/15 10:45:04.15上午, 571.0, 38, 31, 33, 35
377, 1.88, 2017/11/15 10:45:04.155上午, 584.0, 39, 31, 33, 35
378, 1.885, 2017/11/15 10:45:04.16上午, 583.0, 39, 32, 33, 35
379, 1.89, 2017/11/15 10:45:04.165上午, 578.0, 38, 30, 32, 35
380, 1.895, 2017/11/15 10:45:04.17上午, 575.0, 39, 33, 32, 35
381, 1.9, 2017/11/15 10:45:04.175上午, 581.0, 39, 30, 33, 35
382, 1.905, 2017/11/15 10:45:04.18上午, 580.0, 39, 30, 32, 35
383, 1.91, 2017/11/15 10:45:04.185上午, 583.0, 39, 30, 32, 35
384, 1.915, 2017/11/15 10:45:04.19上午, 576.0, 39, 31, 32, 35
385, 1.92, 2017/11/15 10:45:04.195上午, 541.0, 38, 28, 34, 36
386, 1.925, 2017/11/15 10:45:04.2上午, 555.0, 38, 28, 33, 36
387, 1.93, 2017/11/15 10:45:04.205上午, 581.0, 38, 31, 33, 35
388, 1.935, 2017/11/15 10:45:04.21上午, 577.0, 38, 31, 33, 35
389, 1.94, 2017/11/15 10:45:04.215上午, 569.0, 39, 31, 32, 35
390, 1.945, 2017/11/15 10:45:04.22上午, 565.0, 39, 35, 32, 35
391, 1.95, 2017/11/15 10:45:04.225上午, 577.0, 38, 31, 32, 35
392, 1.955, 2017/11/15 10:45:04.23上午, 565.0, 38, 31, 32, 35
393, 1.96, 2017/11/15 10:45:04.235上午, 577.0, 39, 31, 32, 35
394, 1.965, 2017/11/15 10:45:04.24上午, 569.0, 38, 31, 31, 34
395, 1.97, 2017/11/15 10:45:04.245上午, 549.0, 38, 28, 32, 35
396, 1.975, 2017/11/15 10:45:04.25上午, 582.0, 38, 31, 32, 35
397, 1.98, 2017/11/15 10:45:04.255上午, 565.0, 39, 32, 32, 35
398, 1.985, 2017/11/15 10:45:04.26上午, 578.0, 39, 31, 31, 35
399, 1.99, 2017/11/15 10:45:04.265上午, 584.0, 38, 30, 32, 35
400, 1.995, 2017/11/15 10:45:04.27上午, 554.0, 38, 28, 32, 35
401, 2, 2017/11/15 10:45:04.275上午, 579.0, 39, 31, 33, 36
402, 2.005, 2017/11/15 10:45:04.28上午, 568.0, 38, 32, 33, 35
403, 2.01, 2017/11/15 10:45:04.285上午, 560.0, 38, 28, 32, 35
404, 2.015, 2017/11/15 10:45:04.29上午, 584.0, 39, 31, 32, 35
405, 2.02, 2017/11/15 10:45:04.295上午, 575.0, 39, 31, 32, 35
406, 2.025, 2017/11/15 10:45:04.3上午, 573.0, 39, 31, 34, 36
407, 2.03, 2017/11/15 10:45:04.305上午, 575.0, 38, 32, 33, 35
408, 2.035, 2017/11/15 10:45:04.31上午, 570.0, 39, 32, 33, 35
409, 2.04, 2017/11/15 10:45:04.315上午, 571.0, 39, 33, 33, 36
410, 2.045, 2017/11/15 10:45:04.32上午, 578.0, 39, 33, 33, 36
411, 2.05, 2017/11/15 10:45:04.325上午, 577.0, 39, 31, 32, 35
412, 2.055, 2017/11/15 10:45:04.33上午, 565.0, 38, 31, 32, 35
413, 2.06, 2017/11/15 10:45:04.335上午, 585.0, 39, 30, 32, 35
414, 2.065, 2017/11/15 10:45:04.34上午, 552.0, 39, 31, 32, 35
415, 2.07, 2017/11/15 10:45:04.345上午, 575.0, 39, 31, 32, 35
416, 2.075, 2017/11/15 10:45:04.35上午, 571.0, 38, 32, 32, 35
417, 2.08, 2017/11/15 10:45:04.355上午, 564.0, 38, 33, 32, 35
418, 2.085, 2017/11/15 10:45:04.36上午, 579.0, 38, 30, 32, 35
419, 2.09, 2017/11/15 10:45:04.365上午, 575.0, 39, 30, 33, 35
420, 2.095, 2017/11/15 10:45:04.37上午, 588.0, 39, 30, 33, 35
421, 2.1, 2017/11/15 10:45:04.375上午, 578.0, 39, 30, 32, 35
422, 2.105, 2017/11/15 10:45:04.38上午, 578.0, 38, 33, 32, 35
423, 2.11, 2017/11/15 10:45:04.385上午, 577.0, 39, 31, 32, 35
424, 2.115, 2017/11/15 10:45:04.39上午, 581.0, 37, 31, 32, 34
425, 2.12, 2017/11/15 10:45:04.395上午, 581.0, 38, 32, 33, 36
426, 2.125, 2017/11/15 10:45:04.4上午, 575.0, 38, 31, 33, 35
427, 2.13, 2017/11/15 10:45:04.405上午, 577.0, 38, 32, 34, 36
428, 2.135, 2017/11/15 10:45:04.41上午, 573.0, 38, 32, 34, 36
429, 2.14, 2017/11/15 10:45:04.415上午, 580.0, 39, 32, 34, 36
430, 2.145, 2017/11/15 10:45:04.42上午, 572.0, 37, 33, 34, 35
431, 2.15, 2017/11/15 10:45:04.425上午, 569.0, 39, 31, 33, 35
432, 2.155, 2017/11/15 10:45:04.43上午, 572.0, 39, 33, 32, 35
433, 2.16, 2017/11/15 10:45:04.435上午, 568.0, 38, 30, 32, 35
434, 2.165, 2017/11/15 10:45:04.44上午, 573.0, 39, 30, 33, 35
435, 2.17, 2017/11/15 10:45:04.445上午, 572.0, 39, 30, 32, 35
436, 2.175, 2017/11/15 10:45:04.45上午, 576.0, 39, 33, 32, 35
437, 2.18, 2017/11/15 10:45:04.455上午, 576.0, 38, 30, 32, 35
438, 2.185, 2017/11/15 10:45:04.46上午, 573.0, 39, 32, 32, 35
439, 2.19, 2017/11/15 10:45:04.465上午, 575.0, 38, 30, 32, 35
440, 2.195, 2017/11/15 10:45:04.47上午, 582.0, 38, 30, 32, 35
441, 2.2, 2017/11/15 10:45:04.475上午, 577.0, 38, 30, 32, 35
442, 2.205, 2017/11/15 10:45:04.48上午, 581.0, 39, 30, 32, 35
443, 2.21, 2017/11/15 10:45:04.485上午, 578.0, 39, 32, 33, 35
444, 2.215, 2017/11/15 10:45:04.49上午, 574.0, 38, 30, 34, 35
445, 2.22, 2017/11/15 10:45:04.495上午, 551.0, 39, 30, 33, 36
446, 2.225, 2017/11/15 10:45:04.5上午, 570.0, 39, 32, 33, 36
447, 2.23, 2017/11/15 10:45:04.505上午, 567.0, 39, 32, 32, 35
448, 2.235, 2017/11/15 10:45:04.51上午, 577.0, 39, 31, 33, 36
449, 2.24, 2017/11/15 10:45:04.515上午, 571.0, 39, 32, 33, 35
450, 2.245, 2017/11/15 10:45:04.52上午, 586.0, 39, 31, 33, 35
451, 2.25, 2017/11/15 10:45:04.525上午, 566.0, 38, 33, 33, 35
452, 2.255, 2017/11/15 10:45:04.53上午, 566.0, 39, 33, 32, 35
453, 2.26, 2017/11/15 10:45:04.535上午, 572.0, 38, 33, 33, 35
454, 2.265, 2017/11/15 10:45:04.54上午, 584.0, 39, 30, 33, 35
455, 2.27, 2017/11/15 10:45:04.545上午, 580.0, 39, 32, 33, 35
456, 2.275, 2017/11/15 10:45:04.55上午, 574.0, 38, 31, 33, 35
457, 2.28, 2017/11/15 10:45:04.555上午, 575.0, 38, 32, 33, 35
458, 2.285, 2017/11/15 10:45:04.56上午, 573.0, 39, 32, 33, 35
459, 2.29, 2017/11/15 10:45:04.565上午, 576.0, 39, 32, 33, 35
460, 2.295, 2017/11/15 10:45:04.57上午, 571.0, 38, 33, 33, 35
461, 2.3, 2017/11/15 10:45:04.575上午, 571.0, 38, 32, 32, 35
462, 2.305, 2017/11/15 10:45:04.58上午, 573.0, 39, 31, 33, 35
463, 2.31, 2017/11/15 10:45:04.585上午, 568.0, 38, 33, 33, 35
464, 2.315, 2017/11/15 10:45:04.59上午, 556.0, 38, 32, 32, 35
465, 2.32, 2017/11/15 10:45:04.595上午, 567.0, 38, 31, 32, 35
466, 2.325, 2017/11/15 10:45:04.6上午, 572.0, 38, 31, 32, 35
467, 2.33, 2017/11/15 10:45:04.605上午, 579.0, 39, 32, 32, 35
468, 2.335, 2017/11/15 10:45:04.61上午, 573.0, 38, 30, 32, 34
469, 2.34, 2017/11/15 10:45:04.615上午, 582.0, 38, 31, 32, 35
470, 2.345, 2017/11/15 10:45:04.62上午, 572.0, 38, 30, 33, 35
471, 2.35, 2017/11/15 10:45:04.625上午, 568.0, 38, 30, 33, 36
472, 2.355, 2017/11/15 10:45:04.63上午, 573.0, 38, 31, 34, 35
473, 2.36, 2017/11/15 10:45:04.635上午, 562.0, 38, 31, 34, 36
474, 2.365, 2017/11/15 10:45:04.64上午, 557.0, 38, 28, 34, 36
475, 2.37, 2017/11/15 10:45:04.645上午, 577.0, 38, 30, 32, 35
476, 2.375, 2017/11/15 10:45:04.65上午, 570.0, 38, 30, 34, 36
477, 2.38, 2017/11/15 10:45:04.655上午, 571.0, 38, 30, 33, 35
478, 2.385, 2017/11/15 10:45:04.66上午, 549.0, 38, 28, 32, 34
479, 2.39, 2017/11/15 10:45:04.665上午, 565.0, 37, 32, 32, 35
480, 2.395, 2017/11/15 10:45:04.67上午, 564.0, 38, 33, 33, 35
481, 2.4, 2017/11/15 10:45:04.675上午, 554.0, 38, 30, 32, 35
482, 2.405, 2017/11/15 10:45:04.68上午, 574.0, 38, 30, 32, 34
483, 2.41, 2017/11/15 10:45:04.685上午, 580.0, 38, 30, 32, 35
484, 2.415, 2017/11/15 10:45:04.69上午, 544.0, 38, 28, 33, 35
485, 2.42, 2017/11/15 10:45:04.695上午, 546.0, 38, 28, 32, 35
486, 2.425, 2017/11/15 10:45:04.7上午, 578.0, 38, 30, 32, 34
487, 2.43, 2017/11/15 10:45:04.705上午, 569.0, 38, 31, 33, 35
488, 2.435, 2017/11/15 10:45:04.71上午, 576.0, 38, 31, 34, 35
489, 2.44, 2017/11/15 10:45:04.715上午, 563.0, 38, 31, 34, 36
490, 2.445, 2017/11/15 10:45:04.72上午, 571.0, 38, 31, 34, 35
491, 2.45, 2017/11/15 10:45:04.725上午, 558.0, 38, 31, 33, 35
492, 2.455, 2017/11/15 10:45:04.73上午, 572.0, 37, 31, 34, 35
493, 2.46, 2017/11/15 10:45:04.735上午, 565.0, 38, 32, 34, 35
494, 2.465, 2017/11/15 10:45:04.74上午, 569.0, 38, 32, 34, 35
495, 2.47, 2017/11/15 10:45:04.745上午, 557.0, 38, 31, 33, 35
496, 2.475, 2017/11/15 10:45:04.75上午, 570.0, 38, 31, 34, 35
497, 2.48, 2017/11/15 10:45:04.755上午, 563.0, 38, 32, 33, 35
498, 2.485, 2017/11/15 10:45:04.76上午, 557.0, 37, 31, 34, 35
499, 2.49, 2017/11/15 10:45:04.765上午, 574.0, 38, 31, 34, 35
500, 2.495, 2017/11/15 10:45:04.77上午, 575.0, 38, 32, 33, 35
501, 2.5, 2017/11/15 10:45:04.775上午, 554.0, 37, 29, 33, 35
502, 2.505, 2017/11/15 10:45:04.78上午, 574.0, 37, 31, 34, 35
503, 2.51, 2017/11/15 10:45:04.785上午, 565.0, 38, 31, 33, 35
504, 2.515, 2017/11/15 10:45:04.79上午, 566.0, 37, 32, 33, 35
505, 2.52, 2017/11/15 10:45:04.795上午, 569.0, 38, 32, 33, 35
506, 2.525, 2017/11/15 10:45:04.8上午, 585.0, 38, 32, 34, 35
507, 2.53, 2017/11/15 10:45:04.805上午, 568.0, 37, 31, 33, 35
508, 2.535, 2017/11/15 10:45:04.81上午, 568.0, 37, 31, 33, 35
509, 2.54, 2017/11/15 10:45:04.815上午, 557.0, 37, 30, 33, 35
510, 2.545, 2017/11/15 10:45:04.82上午, 560.0, 36, 31, 32, 34
511, 2.55, 2017/11/15 10:45:04.825上午, 539.0, 37, 30, 32, 34
512, 2.555, 2017/11/15 10:45:04.83上午, 547.0, 37, 28, 33, 34
513, 2.56, 2017/11/15 10:45:04.835上午, 563.0, 37, 31, 33, 35
514, 2.565, 2017/11/15 10:45:04.84上午, 552.0, 36, 31, 34, 35
515, 2.57, 2017/11/15 10:45:04.845上午, 564.0, 37, 30, 32, 34
516, 2.575, 2017/11/15 10:45:04.85上午, 560.0, 37, 29, 33, 34
517, 2.58, 2017/11/15 10:45:04.855上午, 576.0, 37, 31, 33, 35
518, 2.585, 2017/11/15 10:45:04.86上午, 549.0, 36, 33, 33, 34
519, 2.59, 2017/11/15 10:45:04.865上午, 558.0, 36, 30, 33, 34
520, 2.595, 2017/11/15 10:45:04.87上午, 563.0, 36, 31, 33, 34
521, 2.6, 2017/11/15 10:45:04.875上午, 565.0, 36, 31, 33, 34
522, 2.605, 2017/11/15 10:45:04.88上午, 558.0, 37, 31, 34, 35
523, 2.61, 2017/11/15 10:45:04.885上午, 556.0, 36, 33, 34, 35
524, 2.615, 2017/11/15 10:45:04.89上午, 566.0, 36, 32, 33, 34
525, 2.62, 2017/11/15 10:45:04.895上午, 560.0, 36, 31, 33, 34
526, 2.625, 2017/11/15 10:45:04.9上午, 557.0, 36, 30, 33, 34
527, 2.63, 2017/11/15 10:45:04.905上午, 553.0, 37, 32, 34, 35
528, 2.635, 2017/11/15 10:45:04.91上午, 568.0, 36, 30, 34, 35
529, 2.64, 2017/11/15 10:45:04.915上午, 566.0, 36, 31, 34, 35
530, 2.645, 2017/11/15 10:45:04.92上午, 548.0, 37, 30, 34, 35
531, 2.65, 2017/11/15 10:45:04.925上午, 548.0, 37, 32, 34, 35
532, 2.655, 2017/11/15 10:45:04.93上午, 539.0, 37, 30, 34, 35
533, 2.66, 2017/11/15 10:45:04.935上午, 570.0, 37, 33, 34, 35
534, 2.665, 2017/11/15 10:45:04.94上午, 562.0, 36, 31, 33, 34
535, 2.67, 2017/11/15 10:45:04.945上午, 557.0, 37, 32, 33, 35
536, 2.675, 2017/11/15 10:45:04.95上午, 569.0, 36, 31, 33, 34
537, 2.68, 2017/11/15 10:45:04.955上午, 566.0, 36, 31, 33, 34
538, 2.685, 2017/11/15 10:45:04.96上午, 566.0, 36, 30, 33, 34
539, 2.69, 2017/11/15 10:45:04.965上午, 568.0, 37, 31, 33, 35
540, 2.695, 2017/11/15 10:45:04.97上午, 566.0, 36, 32, 34, 35
541, 2.7, 2017/11/15 10:45:04.975上午, 565.0, 36, 31, 33, 34
542, 2.705, 2017/11/15 10:45:04.98上午, 566.0, 36, 31, 34, 34
543, 2.71, 2017/11/15 10:45:04.985上午, 555.0, 36, 32, 34, 35
544, 2.715, 2017/11/15 10:45:04.99上午, 558.0, 36, 33, 34, 35
545, 2.72, 2017/11/15 10:45:04.995上午, 559.0, 36, 32, 34, 35
546, 2.725, 2017/11/15 10:45:05上午, 553.0, 36, 33, 33, 34
547, 2.73, 2017/11/15 10:45:05.005上午, 569.0, 36, 31, 33, 34
548, 2.735, 2017/11/15 10:45:05.01上午, 566.0, 36, 30, 33, 34
549, 2.74, 2017/11/15 10:45:05.015上午, 566.0, 36, 29, 33, 34
550, 2.745, 2017/11/15 10:45:05.02上午, 572.0, 36, 31, 34, 35
551, 2.75, 2017/11/15 10:45:05.025上午, 564.0, 36, 31, 34, 35
552, 2.755, 2017/11/15 10:45:05.03上午, 557.0, 36, 29, 34, 35
553, 2.76, 2017/11/15 10:45:05.035上午, 555.0, 36, 31, 34, 35
554, 2.765, 2017/11/15 10:45:05.04上午, 556.0, 36, 33, 34, 35
555, 2.77, 2017/11/15 10:45:05.045上午, 551.0, 36, 30, 33, 35
556, 2.775, 2017/11/15 10:45:05.05上午, 570.0, 36, 30, 34, 35
557, 2.78, 2017/11/15 10:45:05.055上午, 558.0, 36, 31, 33, 34
558, 2.785, 2017/11/15 10:45:05.06上午, 548.0, 37, 32, 33, 35
559, 2.79, 2017/11/15 10:45:05.065上午, 570.0, 36, 30, 33, 34
560, 2.795, 2017/11/15 10:45:05.07上午, 572.0, 36, 30, 34, 34
561, 2.8, 2017/11/15 10:45:05.075上午, 561.0, 36, 30, 33, 34
562, 2.805, 2017/11/15 10:45:05.08上午, 572.0, 36, 32, 33, 34
563, 2.81, 2017/11/15 10:45:05.085上午, 567.0, 36, 30, 34, 34
564, 2.815, 2017/11/15 10:45:05.09上午, 543.0, 36, 36, 33, 34
565, 2.82, 2017/11/15 10:45:05.095上午, 557.0, 36, 31, 33, 34
566, 2.825, 2017/11/15 10:45:05.1上午, 566.0, 36, 30, 33, 34
567, 2.83, 2017/11/15 10:45:05.105上午, 568.0, 36, 31, 33, 34
568, 2.835, 2017/11/15 10:45:05.11上午, 566.0, 36, 31, 33, 34
569, 2.84, 2017/11/15 10:45:05.115上午, 573.0, 36, 31, 32, 34
570, 2.845, 2017/11/15 10:45:05.12上午, 553.0, 36, 32, 33, 34
571, 2.85, 2017/11/15 10:45:05.125上午, 547.0, 37, 32, 34, 35
572, 2.855, 2017/11/15 10:45:05.13上午, 565.0, 37, 29, 33, 34
573, 2.86, 2017/11/15 10:45:05.135上午, 562.0, 36, 30, 33, 34
574, 2.865, 2017/11/15 10:45:05.14上午, 557.0, 36, 31, 34, 35
575, 2.87, 2017/11/15 10:45:05.145上午, 566.0, 36, 30, 34, 35
576, 2.875, 2017/11/15 10:45:05.15上午, 557.0, 37, 29, 34, 35
577, 2.88, 2017/11/15 10:45:05.155上午, 566.0, 36, 31, 34, 35
578, 2.885, 2017/11/15 10:45:05.16上午, 531.0, 36, 30, 34, 35
579, 2.89, 2017/11/15 10:45:05.165上午, 554.0, 36, 30, 34, 35
580, 2.895, 2017/11/15 10:45:05.17上午, 552.0, 37, 29, 34, 35
581, 2.9, 2017/11/15 10:45:05.175上午, 560.0, 37, 32, 34, 35
582, 2.905, 2017/11/15 10:45:05.18上午, 574.0, 37, 30, 33, 34
583, 2.91, 2017/11/15 10:45:05.185上午, 586.0, 36, 30, 33, 34
584, 2.915, 2017/11/15 10:45:05.19上午, 579.0, 36, 30, 34, 34
585, 2.92, 2017/11/15 10:45:05.195上午, 559.0, 36, 31, 34, 35
586, 2.925, 2017/11/15 10:45:05.2上午, 548.0, 36, 31, 33, 34
587, 2.93, 2017/11/15 10:45:05.205上午, 562.0, 36, 31, 34, 34
588, 2.935, 2017/11/15 10:45:05.21上午, 560.0, 36, 32, 34, 35
589, 2.94, 2017/11/15 10:45:05.215上午, 555.0, 36, 31, 34, 35
590, 2.945, 2017/11/15 10:45:05.22上午, 558.0, 36, 32, 34, 35
591, 2.95, 2017/11/15 10:45:05.225上午, 550.0, 35, 32, 35, 35
592, 2.955, 2017/11/15 10:45:05.23上午, 556.0, 35, 32, 34, 35
593, 2.96, 2017/11/15 10:45:05.235上午, 560.0, 36, 31, 35, 35
594, 2.965, 2017/11/15 10:45:05.24上午, 544.0, 36, 33, 34, 35
595, 2.97, 2017/11/15 10:45:05.245上午, 558.0, 36, 32, 34, 35
596, 2.975, 2017/11/15 10:45:05.25上午, 543.0, 36, 35, 34, 35
597, 2.98, 2017/11/15 10:45:05.255上午, 556.0, 36, 33, 34, 35
598, 2.985, 2017/11/15 10:45:05.26上午, 555.0, 36, 32, 35, 35
599, 2.99, 2017/11/15 10:45:05.265上午, 554.0, 36, 33, 34, 35
600, 2.995, 2017/11/15 10:45:05.27上午, 537.0, 36, 30, 34, 35
@@
