DATA_TYPE COF,,,,,,,,,,,,,
VERSION Tekscan Pressure Measurement System 6.70-03,,,,,,,,,,,,,
HARDWARE 00114-3447,,,,,,,,,,,,,
MAP_VERSION 6.5,,,,,,,,,,,,,
HW_TYPE 4,,,,,,,,,,,,,
VersaPogoFsx 0,,,,,,,,,,,,,
檔案名 C:\Users\asus\Desktop\工研院_計畫\收案資料\Subject02\Plantar Pressure\EVA_STAND_RIGHT_1.fsx,,,,,,,,,,,,,
SENSOR_TYPE FSCAN,,,,,,,,,,,,,
ROWS 60,,,,,,,,,,,,,
COLS 21,,,,,,,,,,,,,
ROW_SPACING 0.508 centimeters,,,,,,,,,,,,,
COL_SPACING 0.508 centimeters,,,,,,,,,,,,,
SENSEL_AREA 0.258064 cm2,,,,,,,,,,,,,
NOISE_THRESHOLD 3,,,,,,,,,,,,,
SECONDS_PER_FRAME 0.005,,,,,,,,,,,,,
SECONDS_PER_FRAME 0,,,,,,,,,,,,,
MICRO_SECOND 0,,,,,,,,,,,,,
TIME 2017/11/15 10:15:19.619上午,,,,,,,,,,,,,
SATURATION_PRESSURE 2347.96 KPa ,,,,,,,,,,,,,
CALIBRATION_POINT_1 48.0001 (Kilograms) 1981 (Raw Sum) 199 (Number of Loaded Cells),,,,,,,,,,,,,
CALIBRATION_MODE_1 步態,,,,,,,,,,,,,
CALIBRATION_INFO C:\Users\asus\Desktop\工研院_計畫\收案資料\Subject02\Plantar Pressure\EVA_STAND_RIGHT_1.fsx,,,,,,,,,,,,,
SENSITIVITY 自定義,,,,,,,,,,,,,
MAP_INDEX 0,,,,,,,,,,,,,
SUBMAP 0,,,,,,,,,,,,,
Patient ID: ,,,,,,,,,,,,,
,,,,,,,,,,,,,
Speed of Gait: ,,,,,,,,,,,,,
,,,,,,,,,,,,,
Weight: ,,,,,,,,,,,,,
,,,,,,,,,,,,,
Gender: ,,,,,,,,,,,,,
,,,,,,,,,,,,,
Physician: ,,,,,,,,,,,,,
,,,,,,,,,,,,,
Technician: ,,,,,,,,,,,,,
,,,,,,,,,,,,,
Shoe: ,,,,,,,,,,,,,
,,,,,,,,,,,,,
START_FRAME 1,,,,,,,,,,,,,
END_FRAME 600,,,,,,,,,,,,,
COMMENTS Frame, Time, (Absolute Time), Row (cm), Col (cm), Raw Sum,,,,,,,,
ASCII_DATA @@,,,,,,,,,,,,,
Frame, Time, Absolute Time, Main(Row,Col,Raw Sum), 淡絳紅(Row,Col), 粉藍色(Row,Col), 淡青(Row,Col), 天藍色(Row,Col)
1,0, 2017/11/15 10:15:19.619上午,17.87,4.75,882,48.04,8.11,38.36,11.65,23.2,9.02,35.79,9.45
2,0.005, 2017/11/15 10:15:19.624上午,18.07,4.79,864,48.04,8.07,38.35,11.85,23.23,8.97,35.89,9.47
3,0.01, 2017/11/15 10:15:19.629上午,18.27,4.77,854,47.99,8.05,38.44,11.68,23.16,8.98,36.3,9.43
4,0.015, 2017/11/15 10:15:19.634上午,18.21,4.79,845,47.99,8.08,38.47,11.69,23.16,9,36.19,9.47
5,0.02, 2017/11/15 10:15:19.639上午,18.17,4.77,848,48.08,7.99,38.46,11.73,23.18,9,36.11,9.43
6,0.025, 2017/11/15 10:15:19.644上午,18,4.68,837,48.12,7.97,38.5,11.63,23.21,8.89,36.08,9.31
7,0.03, 2017/11/15 10:15:19.649上午,17.99,4.76,866,48.02,8.11,38.41,11.9,23.24,8.94,36.04,9.48
8,0.035, 2017/11/15 10:15:19.654上午,18.01,4.77,874,48.04,8.11,38.39,11.89,23.25,8.93,36.06,9.49
9,0.04, 2017/11/15 10:15:19.659上午,17.96,4.75,867,48.01,8.1,38.28,11.87,23.27,8.92,35.99,9.46
10,0.045, 2017/11/15 10:15:19.664上午,18.14,4.72,857,47.95,8.07,38.62,11.46,23.28,8.94,36.04,9.35
11,0.05, 2017/11/15 10:15:19.669上午,18.19,4.8,853,48.06,8.07,38.35,11.86,23.17,9,36.14,9.5
12,0.055, 2017/11/15 10:15:19.674上午,18.04,4.71,860,48.09,7.95,38.44,11.68,23.23,8.84,36.1,9.36
13,0.06, 2017/11/15 10:15:19.679上午,18.11,4.77,868,48.04,8.11,38.36,11.9,23.27,8.9,36.28,9.48
14,0.065, 2017/11/15 10:15:19.684上午,18.08,4.75,866,48.02,8.05,38.35,11.91,23.28,8.89,36.23,9.46
15,0.07, 2017/11/15 10:15:19.689上午,17.98,4.75,871,48.02,8.11,38.28,11.94,23.21,8.83,36.01,9.45
16,0.075, 2017/11/15 10:15:19.694上午,17.98,4.76,857,48.04,8.02,38.27,11.92,23.27,8.96,36.02,9.47
17,0.08, 2017/11/15 10:15:19.699上午,18.13,4.78,869,48.06,8.09,38.32,11.82,23.25,8.98,36.14,9.48
18,0.085, 2017/11/15 10:15:19.704上午,18.11,4.77,867,47.97,8.08,38.35,11.73,23.25,8.92,36.06,9.46
19,0.09, 2017/11/15 10:15:19.709上午,18.06,4.78,855,48.01,8.09,38.34,11.86,23.16,9,36.14,9.51
20,0.095, 2017/11/15 10:15:19.714上午,18.05,4.74,866,48.08,7.97,38.45,11.73,23.21,8.91,36.14,9.42
21,0.1, 2017/11/15 10:15:19.719上午,18.09,4.71,861,48,8.14,38.5,11.63,23.21,8.88,36.26,9.38
22,0.105, 2017/11/15 10:15:19.724上午,18.14,4.71,866,48,8.13,38.53,11.62,23.21,8.91,36.37,9.37
23,0.11, 2017/11/15 10:15:19.729上午,17.97,4.77,870,47.98,8.1,38.37,11.93,23.33,8.95,35.99,9.49
24,0.115, 2017/11/15 10:15:19.734上午,17.96,4.75,873,48,8.11,38.3,11.9,23.24,8.88,36.01,9.46
25,0.12, 2017/11/15 10:15:19.739上午,17.98,4.76,870,48.04,8.11,38.21,11.9,23.28,8.9,36.03,9.47
26,0.125, 2017/11/15 10:15:19.744上午,18,4.76,872,47.98,8.1,38.32,11.8,23.27,8.91,36.07,9.47
27,0.13, 2017/11/15 10:15:19.749上午,18.19,4.81,868,48.01,8.09,38.47,11.67,23.2,9.12,36.14,9.52
28,0.135, 2017/11/15 10:15:19.754上午,18.12,4.77,866,47.98,8.09,38.46,11.68,23.23,8.98,36.27,9.48
29,0.14, 2017/11/15 10:15:19.759上午,18.18,4.79,843,48.11,8,38.31,11.83,23.22,9.01,36.13,9.47
30,0.145, 2017/11/15 10:15:19.764上午,18.11,4.76,861,48.01,8.08,38.4,11.91,23.19,8.91,36.26,9.47
31,0.15, 2017/11/15 10:15:19.769上午,18.09,4.7,860,48.03,8.07,38.54,11.6,23.24,8.9,36.2,9.35
32,0.155, 2017/11/15 10:15:19.774上午,18,4.78,874,48.01,8.1,38.3,11.97,23.22,8.9,36.06,9.5
33,0.16, 2017/11/15 10:15:19.779上午,17.94,4.76,877,48.04,8.12,38.26,11.88,23.28,8.92,35.94,9.47
34,0.165, 2017/11/15 10:15:19.784上午,18.03,4.78,858,47.99,8.11,38.31,11.92,23.28,8.94,35.96,9.48
35,0.17, 2017/11/15 10:15:19.789上午,17.92,4.76,862,48.03,8.11,38.21,11.96,23.26,8.88,35.94,9.48
36,0.175, 2017/11/15 10:15:19.794上午,17.94,4.75,867,47.97,8.12,38.28,11.74,23.24,8.91,35.96,9.45
37,0.18, 2017/11/15 10:15:19.799上午,17.97,4.78,863,47.96,8.14,38.24,11.95,23.25,8.9,36.05,9.52
38,0.185, 2017/11/15 10:15:19.804上午,18.02,4.74,874,47.99,8.12,38.28,11.76,23.21,8.85,36.1,9.44
39,0.19, 2017/11/15 10:15:19.809上午,17.97,4.76,865,47.99,8.11,38.25,11.94,23.26,8.9,36.04,9.47
40,0.195, 2017/11/15 10:15:19.814上午,18.02,4.79,860,48.06,8.14,38.17,12,23.26,8.92,35.93,9.51
41,0.2, 2017/11/15 10:15:19.819上午,17.93,4.77,867,47.99,8.14,38.17,11.88,23.25,8.96,35.9,9.5
42,0.205, 2017/11/15 10:15:19.824上午,17.95,4.77,857,48.05,8.14,38.2,11.94,23.26,8.91,35.96,9.48
43,0.21, 2017/11/15 10:15:19.829上午,18.13,4.8,843,47.97,8.17,38.26,11.97,23.17,8.87,36.01,9.51
44,0.215, 2017/11/15 10:15:19.834上午,18.19,4.74,841,48.01,8.1,38.51,11.63,23.22,8.83,36.13,9.37
45,0.22, 2017/11/15 10:15:19.839上午,18.17,4.77,867,47.92,8.11,38.48,11.64,23.25,8.89,36.08,9.45
46,0.225, 2017/11/15 10:15:19.844上午,18.23,4.69,855,47.98,8.07,38.52,11.42,23.27,8.82,36.21,9.29
47,0.23, 2017/11/15 10:15:19.849上午,18.08,4.79,870,48,8.12,38.41,11.91,23.2,8.92,36.18,9.53
48,0.235, 2017/11/15 10:15:19.854上午,17.97,4.76,877,47.99,8.11,38.35,11.87,23.25,8.92,36.03,9.48
49,0.24, 2017/11/15 10:15:19.859上午,17.94,4.77,872,48,8.13,38.27,11.87,23.25,8.93,35.98,9.49
50,0.245, 2017/11/15 10:15:19.864上午,18.16,4.81,863,47.99,8.1,38.49,11.64,23.22,9.08,36.08,9.51
51,0.25, 2017/11/15 10:15:19.869上午,18.26,4.76,847,47.94,8.11,38.62,11.51,23.23,9.01,36.28,9.42
52,0.255, 2017/11/15 10:15:19.874上午,18.08,4.78,874,47.95,8.13,38.45,11.73,23.21,9.01,36.18,9.51
53,0.26, 2017/11/15 10:15:19.879上午,17.93,4.76,875,47.96,8.13,38.38,11.84,23.17,8.93,35.9,9.47
54,0.265, 2017/11/15 10:15:19.884上午,18.01,4.76,869,47.97,8.16,38.4,11.9,23.22,8.84,36.1,9.47
55,0.27, 2017/11/15 10:15:19.889上午,17.96,4.76,865,47.97,8.14,38.26,11.83,23.32,8.95,36,9.48
56,0.275, 2017/11/15 10:15:19.894上午,17.9,4.77,861,47.93,8.06,38.32,11.88,23.26,8.94,35.87,9.5
57,0.28, 2017/11/15 10:15:19.899上午,17.94,4.74,864,48.02,8.12,38.53,11.67,23.25,8.94,35.95,9.42
58,0.285, 2017/11/15 10:15:19.904上午,18.01,4.76,880,47.99,8.12,38.29,11.81,23.26,8.89,36.08,9.48
59,0.29, 2017/11/15 10:15:19.909上午,17.97,4.79,864,47.99,8.13,38.36,11.85,23.26,8.99,35.96,9.52
60,0.295, 2017/11/15 10:15:19.914上午,18.17,4.72,857,47.94,8.09,38.5,11.55,23.18,8.84,36.09,9.34
61,0.3, 2017/11/15 10:15:19.919上午,18.26,4.78,843,47.92,8.09,38.42,11.69,23.21,8.97,36.28,9.46
62,0.305, 2017/11/15 10:15:19.924上午,18,4.76,862,48.03,8.01,38.4,11.87,23.27,8.92,36.05,9.46
63,0.31, 2017/11/15 10:15:19.929上午,18.08,4.71,848,48.09,8.06,38.49,11.65,23.27,8.92,36.2,9.36
64,0.315, 2017/11/15 10:15:19.934上午,18.2,4.73,858,47.99,8.16,38.54,11.55,23.27,8.92,36.43,9.39
65,0.32, 2017/11/15 10:15:19.939上午,18.02,4.72,865,47.99,8.15,38.5,11.63,23.12,8.92,36.09,9.38
66,0.325, 2017/11/15 10:15:19.944上午,18.07,4.78,872,47.96,8.13,38.43,11.81,23.28,8.93,36.2,9.51
67,0.33, 2017/11/15 10:15:19.949上午,17.95,4.76,879,47.99,8.13,38.33,11.82,23.23,8.91,35.98,9.48
68,0.335, 2017/11/15 10:15:19.954上午,17.98,4.74,871,48.03,8.12,38.2,11.85,23.22,8.86,36.06,9.44
69,0.34, 2017/11/15 10:15:19.959上午,17.93,4.77,873,47.97,8.11,38.25,11.89,23.24,8.95,35.92,9.49
70,0.345, 2017/11/15 10:15:19.964上午,18.26,4.8,861,47.99,8.1,38.46,11.71,23.22,9.04,36.26,9.51
71,0.35, 2017/11/15 10:15:19.969上午,18.23,4.79,852,47.98,8.08,38.46,11.7,23.16,9.03,36.21,9.48
72,0.355, 2017/11/15 10:15:19.974上午,18.18,4.81,853,48.08,8.01,38.33,11.93,23.19,9.02,36.12,9.51
73,0.36, 2017/11/15 10:15:19.979上午,18.06,4.76,885,47.97,8.12,38.48,11.88,23.19,8.86,36.19,9.46
74,0.365, 2017/11/15 10:15:19.984上午,17.95,4.75,886,47.98,8.15,38.38,11.81,23.12,8.85,35.94,9.44
75,0.37, 2017/11/15 10:15:19.989上午,17.96,4.74,880,48.03,8.11,38.31,11.77,23.17,8.85,35.95,9.42
76,0.375, 2017/11/15 10:15:19.994上午,18.01,4.74,875,47.98,8.09,38.41,11.7,23.23,8.87,36.12,9.43
77,0.38, 2017/11/15 10:15:19.999上午,17.98,4.81,865,48,8.13,38.18,11.92,23.27,8.99,35.88,9.55
78,0.385, 2017/11/15 10:15:20.004上午,18.08,4.8,866,47.96,8.17,38.28,11.78,23.24,8.97,35.99,9.51
79,0.39, 2017/11/15 10:15:20.009上午,18.06,4.76,843,48,8.11,38.44,11.73,23.15,9.02,36.15,9.46
80,0.395, 2017/11/15 10:15:20.014上午,18.06,4.8,861,47.98,8.11,38.39,11.78,23.18,9.04,36.15,9.54
81,0.4, 2017/11/15 10:15:20.019上午,18.01,4.72,867,47.98,8.1,38.53,11.59,23.23,8.9,36.09,9.39
82,0.405, 2017/11/15 10:15:20.024上午,17.98,4.77,865,47.98,8.11,38.38,11.9,23.19,8.91,35.99,9.48
83,0.41, 2017/11/15 10:15:20.029上午,18.06,4.77,878,47.97,8.13,38.47,11.81,23.25,8.91,36.17,9.49
84,0.415, 2017/11/15 10:15:20.034上午,17.93,4.75,862,48.03,8.07,38.34,11.83,23.26,8.95,35.96,9.45
85,0.42, 2017/11/15 10:15:20.039上午,18.01,4.79,872,47.97,8.13,38.29,11.75,23.21,9,35.88,9.49
86,0.425, 2017/11/15 10:15:20.044上午,18.02,4.79,876,47.95,8.1,38.46,11.72,23.22,9.01,35.87,9.5
87,0.43, 2017/11/15 10:15:20.049上午,18.04,4.79,865,47.99,8.11,38.42,11.86,23.22,9,36.15,9.52
88,0.435, 2017/11/15 10:15:20.054上午,17.97,4.79,885,47.98,8.15,38.48,11.88,23.2,9,35.98,9.52
89,0.44, 2017/11/15 10:15:20.059上午,18,4.79,852,48.02,8.16,38.22,11.95,23.28,8.94,36.09,9.54
90,0.445, 2017/11/15 10:15:20.064上午,18.28,4.78,858,47.96,8.09,38.49,11.64,23.19,8.97,36.3,9.47
91,0.45, 2017/11/15 10:15:20.069上午,18.2,4.83,841,48.02,8.12,38.25,12.01,23.13,9.03,36.15,9.56
92,0.455, 2017/11/15 10:15:20.074上午,18.13,4.78,868,47.95,8.17,38.41,11.89,23.21,8.89,36.27,9.5
93,0.46, 2017/11/15 10:15:20.079上午,18,4.76,874,48,8.16,38.38,11.93,23.16,8.87,36.04,9.48
94,0.465, 2017/11/15 10:15:20.084上午,18.03,4.75,883,47.98,8.07,38.45,11.78,23.17,8.89,36.06,9.44
95,0.47, 2017/11/15 10:15:20.089上午,18,4.75,873,47.94,8.1,38.2,11.88,23.26,8.9,36.11,9.46
96,0.475, 2017/11/15 10:15:20.094上午,17.99,4.75,869,47.98,8.11,38.41,11.72,23.24,8.92,36.03,9.45
97,0.48, 2017/11/15 10:15:20.099上午,17.91,4.79,872,47.99,8.14,38.25,11.87,23.23,9.01,35.92,9.54
98,0.485, 2017/11/15 10:15:20.104上午,18.1,4.71,851,47.99,8.13,38.61,11.51,23.21,8.82,36.12,9.35
99,0.49, 2017/11/15 10:15:20.109上午,18.06,4.75,854,48.03,8.1,38.52,11.68,23.27,9.01,36.04,9.44
100,0.495, 2017/11/15 10:15:20.114上午,18.14,4.79,870,47.98,8.1,38.36,11.77,23.26,9.01,36.14,9.5
101,0.5, 2017/11/15 10:15:20.119上午,18.11,4.79,869,48.03,8.12,38.42,11.77,23.27,8.98,36.11,9.51
102,0.505, 2017/11/15 10:15:20.124上午,18.28,4.81,846,47.98,8.09,38.43,11.85,23.19,9,36.32,9.51
103,0.51, 2017/11/15 10:15:20.129上午,18.25,4.75,858,47.98,8.15,38.54,11.57,23.38,8.98,36.26,9.4
104,0.515, 2017/11/15 10:15:20.134上午,18.15,4.79,874,47.98,8.15,38.41,11.93,23.38,8.86,36.07,9.47
105,0.52, 2017/11/15 10:15:20.139上午,18.18,4.73,857,48,8.15,38.51,11.65,23.27,8.97,36.42,9.41
106,0.525, 2017/11/15 10:15:20.144上午,18.13,4.75,867,48.03,8.12,38.45,11.65,23.24,8.98,36.32,9.45
107,0.53, 2017/11/15 10:15:20.149上午,18.17,4.78,863,47.97,8.16,38.32,11.8,23.23,8.92,36.24,9.48
108,0.535, 2017/11/15 10:15:20.154上午,17.97,4.76,868,48.04,8.13,38.13,11.99,23.25,8.95,36.05,9.49
109,0.54, 2017/11/15 10:15:20.159上午,18.16,4.73,870,47.98,8.1,38.62,11.46,23.26,8.97,36.14,9.37
110,0.545, 2017/11/15 10:15:20.164上午,18.25,4.73,859,48.1,8.04,38.67,11.58,23.32,8.92,36.28,9.37
111,0.55, 2017/11/15 10:15:20.169上午,18.34,4.78,862,47.97,8.13,38.57,11.58,23.19,9.06,36.43,9.46
112,0.555, 2017/11/15 10:15:20.174上午,18.19,4.78,867,48.03,8.13,38.4,11.83,23.18,8.99,36.4,9.5
113,0.56, 2017/11/15 10:15:20.179上午,18.02,4.74,870,48.02,8.11,38.28,11.89,23.2,8.87,36.15,9.44
114,0.565, 2017/11/15 10:15:20.184上午,18.1,4.73,864,48.06,8.1,38.27,11.85,23.22,8.86,36.28,9.42
115,0.57, 2017/11/15 10:15:20.189上午,18.29,4.76,854,47.99,8.1,38.57,11.55,23.16,9.05,36.36,9.42
116,0.575, 2017/11/15 10:15:20.194上午,18.25,4.78,856,48.03,8.15,38.52,11.61,23.18,9.15,36.25,9.45
117,0.58, 2017/11/15 10:15:20.199上午,18.36,4.81,863,48,8.14,38.46,11.8,23.14,9.06,36.46,9.53
118,0.585, 2017/11/15 10:15:20.204上午,18.34,4.82,853,48.01,8.14,38.36,11.9,23.14,9.08,36.44,9.55
119,0.59, 2017/11/15 10:15:20.209上午,18.36,4.82,858,48.03,8.15,38.37,11.92,23.17,9.07,36.47,9.54
120,0.595, 2017/11/15 10:15:20.214上午,18.34,4.79,867,48.03,8.12,38.38,11.79,23.26,8.94,36.45,9.47
121,0.6, 2017/11/15 10:15:20.219上午,18.29,4.78,877,48,8.11,38.5,11.81,23.16,8.99,36.62,9.51
122,0.605, 2017/11/15 10:15:20.224上午,18.15,4.75,888,48.03,8.13,38.45,11.86,23.11,8.88,36.31,9.45
123,0.61, 2017/11/15 10:15:20.229上午,18.14,4.75,874,48.03,8.14,38.38,11.81,23.23,8.91,36.32,9.45
124,0.615, 2017/11/15 10:15:20.234上午,18.03,4.73,871,48.06,8.12,38.32,11.82,23.13,8.83,36.13,9.41
125,0.62, 2017/11/15 10:15:20.239上午,18.17,4.76,862,48.04,8.11,38.3,11.82,23.24,8.91,36.2,9.44
126,0.625, 2017/11/15 10:15:20.244上午,18.31,4.71,880,48.13,8.05,38.72,11.42,23.22,9.06,36.48,9.34
127,0.63, 2017/11/15 10:15:20.249上午,18.39,4.76,850,48.03,8.16,38.59,11.62,23.15,9.04,36.53,9.43
128,0.635, 2017/11/15 10:15:20.254上午,18.4,4.75,866,48.03,8.16,38.58,11.41,23.17,9.02,36.54,9.39
129,0.64, 2017/11/15 10:15:20.259上午,18.12,4.75,889,48.05,8.13,38.46,11.83,23.09,8.89,36.27,9.45
130,0.645, 2017/11/15 10:15:20.264上午,18.15,4.77,880,48.06,8.18,38.39,11.84,23.22,8.93,36.34,9.49
131,0.65, 2017/11/15 10:15:20.269上午,18.22,4.76,871,48.03,8.09,38.31,11.85,23.2,8.9,36.32,9.44
132,0.655, 2017/11/15 10:15:20.274上午,18.35,4.74,866,48.04,8.12,38.62,11.45,23.19,9,36.44,9.37
133,0.66, 2017/11/15 10:15:20.279上午,18.43,4.76,857,48.03,8.15,38.62,11.58,23.22,9.03,36.6,9.42
134,0.665, 2017/11/15 10:15:20.284上午,18.47,4.8,867,48.03,8.13,38.5,11.7,23.18,9.05,36.68,9.51
135,0.67, 2017/11/15 10:15:20.289上午,18.27,4.8,883,48.04,8.15,38.37,11.9,23.15,8.91,36.29,9.5
136,0.675, 2017/11/15 10:15:20.294上午,18.14,4.78,880,48.01,8.14,38.43,11.95,23.25,8.97,36.31,9.51
137,0.68, 2017/11/15 10:15:20.299上午,18.28,4.74,864,47.98,8.09,38.37,11.65,23.22,8.92,36.36,9.38
138,0.685, 2017/11/15 10:15:20.304上午,18.33,4.78,868,47.98,8.06,38.24,11.89,23.21,8.97,36.45,9.46
139,0.69, 2017/11/15 10:15:20.309上午,18.27,4.75,879,47.95,8.08,38.33,11.77,23.22,8.91,36.44,9.43
140,0.695, 2017/11/15 10:15:20.314上午,18.32,4.76,880,48.01,8.14,38.43,11.7,23.23,8.88,36.51,9.44
141,0.7, 2017/11/15 10:15:20.319上午,18.57,4.76,856,48.03,8.16,38.68,11.46,23.32,8.96,36.56,9.37
142,0.705, 2017/11/15 10:15:20.324上午,18.43,4.74,882,48.15,8.1,38.64,11.48,23.26,9.05,36.63,9.38
143,0.71, 2017/11/15 10:15:20.329上午,18.32,4.71,873,48.03,8.14,38.77,11.24,23.23,9.04,36.41,9.33
144,0.715, 2017/11/15 10:15:20.334上午,18.37,4.74,858,48.04,8.14,38.54,11.42,23.14,9.04,36.51,9.38
145,0.72, 2017/11/15 10:15:20.339上午,18.47,4.76,854,48.04,8.17,38.59,11.57,23.2,9.05,36.71,9.42
146,0.725, 2017/11/15 10:15:20.344上午,18.39,4.79,873,48.02,8.13,38.43,11.91,23.16,8.94,36.57,9.48
147,0.73, 2017/11/15 10:15:20.349上午,18.26,4.76,889,48,8.13,38.47,11.85,23.2,8.92,36.56,9.46
148,0.735, 2017/11/15 10:15:20.354上午,18.34,4.74,866,47.95,8.07,38.54,11.66,23.2,8.91,36.49,9.38
149,0.74, 2017/11/15 10:15:20.359上午,18.53,4.75,850,48,8.09,38.63,11.54,23.15,8.91,36.48,9.36
150,0.745, 2017/11/15 10:15:20.364上午,18.4,4.75,862,48.01,8.11,38.7,11.41,23.17,9.07,36.56,9.41
151,0.75, 2017/11/15 10:15:20.369上午,18.47,4.75,858,48.03,8.14,38.55,11.5,23.14,9.04,36.71,9.4
152,0.755, 2017/11/15 10:15:20.374上午,18.34,4.77,878,48,8.14,38.4,11.84,23.17,8.89,36.51,9.44
153,0.76, 2017/11/15 10:15:20.379上午,18.4,4.78,875,47.99,8.14,38.42,11.8,23.25,8.95,36.62,9.46
154,0.765, 2017/11/15 10:15:20.384上午,18.21,4.68,869,48.01,8.09,38.65,11.47,23.25,8.91,36.56,9.32
155,0.77, 2017/11/15 10:15:20.389上午,18.52,4.75,862,48,8.11,38.6,11.56,23.2,9,36.8,9.4
156,0.775, 2017/11/15 10:15:20.394上午,18.47,4.75,854,48.13,8.08,38.7,11.49,23.18,9.04,36.71,9.4
157,0.78, 2017/11/15 10:15:20.399上午,18.44,4.82,869,48.04,8.18,38.46,11.81,23.16,9.06,36.64,9.54
158,0.785, 2017/11/15 10:15:20.404上午,18.51,4.8,871,48.07,8.15,38.47,11.81,23.33,8.89,36.43,9.46
159,0.79, 2017/11/15 10:15:20.409上午,18.56,4.83,857,48.06,8.15,38.34,11.99,23.28,8.99,36.54,9.51
160,0.795, 2017/11/15 10:15:20.414上午,18.59,4.82,837,48.05,8.16,38.29,11.86,23.13,9.01,36.6,9.48
161,0.8, 2017/11/15 10:15:20.419上午,18.27,4.77,866,48.02,8.12,38.36,11.85,23.13,8.96,36.31,9.45
162,0.805, 2017/11/15 10:15:20.424上午,18.5,4.79,852,48,8.09,38.34,11.84,23.15,8.94,36.41,9.43
163,0.81, 2017/11/15 10:15:20.429上午,18.17,4.74,881,47.98,8.08,38.36,11.87,23.21,8.91,36.44,9.43
164,0.815, 2017/11/15 10:15:20.434上午,18.22,4.76,888,47.96,8.08,38.33,11.75,23.24,8.92,36.35,9.44
165,0.82, 2017/11/15 10:15:20.439上午,18.3,4.77,874,47.97,8.08,38.34,11.74,23.25,8.95,36.4,9.44
166,0.825, 2017/11/15 10:15:20.444上午,18.45,4.79,866,48.03,8.16,38.44,11.68,23.18,9.04,36.67,9.49
167,0.83, 2017/11/15 10:15:20.449上午,18.45,4.76,855,48.03,8.17,38.55,11.62,23.19,9,36.68,9.42
168,0.835, 2017/11/15 10:15:20.454上午,18.37,4.79,876,48.02,8.17,38.5,11.81,23.23,8.94,36.51,9.48
169,0.84, 2017/11/15 10:15:20.459上午,18.31,4.77,862,48,8.07,38.27,11.86,23.22,8.97,36.42,9.44
170,0.845, 2017/11/15 10:15:20.464上午,18.24,4.75,873,47.95,8.07,38.32,11.73,23.24,8.94,36.34,9.41
171,0.85, 2017/11/15 10:15:20.469上午,18.23,4.73,873,48.02,8.12,38.56,11.57,23.2,8.97,36.37,9.38
172,0.855, 2017/11/15 10:15:20.474上午,18.42,4.79,867,48.13,8.06,38.5,11.64,23.16,9.07,36.62,9.48
173,0.86, 2017/11/15 10:15:20.479上午,18.44,4.73,859,48.02,8.12,38.69,11.46,23.24,9,36.65,9.36
174,0.865, 2017/11/15 10:15:20.484上午,18.28,4.78,877,48.06,8.14,38.4,11.94,23.38,8.88,36.32,9.46
175,0.87, 2017/11/15 10:15:20.489上午,18.33,4.74,865,47.98,8.09,38.37,11.66,23.27,8.92,36.46,9.39
176,0.875, 2017/11/15 10:15:20.494上午,18.2,4.74,867,47.97,8.07,38.32,11.83,23.24,8.93,36.49,9.43
177,0.88, 2017/11/15 10:15:20.499上午,18.28,4.76,872,48.01,8.08,38.36,11.72,23.28,8.92,36.49,9.45
178,0.885, 2017/11/15 10:15:20.504上午,18.31,4.73,875,48.01,8.13,38.68,11.48,23.31,8.99,36.54,9.39
179,0.89, 2017/11/15 10:15:20.509上午,18.32,4.74,870,48.01,8.18,38.59,11.55,23.23,8.93,36.41,9.38
180,0.895, 2017/11/15 10:15:20.514上午,18.44,4.8,874,48.02,8.16,38.51,11.7,23.14,9.07,36.65,9.51
181,0.9, 2017/11/15 10:15:20.519上午,18.37,4.79,880,48.01,8.15,38.46,11.8,23.22,8.94,36.52,9.48
182,0.905, 2017/11/15 10:15:20.524上午,18.6,4.83,853,48,8.16,38.45,11.84,23.18,9,36.61,9.51
183,0.91, 2017/11/15 10:15:20.529上午,18.32,4.78,879,48.01,8.1,38.41,11.86,23.13,8.95,36.44,9.46
184,0.915, 2017/11/15 10:15:20.534上午,18.31,4.77,876,47.96,8.1,38.41,11.88,23.21,8.89,36.45,9.45
185,0.92, 2017/11/15 10:15:20.539上午,18.17,4.74,870,47.97,8.08,38.23,11.94,23.22,8.88,36.46,9.43
186,0.925, 2017/11/15 10:15:20.544上午,18.48,4.71,882,48.06,8.05,38.66,11.52,23.19,8.94,36.72,9.32
187,0.93, 2017/11/15 10:15:20.549上午,18.45,4.8,866,48.04,8.13,38.45,11.82,23.23,9.05,36.67,9.5
188,0.935, 2017/11/15 10:15:20.554上午,18.39,4.72,871,48.03,8.14,38.64,11.36,23.21,8.97,36.58,9.35
189,0.94, 2017/11/15 10:15:20.559上午,18.39,4.8,863,48.03,8.14,38.43,11.81,23.16,8.99,36.55,9.49
190,0.945, 2017/11/15 10:15:20.564上午,18.16,4.74,891,47.95,8.06,38.25,11.78,23.21,8.88,36.41,9.44
191,0.95, 2017/11/15 10:15:20.569上午,18.25,4.73,864,47.98,8.08,38.32,11.83,23.22,8.85,36.42,9.39
192,0.955, 2017/11/15 10:15:20.574上午,18.42,4.76,863,48.03,8.14,38.6,11.49,23.24,9.12,36.61,9.43
193,0.96, 2017/11/15 10:15:20.579上午,18.35,4.75,871,48.03,8.14,38.61,11.56,23.14,9,36.47,9.4
194,0.965, 2017/11/15 10:15:20.584上午,18.45,4.79,876,48.03,8.13,38.41,11.89,23.35,8.84,36.32,9.43
195,0.97, 2017/11/15 10:15:20.589上午,18.4,4.77,864,48,8.12,38.35,11.85,23.21,8.92,36.58,9.44
196,0.975, 2017/11/15 10:15:20.594上午,18.36,4.77,863,47.97,8.09,38.34,11.85,23.2,8.93,36.49,9.45
197,0.98, 2017/11/15 10:15:20.599上午,18.39,4.78,858,47.99,8.08,38.33,11.85,23.18,9.01,36.58,9.46
198,0.985, 2017/11/15 10:15:20.604上午,18.33,4.79,857,48.02,8.11,38.28,11.86,23.2,9,36.47,9.48
199,0.99, 2017/11/15 10:15:20.609上午,18.41,4.78,860,47.98,8.1,38.36,11.8,23.26,8.98,36.59,9.46
200,0.995, 2017/11/15 10:15:20.614上午,18.33,4.75,871,47.97,8.07,38.38,11.73,23.22,8.89,36.49,9.41
201,1, 2017/11/15 10:15:20.619上午,18.34,4.75,856,47.98,8.1,38.34,11.75,23.26,8.92,36.49,9.41
202,1.005, 2017/11/15 10:15:20.624上午,18.23,4.77,875,47.95,8.06,38.25,11.87,23.28,9.03,36.35,9.46
203,1.01, 2017/11/15 10:15:20.629上午,18.31,4.77,869,48.01,8.14,38.39,11.74,23.22,8.9,36.39,9.44
204,1.015, 2017/11/15 10:15:20.634上午,18.31,4.79,873,48.07,8.16,38.44,11.65,23.17,8.94,36.39,9.48
205,1.02, 2017/11/15 10:15:20.639上午,18.38,4.74,873,47.99,8.13,38.61,11.49,23.19,8.92,36.54,9.38
206,1.025, 2017/11/15 10:15:20.644上午,18.4,4.82,862,48.01,8.15,38.36,11.92,23.15,9.08,36.58,9.55
207,1.03, 2017/11/15 10:15:20.649上午,18.45,4.81,877,47.98,8.12,38.42,11.91,23.25,8.96,36.67,9.52
208,1.035, 2017/11/15 10:15:20.654上午,18.31,4.78,885,48.04,8.15,38.45,11.87,23.16,8.87,36.45,9.48
209,1.04, 2017/11/15 10:15:20.659上午,18.41,4.74,865,48.11,8.01,38.26,11.9,23.26,8.89,36.62,9.38
210,1.045, 2017/11/15 10:15:20.664上午,18.17,4.78,876,48.03,8.13,38.38,11.73,23.23,9.07,36.24,9.49
211,1.05, 2017/11/15 10:15:20.669上午,18.23,4.77,887,47.96,8.13,38.42,11.66,23.23,9.02,36.35,9.45
212,1.055, 2017/11/15 10:15:20.674上午,18.5,4.79,880,48.15,8.08,38.48,11.64,23.2,9.11,36.78,9.49
213,1.06, 2017/11/15 10:15:20.679上午,18.52,4.79,869,48.04,8.12,38.45,11.69,23.3,8.89,36.46,9.43
214,1.065, 2017/11/15 10:15:20.684上午,18.55,4.81,870,48.04,8.14,38.39,11.88,23.3,8.88,36.51,9.47
215,1.07, 2017/11/15 10:15:20.689上午,18.35,4.82,871,48.02,8.15,38.41,11.84,23.18,9.01,36.47,9.54
216,1.075, 2017/11/15 10:15:20.694上午,18.35,4.79,865,48.02,8.13,38.38,11.82,23.21,8.99,36.48,9.49
217,1.08, 2017/11/15 10:15:20.699上午,18.36,4.77,871,47.98,8.08,38.34,11.74,23.25,8.97,36.55,9.46
218,1.085, 2017/11/15 10:15:20.704上午,18.41,4.77,867,47.96,8.1,38.32,11.88,23.25,8.9,36.62,9.45
219,1.09, 2017/11/15 10:15:20.709上午,18.15,4.74,879,47.97,8.08,38.33,11.87,23.19,8.88,36.42,9.44
220,1.095, 2017/11/15 10:15:20.714上午,18.21,4.73,876,47.94,8.13,38.57,11.57,23.23,9.02,36.38,9.39
221,1.1, 2017/11/15 10:15:20.719上午,18.35,4.72,874,48.11,8.01,38.55,11.54,23.14,8.99,36.47,9.34
222,1.105, 2017/11/15 10:15:20.724上午,18.48,4.74,857,48.01,8.14,38.58,11.49,23.18,8.99,36.73,9.39
223,1.11, 2017/11/15 10:15:20.729上午,18.41,4.8,877,48.03,8.17,38.46,11.67,23.19,9.03,36.59,9.51
224,1.115, 2017/11/15 10:15:20.734上午,18.27,4.74,864,48.06,8.15,38.45,11.61,23.09,8.97,36.36,9.38
225,1.12, 2017/11/15 10:15:20.739上午,18.31,4.8,873,48.04,8.16,38.31,11.99,23.14,8.94,36.4,9.5
226,1.125, 2017/11/15 10:15:20.744上午,18.35,4.77,865,47.98,8.08,38.38,11.7,23.21,8.99,36.51,9.44
227,1.13, 2017/11/15 10:15:20.749上午,18.38,4.74,860,48.01,8.14,38.64,11.45,23.14,9.05,36.53,9.38
228,1.135, 2017/11/15 10:15:20.754上午,18.45,4.75,845,48,8.14,38.57,11.5,23.25,9.04,36.68,9.41
229,1.14, 2017/11/15 10:15:20.759上午,18.28,4.77,879,48.03,8.14,38.34,11.89,23.39,8.84,36.33,9.45
230,1.145, 2017/11/15 10:15:20.764上午,18.22,4.77,890,47.99,8.15,38.4,11.84,23.28,8.98,36.52,9.5
231,1.15, 2017/11/15 10:15:20.769上午,18.41,4.79,882,47.97,8.14,38.47,11.83,23.25,8.95,36.65,9.5
232,1.155, 2017/11/15 10:15:20.774上午,18.15,4.75,888,48,8.13,38.36,11.65,23.21,8.94,36.4,9.46
233,1.16, 2017/11/15 10:15:20.779上午,18.44,4.77,864,47.96,8.11,38.63,11.46,23.16,9.08,36.67,9.43
234,1.165, 2017/11/15 10:15:20.784上午,18.35,4.79,871,48.01,8.14,38.36,11.73,23.21,8.94,36.46,9.48
235,1.17, 2017/11/15 10:15:20.789上午,18.36,4.81,876,48.01,8.18,38.48,11.84,23.28,8.97,36.47,9.52
236,1.175, 2017/11/15 10:15:20.794上午,18.36,4.79,887,47.92,8.1,38.5,11.78,23.28,8.98,36.47,9.49
237,1.18, 2017/11/15 10:15:20.799上午,18.21,4.77,886,47.93,8.09,38.45,11.84,23.24,8.98,36.46,9.49
238,1.185, 2017/11/15 10:15:20.804上午,18.22,4.78,890,47.92,8.15,38.45,11.79,23.2,9.05,36.51,9.52
239,1.19, 2017/11/15 10:15:20.809上午,18.03,4.75,882,48,8.14,38.35,11.77,23.14,8.94,36.17,9.46
240,1.195, 2017/11/15 10:15:20.814上午,18.17,4.74,876,48,8.09,38.42,11.7,23.26,8.88,36.42,9.43
241,1.2, 2017/11/15 10:15:20.819上午,18.09,4.74,877,47.91,8.09,38.26,11.84,23.22,8.93,36.26,9.44
242,1.205, 2017/11/15 10:15:20.824上午,18.05,4.76,886,47.92,8.08,38.38,11.76,23.2,9.01,36.19,9.47
243,1.21, 2017/11/15 10:15:20.829上午,18.27,4.78,859,48.03,8.11,38.31,11.78,23.21,8.93,36.32,9.47
244,1.215, 2017/11/15 10:15:20.834上午,18.32,4.8,857,48,8.11,38.38,11.72,23.16,9.06,36.42,9.51
245,1.22, 2017/11/15 10:15:20.839上午,18.31,4.78,878,47.95,8.13,38.52,11.65,23.25,8.91,36.38,9.46
246,1.225, 2017/11/15 10:15:20.844上午,18.14,4.78,881,47.99,8.17,38.39,11.88,23.37,8.96,36.32,9.51
247,1.23, 2017/11/15 10:15:20.849上午,18.08,4.77,881,48,8.16,38.41,11.85,23.22,8.92,36.25,9.5
248,1.235, 2017/11/15 10:15:20.854上午,18.13,4.75,882,47.95,8.12,38.4,11.83,23.26,8.85,36.4,9.46
249,1.24, 2017/11/15 10:15:20.859上午,18.22,4.73,868,47.96,8.15,38.57,11.5,23.19,8.93,36.31,9.37
250,1.245, 2017/11/15 10:15:20.864上午,18.11,4.78,879,47.97,8.18,38.42,11.86,23.29,8.96,36.26,9.51
251,1.25, 2017/11/15 10:15:20.869上午,18.07,4.79,876,47.94,8.17,38.34,11.89,23.25,8.97,36.2,9.52
252,1.255, 2017/11/15 10:15:20.874上午,18.05,4.78,873,48,8.14,38.21,11.93,23.19,8.95,36.18,9.52
253,1.26, 2017/11/15 10:15:20.879上午,18.04,4.78,883,47.91,8.14,38.43,11.7,23.21,9.03,36.12,9.51
254,1.265, 2017/11/15 10:15:20.884上午,18.04,4.72,850,47.98,8.12,38.47,11.62,23.22,8.88,36.15,9.39
255,1.27, 2017/11/15 10:15:20.889上午,18.25,4.74,851,47.93,8.19,38.53,11.54,23.21,8.89,36.27,9.39
256,1.275, 2017/11/15 10:15:20.894上午,18.1,4.8,873,47.96,8.18,38.42,11.81,23.21,9.01,36.25,9.54
257,1.28, 2017/11/15 10:15:20.899上午,18.11,4.78,880,47.86,8.12,38.45,11.85,23.21,8.93,36.27,9.5
258,1.285, 2017/11/15 10:15:20.904上午,18.12,4.77,881,47.89,8.11,38.42,11.81,23.27,8.97,36.28,9.49
259,1.29, 2017/11/15 10:15:20.909上午,18.08,4.8,884,47.85,8.11,38.26,11.95,23.23,8.93,36.26,9.55
260,1.295, 2017/11/15 10:15:20.914上午,18.04,4.76,869,47.87,8.13,38.24,11.87,23.27,8.87,36.18,9.48
261,1.3, 2017/11/15 10:15:20.919上午,17.94,4.77,882,47.88,8.11,38.29,11.81,23.2,8.98,36,9.51
262,1.305, 2017/11/15 10:15:20.924上午,17.97,4.74,867,47.91,8.11,38.46,11.55,23.26,8.98,36.01,9.43
263,1.31, 2017/11/15 10:15:20.929上午,17.95,4.72,868,47.9,8.15,38.57,11.42,23.13,8.95,35.95,9.39
264,1.315, 2017/11/15 10:15:20.934上午,18.06,4.8,891,47.89,8.15,38.47,11.71,23.38,8.99,36.15,9.54
265,1.32, 2017/11/15 10:15:20.939上午,18.01,4.77,896,47.94,8.15,38.47,11.72,23.36,8.89,36.04,9.49
266,1.325, 2017/11/15 10:15:20.944上午,18,4.78,870,47.94,8.15,38.26,11.8,23.19,8.94,36.08,9.51
267,1.33, 2017/11/15 10:15:20.949上午,17.86,4.77,872,47.85,8.03,38.22,11.87,23.28,9.01,35.85,9.51
268,1.335, 2017/11/15 10:15:20.954上午,17.88,4.77,882,47.85,8.12,38.28,11.7,23.23,9.05,35.85,9.5
269,1.34, 2017/11/15 10:15:20.959上午,18.05,4.8,886,47.88,8.15,38.47,11.67,23.24,9,36.14,9.54
270,1.345, 2017/11/15 10:15:20.964上午,17.93,4.74,867,47.93,8.21,38.44,11.64,23.3,8.93,35.96,9.43
271,1.35, 2017/11/15 10:15:20.969上午,18.03,4.79,881,47.89,8.2,38.43,11.68,23.18,8.99,36.17,9.53
272,1.355, 2017/11/15 10:15:20.974上午,17.92,4.77,871,47.97,8.13,38.26,11.79,23.2,8.92,35.98,9.51
273,1.36, 2017/11/15 10:15:20.979上午,18.01,4.76,865,47.9,8.13,38.56,11.49,23.18,9.04,36.06,9.46
274,1.365, 2017/11/15 10:15:20.984上午,18.09,4.77,865,47.92,8.14,38.58,11.54,23.22,9.06,36.22,9.5
275,1.37, 2017/11/15 10:15:20.989上午,17.99,4.76,897,47.87,8.1,38.5,11.79,23.12,8.88,36.05,9.48
276,1.375, 2017/11/15 10:15:20.994上午,17.98,4.76,871,47.87,8.05,38.26,11.78,23.25,8.9,36.06,9.47
277,1.38, 2017/11/15 10:15:20.999上午,18.03,4.78,871,47.82,8.09,38.44,11.78,23.18,8.91,36,9.48
278,1.385, 2017/11/15 10:15:21.004上午,18.01,4.75,862,47.9,8.11,38.43,11.59,23.23,8.95,35.96,9.42
279,1.39, 2017/11/15 10:15:21.009上午,17.95,4.81,884,47.83,8.13,38.43,11.67,23.18,9.07,35.82,9.54
280,1.395, 2017/11/15 10:15:21.014上午,18.07,4.8,881,47.88,8.15,38.49,11.62,23.19,9.07,36.18,9.55
281,1.4, 2017/11/15 10:15:21.019上午,18.06,4.8,886,47.9,8.19,38.39,11.74,23.36,9.02,36.15,9.55
282,1.405, 2017/11/15 10:15:21.024上午,18,4.8,868,47.93,8.21,38.35,11.86,23.26,8.98,36.13,9.56
283,1.41, 2017/11/15 10:15:21.029上午,18,4.79,879,47.86,8.14,38.4,11.88,23.25,8.9,36.13,9.53
284,1.415, 2017/11/15 10:15:21.034上午,17.97,4.79,875,47.87,8.12,38.27,11.87,23.21,8.97,35.89,9.51
285,1.42, 2017/11/15 10:15:21.039上午,17.87,4.79,870,47.92,8.16,38.2,11.88,23.12,8.89,35.78,9.54
286,1.425, 2017/11/15 10:15:21.044上午,18,4.82,876,47.89,8.21,38.35,11.86,23.14,9.1,36.03,9.59
287,1.43, 2017/11/15 10:15:21.049上午,17.82,4.79,882,47.95,8.16,38.23,12.04,23.09,8.9,35.76,9.55
288,1.435, 2017/11/15 10:15:21.054上午,17.93,4.79,893,47.84,8.17,38.35,11.84,23.18,8.93,35.98,9.53
289,1.44, 2017/11/15 10:15:21.059上午,17.99,4.79,879,47.89,8.12,38.35,11.69,23.17,8.96,35.91,9.52
290,1.445, 2017/11/15 10:15:21.064上午,17.91,4.78,891,47.88,8.15,38.35,11.81,23.35,8.9,35.89,9.52
291,1.45, 2017/11/15 10:15:21.069上午,17.86,4.77,884,47.88,8.19,38.35,11.89,23.19,8.84,35.82,9.49
292,1.455, 2017/11/15 10:15:21.074上午,17.83,4.76,876,47.8,8.01,38.29,11.73,23.18,8.93,35.77,9.48
293,1.46, 2017/11/15 10:15:21.079上午,18.15,4.82,867,47.87,8.14,38.46,11.63,23.2,9.02,36.1,9.54
294,1.465, 2017/11/15 10:15:21.084上午,17.95,4.76,877,47.97,8.05,38.45,11.64,23.32,8.86,35.71,9.43
295,1.47, 2017/11/15 10:15:21.089上午,17.91,4.8,875,47.94,8.09,38.21,11.92,23.22,8.92,35.9,9.55
296,1.475, 2017/11/15 10:15:21.094上午,17.9,4.77,877,47.8,8.11,38.32,11.86,23.19,8.91,35.92,9.51
297,1.48, 2017/11/15 10:15:21.099上午,17.98,4.79,877,47.87,8.15,38.31,11.68,23.18,8.92,35.88,9.5
298,1.485, 2017/11/15 10:15:21.104上午,17.95,4.78,868,47.87,8.14,38.45,11.61,23.21,9.05,35.84,9.48
299,1.49, 2017/11/15 10:15:21.109上午,18.13,4.81,867,47.85,8.12,38.43,11.71,23.21,9.04,36.1,9.54
300,1.495, 2017/11/15 10:15:21.114上午,18.1,4.78,869,47.86,8.15,38.57,11.55,23.37,9,35.99,9.47
301,1.5, 2017/11/15 10:15:21.119上午,17.92,4.8,880,47.9,8.2,38.31,11.97,23.35,8.88,35.93,9.55
302,1.505, 2017/11/15 10:15:21.124上午,17.81,4.79,893,47.92,8.21,38.34,11.84,23.09,8.89,35.72,9.53
303,1.51, 2017/11/15 10:15:21.129上午,17.9,4.78,884,47.86,8.14,38.31,11.87,23.19,8.94,35.92,9.53
304,1.515, 2017/11/15 10:15:21.134上午,17.98,4.81,878,47.88,8.11,38.32,11.75,23.17,8.97,35.8,9.52
305,1.52, 2017/11/15 10:15:21.139上午,18.07,4.83,864,47.87,8.12,38.3,11.77,23.13,9.06,35.9,9.56
306,1.525, 2017/11/15 10:15:21.144上午,18.01,4.82,851,47.93,8.1,38.41,11.68,23.15,9.05,35.78,9.54
307,1.53, 2017/11/15 10:15:21.149上午,17.98,4.8,874,47.89,8.18,38.47,11.78,23.09,8.87,35.79,9.51
308,1.535, 2017/11/15 10:15:21.154上午,17.9,4.8,877,47.76,8.21,38.41,11.89,23.21,8.89,35.91,9.57
309,1.54, 2017/11/15 10:15:21.159上午,17.98,4.81,864,47.73,8.15,38.27,11.77,23.22,8.92,35.79,9.52
310,1.545, 2017/11/15 10:15:21.164上午,18.05,4.83,859,47.79,8.19,38.33,11.76,23.22,9.03,35.89,9.57
311,1.55, 2017/11/15 10:15:21.169上午,17.98,4.81,860,47.95,8.09,38.4,11.75,23.23,8.96,35.77,9.52
312,1.555, 2017/11/15 10:15:21.174上午,17.99,4.85,869,47.86,8.18,38.33,11.97,23.19,8.99,35.81,9.61
313,1.56, 2017/11/15 10:15:21.179上午,17.77,4.78,846,47.96,8.11,38.15,11.93,23.22,8.89,35.68,9.52
314,1.565, 2017/11/15 10:15:21.184上午,17.86,4.83,870,47.78,8.02,38.17,11.84,23.23,9.07,35.57,9.58
315,1.57, 2017/11/15 10:15:21.189上午,18.17,4.86,864,47.86,8.13,38.34,11.74,23.23,9.06,35.76,9.56
316,1.575, 2017/11/15 10:15:21.194上午,17.96,4.82,879,47.85,8.12,38.41,11.69,23.22,9.04,35.74,9.55
317,1.58, 2017/11/15 10:15:21.199上午,18.03,4.82,863,48.01,8.07,38.46,11.65,23.22,9.04,35.86,9.55
318,1.585, 2017/11/15 10:15:21.204上午,17.93,4.78,872,47.88,8.16,38.39,11.59,23.29,8.96,35.66,9.47
319,1.59, 2017/11/15 10:15:21.209上午,17.97,4.84,849,47.83,8.19,38.32,11.93,23.25,9,35.79,9.6
320,1.595, 2017/11/15 10:15:21.214上午,17.93,4.8,870,47.84,8.12,38.33,11.9,23.14,8.86,35.72,9.52
321,1.6, 2017/11/15 10:15:21.219上午,17.76,4.77,875,47.74,8.11,38.32,11.74,23.19,8.92,35.66,9.5
322,1.605, 2017/11/15 10:15:21.224上午,17.84,4.83,864,47.73,8.08,38.18,11.91,23.21,9.04,35.55,9.58
323,1.61, 2017/11/15 10:15:21.229上午,17.98,4.83,862,47.87,8.13,38.29,11.74,23.13,9.09,35.8,9.57
324,1.615, 2017/11/15 10:15:21.234上午,17.92,4.82,872,47.9,8.18,38.32,11.82,23.34,8.99,35.68,9.56
325,1.62, 2017/11/15 10:15:21.239上午,17.89,4.83,841,48.01,8.1,38.32,11.89,23.18,9.05,35.64,9.58
326,1.625, 2017/11/15 10:15:21.244上午,17.94,4.85,858,47.88,8.17,38.26,11.98,23.11,9.03,35.73,9.62
327,1.63, 2017/11/15 10:15:21.249上午,17.94,4.81,865,47.85,8.08,38.32,11.71,23.21,8.9,35.75,9.53
328,1.635, 2017/11/15 10:15:21.254上午,17.88,4.82,860,47.82,8.06,38.2,11.86,23.21,8.94,35.6,9.54
329,1.64, 2017/11/15 10:15:21.259上午,18.13,4.83,862,47.91,8.17,38.41,11.71,23.19,9.06,36.1,9.58
330,1.645, 2017/11/15 10:15:21.264上午,17.88,4.82,865,47.86,8.06,38.17,11.98,23.17,8.88,35.6,9.56
331,1.65, 2017/11/15 10:15:21.269上午,17.81,4.8,863,47.72,8.05,38.24,11.87,23.22,9.03,35.56,9.54
332,1.655, 2017/11/15 10:15:21.274上午,18.24,4.82,866,47.79,8.12,38.45,11.66,23.21,8.92,35.91,9.5
333,1.66, 2017/11/15 10:15:21.279上午,17.98,4.84,849,47.85,8.21,38.3,11.93,23.15,9.01,35.8,9.6
334,1.665, 2017/11/15 10:15:21.284上午,17.99,4.82,856,47.93,8.17,38.22,11.97,23.21,8.9,35.82,9.56
335,1.67, 2017/11/15 10:15:21.289上午,17.79,4.78,875,47.77,8.17,38.27,11.76,23.18,8.9,35.72,9.53
336,1.675, 2017/11/15 10:15:21.294上午,17.86,4.82,865,47.76,8.17,38.4,11.65,23.2,9.05,35.55,9.56
337,1.68, 2017/11/15 10:15:21.299上午,18.07,4.83,855,47.97,8.19,38.42,11.68,23.19,9.05,35.99,9.58
338,1.685, 2017/11/15 10:15:21.304上午,17.97,4.81,871,47.83,8.18,38.42,11.73,23.34,8.95,35.78,9.53
339,1.69, 2017/11/15 10:15:21.309上午,17.82,4.83,874,47.82,8.23,38.4,11.87,23.04,9.02,35.75,9.62
340,1.695, 2017/11/15 10:15:21.314上午,17.69,4.79,854,47.81,8.1,38.12,11.99,23.17,8.94,35.54,9.56
341,1.7, 2017/11/15 10:15:21.319上午,17.87,4.82,857,47.84,8.08,38.21,11.92,23.11,8.93,35.59,9.55
342,1.705, 2017/11/15 10:15:21.324上午,17.9,4.77,865,47.83,8.04,38.34,11.65,23.18,8.95,35.84,9.5
343,1.71, 2017/11/15 10:15:21.329上午,17.96,4.84,861,47.79,8.24,38.42,11.79,23.24,8.95,35.76,9.59
344,1.715, 2017/11/15 10:15:21.334上午,17.94,4.77,839,47.87,8.19,38.44,11.66,23.13,8.96,35.73,9.47
345,1.72, 2017/11/15 10:15:21.339上午,18.02,4.82,864,47.83,8.17,38.27,11.88,23.21,8.92,35.89,9.56
346,1.725, 2017/11/15 10:15:21.344上午,18.01,4.83,842,47.78,8.12,38.19,11.86,23.23,9.05,35.88,9.58
347,1.73, 2017/11/15 10:15:21.349上午,18.01,4.84,848,47.91,8.22,38.39,11.69,23.16,9.07,35.84,9.59
348,1.735, 2017/11/15 10:15:21.354上午,18.05,4.81,857,48.06,8.08,38.45,11.64,23.28,9.03,35.94,9.54
349,1.74, 2017/11/15 10:15:21.359上午,18.03,4.84,864,47.86,8.21,38.38,11.76,23.16,8.99,35.91,9.6
350,1.745, 2017/11/15 10:15:21.364上午,17.9,4.85,861,47.85,8.21,38.23,11.98,23.03,9.03,35.64,9.62
351,1.75, 2017/11/15 10:15:21.369上午,18.06,4.85,852,47.76,8.18,38.27,11.9,23.16,9.09,35.97,9.62
352,1.755, 2017/11/15 10:15:21.374上午,17.8,4.81,846,47.82,8.11,38.24,11.81,23.18,8.96,35.47,9.55
353,1.76, 2017/11/15 10:15:21.379上午,17.98,4.84,858,47.86,8.26,38.43,11.65,23.19,9,35.77,9.58
354,1.765, 2017/11/15 10:15:21.384上午,17.95,4.81,840,47.96,8.09,38.3,11.91,23.32,8.97,35.72,9.53
355,1.77, 2017/11/15 10:15:21.389上午,17.94,4.85,849,47.85,8.12,38.24,11.97,23.18,9.06,35.72,9.62
356,1.775, 2017/11/15 10:15:21.394上午,17.88,4.83,853,47.75,8.06,38.3,11.92,23.11,9.06,35.63,9.58
357,1.78, 2017/11/15 10:15:21.399上午,17.96,4.85,854,47.73,8.09,38.23,11.89,23.15,9.11,35.8,9.61
358,1.785, 2017/11/15 10:15:21.404上午,17.99,4.79,870,47.86,8.12,38.27,11.77,23.16,8.92,35.87,9.51
359,1.79, 2017/11/15 10:15:21.409上午,18.01,4.86,842,47.94,8.17,38.25,12,23.18,9.08,35.89,9.63
360,1.795, 2017/11/15 10:15:21.414上午,17.99,4.8,842,48.04,8.06,38.29,11.71,23.19,9.04,35.8,9.5
361,1.8, 2017/11/15 10:15:21.419上午,18,4.82,862,47.92,8.08,38.45,11.62,23.09,9.06,35.81,9.54
362,1.805, 2017/11/15 10:15:21.424上午,18.11,4.85,843,47.82,8.17,38.28,11.99,23.25,9.03,36.07,9.62
363,1.81, 2017/11/15 10:15:21.429上午,18.06,4.85,851,47.9,8.17,38.37,11.91,23.13,9.1,36,9.61
364,1.815, 2017/11/15 10:15:21.434上午,17.69,4.75,872,47.82,8.1,38.34,11.82,23.15,8.94,35.72,9.51
365,1.82, 2017/11/15 10:15:21.439上午,18.02,4.85,855,47.86,8.15,38.19,11.95,23.11,9.1,35.87,9.62
366,1.825, 2017/11/15 10:15:21.444上午,18.06,4.78,871,47.85,8.14,38.45,11.63,23.26,9.03,36.11,9.51
367,1.83, 2017/11/15 10:15:21.449上午,18.18,4.85,849,47.92,8.16,38.34,12.01,23.16,9.05,36.2,9.62
368,1.835, 2017/11/15 10:15:21.454上午,18.02,4.82,865,47.82,8.17,38.29,11.9,23.16,8.93,35.92,9.55
369,1.84, 2017/11/15 10:15:21.459上午,18.04,4.82,875,47.93,8.15,38.44,11.68,23.19,9.07,35.93,9.55
370,1.845, 2017/11/15 10:15:21.464上午,17.98,4.84,855,47.85,8.19,38.34,11.92,23.09,9.01,35.8,9.59
371,1.85, 2017/11/15 10:15:21.469上午,18.04,4.81,860,47.89,8.16,38.34,11.93,23.09,8.97,35.96,9.55
372,1.855, 2017/11/15 10:15:21.474上午,18.11,4.83,854,47.78,8.17,38.26,11.85,23.16,9.07,36.06,9.58
373,1.86, 2017/11/15 10:15:21.479上午,18.07,4.81,870,47.89,8.19,38.49,11.6,23.17,8.98,35.97,9.53
374,1.865, 2017/11/15 10:15:21.484上午,18.01,4.81,868,47.91,8.08,38.43,11.69,23.26,9.02,35.88,9.53
375,1.87, 2017/11/15 10:15:21.489上午,18.11,4.86,857,47.79,8.08,38.16,12.01,23.18,9.09,36.06,9.63
376,1.875, 2017/11/15 10:15:21.494上午,18.06,4.81,854,47.81,8.01,38.36,11.82,23.12,9.1,35.98,9.54
377,1.88, 2017/11/15 10:15:21.499上午,18,4.8,860,47.79,8.16,38.32,11.79,23.17,8.92,35.85,9.53
378,1.885, 2017/11/15 10:15:21.504上午,18.03,4.81,866,47.86,8.11,38.37,11.73,23.06,9.13,36.09,9.57
379,1.89, 2017/11/15 10:15:21.509上午,18.01,4.81,859,47.94,8.16,38.31,11.87,23.3,9.02,35.84,9.53
380,1.895, 2017/11/15 10:15:21.514上午,18.05,4.82,850,47.89,8.19,38.37,11.86,23.09,8.93,35.93,9.55
381,1.9, 2017/11/15 10:15:21.519上午,18.09,4.81,854,47.87,8.22,38.36,11.82,23.19,8.92,36.04,9.53
382,1.905, 2017/11/15 10:15:21.524上午,17.91,4.81,862,47.71,8.02,38.22,11.73,23.21,9.09,35.67,9.53
383,1.91, 2017/11/15 10:15:21.529上午,18.06,4.78,860,47.94,8.15,38.49,11.6,23.18,9.05,36.16,9.5
384,1.915, 2017/11/15 10:15:21.534上午,18.05,4.77,843,47.85,8.2,38.47,11.63,23.13,9.01,35.98,9.46
385,1.92, 2017/11/15 10:15:21.539上午,18.01,4.84,858,47.87,8.23,38.33,11.94,23.02,9.03,35.89,9.6
386,1.925, 2017/11/15 10:15:21.544上午,18.24,4.82,856,47.85,8.14,38.41,11.84,23.16,9.06,36.34,9.56
387,1.93, 2017/11/15 10:15:21.549上午,18.04,4.81,856,47.93,8.15,38.47,11.66,23.22,9.12,35.91,9.53
388,1.935, 2017/11/15 10:15:21.554上午,18.04,4.82,858,47.94,8.15,38.28,11.84,23.11,9.04,36.08,9.58
389,1.94, 2017/11/15 10:15:21.559上午,18.18,4.79,840,47.96,8.16,38.48,11.53,23.07,9.16,36.2,9.49
390,1.945, 2017/11/15 10:15:21.564上午,18.15,4.8,868,47.91,8.13,38.44,11.75,23.14,8.98,36.14,9.51
391,1.95, 2017/11/15 10:15:21.569上午,18.24,4.82,849,47.87,8.13,38.41,11.88,23.22,9.04,36.35,9.55
392,1.955, 2017/11/15 10:15:21.574上午,18.08,4.79,856,47.84,8.12,38.34,11.85,23.16,9.02,36.22,9.53
393,1.96, 2017/11/15 10:15:21.579上午,18.09,4.73,856,47.93,8.14,38.63,11.41,23.2,8.98,36.22,9.4
394,1.965, 2017/11/15 10:15:21.584上午,18.26,4.84,858,47.91,8.19,38.45,11.68,23.06,9.2,36.35,9.6
395,1.97, 2017/11/15 10:15:21.589上午,18.21,4.83,861,47.93,8.19,38.38,11.89,23.19,9.06,36.24,9.58
396,1.975, 2017/11/15 10:15:21.594上午,18.09,4.8,850,47.91,8.16,38.31,11.9,23.24,8.95,36.02,9.51
397,1.98, 2017/11/15 10:15:21.599上午,18.23,4.85,858,47.86,8.15,38.26,11.95,23.2,9.04,36.29,9.62
398,1.985, 2017/11/15 10:15:21.604上午,18.15,4.79,862,47.84,8.13,38.36,11.8,23.11,9.01,36.14,9.5
399,1.99, 2017/11/15 10:15:21.609上午,17.93,4.77,874,47.84,8.14,38.2,11.91,23.16,8.9,36,9.51
400,1.995, 2017/11/15 10:15:21.614上午,18.11,4.8,846,47.89,8.13,38.33,11.82,23.16,9.04,36.09,9.51
401,2, 2017/11/15 10:15:21.619上午,18.06,4.79,852,47.93,8.16,38.5,11.61,23.06,9.14,36.16,9.52
402,2.005, 2017/11/15 10:15:21.624上午,18.2,4.83,874,47.87,8.2,38.46,11.64,23.1,9.13,36.22,9.57
403,2.01, 2017/11/15 10:15:21.629上午,18.16,4.84,859,47.9,8.16,38.35,11.91,23.13,9.08,36.15,9.58
404,2.015, 2017/11/15 10:15:21.634上午,17.98,4.78,874,47.92,8.14,38.39,11.83,23.04,8.98,36.09,9.53
405,2.02, 2017/11/15 10:15:21.639上午,18.25,4.82,856,47.91,8.13,38.48,11.82,23.16,9.04,36.36,9.56
406,2.025, 2017/11/15 10:15:21.644上午,18.06,4.77,862,47.81,8.11,38.37,11.84,23.2,8.89,36.07,9.47
407,2.03, 2017/11/15 10:15:21.649上午,18,4.76,857,47.94,8.16,38.49,11.6,23.28,9.02,35.99,9.45
408,2.035, 2017/11/15 10:15:21.654上午,18.12,4.78,853,47.99,8.16,38.55,11.55,23.21,9.08,36.08,9.48
409,2.04, 2017/11/15 10:15:21.659上午,18.13,4.81,869,47.92,8.16,38.36,11.93,23.29,8.97,36.09,9.53
410,2.045, 2017/11/15 10:15:21.664上午,18.16,4.79,866,47.84,8.12,38.4,11.68,23.13,9.07,36.25,9.52
411,2.05, 2017/11/15 10:15:21.669上午,18.11,4.75,861,47.86,8.12,38.27,11.79,23.18,8.88,36.17,9.43
412,2.055, 2017/11/15 10:15:21.674上午,18.08,4.8,871,47.9,8.11,38.33,11.75,23.2,9.03,35.98,9.51
413,2.06, 2017/11/15 10:15:21.679上午,18.14,4.81,866,47.93,8.2,38.35,11.92,23.32,8.94,36.1,9.53
414,2.065, 2017/11/15 10:15:21.684上午,18.21,4.81,862,47.86,8.12,38.36,11.86,23.2,9,36.27,9.53
415,2.07, 2017/11/15 10:15:21.689上午,17.95,4.77,866,47.85,8.13,38.27,11.81,23.03,9.04,36.01,9.5
416,2.075, 2017/11/15 10:15:21.694上午,18.19,4.76,859,47.83,8.1,38.38,11.66,23.09,8.99,36.2,9.44
417,2.08, 2017/11/15 10:15:21.699上午,18.03,4.75,863,47.82,8.11,38.35,11.78,23.19,8.92,36.18,9.45
418,2.085, 2017/11/15 10:15:21.704上午,18.12,4.77,853,47.82,8.12,38.33,11.79,23.17,8.97,36.2,9.47
419,2.09, 2017/11/15 10:15:21.709上午,18.07,4.73,868,47.85,8.11,38.37,11.68,23.19,8.9,36.28,9.43
420,2.095, 2017/11/15 10:15:21.714上午,18.06,4.77,852,47.91,8.11,38.43,11.8,23.14,9.04,36.16,9.48
421,2.1, 2017/11/15 10:15:21.719上午,18.1,4.76,864,47.89,8.11,38.55,11.57,23.13,9.01,36.17,9.45
422,2.105, 2017/11/15 10:15:21.724上午,18.24,4.8,860,47.93,8.15,38.41,11.63,23.29,9.04,36.27,9.51
423,2.11, 2017/11/15 10:15:21.729上午,18.27,4.83,847,47.92,8.2,38.32,11.94,23.24,9.03,36.37,9.58
424,2.115, 2017/11/15 10:15:21.734上午,18.24,4.78,870,47.89,8.1,38.44,11.76,23.1,8.92,36.3,9.47
425,2.12, 2017/11/15 10:15:21.739上午,18.2,4.81,851,47.89,8.12,38.36,11.89,23.12,8.99,36.24,9.53
426,2.125, 2017/11/15 10:15:21.744上午,18.08,4.78,875,47.84,8.13,38.47,11.76,23.16,9.03,36.27,9.52
427,2.13, 2017/11/15 10:15:21.749上午,18.03,4.76,862,47.88,8.12,38.46,11.7,23.15,8.96,36.01,9.46
428,2.135, 2017/11/15 10:15:21.754上午,18.02,4.79,875,47.9,8.11,38.34,11.71,23.09,9.04,36.06,9.53
429,2.14, 2017/11/15 10:15:21.759上午,18.04,4.75,862,47.89,8.11,38.52,11.55,23.14,9.08,36.1,9.45
430,2.145, 2017/11/15 10:15:21.764上午,18.12,4.82,870,47.94,8.19,38.35,11.92,23.26,9.01,36.06,9.55
431,2.15, 2017/11/15 10:15:21.769上午,18.25,4.83,858,47.94,8.2,38.37,11.89,23.18,9.08,36.34,9.58
432,2.155, 2017/11/15 10:15:21.774上午,18.31,4.81,857,47.85,8.14,38.44,11.81,23.15,9.04,36.44,9.53
433,2.16, 2017/11/15 10:15:21.779上午,18.1,4.75,861,47.87,8.1,38.33,11.78,23.15,8.92,36.14,9.43
434,2.165, 2017/11/15 10:15:21.784上午,18.2,4.83,846,47.84,8.1,38.23,11.98,23.16,9.09,36.23,9.57
435,2.17, 2017/11/15 10:15:21.789上午,18.13,4.73,866,47.86,8.1,38.66,11.44,23.2,9.01,36.18,9.4
436,2.175, 2017/11/15 10:15:21.794上午,18.22,4.78,849,47.89,8.11,38.51,11.62,23.13,9.06,36.26,9.47
437,2.18, 2017/11/15 10:15:21.799上午,18.29,4.81,867,47.85,8.1,38.44,11.65,23.22,9.07,36.37,9.52
438,2.185, 2017/11/15 10:15:21.804上午,18.14,4.79,853,48.02,8.05,38.39,11.78,23.4,9.02,36.07,9.49
439,2.19, 2017/11/15 10:15:21.809上午,18.29,4.84,852,47.96,8.21,38.33,11.92,23.14,9.09,36.4,9.6
440,2.195, 2017/11/15 10:15:21.814上午,18.19,4.81,863,47.93,8.14,38.41,11.88,23.07,8.98,36.21,9.54
441,2.2, 2017/11/15 10:15:21.819上午,18.23,4.81,854,47.91,8.19,38.31,11.93,23.13,8.99,36.28,9.54
442,2.205, 2017/11/15 10:15:21.824上午,18.16,4.79,862,47.88,8.13,38.39,11.84,23.24,9.05,36.45,9.53
443,2.21, 2017/11/15 10:15:21.829上午,18.16,4.79,859,47.9,8.13,38.41,11.82,23.22,9.05,36.45,9.55
444,2.215, 2017/11/15 10:15:21.834上午,18.12,4.79,853,47.93,8.16,38.18,11.9,23.18,8.97,36.2,9.52
445,2.22, 2017/11/15 10:15:21.839上午,18.11,4.78,873,47.87,8.11,38.35,11.7,23.22,9.06,36.13,9.49
446,2.225, 2017/11/15 10:15:21.844上午,18.08,4.75,881,47.83,8.12,38.47,11.66,23.15,8.93,36.26,9.47
447,2.23, 2017/11/15 10:15:21.849上午,18.22,4.82,852,47.98,8.14,38.34,11.91,23.14,9.04,36.23,9.55
448,2.235, 2017/11/15 10:15:21.854上午,18.22,4.82,855,47.93,8.16,38.37,11.91,23.28,9.01,36.27,9.55
449,2.24, 2017/11/15 10:15:21.859上午,18.25,4.82,850,47.94,8.14,38.35,11.91,23.22,9.05,36.42,9.57
450,2.245, 2017/11/15 10:15:21.864上午,18.14,4.79,856,47.9,8.12,38.36,11.81,23.2,8.98,36.21,9.5
451,2.25, 2017/11/15 10:15:21.869上午,18.08,4.8,859,47.96,8.15,38.3,11.79,23.14,9.09,36.16,9.55
452,2.255, 2017/11/15 10:15:21.874上午,18.21,4.79,868,47.88,8.1,38.44,11.68,23.12,9.02,36.34,9.51
453,2.26, 2017/11/15 10:15:21.879上午,18.12,4.81,866,47.94,8.18,38.36,11.91,23.18,9.04,36.16,9.56
454,2.265, 2017/11/15 10:15:21.884上午,18.25,4.81,862,47.87,8.13,38.43,11.81,23.12,9.02,36.33,9.53
455,2.27, 2017/11/15 10:15:21.889上午,18.08,4.82,861,47.92,8.17,38.13,11.97,23.11,8.95,35.98,9.54
456,2.275, 2017/11/15 10:15:21.894上午,18.2,4.81,842,47.9,8.16,38.19,11.89,23.24,9,36.22,9.52
457,2.28, 2017/11/15 10:15:21.899上午,18.16,4.75,859,47.85,8.11,38.37,11.78,23.2,8.87,36.27,9.43
458,2.285, 2017/11/15 10:15:21.904上午,18.15,4.78,853,47.89,8.12,38.3,11.9,23.19,8.89,36.22,9.5
459,2.29, 2017/11/15 10:15:21.909上午,18.16,4.8,857,47.91,8.13,38.35,11.85,23.15,8.98,36.15,9.5
460,2.295, 2017/11/15 10:15:21.914上午,18.23,4.75,850,47.94,8.15,38.64,11.41,23.25,9.04,36.25,9.4
461,2.3, 2017/11/15 10:15:21.919上午,18.27,4.77,854,47.9,8.19,38.6,11.5,23.26,9.06,36.34,9.45
462,2.305, 2017/11/15 10:15:21.924上午,18.14,4.82,862,47.92,8.15,38.32,11.91,23.4,9.03,36.1,9.54
463,2.31, 2017/11/15 10:15:21.929上午,18.21,4.77,848,47.93,8.15,38.43,11.66,23.26,9.01,36.24,9.44
464,2.315, 2017/11/15 10:15:21.934上午,18.22,4.81,863,47.93,8.14,38.41,11.78,23.19,9.05,36.27,9.53
465,2.32, 2017/11/15 10:15:21.939上午,18.1,4.78,867,47.95,8.14,38.31,11.93,23.17,8.95,36.3,9.52
466,2.325, 2017/11/15 10:15:21.944上午,18.06,4.77,858,47.9,8.17,38.25,11.85,23.19,8.96,36.24,9.5
467,2.33, 2017/11/15 10:15:21.949上午,18.23,4.75,854,47.89,8.13,38.52,11.59,23.21,8.92,36.28,9.41
468,2.335, 2017/11/15 10:15:21.954上午,18.09,4.79,863,47.95,8.15,38.48,11.62,23.16,9.07,36.16,9.51
469,2.34, 2017/11/15 10:15:21.959上午,18.24,4.82,853,47.95,8.15,38.34,11.8,23.17,9.01,36.27,9.56
470,2.345, 2017/11/15 10:15:21.964上午,18.16,4.81,871,47.95,8.21,38.35,11.9,23.34,8.99,36.14,9.54
471,2.35, 2017/11/15 10:15:21.969上午,18.07,4.79,870,47.95,8.18,38.3,11.99,23.15,8.98,36.27,9.54
472,2.355, 2017/11/15 10:15:21.974上午,18.11,4.79,879,47.93,8.12,38.28,11.93,23.15,8.94,36.34,9.54
473,2.36, 2017/11/15 10:15:21.979上午,18.1,4.75,859,47.92,8.1,38.49,11.67,23.16,8.96,36.23,9.44
474,2.365, 2017/11/15 10:15:21.984上午,18.24,4.8,861,47.95,8.15,38.48,11.62,23.16,9.05,36.23,9.51
475,2.37, 2017/11/15 10:15:21.989上午,18.21,4.77,848,48.02,8.15,38.45,11.53,23.12,9.08,36.2,9.45
476,2.375, 2017/11/15 10:15:21.994上午,18.23,4.81,867,47.99,8.17,38.45,11.64,23.18,9.06,36.24,9.53
477,2.38, 2017/11/15 10:15:21.999上午,18.23,4.82,861,47.95,8.16,38.37,11.84,23.33,9.02,36.24,9.55
478,2.385, 2017/11/15 10:15:22.004上午,18.23,4.82,859,47.93,8.21,38.45,11.85,23.19,9.06,36.28,9.55
479,2.39, 2017/11/15 10:15:22.009上午,18.23,4.83,860,47.94,8.2,38.33,11.93,23.11,9.06,36.27,9.58
480,2.395, 2017/11/15 10:15:22.014上午,18.17,4.8,861,47.91,8.12,38.41,11.87,23.2,9.05,36.49,9.56
481,2.4, 2017/11/15 10:15:22.019上午,18.09,4.74,869,47.88,8.11,38.26,11.81,23.24,8.9,36.32,9.45
482,2.405, 2017/11/15 10:15:22.024上午,18.16,4.78,866,47.87,8.13,38.2,11.86,23.16,8.92,36.23,9.49
483,2.41, 2017/11/15 10:15:22.029上午,18.25,4.81,856,47.96,8.14,38.44,11.65,23.13,9.06,36.28,9.52
484,2.415, 2017/11/15 10:15:22.034上午,18.3,4.76,848,47.96,8.15,38.68,11.4,23.1,9.06,36.36,9.42
485,2.42, 2017/11/15 10:15:22.039上午,18.36,4.8,862,47.9,8.18,38.58,11.55,23.14,9.12,36.51,9.51
486,2.425, 2017/11/15 10:15:22.044上午,18.32,4.83,866,47.96,8.2,38.37,11.69,23.26,9.09,36.42,9.56
487,2.43, 2017/11/15 10:15:22.049上午,18.3,4.81,860,47.88,8.11,38.38,11.79,23.21,9.11,36.42,9.54
488,2.435, 2017/11/15 10:15:22.054上午,18.09,4.74,884,47.85,8.11,38.4,11.69,23.21,8.88,36.3,9.43
489,2.44, 2017/11/15 10:15:22.059上午,18.2,4.78,875,47.89,8.1,38.38,11.74,23.17,8.97,36.31,9.48
490,2.445, 2017/11/15 10:15:22.064上午,18.37,4.81,862,47.91,8.12,38.39,11.72,23.17,9.02,36.53,9.52
491,2.45, 2017/11/15 10:15:22.069上午,18.28,4.81,876,47.91,8.11,38.42,11.75,23.18,9.06,36.37,9.53
492,2.455, 2017/11/15 10:15:22.074上午,18.25,4.83,862,47.94,8.2,38.35,11.86,23.13,9.08,36.31,9.57
493,2.46, 2017/11/15 10:15:22.079上午,18.36,4.82,855,47.85,8.14,38.29,11.85,23.22,9.05,36.53,9.55
494,2.465, 2017/11/15 10:15:22.084上午,18.12,4.81,860,47.97,8.16,38.15,12.01,23.22,8.92,36.15,9.54
495,2.47, 2017/11/15 10:15:22.089上午,18.1,4.75,865,47.9,8.11,38.5,11.63,23.23,9,36.12,9.44
496,2.475, 2017/11/15 10:15:22.094上午,18.29,4.75,855,47.98,8.15,38.71,11.41,23.14,9.02,36.39,9.41
497,2.48, 2017/11/15 10:15:22.099上午,18.43,4.8,856,47.94,8.2,38.56,11.55,23.24,9.05,36.62,9.51
498,2.485, 2017/11/15 10:15:22.104上午,18.29,4.8,870,47.96,8.24,38.43,11.65,23.22,9.07,36.36,9.51
499,2.49, 2017/11/15 10:15:22.109上午,18.27,4.78,865,47.93,8.12,38.53,11.64,23.18,9.06,36.36,9.47
500,2.495, 2017/11/15 10:15:22.114上午,18.26,4.76,859,47.96,8.19,38.45,11.61,23.3,9,36.34,9.43
501,2.5, 2017/11/15 10:15:22.119上午,18.29,4.83,862,47.93,8.2,38.38,11.89,23.24,9.09,36.39,9.58
502,2.505, 2017/11/15 10:15:22.124上午,18.27,4.82,872,47.97,8.18,38.39,11.84,23.08,9.03,36.35,9.55
503,2.51, 2017/11/15 10:15:22.129上午,18.34,4.82,870,47.97,8.17,38.39,11.82,23.13,9.02,36.5,9.54
504,2.515, 2017/11/15 10:15:22.134上午,18.15,4.76,867,47.95,8.14,38.34,11.82,23.24,8.91,36.41,9.48
505,2.52, 2017/11/15 10:15:22.139上午,18.19,4.78,885,47.88,8.12,38.28,11.8,23.2,8.87,36.31,9.48
506,2.525, 2017/11/15 10:15:22.144上午,18.18,4.79,883,47.86,8.12,38.33,11.87,23.26,9,36.29,9.52
507,2.53, 2017/11/15 10:15:22.149上午,18.3,4.78,859,47.94,8.16,38.48,11.66,23.18,9,36.51,9.49
508,2.535, 2017/11/15 10:15:22.154上午,18.29,4.79,876,47.93,8.16,38.49,11.64,23.23,9,36.38,9.49
509,2.54, 2017/11/15 10:15:22.159上午,18.42,4.8,873,47.92,8.24,38.59,11.53,23.28,9.06,36.64,9.5
510,2.545, 2017/11/15 10:15:22.164上午,18.3,4.82,880,47.87,8.13,38.42,11.75,23.07,9.07,36.41,9.55
511,2.55, 2017/11/15 10:15:22.169上午,18.31,4.78,866,47.89,8.11,38.36,11.83,23.23,8.92,36.47,9.47
512,2.555, 2017/11/15 10:15:22.174上午,18.33,4.8,862,47.9,8.11,38.33,11.85,23.16,9.03,36.5,9.52
513,2.56, 2017/11/15 10:15:22.179上午,18.36,4.79,847,47.94,8.11,38.52,11.74,23.22,9.01,36.55,9.48
514,2.565, 2017/11/15 10:15:22.184上午,18.39,4.76,854,47.96,8.22,38.68,11.4,23.15,9.02,36.53,9.43
515,2.57, 2017/11/15 10:15:22.189上午,18.37,4.81,879,47.93,8.18,38.47,11.61,23.16,9.06,36.48,9.53
516,2.575, 2017/11/15 10:15:22.194上午,18.3,4.81,875,47.96,8.19,38.42,11.7,23.15,9.05,36.38,9.53
517,2.58, 2017/11/15 10:15:22.199上午,18.34,4.81,856,47.93,8.19,38.49,11.84,23.29,9.06,36.49,9.53
518,2.585, 2017/11/15 10:15:22.204上午,18.44,4.81,864,47.88,8.15,38.46,11.75,23.21,9.04,36.7,9.53
519,2.59, 2017/11/15 10:15:22.209上午,18.34,4.78,863,47.9,8.1,38.42,11.83,23.2,8.95,36.49,9.47
520,2.595, 2017/11/15 10:15:22.214上午,18.3,4.79,866,47.91,8.11,38.5,11.64,23.15,9.04,36.41,9.49
521,2.6, 2017/11/15 10:15:22.219上午,18.35,4.77,858,47.89,8.13,38.57,11.54,23.13,9,36.46,9.45
522,2.605, 2017/11/15 10:15:22.224上午,18.4,4.78,848,47.95,8.26,38.59,11.47,23.17,9.06,36.59,9.46
523,2.61, 2017/11/15 10:15:22.229上午,18.46,4.81,871,47.96,8.18,38.48,11.56,23.18,9.07,36.69,9.52
524,2.615, 2017/11/15 10:15:22.234上午,18.35,4.78,870,47.93,8.17,38.53,11.64,23.21,9.03,36.47,9.47
525,2.62, 2017/11/15 10:15:22.239上午,18.34,4.78,855,47.96,8.19,38.48,11.64,23.19,9.08,36.51,9.48
526,2.625, 2017/11/15 10:15:22.244上午,18.35,4.84,857,47.94,8.19,38.34,11.93,23.15,9.11,36.52,9.59
527,2.63, 2017/11/15 10:15:22.249上午,18.18,4.79,881,47.88,8.11,38.32,11.73,23.18,9.05,36.46,9.53
528,2.635, 2017/11/15 10:15:22.254上午,18.26,4.79,889,47.88,8.1,38.34,11.78,23.18,8.91,36.42,9.51
529,2.64, 2017/11/15 10:15:22.259上午,18.25,4.76,876,47.88,8.15,38.49,11.58,23.26,8.98,36.31,9.43
530,2.645, 2017/11/15 10:15:22.264上午,18.43,4.81,881,47.93,8.18,38.5,11.6,23.18,9.03,36.64,9.53
531,2.65, 2017/11/15 10:15:22.269上午,18.32,4.81,878,47.95,8.14,38.49,11.57,23.29,9.08,36.42,9.52
532,2.655, 2017/11/15 10:15:22.274上午,18.34,4.84,873,47.92,8.18,38.34,11.91,23.25,9.06,36.49,9.58
533,2.66, 2017/11/15 10:15:22.279上午,18.41,4.83,867,47.88,8.13,38.33,11.86,23.22,9.09,36.63,9.56
534,2.665, 2017/11/15 10:15:22.284上午,18.22,4.8,872,47.88,8.13,38.28,11.87,23.23,8.99,36.25,9.5
535,2.67, 2017/11/15 10:15:22.289上午,18.6,4.82,848,47.97,8.17,38.5,11.66,23.15,9.05,36.61,9.49
536,2.675, 2017/11/15 10:15:22.294上午,18.42,4.7,858,48.11,8.15,38.67,11.23,23.13,9.06,36.7,9.31
537,2.68, 2017/11/15 10:15:22.299上午,18.44,4.77,882,48.05,8.2,38.56,11.57,23.19,9.02,36.87,9.48
538,2.685, 2017/11/15 10:15:22.304上午,18.4,4.83,891,47.95,8.23,38.46,11.66,23.19,9.09,36.57,9.56
539,2.69, 2017/11/15 10:15:22.309上午,18.31,4.78,881,47.94,8.19,38.48,11.59,23.16,8.96,36.47,9.47
540,2.695, 2017/11/15 10:15:22.314上午,18.34,4.79,874,47.95,8.17,38.4,11.61,23.23,9.07,36.53,9.5
541,2.7, 2017/11/15 10:15:22.319上午,18.54,4.83,882,48.05,8.22,38.32,11.81,23.19,9.08,36.93,9.57
542,2.705, 2017/11/15 10:15:22.324上午,18.43,4.81,876,47.93,8.16,38.43,11.85,23.13,9.02,36.7,9.54
543,2.71, 2017/11/15 10:15:22.329上午,18.51,4.82,869,48.09,8.2,38.39,11.81,23.22,9.08,36.86,9.56
544,2.715, 2017/11/15 10:15:22.334上午,18.39,4.81,868,47.86,8.14,38.3,11.88,23.23,8.99,36.66,9.53
545,2.72, 2017/11/15 10:15:22.339上午,18.22,4.78,862,47.96,8.17,38.2,11.96,23.21,8.85,36.39,9.5
546,2.725, 2017/11/15 10:15:22.344上午,18.24,4.79,887,48.02,8.17,38.32,11.85,23.14,9.02,36.62,9.53
547,2.73, 2017/11/15 10:15:22.349上午,18.55,4.8,888,48.19,8.18,38.42,11.67,23.15,9.07,36.91,9.51
548,2.735, 2017/11/15 10:15:22.354上午,18.51,4.8,872,48.05,8.29,38.5,11.65,23.2,9.03,36.84,9.51
549,2.74, 2017/11/15 10:15:22.359上午,18.52,4.82,882,48.05,8.21,38.44,11.65,23.17,9.02,36.86,9.54
550,2.745, 2017/11/15 10:15:22.364上午,18.53,4.84,873,48.07,8.22,38.42,11.94,23.19,9.08,36.92,9.6
551,2.75, 2017/11/15 10:15:22.369上午,18.59,4.83,887,48.01,8.21,38.47,11.79,23.22,9.07,37.03,9.57
552,2.755, 2017/11/15 10:15:22.374上午,18.41,4.85,871,48.09,8.23,38.18,12.09,23.16,9.04,36.68,9.62
553,2.76, 2017/11/15 10:15:22.379上午,18.47,4.77,869,48.08,8.26,38.56,11.6,23.14,9.05,36.79,9.45
554,2.765, 2017/11/15 10:15:22.384上午,18.53,4.79,873,48.03,8.19,38.57,11.58,23.16,9.03,36.86,9.48
555,2.77, 2017/11/15 10:15:22.389上午,18.44,4.77,879,47.92,8.24,38.62,11.51,23.18,9.02,36.85,9.47
556,2.775, 2017/11/15 10:15:22.394上午,18.48,4.81,882,48.04,8.22,38.42,11.65,23.27,9.06,36.76,9.52
557,2.78, 2017/11/15 10:15:22.399上午,18.57,4.81,875,48.03,8.21,38.44,11.66,23.2,9.04,36.95,9.54
558,2.785, 2017/11/15 10:15:22.404上午,18.53,4.86,877,48.08,8.24,38.31,11.97,23.19,9.09,36.88,9.62
559,2.79, 2017/11/15 10:15:22.409上午,18.5,4.82,881,48.08,8.23,38.36,11.83,23.07,9,36.81,9.55
560,2.795, 2017/11/15 10:15:22.414上午,18.59,4.86,883,48.15,8.3,38.34,12.04,23.12,9.05,37.01,9.64
561,2.8, 2017/11/15 10:15:22.419上午,18.38,4.81,889,48.12,8.23,38.38,11.87,23.14,9.02,36.89,9.57
562,2.805, 2017/11/15 10:15:22.424上午,18.44,4.85,889,48.11,8.19,38.25,11.98,23.2,9.17,36.71,9.62
563,2.81, 2017/11/15 10:15:22.429上午,18.57,4.82,887,48.04,8.28,38.36,11.73,23.14,9.08,36.92,9.55
564,2.815, 2017/11/15 10:15:22.434上午,18.62,4.79,882,48.13,8.23,38.55,11.59,23.2,9.04,37.05,9.48
565,2.82, 2017/11/15 10:15:22.439上午,18.53,4.79,899,48.07,8.3,38.52,11.57,23.34,9.01,36.86,9.48
566,2.825, 2017/11/15 10:15:22.444上午,18.61,4.82,881,48.1,8.25,38.5,11.69,23.19,9.06,37.04,9.56
567,2.83, 2017/11/15 10:15:22.449上午,18.48,4.8,872,48.04,8.17,38.29,11.76,23.12,8.97,36.78,9.51
568,2.835, 2017/11/15 10:15:22.454上午,18.47,4.81,872,48.05,8.18,38.36,11.76,23.11,9.08,36.78,9.54
569,2.84, 2017/11/15 10:15:22.459上午,18.48,4.8,878,48.1,8.19,38.5,11.58,23.17,9.15,36.77,9.51
570,2.845, 2017/11/15 10:15:22.464上午,18.65,4.8,883,48.11,8.25,38.6,11.6,23.23,9.03,37.12,9.51
571,2.85, 2017/11/15 10:15:22.469上午,18.56,4.75,871,48.15,8.26,38.61,11.5,23.17,9.08,36.97,9.42
572,2.855, 2017/11/15 10:15:22.474上午,18.65,4.84,880,48.17,8.22,38.4,11.93,23.19,9.04,37.11,9.59
573,2.86, 2017/11/15 10:15:22.479上午,18.51,4.79,893,48.09,8.23,38.27,11.82,23.22,8.89,36.94,9.51
574,2.865, 2017/11/15 10:15:22.484上午,18.47,4.81,882,48.15,8.19,38.48,11.6,23.14,9.09,36.76,9.53
575,2.87, 2017/11/15 10:15:22.489上午,18.58,4.83,899,48.14,8.28,38.57,11.56,23.14,9.23,36.96,9.56
576,2.875, 2017/11/15 10:15:22.494上午,18.58,4.79,885,48.05,8.24,38.56,11.57,23.11,9.08,36.99,9.5
577,2.88, 2017/11/15 10:15:22.499上午,18.64,4.82,900,48.03,8.26,38.66,11.58,23.17,9.1,37.07,9.54
578,2.885, 2017/11/15 10:15:22.504上午,18.63,4.82,903,48.08,8.28,38.52,11.58,23.23,9.08,37.01,9.54
579,2.89, 2017/11/15 10:15:22.509上午,18.56,4.82,895,48.08,8.25,38.42,11.71,23.24,9.08,36.95,9.55
580,2.895, 2017/11/15 10:15:22.514上午,18.54,4.78,879,48.09,8.2,38.49,11.76,23.09,9,36.91,9.48
581,2.9, 2017/11/15 10:15:22.519上午,18.57,4.83,885,48.05,8.28,38.51,11.77,23.12,9.05,36.96,9.58
582,2.905, 2017/11/15 10:15:22.524上午,18.5,4.83,889,48.08,8.2,38.36,11.84,23.17,9.08,36.82,9.58
583,2.91, 2017/11/15 10:15:22.529上午,18.51,4.83,891,48.04,8.15,38.25,11.79,23.14,9.05,36.86,9.57
584,2.915, 2017/11/15 10:15:22.534上午,18.57,4.82,887,48.04,8.24,38.38,11.69,23.14,9.06,36.95,9.55
585,2.92, 2017/11/15 10:15:22.539上午,18.6,4.85,904,48.1,8.38,38.39,11.66,23.23,9.15,36.99,9.61
586,2.925, 2017/11/15 10:15:22.544上午,18.64,4.81,892,47.97,8.36,38.56,11.58,23.12,9.06,37.06,9.53
587,2.93, 2017/11/15 10:15:22.549上午,18.52,4.84,882,48.1,8.2,38.28,11.97,23.17,9.05,36.81,9.58
588,2.935, 2017/11/15 10:15:22.554上午,18.5,4.84,890,48.16,8.26,38.41,11.87,23.09,9.02,36.92,9.6
589,2.94, 2017/11/15 10:15:22.559上午,18.5,4.82,895,48.15,8.3,38.38,11.89,23.15,8.94,36.91,9.56
590,2.945, 2017/11/15 10:15:22.564上午,18.6,4.81,894,48.11,8.28,38.56,11.54,23.21,9.17,37.03,9.52
591,2.95, 2017/11/15 10:15:22.569上午,18.7,4.8,894,48.1,8.28,38.67,11.55,23.23,9.04,37.17,9.49
592,2.955, 2017/11/15 10:15:22.574上午,18.78,4.83,872,48.15,8.24,38.55,11.65,23.23,9.08,36.97,9.51
593,2.96, 2017/11/15 10:15:22.579上午,18.79,4.87,881,48.14,8.28,38.38,11.86,23.18,9.08,36.99,9.59
594,2.965, 2017/11/15 10:15:22.584上午,18.57,4.84,889,48.06,8.2,38.35,11.82,23.19,9.02,36.98,9.58
595,2.97, 2017/11/15 10:15:22.589上午,18.48,4.84,881,48.08,8.19,38.29,11.95,23.16,9.09,36.81,9.59
596,2.975, 2017/11/15 10:15:22.594上午,18.55,4.78,907,48.2,8.13,38.37,11.7,23.18,9.1,36.93,9.48
597,2.98, 2017/11/15 10:15:22.599上午,18.6,4.79,878,48.08,8.24,38.56,11.57,23.22,9,37.02,9.49
598,2.985, 2017/11/15 10:15:22.604上午,18.68,4.79,882,48.04,8.22,38.57,11.52,23.19,9.08,37.12,9.48
599,2.99, 2017/11/15 10:15:22.609上午,18.6,4.8,892,48.07,8.29,38.55,11.56,23.23,9.07,36.98,9.5
600,2.995, 2017/11/15 10:15:22.614上午,18.61,4.79,878,48.16,8.19,38.48,11.75,23.19,9.07,37.05,9.49
@@,,,,,,,,,,,,,
