DATA_TYPE Graph
VERSION Tekscan Pressure Measurement System 6.70-03
HARDWARE 00114-3447
MAP_VERSION 6.5
HW_TYPE 4
VersaPogoFsx 0
檔案名 C:\Users\asus\Desktop\工研院_計畫\收案資料\Subject02\Plantar Pressure\R65_STAND_RIGHT_3.fsx
SENSOR_TYPE FSCAN
ROWS 60
COLS 21
ROW_SPACING 0.508 centimeters
COL_SPACING 0.508 centimeters
SENSEL_AREA 0.258064 cm2
NOISE_THRESHOLD 3
SECONDS_PER_FRAME 0.005
SECONDS_PER_FRAME 0
MICRO_SECOND 0
TIME 2017/11/15 10:51:13.349上午
SATURATION_PRESSURE 2347.96 KPa 
CALIBRATION_POINT_1 48.0001 (Kilograms) 1981 (Raw Sum) 199 (Number of Loaded Cells)
CALIBRATION_MODE_1 步態
CALIBRATION_INFO C:\Users\asus\Desktop\工研院_計畫\收案資料\Subject02\Plantar Pressure\R65_STAND_RIGHT_3.fsx
SENSITIVITY 自定義
MAP_INDEX 0
SUBMAP 0
Patient ID: 

Speed of Gait: 

Weight: 

Gender: 

Physician: 

Technician: 

Shoe: 

START_FRAME 1
END_FRAME 600
UNITS KPa
ASCII_DATA @@
畫面(X), 時間(X), 絕對時間(X), Raw Sum, 壓力(Y:藍色), 壓力(Y), 壓力(Y), 壓力(Y)
1, 0, 2017/11/15 10:51:13.349上午, 606.0, 44, 31, 33, 38
2, 0.005, 2017/11/15 10:51:13.354上午, 635.0, 45, 32, 33, 38
3, 0.01, 2017/11/15 10:51:13.359上午, 626.0, 44, 32, 32, 38
4, 0.015, 2017/11/15 10:51:13.364上午, 631.0, 44, 30, 32, 38
5, 0.02, 2017/11/15 10:51:13.369上午, 617.0, 44, 31, 33, 38
6, 0.025, 2017/11/15 10:51:13.374上午, 635.0, 45, 31, 33, 39
7, 0.03, 2017/11/15 10:51:13.379上午, 627.0, 44, 32, 33, 39
8, 0.035, 2017/11/15 10:51:13.384上午, 639.0, 44, 31, 33, 38
9, 0.04, 2017/11/15 10:51:13.389上午, 623.0, 44, 33, 33, 38
10, 0.045, 2017/11/15 10:51:13.394上午, 627.0, 44, 33, 33, 38
11, 0.05, 2017/11/15 10:51:13.399上午, 652.0, 44, 32, 33, 38
12, 0.055, 2017/11/15 10:51:13.404上午, 628.0, 45, 32, 33, 39
13, 0.06, 2017/11/15 10:51:13.409上午, 633.0, 44, 31, 33, 38
14, 0.065, 2017/11/15 10:51:13.414上午, 624.0, 44, 33, 33, 38
15, 0.07, 2017/11/15 10:51:13.419上午, 628.0, 45, 32, 33, 39
16, 0.075, 2017/11/15 10:51:13.424上午, 633.0, 45, 32, 33, 39
17, 0.08, 2017/11/15 10:51:13.429上午, 625.0, 44, 30, 33, 38
18, 0.085, 2017/11/15 10:51:13.434上午, 621.0, 45, 32, 33, 39
19, 0.09, 2017/11/15 10:51:13.439上午, 634.0, 45, 32, 33, 39
20, 0.095, 2017/11/15 10:51:13.444上午, 637.0, 45, 32, 34, 39
21, 0.1, 2017/11/15 10:51:13.449上午, 630.0, 45, 32, 32, 38
22, 0.105, 2017/11/15 10:51:13.454上午, 637.0, 45, 33, 32, 39
23, 0.11, 2017/11/15 10:51:13.459上午, 645.0, 45, 33, 33, 39
24, 0.115, 2017/11/15 10:51:13.464上午, 639.0, 45, 32, 34, 39
25, 0.12, 2017/11/15 10:51:13.469上午, 613.0, 45, 31, 32, 38
26, 0.125, 2017/11/15 10:51:13.474上午, 647.0, 44, 32, 33, 38
27, 0.13, 2017/11/15 10:51:13.479上午, 655.0, 45, 33, 34, 39
28, 0.135, 2017/11/15 10:51:13.484上午, 645.0, 45, 31, 34, 39
29, 0.14, 2017/11/15 10:51:13.489上午, 631.0, 44, 32, 32, 38
30, 0.145, 2017/11/15 10:51:13.494上午, 635.0, 44, 31, 33, 38
31, 0.15, 2017/11/15 10:51:13.499上午, 652.0, 45, 32, 33, 39
32, 0.155, 2017/11/15 10:51:13.504上午, 643.0, 45, 32, 34, 39
33, 0.16, 2017/11/15 10:51:13.509上午, 641.0, 45, 31, 33, 39
34, 0.165, 2017/11/15 10:51:13.514上午, 627.0, 45, 32, 32, 38
35, 0.17, 2017/11/15 10:51:13.519上午, 632.0, 45, 32, 32, 39
36, 0.175, 2017/11/15 10:51:13.524上午, 601.0, 44, 33, 32, 39
37, 0.18, 2017/11/15 10:51:13.529上午, 640.0, 44, 33, 33, 38
38, 0.185, 2017/11/15 10:51:13.534上午, 636.0, 45, 31, 34, 39
39, 0.19, 2017/11/15 10:51:13.539上午, 634.0, 44, 32, 32, 38
40, 0.195, 2017/11/15 10:51:13.544上午, 642.0, 45, 31, 33, 38
41, 0.2, 2017/11/15 10:51:13.549上午, 651.0, 45, 33, 33, 39
42, 0.205, 2017/11/15 10:51:13.554上午, 646.0, 45, 32, 33, 39
43, 0.21, 2017/11/15 10:51:13.559上午, 641.0, 43, 32, 33, 38
44, 0.215, 2017/11/15 10:51:13.564上午, 619.0, 44, 32, 32, 38
45, 0.22, 2017/11/15 10:51:13.569上午, 657.0, 45, 33, 33, 39
46, 0.225, 2017/11/15 10:51:13.574上午, 653.0, 46, 32, 33, 39
47, 0.23, 2017/11/15 10:51:13.579上午, 642.0, 44, 32, 33, 39
48, 0.235, 2017/11/15 10:51:13.584上午, 632.0, 45, 31, 32, 38
49, 0.24, 2017/11/15 10:51:13.589上午, 640.0, 45, 34, 33, 39
50, 0.245, 2017/11/15 10:51:13.594上午, 635.0, 45, 32, 33, 39
51, 0.25, 2017/11/15 10:51:13.599上午, 648.0, 46, 32, 33, 39
52, 0.255, 2017/11/15 10:51:13.604上午, 651.0, 45, 32, 34, 39
53, 0.26, 2017/11/15 10:51:13.609上午, 639.0, 44, 31, 34, 38
54, 0.265, 2017/11/15 10:51:13.614上午, 649.0, 44, 32, 33, 38
55, 0.27, 2017/11/15 10:51:13.619上午, 629.0, 44, 33, 33, 38
56, 0.275, 2017/11/15 10:51:13.624上午, 618.0, 44, 32, 34, 38
57, 0.28, 2017/11/15 10:51:13.629上午, 642.0, 44, 31, 34, 38
58, 0.285, 2017/11/15 10:51:13.634上午, 640.0, 44, 32, 33, 38
59, 0.29, 2017/11/15 10:51:13.639上午, 640.0, 45, 31, 33, 38
60, 0.295, 2017/11/15 10:51:13.644上午, 644.0, 44, 32, 34, 39
61, 0.3, 2017/11/15 10:51:13.649上午, 657.0, 45, 32, 34, 39
62, 0.305, 2017/11/15 10:51:13.654上午, 644.0, 44, 31, 34, 38
63, 0.31, 2017/11/15 10:51:13.659上午, 621.0, 43, 31, 33, 37
64, 0.315, 2017/11/15 10:51:13.664上午, 637.0, 43, 32, 33, 38
65, 0.32, 2017/11/15 10:51:13.669上午, 639.0, 44, 33, 34, 39
66, 0.325, 2017/11/15 10:51:13.674上午, 646.0, 44, 31, 34, 38
67, 0.33, 2017/11/15 10:51:13.679上午, 637.0, 43, 31, 33, 37
68, 0.335, 2017/11/15 10:51:13.684上午, 652.0, 44, 31, 33, 38
69, 0.34, 2017/11/15 10:51:13.689上午, 633.0, 44, 32, 33, 38
70, 0.345, 2017/11/15 10:51:13.694上午, 645.0, 44, 32, 34, 38
71, 0.35, 2017/11/15 10:51:13.699上午, 646.0, 44, 32, 34, 38
72, 0.355, 2017/11/15 10:51:13.704上午, 641.0, 43, 32, 34, 38
73, 0.36, 2017/11/15 10:51:13.709上午, 625.0, 43, 32, 34, 38
74, 0.365, 2017/11/15 10:51:13.714上午, 631.0, 44, 31, 33, 38
75, 0.37, 2017/11/15 10:51:13.719上午, 616.0, 44, 33, 33, 38
76, 0.375, 2017/11/15 10:51:13.724上午, 647.0, 44, 32, 35, 38
77, 0.38, 2017/11/15 10:51:13.729上午, 627.0, 43, 32, 34, 38
78, 0.385, 2017/11/15 10:51:13.734上午, 637.0, 43, 31, 33, 37
79, 0.39, 2017/11/15 10:51:13.739上午, 636.0, 43, 32, 33, 38
80, 0.395, 2017/11/15 10:51:13.744上午, 642.0, 43, 33, 34, 38
81, 0.4, 2017/11/15 10:51:13.749上午, 647.0, 44, 32, 35, 39
82, 0.405, 2017/11/15 10:51:13.754上午, 639.0, 42, 31, 33, 37
83, 0.41, 2017/11/15 10:51:13.759上午, 654.0, 42, 33, 33, 38
84, 0.415, 2017/11/15 10:51:13.764上午, 646.0, 43, 33, 35, 39
85, 0.42, 2017/11/15 10:51:13.769上午, 646.0, 43, 32, 34, 38
86, 0.425, 2017/11/15 10:51:13.774上午, 628.0, 42, 32, 34, 38
87, 0.43, 2017/11/15 10:51:13.779上午, 630.0, 43, 32, 33, 38
88, 0.435, 2017/11/15 10:51:13.784上午, 643.0, 42, 33, 34, 38
89, 0.44, 2017/11/15 10:51:13.789上午, 635.0, 42, 32, 34, 38
90, 0.445, 2017/11/15 10:51:13.794上午, 629.0, 42, 31, 34, 37
91, 0.45, 2017/11/15 10:51:13.799上午, 651.0, 43, 31, 34, 37
92, 0.455, 2017/11/15 10:51:13.804上午, 620.0, 43, 32, 34, 38
93, 0.46, 2017/11/15 10:51:13.809上午, 637.0, 42, 32, 34, 37
94, 0.465, 2017/11/15 10:51:13.814上午, 624.0, 42, 32, 33, 37
95, 0.47, 2017/11/15 10:51:13.819上午, 644.0, 42, 32, 35, 38
96, 0.475, 2017/11/15 10:51:13.824上午, 629.0, 42, 31, 35, 38
97, 0.48, 2017/11/15 10:51:13.829上午, 615.0, 43, 32, 33, 37
98, 0.485, 2017/11/15 10:51:13.834上午, 629.0, 43, 31, 34, 37
99, 0.49, 2017/11/15 10:51:13.839上午, 636.0, 42, 32, 34, 37
100, 0.495, 2017/11/15 10:51:13.844上午, 631.0, 42, 33, 35, 38
101, 0.5, 2017/11/15 10:51:13.849上午, 624.0, 42, 32, 35, 38
102, 0.505, 2017/11/15 10:51:13.854上午, 606.0, 42, 31, 34, 37
103, 0.51, 2017/11/15 10:51:13.859上午, 603.0, 41, 33, 34, 37
104, 0.515, 2017/11/15 10:51:13.864上午, 637.0, 41, 31, 34, 37
105, 0.52, 2017/11/15 10:51:13.869上午, 616.0, 41, 31, 35, 37
106, 0.525, 2017/11/15 10:51:13.874上午, 638.0, 42, 32, 34, 37
107, 0.53, 2017/11/15 10:51:13.879上午, 622.0, 42, 31, 34, 37
108, 0.535, 2017/11/15 10:51:13.884上午, 644.0, 41, 33, 33, 37
109, 0.54, 2017/11/15 10:51:13.889上午, 626.0, 41, 31, 35, 37
110, 0.545, 2017/11/15 10:51:13.894上午, 612.0, 41, 31, 35, 37
111, 0.55, 2017/11/15 10:51:13.899上午, 632.0, 41, 32, 33, 36
112, 0.555, 2017/11/15 10:51:13.904上午, 626.0, 41, 32, 34, 37
113, 0.56, 2017/11/15 10:51:13.909上午, 635.0, 41, 33, 33, 37
114, 0.565, 2017/11/15 10:51:13.914上午, 632.0, 42, 33, 34, 37
115, 0.57, 2017/11/15 10:51:13.919上午, 632.0, 40, 32, 35, 37
116, 0.575, 2017/11/15 10:51:13.924上午, 624.0, 41, 31, 36, 37
117, 0.58, 2017/11/15 10:51:13.929上午, 613.0, 40, 31, 35, 37
118, 0.585, 2017/11/15 10:51:13.934上午, 627.0, 41, 32, 34, 37
119, 0.59, 2017/11/15 10:51:13.939上午, 628.0, 41, 33, 33, 37
120, 0.595, 2017/11/15 10:51:13.944上午, 630.0, 41, 31, 35, 37
121, 0.6, 2017/11/15 10:51:13.949上午, 627.0, 40, 31, 35, 37
122, 0.605, 2017/11/15 10:51:13.954上午, 620.0, 40, 32, 34, 37
123, 0.61, 2017/11/15 10:51:13.959上午, 632.0, 41, 32, 35, 37
124, 0.615, 2017/11/15 10:51:13.964上午, 628.0, 41, 32, 35, 37
125, 0.62, 2017/11/15 10:51:13.969上午, 626.0, 41, 31, 36, 37
126, 0.625, 2017/11/15 10:51:13.974上午, 618.0, 40, 32, 35, 37
127, 0.63, 2017/11/15 10:51:13.979上午, 627.0, 41, 32, 33, 36
128, 0.635, 2017/11/15 10:51:13.984上午, 622.0, 41, 33, 36, 38
129, 0.64, 2017/11/15 10:51:13.989上午, 636.0, 40, 33, 35, 37
130, 0.645, 2017/11/15 10:51:13.994上午, 637.0, 40, 32, 36, 37
131, 0.65, 2017/11/15 10:51:13.999上午, 633.0, 40, 31, 36, 37
132, 0.655, 2017/11/15 10:51:14.004上午, 635.0, 41, 31, 34, 37
133, 0.66, 2017/11/15 10:51:14.009上午, 602.0, 41, 32, 33, 37
134, 0.665, 2017/11/15 10:51:14.014上午, 625.0, 42, 31, 34, 37
135, 0.67, 2017/11/15 10:51:14.019上午, 619.0, 40, 32, 34, 36
136, 0.675, 2017/11/15 10:51:14.024上午, 625.0, 41, 33, 34, 37
137, 0.68, 2017/11/15 10:51:14.029上午, 626.0, 40, 31, 35, 37
138, 0.685, 2017/11/15 10:51:14.034上午, 636.0, 40, 31, 36, 37
139, 0.69, 2017/11/15 10:51:14.039上午, 638.0, 40, 32, 33, 36
140, 0.695, 2017/11/15 10:51:14.044上午, 611.0, 41, 31, 33, 36
141, 0.7, 2017/11/15 10:51:14.049上午, 594.0, 40, 32, 34, 37
142, 0.705, 2017/11/15 10:51:14.054上午, 627.0, 41, 33, 36, 38
143, 0.71, 2017/11/15 10:51:14.059上午, 623.0, 40, 32, 35, 37
144, 0.715, 2017/11/15 10:51:14.064上午, 633.0, 40, 32, 35, 37
145, 0.72, 2017/11/15 10:51:14.069上午, 628.0, 40, 31, 33, 36
146, 0.725, 2017/11/15 10:51:14.074上午, 622.0, 40, 31, 34, 36
147, 0.73, 2017/11/15 10:51:14.079上午, 631.0, 40, 32, 35, 37
148, 0.735, 2017/11/15 10:51:14.084上午, 632.0, 40, 32, 35, 37
149, 0.74, 2017/11/15 10:51:14.089上午, 636.0, 40, 31, 35, 36
150, 0.745, 2017/11/15 10:51:14.094上午, 633.0, 40, 31, 36, 37
151, 0.75, 2017/11/15 10:51:14.099上午, 641.0, 40, 31, 36, 37
152, 0.755, 2017/11/15 10:51:14.104上午, 624.0, 40, 31, 36, 37
153, 0.76, 2017/11/15 10:51:14.109上午, 607.0, 40, 31, 35, 37
154, 0.765, 2017/11/15 10:51:14.114上午, 613.0, 41, 32, 33, 37
155, 0.77, 2017/11/15 10:51:14.119上午, 628.0, 40, 32, 35, 37
156, 0.775, 2017/11/15 10:51:14.124上午, 625.0, 40, 31, 35, 36
157, 0.78, 2017/11/15 10:51:14.129上午, 622.0, 40, 31, 34, 37
158, 0.785, 2017/11/15 10:51:14.134上午, 625.0, 40, 31, 34, 36
159, 0.79, 2017/11/15 10:51:14.139上午, 627.0, 41, 31, 34, 36
160, 0.795, 2017/11/15 10:51:14.144上午, 634.0, 40, 33, 35, 37
161, 0.8, 2017/11/15 10:51:14.149上午, 623.0, 40, 31, 35, 37
162, 0.805, 2017/11/15 10:51:14.154上午, 643.0, 41, 31, 34, 37
163, 0.81, 2017/11/15 10:51:14.159上午, 629.0, 41, 31, 34, 36
164, 0.815, 2017/11/15 10:51:14.164上午, 628.0, 40, 32, 36, 37
165, 0.82, 2017/11/15 10:51:14.169上午, 651.0, 40, 31, 35, 37
166, 0.825, 2017/11/15 10:51:14.174上午, 628.0, 41, 31, 35, 37
167, 0.83, 2017/11/15 10:51:14.179上午, 637.0, 40, 31, 35, 37
168, 0.835, 2017/11/15 10:51:14.184上午, 622.0, 40, 32, 35, 37
169, 0.84, 2017/11/15 10:51:14.189上午, 610.0, 41, 33, 34, 37
170, 0.845, 2017/11/15 10:51:14.194上午, 626.0, 40, 33, 35, 37
171, 0.85, 2017/11/15 10:51:14.199上午, 634.0, 40, 32, 36, 37
172, 0.855, 2017/11/15 10:51:14.204上午, 639.0, 41, 30, 36, 37
173, 0.86, 2017/11/15 10:51:14.209上午, 635.0, 41, 32, 35, 37
174, 0.865, 2017/11/15 10:51:14.214上午, 629.0, 41, 31, 35, 37
175, 0.87, 2017/11/15 10:51:14.219上午, 630.0, 41, 31, 34, 37
176, 0.875, 2017/11/15 10:51:14.224上午, 631.0, 40, 32, 34, 37
177, 0.88, 2017/11/15 10:51:14.229上午, 636.0, 41, 33, 35, 37
178, 0.885, 2017/11/15 10:51:14.234上午, 641.0, 41, 32, 35, 37
179, 0.89, 2017/11/15 10:51:14.239上午, 636.0, 41, 30, 35, 37
180, 0.895, 2017/11/15 10:51:14.244上午, 622.0, 41, 32, 34, 37
181, 0.9, 2017/11/15 10:51:14.249上午, 634.0, 41, 33, 35, 37
182, 0.905, 2017/11/15 10:51:14.254上午, 634.0, 41, 33, 36, 38
183, 0.91, 2017/11/15 10:51:14.259上午, 637.0, 41, 31, 36, 37
184, 0.915, 2017/11/15 10:51:14.264上午, 627.0, 41, 31, 34, 37
185, 0.92, 2017/11/15 10:51:14.269上午, 640.0, 41, 31, 34, 37
186, 0.925, 2017/11/15 10:51:14.274上午, 636.0, 40, 32, 35, 37
187, 0.93, 2017/11/15 10:51:14.279上午, 650.0, 41, 33, 34, 37
188, 0.935, 2017/11/15 10:51:14.284上午, 642.0, 41, 30, 36, 37
189, 0.94, 2017/11/15 10:51:14.289上午, 646.0, 41, 31, 35, 37
190, 0.945, 2017/11/15 10:51:14.294上午, 629.0, 41, 30, 33, 36
191, 0.95, 2017/11/15 10:51:14.299上午, 641.0, 41, 31, 34, 37
192, 0.955, 2017/11/15 10:51:14.304上午, 642.0, 41, 33, 33, 37
193, 0.96, 2017/11/15 10:51:14.309上午, 643.0, 41, 33, 34, 37
194, 0.965, 2017/11/15 10:51:14.314上午, 644.0, 41, 30, 36, 37
195, 0.97, 2017/11/15 10:51:14.319上午, 644.0, 41, 31, 36, 37
196, 0.975, 2017/11/15 10:51:14.324上午, 639.0, 41, 31, 34, 37
197, 0.98, 2017/11/15 10:51:14.329上午, 649.0, 42, 33, 34, 37
198, 0.985, 2017/11/15 10:51:14.334上午, 633.0, 41, 33, 34, 37
199, 0.99, 2017/11/15 10:51:14.339上午, 635.0, 41, 31, 36, 37
200, 0.995, 2017/11/15 10:51:14.344上午, 632.0, 41, 31, 35, 37
201, 1, 2017/11/15 10:51:14.349上午, 631.0, 42, 32, 33, 37
202, 1.005, 2017/11/15 10:51:14.354上午, 631.0, 41, 32, 34, 37
203, 1.01, 2017/11/15 10:51:14.359上午, 644.0, 41, 32, 35, 37
204, 1.015, 2017/11/15 10:51:14.364上午, 629.0, 42, 31, 35, 37
205, 1.02, 2017/11/15 10:51:14.369上午, 636.0, 41, 31, 33, 37
206, 1.025, 2017/11/15 10:51:14.374上午, 633.0, 42, 32, 33, 37
207, 1.03, 2017/11/15 10:51:14.379上午, 645.0, 41, 32, 34, 37
208, 1.035, 2017/11/15 10:51:14.384上午, 653.0, 42, 30, 35, 37
209, 1.04, 2017/11/15 10:51:14.389上午, 644.0, 41, 31, 35, 37
210, 1.045, 2017/11/15 10:51:14.394上午, 625.0, 42, 31, 33, 36
211, 1.05, 2017/11/15 10:51:14.399上午, 646.0, 42, 31, 33, 37
212, 1.055, 2017/11/15 10:51:14.404上午, 633.0, 42, 34, 34, 38
213, 1.06, 2017/11/15 10:51:14.409上午, 626.0, 41, 33, 35, 37
214, 1.065, 2017/11/15 10:51:14.414上午, 646.0, 41, 33, 35, 37
215, 1.07, 2017/11/15 10:51:14.419上午, 652.0, 41, 32, 35, 37
216, 1.075, 2017/11/15 10:51:14.424上午, 649.0, 41, 31, 36, 38
217, 1.08, 2017/11/15 10:51:14.429上午, 632.0, 42, 31, 35, 37
218, 1.085, 2017/11/15 10:51:14.434上午, 649.0, 41, 31, 34, 37
219, 1.09, 2017/11/15 10:51:14.439上午, 615.0, 41, 31, 33, 37
220, 1.095, 2017/11/15 10:51:14.444上午, 626.0, 42, 33, 35, 38
221, 1.1, 2017/11/15 10:51:14.449上午, 645.0, 42, 32, 34, 37
222, 1.105, 2017/11/15 10:51:14.454上午, 649.0, 42, 31, 35, 38
223, 1.11, 2017/11/15 10:51:14.459上午, 642.0, 42, 31, 34, 37
224, 1.115, 2017/11/15 10:51:14.464上午, 650.0, 42, 31, 34, 37
225, 1.12, 2017/11/15 10:51:14.469上午, 639.0, 41, 31, 34, 37
226, 1.125, 2017/11/15 10:51:14.474上午, 619.0, 42, 32, 33, 37
227, 1.13, 2017/11/15 10:51:14.479上午, 638.0, 42, 32, 34, 37
228, 1.135, 2017/11/15 10:51:14.484上午, 637.0, 42, 32, 36, 38
229, 1.14, 2017/11/15 10:51:14.489上午, 641.0, 42, 32, 35, 38
230, 1.145, 2017/11/15 10:51:14.494上午, 654.0, 41, 31, 34, 37
231, 1.15, 2017/11/15 10:51:14.499上午, 650.0, 41, 31, 34, 37
232, 1.155, 2017/11/15 10:51:14.504上午, 640.0, 41, 30, 35, 37
233, 1.16, 2017/11/15 10:51:14.509上午, 639.0, 41, 30, 34, 37
234, 1.165, 2017/11/15 10:51:14.514上午, 649.0, 42, 31, 33, 37
235, 1.17, 2017/11/15 10:51:14.519上午, 633.0, 42, 31, 33, 37
236, 1.175, 2017/11/15 10:51:14.524上午, 634.0, 41, 32, 33, 37
237, 1.18, 2017/11/15 10:51:14.529上午, 663.0, 42, 31, 34, 37
238, 1.185, 2017/11/15 10:51:14.534上午, 647.0, 42, 31, 36, 38
239, 1.19, 2017/11/15 10:51:14.539上午, 624.0, 42, 31, 35, 38
240, 1.195, 2017/11/15 10:51:14.544上午, 622.0, 42, 31, 33, 37
241, 1.2, 2017/11/15 10:51:14.549上午, 641.0, 42, 31, 33, 37
242, 1.205, 2017/11/15 10:51:14.554上午, 641.0, 42, 32, 35, 38
243, 1.21, 2017/11/15 10:51:14.559上午, 637.0, 42, 32, 34, 38
244, 1.215, 2017/11/15 10:51:14.564上午, 635.0, 42, 31, 34, 37
245, 1.22, 2017/11/15 10:51:14.569上午, 644.0, 42, 31, 34, 37
246, 1.225, 2017/11/15 10:51:14.574上午, 650.0, 42, 31, 33, 37
247, 1.23, 2017/11/15 10:51:14.579上午, 643.0, 42, 33, 34, 37
248, 1.235, 2017/11/15 10:51:14.584上午, 647.0, 42, 32, 34, 37
249, 1.24, 2017/11/15 10:51:14.589上午, 650.0, 43, 32, 35, 38
250, 1.245, 2017/11/15 10:51:14.594上午, 650.0, 42, 31, 34, 38
251, 1.25, 2017/11/15 10:51:14.599上午, 655.0, 42, 30, 34, 37
252, 1.255, 2017/11/15 10:51:14.604上午, 661.0, 43, 31, 33, 37
253, 1.26, 2017/11/15 10:51:14.609上午, 645.0, 42, 31, 33, 37
254, 1.265, 2017/11/15 10:51:14.614上午, 652.0, 42, 32, 34, 37
255, 1.27, 2017/11/15 10:51:14.619上午, 648.0, 42, 33, 34, 38
256, 1.275, 2017/11/15 10:51:14.624上午, 649.0, 43, 31, 35, 38
257, 1.28, 2017/11/15 10:51:14.629上午, 646.0, 42, 31, 34, 37
258, 1.285, 2017/11/15 10:51:14.634上午, 647.0, 43, 30, 33, 37
259, 1.29, 2017/11/15 10:51:14.639上午, 670.0, 43, 31, 33, 37
260, 1.295, 2017/11/15 10:51:14.644上午, 645.0, 42, 32, 34, 38
261, 1.3, 2017/11/15 10:51:14.649上午, 665.0, 42, 31, 35, 38
262, 1.305, 2017/11/15 10:51:14.654上午, 656.0, 43, 31, 33, 37
263, 1.31, 2017/11/15 10:51:14.659上午, 645.0, 43, 30, 33, 37
264, 1.315, 2017/11/15 10:51:14.664上午, 640.0, 42, 33, 32, 37
265, 1.32, 2017/11/15 10:51:14.669上午, 648.0, 42, 32, 35, 38
266, 1.325, 2017/11/15 10:51:14.674上午, 664.0, 43, 31, 33, 37
267, 1.33, 2017/11/15 10:51:14.679上午, 638.0, 42, 31, 34, 37
268, 1.335, 2017/11/15 10:51:14.684上午, 647.0, 43, 31, 33, 37
269, 1.34, 2017/11/15 10:51:14.689上午, 636.0, 43, 32, 33, 37
270, 1.345, 2017/11/15 10:51:14.694上午, 643.0, 43, 32, 33, 37
271, 1.35, 2017/11/15 10:51:14.699上午, 656.0, 43, 32, 34, 38
272, 1.355, 2017/11/15 10:51:14.704上午, 639.0, 42, 31, 35, 37
273, 1.36, 2017/11/15 10:51:14.709上午, 645.0, 42, 31, 34, 37
274, 1.365, 2017/11/15 10:51:14.714上午, 648.0, 42, 31, 34, 37
275, 1.37, 2017/11/15 10:51:14.719上午, 643.0, 43, 30, 35, 38
276, 1.375, 2017/11/15 10:51:14.724上午, 639.0, 43, 33, 33, 37
277, 1.38, 2017/11/15 10:51:14.729上午, 650.0, 42, 32, 34, 38
278, 1.385, 2017/11/15 10:51:14.734上午, 643.0, 42, 33, 35, 38
279, 1.39, 2017/11/15 10:51:14.739上午, 658.0, 43, 32, 34, 38
280, 1.395, 2017/11/15 10:51:14.744上午, 647.0, 42, 30, 34, 37
281, 1.4, 2017/11/15 10:51:14.749上午, 643.0, 43, 31, 33, 37
282, 1.405, 2017/11/15 10:51:14.754上午, 651.0, 43, 31, 33, 37
283, 1.41, 2017/11/15 10:51:14.759上午, 643.0, 42, 31, 33, 37
284, 1.415, 2017/11/15 10:51:14.764上午, 647.0, 44, 32, 34, 38
285, 1.42, 2017/11/15 10:51:14.769上午, 650.0, 43, 32, 35, 38
286, 1.425, 2017/11/15 10:51:14.774上午, 655.0, 43, 32, 34, 38
287, 1.43, 2017/11/15 10:51:14.779上午, 648.0, 43, 31, 33, 37
288, 1.435, 2017/11/15 10:51:14.784上午, 658.0, 42, 31, 34, 37
289, 1.44, 2017/11/15 10:51:14.789上午, 657.0, 43, 30, 34, 37
290, 1.445, 2017/11/15 10:51:14.794上午, 649.0, 43, 30, 33, 37
291, 1.45, 2017/11/15 10:51:14.799上午, 638.0, 44, 31, 33, 37
292, 1.455, 2017/11/15 10:51:14.804上午, 630.0, 43, 33, 33, 38
293, 1.46, 2017/11/15 10:51:14.809上午, 623.0, 43, 32, 33, 37
294, 1.465, 2017/11/15 10:51:14.814上午, 631.0, 42, 32, 33, 37
295, 1.47, 2017/11/15 10:51:14.819上午, 659.0, 43, 32, 34, 38
296, 1.475, 2017/11/15 10:51:14.824上午, 646.0, 43, 32, 35, 38
297, 1.48, 2017/11/15 10:51:14.829上午, 664.0, 43, 31, 33, 37
298, 1.485, 2017/11/15 10:51:14.834上午, 656.0, 43, 30, 34, 37
299, 1.49, 2017/11/15 10:51:14.839上午, 659.0, 43, 30, 34, 37
300, 1.495, 2017/11/15 10:51:14.844上午, 658.0, 44, 31, 33, 37
301, 1.5, 2017/11/15 10:51:14.849上午, 638.0, 43, 30, 33, 37
302, 1.505, 2017/11/15 10:51:14.854上午, 637.0, 42, 31, 33, 37
303, 1.51, 2017/11/15 10:51:14.859上午, 650.0, 43, 32, 35, 38
304, 1.515, 2017/11/15 10:51:14.864上午, 659.0, 44, 32, 33, 38
305, 1.52, 2017/11/15 10:51:14.869上午, 638.0, 43, 31, 34, 38
306, 1.525, 2017/11/15 10:51:14.874上午, 649.0, 43, 31, 34, 38
307, 1.53, 2017/11/15 10:51:14.879上午, 627.0, 42, 32, 33, 37
308, 1.535, 2017/11/15 10:51:14.884上午, 648.0, 43, 32, 34, 38
309, 1.54, 2017/11/15 10:51:14.889上午, 655.0, 42, 31, 34, 38
310, 1.545, 2017/11/15 10:51:14.894上午, 654.0, 43, 30, 33, 37
311, 1.55, 2017/11/15 10:51:14.899上午, 646.0, 43, 30, 34, 37
312, 1.555, 2017/11/15 10:51:14.904上午, 639.0, 43, 30, 33, 37
313, 1.56, 2017/11/15 10:51:14.909上午, 639.0, 43, 30, 32, 37
314, 1.565, 2017/11/15 10:51:14.914上午, 665.0, 43, 31, 33, 37
315, 1.57, 2017/11/15 10:51:14.919上午, 657.0, 43, 33, 33, 37
316, 1.575, 2017/11/15 10:51:14.924上午, 661.0, 43, 32, 35, 38
317, 1.58, 2017/11/15 10:51:14.929上午, 654.0, 43, 31, 33, 38
318, 1.585, 2017/11/15 10:51:14.934上午, 658.0, 43, 31, 34, 37
319, 1.59, 2017/11/15 10:51:14.939上午, 617.0, 44, 32, 32, 38
320, 1.595, 2017/11/15 10:51:14.944上午, 639.0, 42, 33, 33, 38
321, 1.6, 2017/11/15 10:51:14.949上午, 644.0, 42, 32, 33, 37
322, 1.605, 2017/11/15 10:51:14.954上午, 661.0, 43, 30, 34, 38
323, 1.61, 2017/11/15 10:51:14.959上午, 637.0, 42, 30, 33, 37
324, 1.615, 2017/11/15 10:51:14.964上午, 646.0, 44, 30, 33, 37
325, 1.62, 2017/11/15 10:51:14.969上午, 641.0, 44, 32, 33, 38
326, 1.625, 2017/11/15 10:51:14.974上午, 638.0, 43, 33, 33, 38
327, 1.63, 2017/11/15 10:51:14.979上午, 653.0, 43, 33, 33, 38
328, 1.635, 2017/11/15 10:51:14.984上午, 668.0, 43, 33, 34, 38
329, 1.64, 2017/11/15 10:51:14.989上午, 655.0, 43, 33, 34, 38
330, 1.645, 2017/11/15 10:51:14.994上午, 650.0, 43, 31, 34, 38
331, 1.65, 2017/11/15 10:51:14.999上午, 651.0, 43, 32, 33, 38
332, 1.655, 2017/11/15 10:51:15.004上午, 627.0, 43, 31, 34, 38
333, 1.66, 2017/11/15 10:51:15.009上午, 642.0, 43, 31, 33, 37
334, 1.665, 2017/11/15 10:51:15.014上午, 664.0, 43, 30, 33, 37
335, 1.67, 2017/11/15 10:51:15.019上午, 629.0, 43, 32, 33, 38
336, 1.675, 2017/11/15 10:51:15.024上午, 647.0, 44, 33, 33, 38
337, 1.68, 2017/11/15 10:51:15.029上午, 646.0, 42, 32, 33, 37
338, 1.685, 2017/11/15 10:51:15.034上午, 646.0, 43, 33, 33, 38
339, 1.69, 2017/11/15 10:51:15.039上午, 651.0, 43, 32, 34, 38
340, 1.695, 2017/11/15 10:51:15.044上午, 654.0, 43, 32, 34, 38
341, 1.7, 2017/11/15 10:51:15.049上午, 654.0, 43, 31, 34, 38
342, 1.705, 2017/11/15 10:51:15.054上午, 648.0, 44, 31, 33, 38
343, 1.71, 2017/11/15 10:51:15.059上午, 641.0, 42, 31, 33, 37
344, 1.715, 2017/11/15 10:51:15.064上午, 637.0, 43, 33, 32, 37
345, 1.72, 2017/11/15 10:51:15.069上午, 655.0, 42, 33, 33, 37
346, 1.725, 2017/11/15 10:51:15.074上午, 652.0, 43, 32, 34, 38
347, 1.73, 2017/11/15 10:51:15.079上午, 651.0, 43, 33, 34, 38
348, 1.735, 2017/11/15 10:51:15.084上午, 666.0, 42, 32, 33, 37
349, 1.74, 2017/11/15 10:51:15.089上午, 659.0, 43, 31, 33, 37
350, 1.745, 2017/11/15 10:51:15.094上午, 645.0, 43, 31, 34, 38
351, 1.75, 2017/11/15 10:51:15.099上午, 645.0, 43, 31, 35, 38
352, 1.755, 2017/11/15 10:51:15.104上午, 649.0, 43, 32, 33, 38
353, 1.76, 2017/11/15 10:51:15.109上午, 625.0, 42, 32, 33, 37
354, 1.765, 2017/11/15 10:51:15.114上午, 643.0, 44, 32, 33, 38
355, 1.77, 2017/11/15 10:51:15.119上午, 656.0, 43, 32, 33, 37
356, 1.775, 2017/11/15 10:51:15.124上午, 659.0, 43, 31, 34, 38
357, 1.78, 2017/11/15 10:51:15.129上午, 644.0, 43, 30, 35, 38
358, 1.785, 2017/11/15 10:51:15.134上午, 659.0, 43, 31, 33, 37
359, 1.79, 2017/11/15 10:51:15.139上午, 637.0, 43, 31, 33, 38
360, 1.795, 2017/11/15 10:51:15.144上午, 656.0, 43, 31, 33, 37
361, 1.8, 2017/11/15 10:51:15.149上午, 653.0, 42, 33, 32, 37
362, 1.805, 2017/11/15 10:51:15.154上午, 654.0, 43, 32, 34, 38
363, 1.81, 2017/11/15 10:51:15.159上午, 655.0, 43, 32, 33, 37
364, 1.815, 2017/11/15 10:51:15.164上午, 642.0, 43, 32, 34, 38
365, 1.82, 2017/11/15 10:51:15.169上午, 653.0, 43, 30, 33, 37
366, 1.825, 2017/11/15 10:51:15.174上午, 649.0, 43, 31, 32, 37
367, 1.83, 2017/11/15 10:51:15.179上午, 627.0, 43, 31, 32, 37
368, 1.835, 2017/11/15 10:51:15.184上午, 640.0, 43, 33, 33, 37
369, 1.84, 2017/11/15 10:51:15.189上午, 665.0, 42, 32, 33, 37
370, 1.845, 2017/11/15 10:51:15.194上午, 660.0, 43, 31, 34, 38
371, 1.85, 2017/11/15 10:51:15.199上午, 658.0, 42, 30, 34, 37
372, 1.855, 2017/11/15 10:51:15.204上午, 649.0, 43, 31, 34, 38
373, 1.86, 2017/11/15 10:51:15.209上午, 652.0, 43, 30, 33, 37
374, 1.865, 2017/11/15 10:51:15.214上午, 627.0, 43, 32, 33, 38
375, 1.87, 2017/11/15 10:51:15.219上午, 661.0, 43, 32, 33, 37
376, 1.875, 2017/11/15 10:51:15.224上午, 651.0, 42, 32, 33, 37
377, 1.88, 2017/11/15 10:51:15.229上午, 639.0, 43, 32, 34, 38
378, 1.885, 2017/11/15 10:51:15.234上午, 651.0, 42, 33, 34, 37
379, 1.89, 2017/11/15 10:51:15.239上午, 657.0, 43, 32, 34, 38
380, 1.895, 2017/11/15 10:51:15.244上午, 646.0, 43, 31, 34, 38
381, 1.9, 2017/11/15 10:51:15.249上午, 670.0, 42, 31, 33, 37
382, 1.905, 2017/11/15 10:51:15.254上午, 649.0, 43, 32, 33, 37
383, 1.91, 2017/11/15 10:51:15.259上午, 653.0, 43, 32, 33, 37
384, 1.915, 2017/11/15 10:51:15.264上午, 647.0, 42, 32, 34, 37
385, 1.92, 2017/11/15 10:51:15.269上午, 648.0, 43, 32, 34, 38
386, 1.925, 2017/11/15 10:51:15.274上午, 659.0, 42, 31, 34, 37
387, 1.93, 2017/11/15 10:51:15.279上午, 657.0, 42, 31, 35, 38
388, 1.935, 2017/11/15 10:51:15.284上午, 643.0, 42, 31, 34, 37
389, 1.94, 2017/11/15 10:51:15.289上午, 663.0, 42, 30, 33, 37
390, 1.945, 2017/11/15 10:51:15.294上午, 640.0, 43, 31, 33, 37
391, 1.95, 2017/11/15 10:51:15.299上午, 636.0, 43, 31, 32, 37
392, 1.955, 2017/11/15 10:51:15.304上午, 653.0, 42, 32, 33, 37
393, 1.96, 2017/11/15 10:51:15.309上午, 643.0, 42, 32, 33, 37
394, 1.965, 2017/11/15 10:51:15.314上午, 656.0, 43, 33, 33, 37
395, 1.97, 2017/11/15 10:51:15.319上午, 646.0, 42, 33, 35, 38
396, 1.975, 2017/11/15 10:51:15.324上午, 668.0, 43, 31, 34, 38
397, 1.98, 2017/11/15 10:51:15.329上午, 645.0, 42, 31, 35, 38
398, 1.985, 2017/11/15 10:51:15.334上午, 651.0, 42, 31, 33, 37
399, 1.99, 2017/11/15 10:51:15.339上午, 651.0, 43, 33, 32, 37
400, 1.995, 2017/11/15 10:51:15.344上午, 645.0, 43, 32, 34, 38
401, 2, 2017/11/15 10:51:15.349上午, 650.0, 43, 31, 34, 37
402, 2.005, 2017/11/15 10:51:15.354上午, 657.0, 43, 31, 34, 38
403, 2.01, 2017/11/15 10:51:15.359上午, 640.0, 42, 31, 32, 37
404, 2.015, 2017/11/15 10:51:15.364上午, 648.0, 43, 31, 33, 37
405, 2.02, 2017/11/15 10:51:15.369上午, 632.0, 42, 32, 32, 37
406, 2.025, 2017/11/15 10:51:15.374上午, 659.0, 43, 32, 34, 38
407, 2.03, 2017/11/15 10:51:15.379上午, 651.0, 42, 31, 33, 37
408, 2.035, 2017/11/15 10:51:15.384上午, 659.0, 42, 31, 34, 37
409, 2.04, 2017/11/15 10:51:15.389上午, 647.0, 43, 30, 35, 38
410, 2.045, 2017/11/15 10:51:15.394上午, 646.0, 42, 31, 34, 38
411, 2.05, 2017/11/15 10:51:15.399上午, 640.0, 42, 31, 34, 37
412, 2.055, 2017/11/15 10:51:15.404上午, 645.0, 43, 31, 33, 37
413, 2.06, 2017/11/15 10:51:15.409上午, 653.0, 42, 31, 32, 37
414, 2.065, 2017/11/15 10:51:15.414上午, 651.0, 43, 30, 33, 37
415, 2.07, 2017/11/15 10:51:15.419上午, 642.0, 43, 33, 33, 37
416, 2.075, 2017/11/15 10:51:15.424上午, 640.0, 42, 32, 33, 37
417, 2.08, 2017/11/15 10:51:15.429上午, 663.0, 43, 32, 33, 37
418, 2.085, 2017/11/15 10:51:15.434上午, 677.0, 42, 31, 36, 38
419, 2.09, 2017/11/15 10:51:15.439上午, 660.0, 43, 30, 34, 37
420, 2.095, 2017/11/15 10:51:15.444上午, 652.0, 41, 31, 34, 37
421, 2.1, 2017/11/15 10:51:15.449上午, 639.0, 42, 31, 34, 37
422, 2.105, 2017/11/15 10:51:15.454上午, 649.0, 43, 32, 33, 37
423, 2.11, 2017/11/15 10:51:15.459上午, 646.0, 43, 32, 33, 37
424, 2.115, 2017/11/15 10:51:15.464上午, 635.0, 41, 33, 34, 37
425, 2.12, 2017/11/15 10:51:15.469上午, 669.0, 42, 31, 33, 37
426, 2.125, 2017/11/15 10:51:15.474上午, 652.0, 42, 30, 34, 37
427, 2.13, 2017/11/15 10:51:15.479上午, 646.0, 42, 30, 34, 37
428, 2.135, 2017/11/15 10:51:15.484上午, 646.0, 42, 30, 34, 37
429, 2.14, 2017/11/15 10:51:15.489上午, 638.0, 42, 31, 33, 37
430, 2.145, 2017/11/15 10:51:15.494上午, 642.0, 42, 31, 34, 37
431, 2.15, 2017/11/15 10:51:15.499上午, 642.0, 42, 31, 33, 37
432, 2.155, 2017/11/15 10:51:15.504上午, 651.0, 42, 32, 33, 37
433, 2.16, 2017/11/15 10:51:15.509上午, 642.0, 43, 31, 33, 37
434, 2.165, 2017/11/15 10:51:15.514上午, 649.0, 42, 33, 33, 37
435, 2.17, 2017/11/15 10:51:15.519上午, 656.0, 42, 32, 34, 37
436, 2.175, 2017/11/15 10:51:15.524上午, 646.0, 41, 31, 33, 36
437, 2.18, 2017/11/15 10:51:15.529上午, 657.0, 41, 30, 35, 37
438, 2.185, 2017/11/15 10:51:15.534上午, 637.0, 41, 31, 35, 37
439, 2.19, 2017/11/15 10:51:15.539上午, 640.0, 41, 31, 34, 37
440, 2.195, 2017/11/15 10:51:15.544上午, 644.0, 41, 30, 33, 36
441, 2.2, 2017/11/15 10:51:15.549上午, 624.0, 42, 33, 33, 37
442, 2.205, 2017/11/15 10:51:15.554上午, 649.0, 42, 32, 34, 37
443, 2.21, 2017/11/15 10:51:15.559上午, 646.0, 41, 32, 34, 37
444, 2.215, 2017/11/15 10:51:15.564上午, 651.0, 42, 30, 35, 37
445, 2.22, 2017/11/15 10:51:15.569上午, 653.0, 41, 30, 36, 37
446, 2.225, 2017/11/15 10:51:15.574上午, 642.0, 41, 31, 33, 36
447, 2.23, 2017/11/15 10:51:15.579上午, 636.0, 42, 32, 33, 37
448, 2.235, 2017/11/15 10:51:15.584上午, 662.0, 41, 32, 33, 36
449, 2.24, 2017/11/15 10:51:15.589上午, 657.0, 42, 32, 35, 38
450, 2.245, 2017/11/15 10:51:15.594上午, 646.0, 42, 30, 34, 37
451, 2.25, 2017/11/15 10:51:15.599上午, 645.0, 41, 31, 34, 37
452, 2.255, 2017/11/15 10:51:15.604上午, 650.0, 41, 31, 33, 36
453, 2.26, 2017/11/15 10:51:15.609上午, 646.0, 42, 33, 33, 37
454, 2.265, 2017/11/15 10:51:15.614上午, 635.0, 41, 33, 34, 37
455, 2.27, 2017/11/15 10:51:15.619上午, 652.0, 41, 31, 35, 37
456, 2.275, 2017/11/15 10:51:15.624上午, 646.0, 42, 30, 34, 37
457, 2.28, 2017/11/15 10:51:15.629上午, 639.0, 42, 32, 33, 37
458, 2.285, 2017/11/15 10:51:15.634上午, 639.0, 41, 32, 34, 37
459, 2.29, 2017/11/15 10:51:15.639上午, 636.0, 41, 32, 35, 37
460, 2.295, 2017/11/15 10:51:15.644上午, 645.0, 41, 31, 34, 37
461, 2.3, 2017/11/15 10:51:15.649上午, 655.0, 42, 30, 34, 37
462, 2.305, 2017/11/15 10:51:15.654上午, 635.0, 42, 32, 33, 37
463, 2.31, 2017/11/15 10:51:15.659上午, 628.0, 42, 32, 34, 37
464, 2.315, 2017/11/15 10:51:15.664上午, 655.0, 41, 30, 35, 37
465, 2.32, 2017/11/15 10:51:15.669上午, 649.0, 41, 30, 34, 37
466, 2.325, 2017/11/15 10:51:15.674上午, 644.0, 41, 30, 33, 36
467, 2.33, 2017/11/15 10:51:15.679上午, 640.0, 41, 31, 32, 36
468, 2.335, 2017/11/15 10:51:15.684上午, 637.0, 42, 33, 33, 37
469, 2.34, 2017/11/15 10:51:15.689上午, 649.0, 41, 31, 33, 36
470, 2.345, 2017/11/15 10:51:15.694上午, 659.0, 41, 30, 35, 37
471, 2.35, 2017/11/15 10:51:15.699上午, 642.0, 41, 30, 34, 37
472, 2.355, 2017/11/15 10:51:15.704上午, 641.0, 41, 31, 34, 37
473, 2.36, 2017/11/15 10:51:15.709上午, 644.0, 40, 31, 35, 37
474, 2.365, 2017/11/15 10:51:15.714上午, 637.0, 42, 32, 32, 37
475, 2.37, 2017/11/15 10:51:15.719上午, 647.0, 41, 33, 34, 37
476, 2.375, 2017/11/15 10:51:15.724上午, 660.0, 41, 32, 34, 37
477, 2.38, 2017/11/15 10:51:15.729上午, 662.0, 41, 30, 34, 37
478, 2.385, 2017/11/15 10:51:15.734上午, 656.0, 42, 30, 35, 37
479, 2.39, 2017/11/15 10:51:15.739上午, 639.0, 41, 31, 35, 37
480, 2.395, 2017/11/15 10:51:15.744上午, 640.0, 42, 31, 33, 36
481, 2.4, 2017/11/15 10:51:15.749上午, 639.0, 42, 32, 34, 37
482, 2.405, 2017/11/15 10:51:15.754上午, 654.0, 41, 32, 35, 37
483, 2.41, 2017/11/15 10:51:15.759上午, 635.0, 41, 31, 34, 37
484, 2.415, 2017/11/15 10:51:15.764上午, 651.0, 42, 31, 33, 36
485, 2.42, 2017/11/15 10:51:15.769上午, 642.0, 41, 31, 33, 36
486, 2.425, 2017/11/15 10:51:15.774上午, 647.0, 42, 31, 33, 37
487, 2.43, 2017/11/15 10:51:15.779上午, 658.0, 42, 32, 32, 36
488, 2.435, 2017/11/15 10:51:15.784上午, 650.0, 40, 32, 35, 37
489, 2.44, 2017/11/15 10:51:15.789上午, 664.0, 41, 32, 35, 37
490, 2.445, 2017/11/15 10:51:15.794上午, 674.0, 41, 30, 35, 37
491, 2.45, 2017/11/15 10:51:15.799上午, 644.0, 41, 30, 34, 37
492, 2.455, 2017/11/15 10:51:15.804上午, 652.0, 41, 30, 33, 36
493, 2.46, 2017/11/15 10:51:15.809上午, 639.0, 41, 31, 33, 36
494, 2.465, 2017/11/15 10:51:15.814上午, 650.0, 42, 31, 33, 37
495, 2.47, 2017/11/15 10:51:15.819上午, 650.0, 41, 32, 34, 37
496, 2.475, 2017/11/15 10:51:15.824上午, 659.0, 41, 32, 35, 37
497, 2.48, 2017/11/15 10:51:15.829上午, 642.0, 41, 30, 34, 37
498, 2.485, 2017/11/15 10:51:15.834上午, 642.0, 41, 31, 34, 37
499, 2.49, 2017/11/15 10:51:15.839上午, 633.0, 41, 31, 33, 36
500, 2.495, 2017/11/15 10:51:15.844上午, 638.0, 42, 32, 33, 37
501, 2.5, 2017/11/15 10:51:15.849上午, 635.0, 41, 32, 33, 37
502, 2.505, 2017/11/15 10:51:15.854上午, 657.0, 41, 31, 35, 37
503, 2.51, 2017/11/15 10:51:15.859上午, 676.0, 42, 31, 34, 37
504, 2.515, 2017/11/15 10:51:15.864上午, 646.0, 41, 31, 34, 36
505, 2.52, 2017/11/15 10:51:15.869上午, 640.0, 41, 31, 34, 37
506, 2.525, 2017/11/15 10:51:15.874上午, 646.0, 42, 32, 32, 36
507, 2.53, 2017/11/15 10:51:15.879上午, 635.0, 40, 32, 34, 37
508, 2.535, 2017/11/15 10:51:15.884上午, 647.0, 40, 33, 34, 37
509, 2.54, 2017/11/15 10:51:15.889上午, 636.0, 41, 32, 34, 37
510, 2.545, 2017/11/15 10:51:15.894上午, 655.0, 41, 31, 35, 37
511, 2.55, 2017/11/15 10:51:15.899上午, 658.0, 41, 31, 34, 37
512, 2.555, 2017/11/15 10:51:15.904上午, 651.0, 41, 31, 34, 37
513, 2.56, 2017/11/15 10:51:15.909上午, 662.0, 40, 30, 35, 37
514, 2.565, 2017/11/15 10:51:15.914上午, 633.0, 41, 31, 34, 36
515, 2.57, 2017/11/15 10:51:15.919上午, 648.0, 41, 30, 33, 36
516, 2.575, 2017/11/15 10:51:15.924上午, 647.0, 41, 31, 33, 36
517, 2.58, 2017/11/15 10:51:15.929上午, 645.0, 41, 32, 33, 36
518, 2.585, 2017/11/15 10:51:15.934上午, 648.0, 41, 31, 33, 36
519, 2.59, 2017/11/15 10:51:15.939上午, 665.0, 41, 31, 34, 37
520, 2.595, 2017/11/15 10:51:15.944上午, 655.0, 41, 31, 35, 37
521, 2.6, 2017/11/15 10:51:15.949上午, 657.0, 40, 30, 35, 36
522, 2.605, 2017/11/15 10:51:15.954上午, 647.0, 41, 31, 33, 36
523, 2.61, 2017/11/15 10:51:15.959上午, 668.0, 40, 32, 34, 36
524, 2.615, 2017/11/15 10:51:15.964上午, 645.0, 40, 33, 35, 37
525, 2.62, 2017/11/15 10:51:15.969上午, 636.0, 41, 31, 35, 37
526, 2.625, 2017/11/15 10:51:15.974上午, 661.0, 40, 30, 35, 36
527, 2.63, 2017/11/15 10:51:15.979上午, 654.0, 40, 31, 33, 36
528, 2.635, 2017/11/15 10:51:15.984上午, 657.0, 41, 31, 32, 36
529, 2.64, 2017/11/15 10:51:15.989上午, 655.0, 41, 32, 33, 36
530, 2.645, 2017/11/15 10:51:15.994上午, 645.0, 41, 33, 34, 37
531, 2.65, 2017/11/15 10:51:15.999上午, 648.0, 40, 32, 34, 36
532, 2.655, 2017/11/15 10:51:16.004上午, 664.0, 40, 31, 36, 37
533, 2.66, 2017/11/15 10:51:16.009上午, 651.0, 40, 31, 34, 36
534, 2.665, 2017/11/15 10:51:16.014上午, 639.0, 40, 31, 34, 36
535, 2.67, 2017/11/15 10:51:16.019上午, 657.0, 40, 31, 33, 36
536, 2.675, 2017/11/15 10:51:16.024上午, 634.0, 40, 32, 33, 36
537, 2.68, 2017/11/15 10:51:16.029上午, 648.0, 40, 31, 35, 37
538, 2.685, 2017/11/15 10:51:16.034上午, 649.0, 40, 31, 35, 36
539, 2.69, 2017/11/15 10:51:16.039上午, 634.0, 40, 30, 33, 35
540, 2.695, 2017/11/15 10:51:16.044上午, 658.0, 41, 31, 34, 36
541, 2.7, 2017/11/15 10:51:16.049上午, 654.0, 39, 31, 34, 36
542, 2.705, 2017/11/15 10:51:16.054上午, 649.0, 40, 30, 34, 36
543, 2.71, 2017/11/15 10:51:16.059上午, 660.0, 39, 31, 33, 35
544, 2.715, 2017/11/15 10:51:16.064上午, 641.0, 39, 32, 32, 35
545, 2.72, 2017/11/15 10:51:16.069上午, 636.0, 40, 32, 35, 37
546, 2.725, 2017/11/15 10:51:16.074上午, 652.0, 40, 32, 35, 36
547, 2.73, 2017/11/15 10:51:16.079上午, 667.0, 40, 30, 35, 36
548, 2.735, 2017/11/15 10:51:16.084上午, 655.0, 40, 30, 33, 36
549, 2.74, 2017/11/15 10:51:16.089上午, 631.0, 39, 32, 33, 36
550, 2.745, 2017/11/15 10:51:16.094上午, 649.0, 39, 32, 34, 36
551, 2.75, 2017/11/15 10:51:16.099上午, 648.0, 40, 31, 35, 37
552, 2.755, 2017/11/15 10:51:16.104上午, 646.0, 39, 30, 36, 36
553, 2.76, 2017/11/15 10:51:16.109上午, 637.0, 39, 31, 35, 36
554, 2.765, 2017/11/15 10:51:16.114上午, 634.0, 39, 31, 35, 36
555, 2.77, 2017/11/15 10:51:16.119上午, 646.0, 41, 31, 33, 36
556, 2.775, 2017/11/15 10:51:16.124上午, 658.0, 40, 31, 34, 36
557, 2.78, 2017/11/15 10:51:16.129上午, 654.0, 39, 30, 35, 36
558, 2.785, 2017/11/15 10:51:16.134上午, 646.0, 39, 31, 35, 36
559, 2.79, 2017/11/15 10:51:16.139上午, 641.0, 39, 30, 34, 36
560, 2.795, 2017/11/15 10:51:16.144上午, 655.0, 39, 30, 34, 36
561, 2.8, 2017/11/15 10:51:16.149上午, 640.0, 40, 32, 34, 36
562, 2.805, 2017/11/15 10:51:16.154上午, 643.0, 40, 32, 35, 37
563, 2.81, 2017/11/15 10:51:16.159上午, 642.0, 39, 30, 35, 36
564, 2.815, 2017/11/15 10:51:16.164上午, 640.0, 40, 31, 33, 36
565, 2.82, 2017/11/15 10:51:16.169上午, 647.0, 41, 31, 34, 36
566, 2.825, 2017/11/15 10:51:16.174上午, 633.0, 41, 32, 35, 37
567, 2.83, 2017/11/15 10:51:16.179上午, 643.0, 39, 30, 34, 36
568, 2.835, 2017/11/15 10:51:16.184上午, 651.0, 40, 30, 35, 36
569, 2.84, 2017/11/15 10:51:16.189上午, 639.0, 40, 31, 33, 36
570, 2.845, 2017/11/15 10:51:16.194上午, 639.0, 40, 31, 33, 36
571, 2.85, 2017/11/15 10:51:16.199上午, 643.0, 40, 32, 35, 37
572, 2.855, 2017/11/15 10:51:16.204上午, 665.0, 39, 30, 36, 36
573, 2.86, 2017/11/15 10:51:16.209上午, 629.0, 39, 30, 35, 36
574, 2.865, 2017/11/15 10:51:16.214上午, 630.0, 39, 30, 35, 36
575, 2.87, 2017/11/15 10:51:16.219上午, 640.0, 41, 31, 34, 37
576, 2.875, 2017/11/15 10:51:16.224上午, 637.0, 40, 32, 34, 36
577, 2.88, 2017/11/15 10:51:16.229上午, 630.0, 40, 32, 34, 37
578, 2.885, 2017/11/15 10:51:16.234上午, 648.0, 39, 30, 35, 36
579, 2.89, 2017/11/15 10:51:16.239上午, 645.0, 40, 31, 35, 37
580, 2.895, 2017/11/15 10:51:16.244上午, 647.0, 40, 31, 33, 36
581, 2.9, 2017/11/15 10:51:16.249上午, 631.0, 41, 32, 34, 37
582, 2.905, 2017/11/15 10:51:16.254上午, 635.0, 39, 31, 34, 36
583, 2.91, 2017/11/15 10:51:16.259上午, 642.0, 39, 30, 35, 36
584, 2.915, 2017/11/15 10:51:16.264上午, 644.0, 39, 30, 33, 36
585, 2.92, 2017/11/15 10:51:16.269上午, 626.0, 40, 31, 34, 36
586, 2.925, 2017/11/15 10:51:16.274上午, 640.0, 40, 31, 33, 36
587, 2.93, 2017/11/15 10:51:16.279上午, 662.0, 40, 30, 35, 36
588, 2.935, 2017/11/15 10:51:16.284上午, 643.0, 40, 30, 35, 36
589, 2.94, 2017/11/15 10:51:16.289上午, 644.0, 40, 30, 34, 36
590, 2.945, 2017/11/15 10:51:16.294上午, 643.0, 40, 31, 33, 35
591, 2.95, 2017/11/15 10:51:16.299上午, 639.0, 40, 32, 34, 36
592, 2.955, 2017/11/15 10:51:16.304上午, 631.0, 40, 31, 34, 37
593, 2.96, 2017/11/15 10:51:16.309上午, 660.0, 40, 32, 34, 36
594, 2.965, 2017/11/15 10:51:16.314上午, 650.0, 40, 30, 35, 36
595, 2.97, 2017/11/15 10:51:16.319上午, 627.0, 40, 30, 34, 36
596, 2.975, 2017/11/15 10:51:16.324上午, 618.0, 41, 30, 32, 36
597, 2.98, 2017/11/15 10:51:16.329上午, 651.0, 40, 31, 34, 36
598, 2.985, 2017/11/15 10:51:16.334上午, 633.0, 40, 30, 35, 37
599, 2.99, 2017/11/15 10:51:16.339上午, 635.0, 40, 30, 35, 36
600, 2.995, 2017/11/15 10:51:16.344上午, 628.0, 41, 30, 32, 36
@@
