DATA_TYPE Graph
VERSION Tekscan Pressure Measurement System 6.70-03
HARDWARE 00114-3447
MAP_VERSION 6.5
HW_TYPE 4
VersaPogoFsx 0
檔案名 C:\Users\asus\Desktop\工研院_計畫\收案資料\Subject02\Plantar Pressure\EVA_STAND_RIGHT_3.fsx
SENSOR_TYPE FSCAN
ROWS 60
COLS 21
ROW_SPACING 0.508 centimeters
COL_SPACING 0.508 centimeters
SENSEL_AREA 0.258064 cm2
NOISE_THRESHOLD 3
SECONDS_PER_FRAME 0.005
SECONDS_PER_FRAME 0
MICRO_SECOND 0
TIME 2017/11/15 10:17:42.404上午
SATURATION_PRESSURE 2347.96 KPa 
CALIBRATION_POINT_1 48.0001 (Kilograms) 1981 (Raw Sum) 199 (Number of Loaded Cells)
CALIBRATION_MODE_1 步態
CALIBRATION_INFO C:\Users\asus\Desktop\工研院_計畫\收案資料\Subject02\Plantar Pressure\EVA_STAND_RIGHT_3.fsx
SENSITIVITY 自定義
MAP_INDEX 0
SUBMAP 0
Patient ID: 

Speed of Gait: 

Weight: 

Gender: 

Physician: 

Technician: 

Shoe: 

START_FRAME 1
END_FRAME 600
UNITS KPa
ASCII_DATA @@
畫面(X), 時間(X), 絕對時間(X), Raw Sum, 壓力(Y:藍色), 壓力(Y), 壓力(Y), 壓力(Y)
1, 0, 2017/11/15 10:17:42.404上午, 1222.0, 39, 34, 37, 37
2, 0.005, 2017/11/15 10:17:42.409上午, 1175.0, 40, 34, 37, 37
3, 0.01, 2017/11/15 10:17:42.414上午, 1224.0, 39, 35, 36, 37
4, 0.015, 2017/11/15 10:17:42.419上午, 1173.0, 40, 34, 36, 37
5, 0.02, 2017/11/15 10:17:42.424上午, 1199.0, 39, 34, 37, 37
6, 0.025, 2017/11/15 10:17:42.429上午, 1176.0, 39, 34, 37, 37
7, 0.03, 2017/11/15 10:17:42.434上午, 1226.0, 40, 35, 36, 37
8, 0.035, 2017/11/15 10:17:42.439上午, 1185.0, 39, 34, 37, 37
9, 0.04, 2017/11/15 10:17:42.444上午, 1230.0, 39, 35, 36, 37
10, 0.045, 2017/11/15 10:17:42.449上午, 1197.0, 40, 34, 37, 37
11, 0.05, 2017/11/15 10:17:42.454上午, 1220.0, 39, 34, 37, 37
12, 0.055, 2017/11/15 10:17:42.459上午, 1197.0, 39, 34, 36, 37
13, 0.06, 2017/11/15 10:17:42.464上午, 1201.0, 39, 34, 37, 37
14, 0.065, 2017/11/15 10:17:42.469上午, 1190.0, 39, 34, 37, 37
15, 0.07, 2017/11/15 10:17:42.474上午, 1200.0, 40, 35, 37, 37
16, 0.075, 2017/11/15 10:17:42.479上午, 1212.0, 39, 34, 36, 37
17, 0.08, 2017/11/15 10:17:42.484上午, 1207.0, 39, 35, 36, 37
18, 0.085, 2017/11/15 10:17:42.489上午, 1195.0, 39, 34, 37, 37
19, 0.09, 2017/11/15 10:17:42.494上午, 1219.0, 40, 35, 37, 37
20, 0.095, 2017/11/15 10:17:42.499上午, 1209.0, 39, 34, 36, 37
21, 0.1, 2017/11/15 10:17:42.504上午, 1201.0, 39, 34, 36, 37
22, 0.105, 2017/11/15 10:17:42.509上午, 1217.0, 39, 34, 36, 37
23, 0.11, 2017/11/15 10:17:42.514上午, 1178.0, 40, 35, 36, 37
24, 0.115, 2017/11/15 10:17:42.519上午, 1201.0, 39, 34, 37, 37
25, 0.12, 2017/11/15 10:17:42.524上午, 1196.0, 40, 34, 36, 37
26, 0.125, 2017/11/15 10:17:42.529上午, 1212.0, 39, 34, 36, 37
27, 0.13, 2017/11/15 10:17:42.534上午, 1201.0, 39, 35, 37, 37
28, 0.135, 2017/11/15 10:17:42.539上午, 1208.0, 39, 35, 36, 37
29, 0.14, 2017/11/15 10:17:42.544上午, 1224.0, 40, 34, 36, 37
30, 0.145, 2017/11/15 10:17:42.549上午, 1190.0, 39, 34, 36, 37
31, 0.15, 2017/11/15 10:17:42.554上午, 1198.0, 40, 35, 37, 37
32, 0.155, 2017/11/15 10:17:42.559上午, 1190.0, 39, 34, 36, 37
33, 0.16, 2017/11/15 10:17:42.564上午, 1213.0, 39, 34, 37, 37
34, 0.165, 2017/11/15 10:17:42.569上午, 1197.0, 39, 34, 37, 37
35, 0.17, 2017/11/15 10:17:42.574上午, 1227.0, 40, 35, 36, 37
36, 0.175, 2017/11/15 10:17:42.579上午, 1196.0, 40, 34, 37, 37
37, 0.18, 2017/11/15 10:17:42.584上午, 1216.0, 40, 35, 37, 37
38, 0.185, 2017/11/15 10:17:42.589上午, 1194.0, 39, 34, 36, 37
39, 0.19, 2017/11/15 10:17:42.594上午, 1235.0, 39, 34, 37, 37
40, 0.195, 2017/11/15 10:17:42.599上午, 1205.0, 39, 34, 36, 37
41, 0.2, 2017/11/15 10:17:42.604上午, 1206.0, 39, 35, 36, 37
42, 0.205, 2017/11/15 10:17:42.609上午, 1209.0, 40, 34, 36, 37
43, 0.21, 2017/11/15 10:17:42.614上午, 1242.0, 39, 35, 37, 37
44, 0.215, 2017/11/15 10:17:42.619上午, 1195.0, 39, 34, 36, 37
45, 0.22, 2017/11/15 10:17:42.624上午, 1229.0, 40, 35, 36, 37
46, 0.225, 2017/11/15 10:17:42.629上午, 1206.0, 40, 34, 36, 37
47, 0.23, 2017/11/15 10:17:42.634上午, 1225.0, 40, 34, 36, 37
48, 0.235, 2017/11/15 10:17:42.639上午, 1203.0, 39, 34, 37, 37
49, 0.24, 2017/11/15 10:17:42.644上午, 1224.0, 39, 34, 37, 37
50, 0.245, 2017/11/15 10:17:42.649上午, 1183.0, 39, 34, 36, 37
51, 0.25, 2017/11/15 10:17:42.654上午, 1216.0, 39, 34, 37, 37
52, 0.255, 2017/11/15 10:17:42.659上午, 1175.0, 40, 34, 36, 37
53, 0.26, 2017/11/15 10:17:42.664上午, 1211.0, 40, 34, 37, 37
54, 0.265, 2017/11/15 10:17:42.669上午, 1209.0, 39, 33, 36, 36
55, 0.27, 2017/11/15 10:17:42.674上午, 1226.0, 40, 34, 36, 37
56, 0.275, 2017/11/15 10:17:42.679上午, 1201.0, 40, 34, 37, 37
57, 0.28, 2017/11/15 10:17:42.684上午, 1220.0, 39, 34, 37, 37
58, 0.285, 2017/11/15 10:17:42.689上午, 1184.0, 40, 34, 37, 37
59, 0.29, 2017/11/15 10:17:42.694上午, 1221.0, 39, 35, 36, 37
60, 0.295, 2017/11/15 10:17:42.699上午, 1214.0, 39, 34, 36, 37
61, 0.3, 2017/11/15 10:17:42.704上午, 1211.0, 39, 35, 37, 37
62, 0.305, 2017/11/15 10:17:42.709上午, 1186.0, 40, 34, 37, 37
63, 0.31, 2017/11/15 10:17:42.714上午, 1206.0, 40, 34, 37, 37
64, 0.315, 2017/11/15 10:17:42.719上午, 1201.0, 40, 34, 36, 37
65, 0.32, 2017/11/15 10:17:42.724上午, 1210.0, 39, 34, 36, 37
66, 0.325, 2017/11/15 10:17:42.729上午, 1214.0, 39, 34, 36, 37
67, 0.33, 2017/11/15 10:17:42.734上午, 1190.0, 40, 34, 36, 37
68, 0.335, 2017/11/15 10:17:42.739上午, 1199.0, 40, 34, 36, 37
69, 0.34, 2017/11/15 10:17:42.744上午, 1201.0, 40, 34, 35, 36
70, 0.345, 2017/11/15 10:17:42.749上午, 1226.0, 39, 35, 36, 37
71, 0.35, 2017/11/15 10:17:42.754上午, 1183.0, 40, 34, 35, 36
72, 0.355, 2017/11/15 10:17:42.759上午, 1227.0, 40, 34, 36, 37
73, 0.36, 2017/11/15 10:17:42.764上午, 1192.0, 39, 34, 37, 37
74, 0.365, 2017/11/15 10:17:42.769上午, 1197.0, 40, 35, 36, 37
75, 0.37, 2017/11/15 10:17:42.774上午, 1210.0, 39, 34, 36, 37
76, 0.375, 2017/11/15 10:17:42.779上午, 1210.0, 40, 34, 36, 37
77, 0.38, 2017/11/15 10:17:42.784上午, 1211.0, 40, 35, 36, 37
78, 0.385, 2017/11/15 10:17:42.789上午, 1191.0, 40, 34, 36, 37
79, 0.39, 2017/11/15 10:17:42.794上午, 1215.0, 40, 34, 36, 37
80, 0.395, 2017/11/15 10:17:42.799上午, 1167.0, 40, 34, 37, 37
81, 0.4, 2017/11/15 10:17:42.804上午, 1224.0, 40, 34, 37, 37
82, 0.405, 2017/11/15 10:17:42.809上午, 1209.0, 40, 34, 36, 37
83, 0.41, 2017/11/15 10:17:42.814上午, 1204.0, 40, 34, 36, 37
84, 0.415, 2017/11/15 10:17:42.819上午, 1202.0, 40, 34, 36, 37
85, 0.42, 2017/11/15 10:17:42.824上午, 1207.0, 39, 34, 36, 36
86, 0.425, 2017/11/15 10:17:42.829上午, 1196.0, 39, 34, 36, 37
87, 0.43, 2017/11/15 10:17:42.834上午, 1204.0, 40, 34, 36, 37
88, 0.435, 2017/11/15 10:17:42.839上午, 1226.0, 40, 35, 36, 37
89, 0.44, 2017/11/15 10:17:42.844上午, 1206.0, 40, 34, 36, 37
90, 0.445, 2017/11/15 10:17:42.849上午, 1214.0, 39, 34, 37, 37
91, 0.45, 2017/11/15 10:17:42.854上午, 1193.0, 39, 34, 36, 36
92, 0.455, 2017/11/15 10:17:42.859上午, 1228.0, 39, 34, 37, 37
93, 0.46, 2017/11/15 10:17:42.864上午, 1189.0, 39, 34, 37, 37
94, 0.465, 2017/11/15 10:17:42.869上午, 1189.0, 40, 35, 36, 37
95, 0.47, 2017/11/15 10:17:42.874上午, 1213.0, 40, 34, 36, 37
96, 0.475, 2017/11/15 10:17:42.879上午, 1206.0, 40, 34, 36, 37
97, 0.48, 2017/11/15 10:17:42.884上午, 1200.0, 40, 34, 37, 37
98, 0.485, 2017/11/15 10:17:42.889上午, 1177.0, 40, 34, 38, 37
99, 0.49, 2017/11/15 10:17:42.894上午, 1208.0, 39, 35, 36, 37
100, 0.495, 2017/11/15 10:17:42.899上午, 1180.0, 39, 34, 36, 37
101, 0.5, 2017/11/15 10:17:42.904上午, 1215.0, 39, 34, 36, 36
102, 0.505, 2017/11/15 10:17:42.909上午, 1181.0, 39, 35, 36, 37
103, 0.51, 2017/11/15 10:17:42.914上午, 1212.0, 40, 34, 36, 37
104, 0.515, 2017/11/15 10:17:42.919上午, 1181.0, 39, 34, 37, 37
105, 0.52, 2017/11/15 10:17:42.924上午, 1206.0, 40, 34, 36, 37
106, 0.525, 2017/11/15 10:17:42.929上午, 1184.0, 39, 34, 36, 36
107, 0.53, 2017/11/15 10:17:42.934上午, 1229.0, 39, 34, 36, 37
108, 0.535, 2017/11/15 10:17:42.939上午, 1178.0, 39, 34, 36, 37
109, 0.54, 2017/11/15 10:17:42.944上午, 1204.0, 39, 34, 37, 37
110, 0.545, 2017/11/15 10:17:42.949上午, 1178.0, 39, 34, 36, 37
111, 0.55, 2017/11/15 10:17:42.954上午, 1212.0, 40, 34, 36, 37
112, 0.555, 2017/11/15 10:17:42.959上午, 1186.0, 39, 34, 36, 37
113, 0.56, 2017/11/15 10:17:42.964上午, 1203.0, 39, 34, 36, 37
114, 0.565, 2017/11/15 10:17:42.969上午, 1189.0, 39, 34, 36, 36
115, 0.57, 2017/11/15 10:17:42.974上午, 1211.0, 39, 34, 36, 37
116, 0.575, 2017/11/15 10:17:42.979上午, 1185.0, 39, 34, 37, 37
117, 0.58, 2017/11/15 10:17:42.984上午, 1190.0, 39, 34, 36, 37
118, 0.585, 2017/11/15 10:17:42.989上午, 1187.0, 39, 34, 36, 36
119, 0.59, 2017/11/15 10:17:42.994上午, 1211.0, 39, 35, 37, 37
120, 0.595, 2017/11/15 10:17:42.999上午, 1203.0, 39, 34, 37, 37
121, 0.6, 2017/11/15 10:17:43.004上午, 1192.0, 39, 35, 36, 37
122, 0.605, 2017/11/15 10:17:43.009上午, 1192.0, 39, 34, 36, 37
123, 0.61, 2017/11/15 10:17:43.014上午, 1185.0, 39, 34, 36, 37
124, 0.615, 2017/11/15 10:17:43.019上午, 1210.0, 39, 34, 36, 36
125, 0.62, 2017/11/15 10:17:43.024上午, 1170.0, 39, 35, 36, 37
126, 0.625, 2017/11/15 10:17:43.029上午, 1208.0, 38, 34, 36, 36
127, 0.63, 2017/11/15 10:17:43.034上午, 1177.0, 39, 34, 37, 37
128, 0.635, 2017/11/15 10:17:43.039上午, 1206.0, 39, 34, 37, 37
129, 0.64, 2017/11/15 10:17:43.044上午, 1192.0, 39, 35, 36, 37
130, 0.645, 2017/11/15 10:17:43.049上午, 1203.0, 39, 34, 37, 37
131, 0.65, 2017/11/15 10:17:43.054上午, 1163.0, 39, 34, 37, 37
132, 0.655, 2017/11/15 10:17:43.059上午, 1202.0, 39, 34, 36, 37
133, 0.66, 2017/11/15 10:17:43.064上午, 1190.0, 39, 34, 36, 36
134, 0.665, 2017/11/15 10:17:43.069上午, 1187.0, 38, 34, 37, 37
135, 0.67, 2017/11/15 10:17:43.074上午, 1207.0, 38, 34, 36, 36
136, 0.675, 2017/11/15 10:17:43.079上午, 1202.0, 39, 35, 36, 37
137, 0.68, 2017/11/15 10:17:43.084上午, 1197.0, 38, 34, 37, 36
138, 0.685, 2017/11/15 10:17:43.089上午, 1168.0, 39, 34, 37, 36
139, 0.69, 2017/11/15 10:17:43.094上午, 1212.0, 39, 34, 36, 37
140, 0.695, 2017/11/15 10:17:43.099上午, 1201.0, 39, 34, 37, 36
141, 0.7, 2017/11/15 10:17:43.104上午, 1194.0, 38, 35, 36, 37
142, 0.705, 2017/11/15 10:17:43.109上午, 1204.0, 39, 34, 36, 37
143, 0.71, 2017/11/15 10:17:43.114上午, 1191.0, 39, 34, 37, 37
144, 0.715, 2017/11/15 10:17:43.119上午, 1193.0, 38, 34, 36, 36
145, 0.72, 2017/11/15 10:17:43.124上午, 1206.0, 39, 35, 36, 36
146, 0.725, 2017/11/15 10:17:43.129上午, 1192.0, 39, 34, 37, 36
147, 0.73, 2017/11/15 10:17:43.134上午, 1185.0, 39, 35, 36, 37
148, 0.735, 2017/11/15 10:17:43.139上午, 1205.0, 39, 34, 37, 37
149, 0.74, 2017/11/15 10:17:43.144上午, 1177.0, 38, 34, 36, 36
150, 0.745, 2017/11/15 10:17:43.149上午, 1186.0, 38, 34, 37, 36
151, 0.75, 2017/11/15 10:17:43.154上午, 1179.0, 38, 34, 37, 36
152, 0.755, 2017/11/15 10:17:43.159上午, 1217.0, 39, 34, 36, 36
153, 0.76, 2017/11/15 10:17:43.164上午, 1187.0, 38, 34, 37, 36
154, 0.765, 2017/11/15 10:17:43.169上午, 1178.0, 38, 34, 36, 36
155, 0.77, 2017/11/15 10:17:43.174上午, 1216.0, 39, 34, 36, 36
156, 0.775, 2017/11/15 10:17:43.179上午, 1176.0, 39, 34, 37, 36
157, 0.78, 2017/11/15 10:17:43.184上午, 1198.0, 38, 34, 36, 36
158, 0.785, 2017/11/15 10:17:43.189上午, 1208.0, 38, 34, 36, 36
159, 0.79, 2017/11/15 10:17:43.194上午, 1195.0, 39, 34, 36, 36
160, 0.795, 2017/11/15 10:17:43.199上午, 1212.0, 39, 34, 36, 36
161, 0.8, 2017/11/15 10:17:43.204上午, 1199.0, 39, 34, 36, 36
162, 0.805, 2017/11/15 10:17:43.209上午, 1190.0, 39, 34, 37, 37
163, 0.81, 2017/11/15 10:17:43.214上午, 1196.0, 38, 34, 37, 36
164, 0.815, 2017/11/15 10:17:43.219上午, 1197.0, 38, 34, 36, 36
165, 0.82, 2017/11/15 10:17:43.224上午, 1194.0, 38, 34, 36, 36
166, 0.825, 2017/11/15 10:17:43.229上午, 1190.0, 38, 35, 36, 36
167, 0.83, 2017/11/15 10:17:43.234上午, 1204.0, 39, 34, 37, 37
168, 0.835, 2017/11/15 10:17:43.239上午, 1180.0, 39, 34, 37, 37
169, 0.84, 2017/11/15 10:17:43.244上午, 1213.0, 39, 34, 36, 36
170, 0.845, 2017/11/15 10:17:43.249上午, 1187.0, 38, 34, 37, 36
171, 0.85, 2017/11/15 10:17:43.254上午, 1199.0, 38, 34, 36, 36
172, 0.855, 2017/11/15 10:17:43.259上午, 1202.0, 38, 34, 37, 36
173, 0.86, 2017/11/15 10:17:43.264上午, 1196.0, 39, 35, 37, 37
174, 0.865, 2017/11/15 10:17:43.269上午, 1214.0, 39, 34, 36, 37
175, 0.87, 2017/11/15 10:17:43.274上午, 1187.0, 39, 34, 37, 37
176, 0.875, 2017/11/15 10:17:43.279上午, 1206.0, 39, 34, 37, 37
177, 0.88, 2017/11/15 10:17:43.284上午, 1192.0, 39, 34, 37, 37
178, 0.885, 2017/11/15 10:17:43.289上午, 1173.0, 39, 34, 37, 37
179, 0.89, 2017/11/15 10:17:43.294上午, 1204.0, 39, 34, 37, 37
180, 0.895, 2017/11/15 10:17:43.299上午, 1185.0, 38, 34, 36, 36
181, 0.9, 2017/11/15 10:17:43.304上午, 1190.0, 39, 34, 37, 37
182, 0.905, 2017/11/15 10:17:43.309上午, 1203.0, 39, 34, 37, 37
183, 0.91, 2017/11/15 10:17:43.314上午, 1208.0, 39, 34, 36, 36
184, 0.915, 2017/11/15 10:17:43.319上午, 1215.0, 39, 34, 36, 37
185, 0.92, 2017/11/15 10:17:43.324上午, 1173.0, 39, 34, 36, 37
186, 0.925, 2017/11/15 10:17:43.329上午, 1210.0, 39, 34, 37, 37
187, 0.93, 2017/11/15 10:17:43.334上午, 1191.0, 39, 35, 36, 37
188, 0.935, 2017/11/15 10:17:43.339上午, 1213.0, 39, 34, 37, 36
189, 0.94, 2017/11/15 10:17:43.344上午, 1191.0, 39, 35, 37, 37
190, 0.945, 2017/11/15 10:17:43.349上午, 1219.0, 39, 34, 37, 37
191, 0.95, 2017/11/15 10:17:43.354上午, 1188.0, 39, 34, 37, 37
192, 0.955, 2017/11/15 10:17:43.359上午, 1197.0, 39, 34, 36, 36
193, 0.96, 2017/11/15 10:17:43.364上午, 1199.0, 39, 34, 37, 37
194, 0.965, 2017/11/15 10:17:43.369上午, 1189.0, 39, 34, 36, 36
195, 0.97, 2017/11/15 10:17:43.374上午, 1214.0, 39, 34, 36, 37
196, 0.975, 2017/11/15 10:17:43.379上午, 1168.0, 39, 34, 37, 37
197, 0.98, 2017/11/15 10:17:43.384上午, 1186.0, 39, 34, 36, 36
198, 0.985, 2017/11/15 10:17:43.389上午, 1222.0, 39, 34, 36, 36
199, 0.99, 2017/11/15 10:17:43.394上午, 1189.0, 39, 34, 36, 36
200, 0.995, 2017/11/15 10:17:43.399上午, 1205.0, 39, 34, 36, 36
201, 1, 2017/11/15 10:17:43.404上午, 1189.0, 39, 34, 36, 36
202, 1.005, 2017/11/15 10:17:43.409上午, 1201.0, 39, 34, 36, 37
203, 1.01, 2017/11/15 10:17:43.414上午, 1192.0, 39, 34, 37, 36
204, 1.015, 2017/11/15 10:17:43.419上午, 1218.0, 39, 35, 36, 37
205, 1.02, 2017/11/15 10:17:43.424上午, 1203.0, 39, 34, 36, 37
206, 1.025, 2017/11/15 10:17:43.429上午, 1225.0, 39, 34, 36, 36
207, 1.03, 2017/11/15 10:17:43.434上午, 1200.0, 39, 34, 36, 36
208, 1.035, 2017/11/15 10:17:43.439上午, 1198.0, 39, 34, 36, 37
209, 1.04, 2017/11/15 10:17:43.444上午, 1194.0, 39, 34, 36, 37
210, 1.045, 2017/11/15 10:17:43.449上午, 1205.0, 39, 34, 37, 37
211, 1.05, 2017/11/15 10:17:43.454上午, 1191.0, 39, 34, 36, 36
212, 1.055, 2017/11/15 10:17:43.459上午, 1222.0, 39, 34, 36, 37
213, 1.06, 2017/11/15 10:17:43.464上午, 1200.0, 39, 34, 36, 36
214, 1.065, 2017/11/15 10:17:43.469上午, 1196.0, 39, 34, 36, 36
215, 1.07, 2017/11/15 10:17:43.474上午, 1208.0, 39, 34, 37, 37
216, 1.075, 2017/11/15 10:17:43.479上午, 1201.0, 39, 34, 36, 36
217, 1.08, 2017/11/15 10:17:43.484上午, 1212.0, 39, 34, 36, 36
218, 1.085, 2017/11/15 10:17:43.489上午, 1194.0, 39, 34, 36, 36
219, 1.09, 2017/11/15 10:17:43.494上午, 1191.0, 39, 35, 36, 37
220, 1.095, 2017/11/15 10:17:43.499上午, 1221.0, 39, 34, 37, 37
221, 1.1, 2017/11/15 10:17:43.504上午, 1209.0, 39, 34, 36, 36
222, 1.105, 2017/11/15 10:17:43.509上午, 1196.0, 39, 34, 36, 37
223, 1.11, 2017/11/15 10:17:43.514上午, 1202.0, 38, 34, 36, 36
224, 1.115, 2017/11/15 10:17:43.519上午, 1197.0, 39, 34, 36, 37
225, 1.12, 2017/11/15 10:17:43.524上午, 1191.0, 39, 34, 36, 36
226, 1.125, 2017/11/15 10:17:43.529上午, 1200.0, 39, 34, 36, 36
227, 1.13, 2017/11/15 10:17:43.534上午, 1192.0, 39, 34, 36, 36
228, 1.135, 2017/11/15 10:17:43.539上午, 1182.0, 39, 34, 36, 36
229, 1.14, 2017/11/15 10:17:43.544上午, 1217.0, 38, 34, 36, 36
230, 1.145, 2017/11/15 10:17:43.549上午, 1178.0, 39, 34, 35, 36
231, 1.15, 2017/11/15 10:17:43.554上午, 1201.0, 39, 34, 37, 37
232, 1.155, 2017/11/15 10:17:43.559上午, 1181.0, 39, 34, 36, 36
233, 1.16, 2017/11/15 10:17:43.564上午, 1219.0, 39, 34, 36, 36
234, 1.165, 2017/11/15 10:17:43.569上午, 1209.0, 38, 34, 36, 36
235, 1.17, 2017/11/15 10:17:43.574上午, 1175.0, 39, 35, 36, 37
236, 1.175, 2017/11/15 10:17:43.579上午, 1217.0, 39, 34, 36, 36
237, 1.18, 2017/11/15 10:17:43.584上午, 1202.0, 38, 34, 36, 36
238, 1.185, 2017/11/15 10:17:43.589上午, 1197.0, 39, 34, 36, 37
239, 1.19, 2017/11/15 10:17:43.594上午, 1209.0, 39, 34, 37, 36
240, 1.195, 2017/11/15 10:17:43.599上午, 1200.0, 39, 34, 36, 36
241, 1.2, 2017/11/15 10:17:43.604上午, 1195.0, 39, 34, 37, 37
242, 1.205, 2017/11/15 10:17:43.609上午, 1201.0, 38, 34, 37, 36
243, 1.21, 2017/11/15 10:17:43.614上午, 1219.0, 39, 34, 36, 36
244, 1.215, 2017/11/15 10:17:43.619上午, 1193.0, 38, 34, 37, 36
245, 1.22, 2017/11/15 10:17:43.624上午, 1224.0, 39, 34, 36, 37
246, 1.225, 2017/11/15 10:17:43.629上午, 1176.0, 38, 34, 36, 36
247, 1.23, 2017/11/15 10:17:43.634上午, 1221.0, 38, 34, 37, 36
248, 1.235, 2017/11/15 10:17:43.639上午, 1197.0, 38, 34, 36, 36
249, 1.24, 2017/11/15 10:17:43.644上午, 1210.0, 38, 34, 36, 36
250, 1.245, 2017/11/15 10:17:43.649上午, 1223.0, 38, 34, 36, 36
251, 1.25, 2017/11/15 10:17:43.654上午, 1200.0, 39, 34, 36, 36
252, 1.255, 2017/11/15 10:17:43.659上午, 1204.0, 39, 34, 37, 37
253, 1.26, 2017/11/15 10:17:43.664上午, 1197.0, 39, 33, 36, 36
254, 1.265, 2017/11/15 10:17:43.669上午, 1201.0, 38, 34, 36, 36
255, 1.27, 2017/11/15 10:17:43.674上午, 1206.0, 38, 34, 36, 36
256, 1.275, 2017/11/15 10:17:43.679上午, 1191.0, 39, 34, 37, 36
257, 1.28, 2017/11/15 10:17:43.684上午, 1178.0, 38, 34, 37, 36
258, 1.285, 2017/11/15 10:17:43.689上午, 1192.0, 38, 34, 36, 36
259, 1.29, 2017/11/15 10:17:43.694上午, 1213.0, 38, 34, 37, 36
260, 1.295, 2017/11/15 10:17:43.699上午, 1222.0, 39, 34, 36, 36
261, 1.3, 2017/11/15 10:17:43.704上午, 1203.0, 39, 34, 36, 36
262, 1.305, 2017/11/15 10:17:43.709上午, 1228.0, 39, 34, 36, 36
263, 1.31, 2017/11/15 10:17:43.714上午, 1183.0, 38, 34, 36, 36
264, 1.315, 2017/11/15 10:17:43.719上午, 1219.0, 38, 34, 37, 36
265, 1.32, 2017/11/15 10:17:43.724上午, 1198.0, 39, 34, 36, 36
266, 1.325, 2017/11/15 10:17:43.729上午, 1202.0, 38, 34, 36, 36
267, 1.33, 2017/11/15 10:17:43.734上午, 1191.0, 39, 34, 36, 36
268, 1.335, 2017/11/15 10:17:43.739上午, 1202.0, 39, 34, 37, 36
269, 1.34, 2017/11/15 10:17:43.744上午, 1212.0, 38, 34, 37, 37
270, 1.345, 2017/11/15 10:17:43.749上午, 1202.0, 38, 34, 36, 36
271, 1.35, 2017/11/15 10:17:43.754上午, 1205.0, 38, 34, 36, 36
272, 1.355, 2017/11/15 10:17:43.759上午, 1183.0, 38, 34, 37, 36
273, 1.36, 2017/11/15 10:17:43.764上午, 1212.0, 38, 34, 36, 36
274, 1.365, 2017/11/15 10:17:43.769上午, 1213.0, 38, 34, 36, 36
275, 1.37, 2017/11/15 10:17:43.774上午, 1197.0, 38, 34, 36, 36
276, 1.375, 2017/11/15 10:17:43.779上午, 1195.0, 39, 34, 37, 37
277, 1.38, 2017/11/15 10:17:43.784上午, 1165.0, 38, 34, 37, 36
278, 1.385, 2017/11/15 10:17:43.789上午, 1209.0, 38, 34, 37, 36
279, 1.39, 2017/11/15 10:17:43.794上午, 1171.0, 38, 34, 37, 36
280, 1.395, 2017/11/15 10:17:43.799上午, 1212.0, 38, 34, 36, 36
281, 1.4, 2017/11/15 10:17:43.804上午, 1191.0, 38, 34, 37, 36
282, 1.405, 2017/11/15 10:17:43.809上午, 1217.0, 38, 34, 36, 36
283, 1.41, 2017/11/15 10:17:43.814上午, 1198.0, 38, 34, 36, 36
284, 1.415, 2017/11/15 10:17:43.819上午, 1188.0, 38, 35, 36, 36
285, 1.42, 2017/11/15 10:17:43.824上午, 1211.0, 37, 34, 37, 36
286, 1.425, 2017/11/15 10:17:43.829上午, 1206.0, 38, 34, 36, 36
287, 1.43, 2017/11/15 10:17:43.834上午, 1196.0, 38, 34, 37, 36
288, 1.435, 2017/11/15 10:17:43.839上午, 1189.0, 38, 34, 37, 36
289, 1.44, 2017/11/15 10:17:43.844上午, 1204.0, 38, 34, 36, 36
290, 1.445, 2017/11/15 10:17:43.849上午, 1184.0, 38, 34, 37, 36
291, 1.45, 2017/11/15 10:17:43.854上午, 1205.0, 38, 34, 37, 36
292, 1.455, 2017/11/15 10:17:43.859上午, 1186.0, 38, 34, 36, 36
293, 1.46, 2017/11/15 10:17:43.864上午, 1194.0, 38, 34, 37, 36
294, 1.465, 2017/11/15 10:17:43.869上午, 1186.0, 38, 34, 36, 36
295, 1.47, 2017/11/15 10:17:43.874上午, 1196.0, 37, 34, 36, 36
296, 1.475, 2017/11/15 10:17:43.879上午, 1174.0, 37, 34, 36, 36
297, 1.48, 2017/11/15 10:17:43.884上午, 1181.0, 38, 35, 36, 36
298, 1.485, 2017/11/15 10:17:43.889上午, 1200.0, 38, 34, 36, 36
299, 1.49, 2017/11/15 10:17:43.894上午, 1185.0, 38, 34, 37, 36
300, 1.495, 2017/11/15 10:17:43.899上午, 1208.0, 38, 34, 36, 36
301, 1.5, 2017/11/15 10:17:43.904上午, 1181.0, 37, 34, 36, 36
302, 1.505, 2017/11/15 10:17:43.909上午, 1200.0, 38, 35, 36, 36
303, 1.51, 2017/11/15 10:17:43.914上午, 1188.0, 37, 34, 36, 36
304, 1.515, 2017/11/15 10:17:43.919上午, 1186.0, 38, 35, 36, 36
305, 1.52, 2017/11/15 10:17:43.924上午, 1188.0, 38, 34, 36, 36
306, 1.525, 2017/11/15 10:17:43.929上午, 1202.0, 38, 34, 36, 36
307, 1.53, 2017/11/15 10:17:43.934上午, 1184.0, 37, 34, 37, 36
308, 1.535, 2017/11/15 10:17:43.939上午, 1173.0, 38, 34, 37, 36
309, 1.54, 2017/11/15 10:17:43.944上午, 1184.0, 38, 33, 37, 36
310, 1.545, 2017/11/15 10:17:43.949上午, 1196.0, 38, 34, 37, 36
311, 1.55, 2017/11/15 10:17:43.954上午, 1171.0, 38, 33, 37, 36
312, 1.555, 2017/11/15 10:17:43.959上午, 1171.0, 38, 34, 36, 36
313, 1.56, 2017/11/15 10:17:43.964上午, 1175.0, 38, 34, 36, 36
314, 1.565, 2017/11/15 10:17:43.969上午, 1171.0, 37, 34, 36, 36
315, 1.57, 2017/11/15 10:17:43.974上午, 1175.0, 38, 34, 37, 36
316, 1.575, 2017/11/15 10:17:43.979上午, 1174.0, 38, 34, 36, 36
317, 1.58, 2017/11/15 10:17:43.984上午, 1156.0, 37, 35, 36, 36
318, 1.585, 2017/11/15 10:17:43.989上午, 1190.0, 38, 34, 36, 36
319, 1.59, 2017/11/15 10:17:43.994上午, 1177.0, 38, 34, 37, 36
320, 1.595, 2017/11/15 10:17:43.999上午, 1174.0, 37, 34, 37, 36
321, 1.6, 2017/11/15 10:17:44.004上午, 1174.0, 38, 34, 37, 36
322, 1.605, 2017/11/15 10:17:44.009上午, 1171.0, 37, 34, 36, 36
323, 1.61, 2017/11/15 10:17:44.014上午, 1177.0, 37, 34, 37, 36
324, 1.615, 2017/11/15 10:17:44.019上午, 1155.0, 37, 34, 37, 36
325, 1.62, 2017/11/15 10:17:44.024上午, 1167.0, 38, 34, 37, 36
326, 1.625, 2017/11/15 10:17:44.029上午, 1163.0, 38, 33, 37, 36
327, 1.63, 2017/11/15 10:17:44.034上午, 1162.0, 37, 34, 37, 36
328, 1.635, 2017/11/15 10:17:44.039上午, 1185.0, 38, 34, 37, 36
329, 1.64, 2017/11/15 10:17:44.044上午, 1187.0, 38, 34, 37, 36
330, 1.645, 2017/11/15 10:17:44.049上午, 1177.0, 37, 34, 37, 36
331, 1.65, 2017/11/15 10:17:44.054上午, 1170.0, 37, 34, 37, 36
332, 1.655, 2017/11/15 10:17:44.059上午, 1170.0, 38, 34, 36, 36
333, 1.66, 2017/11/15 10:17:44.064上午, 1186.0, 37, 34, 36, 36
334, 1.665, 2017/11/15 10:17:44.069上午, 1172.0, 37, 34, 37, 36
335, 1.67, 2017/11/15 10:17:44.074上午, 1164.0, 37, 34, 37, 36
336, 1.675, 2017/11/15 10:17:44.079上午, 1172.0, 37, 34, 37, 36
337, 1.68, 2017/11/15 10:17:44.084上午, 1179.0, 37, 33, 37, 36
338, 1.685, 2017/11/15 10:17:44.089上午, 1189.0, 37, 34, 36, 36
339, 1.69, 2017/11/15 10:17:44.094上午, 1187.0, 37, 34, 36, 36
340, 1.695, 2017/11/15 10:17:44.099上午, 1166.0, 37, 34, 37, 36
341, 1.7, 2017/11/15 10:17:44.104上午, 1164.0, 37, 34, 37, 36
342, 1.705, 2017/11/15 10:17:44.109上午, 1172.0, 37, 34, 37, 36
343, 1.71, 2017/11/15 10:17:44.114上午, 1158.0, 37, 34, 37, 36
344, 1.715, 2017/11/15 10:17:44.119上午, 1167.0, 37, 34, 37, 36
345, 1.72, 2017/11/15 10:17:44.124上午, 1174.0, 37, 34, 37, 36
346, 1.725, 2017/11/15 10:17:44.129上午, 1169.0, 37, 33, 37, 36
347, 1.73, 2017/11/15 10:17:44.134上午, 1172.0, 37, 34, 36, 36
348, 1.735, 2017/11/15 10:17:44.139上午, 1183.0, 37, 34, 37, 36
349, 1.74, 2017/11/15 10:17:44.144上午, 1166.0, 37, 34, 37, 36
350, 1.745, 2017/11/15 10:17:44.149上午, 1158.0, 38, 34, 37, 36
351, 1.75, 2017/11/15 10:17:44.154上午, 1178.0, 37, 34, 37, 36
352, 1.755, 2017/11/15 10:17:44.159上午, 1178.0, 37, 33, 37, 36
353, 1.76, 2017/11/15 10:17:44.164上午, 1180.0, 37, 34, 36, 36
354, 1.765, 2017/11/15 10:17:44.169上午, 1177.0, 38, 33, 37, 36
355, 1.77, 2017/11/15 10:17:44.174上午, 1174.0, 37, 34, 37, 36
356, 1.775, 2017/11/15 10:17:44.179上午, 1176.0, 37, 34, 36, 36
357, 1.78, 2017/11/15 10:17:44.184上午, 1161.0, 37, 34, 36, 36
358, 1.785, 2017/11/15 10:17:44.189上午, 1165.0, 37, 34, 37, 36
359, 1.79, 2017/11/15 10:17:44.194上午, 1176.0, 37, 34, 36, 36
360, 1.795, 2017/11/15 10:17:44.199上午, 1163.0, 37, 35, 37, 36
361, 1.8, 2017/11/15 10:17:44.204上午, 1173.0, 37, 34, 37, 36
362, 1.805, 2017/11/15 10:17:44.209上午, 1153.0, 37, 34, 37, 36
363, 1.81, 2017/11/15 10:17:44.214上午, 1160.0, 37, 34, 36, 36
364, 1.815, 2017/11/15 10:17:44.219上午, 1156.0, 37, 34, 37, 36
365, 1.82, 2017/11/15 10:17:44.224上午, 1168.0, 37, 34, 36, 36
366, 1.825, 2017/11/15 10:17:44.229上午, 1162.0, 37, 34, 37, 36
367, 1.83, 2017/11/15 10:17:44.234上午, 1170.0, 37, 34, 37, 36
368, 1.835, 2017/11/15 10:17:44.239上午, 1151.0, 37, 34, 37, 36
369, 1.84, 2017/11/15 10:17:44.244上午, 1171.0, 37, 34, 37, 36
370, 1.845, 2017/11/15 10:17:44.249上午, 1163.0, 37, 33, 36, 35
371, 1.85, 2017/11/15 10:17:44.254上午, 1172.0, 37, 34, 37, 36
372, 1.855, 2017/11/15 10:17:44.259上午, 1161.0, 37, 33, 37, 36
373, 1.86, 2017/11/15 10:17:44.264上午, 1148.0, 37, 34, 37, 36
374, 1.865, 2017/11/15 10:17:44.269上午, 1156.0, 37, 34, 37, 36
375, 1.87, 2017/11/15 10:17:44.274上午, 1151.0, 36, 34, 37, 36
376, 1.875, 2017/11/15 10:17:44.279上午, 1167.0, 37, 34, 36, 36
377, 1.88, 2017/11/15 10:17:44.284上午, 1162.0, 36, 34, 36, 35
378, 1.885, 2017/11/15 10:17:44.289上午, 1153.0, 37, 34, 37, 36
379, 1.89, 2017/11/15 10:17:44.294上午, 1178.0, 37, 33, 37, 36
380, 1.895, 2017/11/15 10:17:44.299上午, 1168.0, 37, 34, 37, 36
381, 1.9, 2017/11/15 10:17:44.304上午, 1152.0, 37, 34, 37, 36
382, 1.905, 2017/11/15 10:17:44.309上午, 1154.0, 37, 34, 37, 36
383, 1.91, 2017/11/15 10:17:44.314上午, 1167.0, 36, 34, 36, 36
384, 1.915, 2017/11/15 10:17:44.319上午, 1176.0, 37, 33, 37, 36
385, 1.92, 2017/11/15 10:17:44.324上午, 1176.0, 37, 34, 37, 36
386, 1.925, 2017/11/15 10:17:44.329上午, 1174.0, 37, 34, 37, 36
387, 1.93, 2017/11/15 10:17:44.334上午, 1161.0, 37, 34, 37, 36
388, 1.935, 2017/11/15 10:17:44.339上午, 1181.0, 37, 34, 37, 36
389, 1.94, 2017/11/15 10:17:44.344上午, 1151.0, 37, 34, 37, 36
390, 1.945, 2017/11/15 10:17:44.349上午, 1165.0, 37, 34, 37, 36
391, 1.95, 2017/11/15 10:17:44.354上午, 1153.0, 37, 34, 36, 35
392, 1.955, 2017/11/15 10:17:44.359上午, 1166.0, 37, 34, 36, 36
393, 1.96, 2017/11/15 10:17:44.364上午, 1144.0, 37, 33, 36, 36
394, 1.965, 2017/11/15 10:17:44.369上午, 1162.0, 37, 34, 37, 36
395, 1.97, 2017/11/15 10:17:44.374上午, 1174.0, 37, 34, 37, 36
396, 1.975, 2017/11/15 10:17:44.379上午, 1162.0, 37, 34, 36, 36
397, 1.98, 2017/11/15 10:17:44.384上午, 1160.0, 37, 35, 37, 36
398, 1.985, 2017/11/15 10:17:44.389上午, 1166.0, 37, 34, 37, 36
399, 1.99, 2017/11/15 10:17:44.394上午, 1176.0, 37, 34, 36, 36
400, 1.995, 2017/11/15 10:17:44.399上午, 1158.0, 36, 34, 37, 36
401, 2, 2017/11/15 10:17:44.404上午, 1162.0, 37, 34, 37, 36
402, 2.005, 2017/11/15 10:17:44.409上午, 1165.0, 37, 34, 37, 36
403, 2.01, 2017/11/15 10:17:44.414上午, 1155.0, 37, 35, 37, 36
404, 2.015, 2017/11/15 10:17:44.419上午, 1176.0, 36, 34, 37, 35
405, 2.02, 2017/11/15 10:17:44.424上午, 1170.0, 37, 34, 36, 36
406, 2.025, 2017/11/15 10:17:44.429上午, 1177.0, 36, 34, 37, 36
407, 2.03, 2017/11/15 10:17:44.434上午, 1179.0, 37, 34, 36, 36
408, 2.035, 2017/11/15 10:17:44.439上午, 1169.0, 36, 33, 37, 35
409, 2.04, 2017/11/15 10:17:44.444上午, 1180.0, 37, 34, 36, 36
410, 2.045, 2017/11/15 10:17:44.449上午, 1161.0, 37, 33, 37, 36
411, 2.05, 2017/11/15 10:17:44.454上午, 1158.0, 37, 34, 37, 36
412, 2.055, 2017/11/15 10:17:44.459上午, 1181.0, 37, 34, 36, 36
413, 2.06, 2017/11/15 10:17:44.464上午, 1171.0, 37, 33, 37, 36
414, 2.065, 2017/11/15 10:17:44.469上午, 1147.0, 37, 34, 36, 36
415, 2.07, 2017/11/15 10:17:44.474上午, 1170.0, 37, 33, 36, 36
416, 2.075, 2017/11/15 10:17:44.479上午, 1163.0, 37, 34, 37, 36
417, 2.08, 2017/11/15 10:17:44.484上午, 1169.0, 37, 34, 37, 36
418, 2.085, 2017/11/15 10:17:44.489上午, 1172.0, 37, 34, 37, 36
419, 2.09, 2017/11/15 10:17:44.494上午, 1190.0, 37, 34, 37, 36
420, 2.095, 2017/11/15 10:17:44.499上午, 1156.0, 37, 34, 37, 36
421, 2.1, 2017/11/15 10:17:44.504上午, 1166.0, 37, 35, 36, 36
422, 2.105, 2017/11/15 10:17:44.509上午, 1172.0, 37, 33, 36, 35
423, 2.11, 2017/11/15 10:17:44.514上午, 1174.0, 37, 34, 37, 36
424, 2.115, 2017/11/15 10:17:44.519上午, 1173.0, 37, 33, 36, 36
425, 2.12, 2017/11/15 10:17:44.524上午, 1167.0, 37, 34, 36, 36
426, 2.125, 2017/11/15 10:17:44.529上午, 1155.0, 37, 33, 37, 36
427, 2.13, 2017/11/15 10:17:44.534上午, 1177.0, 38, 34, 37, 36
428, 2.135, 2017/11/15 10:17:44.539上午, 1166.0, 37, 34, 36, 36
429, 2.14, 2017/11/15 10:17:44.544上午, 1178.0, 38, 34, 37, 36
430, 2.145, 2017/11/15 10:17:44.549上午, 1171.0, 38, 34, 37, 36
431, 2.15, 2017/11/15 10:17:44.554上午, 1178.0, 38, 34, 37, 36
432, 2.155, 2017/11/15 10:17:44.559上午, 1166.0, 37, 34, 36, 36
433, 2.16, 2017/11/15 10:17:44.564上午, 1177.0, 38, 34, 36, 36
434, 2.165, 2017/11/15 10:17:44.569上午, 1168.0, 37, 33, 36, 36
435, 2.17, 2017/11/15 10:17:44.574上午, 1170.0, 37, 34, 36, 36
436, 2.175, 2017/11/15 10:17:44.579上午, 1185.0, 38, 34, 36, 36
437, 2.18, 2017/11/15 10:17:44.584上午, 1172.0, 37, 33, 36, 36
438, 2.185, 2017/11/15 10:17:44.589上午, 1169.0, 38, 34, 36, 36
439, 2.19, 2017/11/15 10:17:44.594上午, 1170.0, 38, 34, 36, 36
440, 2.195, 2017/11/15 10:17:44.599上午, 1193.0, 38, 34, 36, 36
441, 2.2, 2017/11/15 10:17:44.604上午, 1183.0, 37, 33, 36, 36
442, 2.205, 2017/11/15 10:17:44.609上午, 1183.0, 38, 34, 37, 36
443, 2.21, 2017/11/15 10:17:44.614上午, 1169.0, 38, 33, 36, 36
444, 2.215, 2017/11/15 10:17:44.619上午, 1188.0, 38, 34, 36, 36
445, 2.22, 2017/11/15 10:17:44.624上午, 1176.0, 38, 34, 36, 36
446, 2.225, 2017/11/15 10:17:44.629上午, 1204.0, 38, 34, 36, 36
447, 2.23, 2017/11/15 10:17:44.634上午, 1195.0, 38, 33, 36, 36
448, 2.235, 2017/11/15 10:17:44.639上午, 1176.0, 38, 34, 36, 36
449, 2.24, 2017/11/15 10:17:44.644上午, 1201.0, 38, 34, 36, 36
450, 2.245, 2017/11/15 10:17:44.649上午, 1163.0, 38, 34, 36, 36
451, 2.25, 2017/11/15 10:17:44.654上午, 1191.0, 38, 34, 36, 36
452, 2.255, 2017/11/15 10:17:44.659上午, 1191.0, 38, 34, 36, 36
453, 2.26, 2017/11/15 10:17:44.664上午, 1179.0, 38, 33, 36, 36
454, 2.265, 2017/11/15 10:17:44.669上午, 1177.0, 38, 34, 36, 36
455, 2.27, 2017/11/15 10:17:44.674上午, 1193.0, 38, 34, 36, 36
456, 2.275, 2017/11/15 10:17:44.679上午, 1167.0, 38, 33, 36, 36
457, 2.28, 2017/11/15 10:17:44.684上午, 1181.0, 38, 34, 36, 36
458, 2.285, 2017/11/15 10:17:44.689上午, 1205.0, 38, 34, 36, 36
459, 2.29, 2017/11/15 10:17:44.694上午, 1183.0, 39, 34, 36, 36
460, 2.295, 2017/11/15 10:17:44.699上午, 1199.0, 38, 34, 36, 36
461, 2.3, 2017/11/15 10:17:44.704上午, 1194.0, 38, 34, 36, 36
462, 2.305, 2017/11/15 10:17:44.709上午, 1181.0, 38, 34, 35, 36
463, 2.31, 2017/11/15 10:17:44.714上午, 1185.0, 38, 34, 36, 36
464, 2.315, 2017/11/15 10:17:44.719上午, 1185.0, 38, 33, 35, 36
465, 2.32, 2017/11/15 10:17:44.724上午, 1205.0, 39, 34, 37, 36
466, 2.325, 2017/11/15 10:17:44.729上午, 1179.0, 39, 34, 36, 36
467, 2.33, 2017/11/15 10:17:44.734上午, 1190.0, 39, 34, 35, 36
468, 2.335, 2017/11/15 10:17:44.739上午, 1191.0, 38, 34, 36, 36
469, 2.34, 2017/11/15 10:17:44.744上午, 1195.0, 38, 34, 36, 36
470, 2.345, 2017/11/15 10:17:44.749上午, 1200.0, 39, 34, 36, 36
471, 2.35, 2017/11/15 10:17:44.754上午, 1157.0, 38, 34, 36, 36
472, 2.355, 2017/11/15 10:17:44.759上午, 1196.0, 39, 34, 36, 36
473, 2.36, 2017/11/15 10:17:44.764上午, 1172.0, 38, 34, 35, 36
474, 2.365, 2017/11/15 10:17:44.769上午, 1192.0, 39, 34, 36, 36
475, 2.37, 2017/11/15 10:17:44.774上午, 1189.0, 39, 34, 36, 36
476, 2.375, 2017/11/15 10:17:44.779上午, 1169.0, 38, 34, 36, 36
477, 2.38, 2017/11/15 10:17:44.784上午, 1192.0, 39, 34, 36, 36
478, 2.385, 2017/11/15 10:17:44.789上午, 1201.0, 38, 34, 36, 36
479, 2.39, 2017/11/15 10:17:44.794上午, 1189.0, 39, 34, 36, 36
480, 2.395, 2017/11/15 10:17:44.799上午, 1204.0, 39, 34, 36, 36
481, 2.4, 2017/11/15 10:17:44.804上午, 1182.0, 39, 33, 36, 36
482, 2.405, 2017/11/15 10:17:44.809上午, 1199.0, 39, 34, 36, 36
483, 2.41, 2017/11/15 10:17:44.814上午, 1186.0, 38, 33, 36, 36
484, 2.415, 2017/11/15 10:17:44.819上午, 1181.0, 38, 34, 35, 36
485, 2.42, 2017/11/15 10:17:44.824上午, 1215.0, 38, 34, 36, 36
486, 2.425, 2017/11/15 10:17:44.829上午, 1173.0, 38, 34, 36, 36
487, 2.43, 2017/11/15 10:17:44.834上午, 1194.0, 38, 34, 36, 36
488, 2.435, 2017/11/15 10:17:44.839上午, 1207.0, 39, 34, 36, 36
489, 2.44, 2017/11/15 10:17:44.844上午, 1188.0, 39, 34, 36, 36
490, 2.445, 2017/11/15 10:17:44.849上午, 1158.0, 38, 34, 36, 36
491, 2.45, 2017/11/15 10:17:44.854上午, 1182.0, 39, 34, 36, 36
492, 2.455, 2017/11/15 10:17:44.859上午, 1187.0, 39, 34, 36, 36
493, 2.46, 2017/11/15 10:17:44.864上午, 1204.0, 39, 34, 36, 36
494, 2.465, 2017/11/15 10:17:44.869上午, 1186.0, 38, 34, 35, 36
495, 2.47, 2017/11/15 10:17:44.874上午, 1187.0, 38, 34, 36, 36
496, 2.475, 2017/11/15 10:17:44.879上午, 1207.0, 39, 34, 36, 36
497, 2.48, 2017/11/15 10:17:44.884上午, 1185.0, 38, 34, 36, 36
498, 2.485, 2017/11/15 10:17:44.889上午, 1177.0, 38, 34, 36, 36
499, 2.49, 2017/11/15 10:17:44.894上午, 1208.0, 39, 34, 36, 36
500, 2.495, 2017/11/15 10:17:44.899上午, 1200.0, 38, 34, 36, 36
501, 2.5, 2017/11/15 10:17:44.904上午, 1163.0, 39, 34, 35, 36
502, 2.505, 2017/11/15 10:17:44.909上午, 1199.0, 39, 34, 36, 36
503, 2.51, 2017/11/15 10:17:44.914上午, 1187.0, 39, 34, 35, 36
504, 2.515, 2017/11/15 10:17:44.919上午, 1202.0, 38, 34, 36, 36
505, 2.52, 2017/11/15 10:17:44.924上午, 1187.0, 38, 34, 36, 36
506, 2.525, 2017/11/15 10:17:44.929上午, 1172.0, 38, 34, 36, 36
507, 2.53, 2017/11/15 10:17:44.934上午, 1187.0, 38, 34, 37, 36
508, 2.535, 2017/11/15 10:17:44.939上午, 1187.0, 39, 34, 36, 36
509, 2.54, 2017/11/15 10:17:44.944上午, 1199.0, 38, 34, 36, 36
510, 2.545, 2017/11/15 10:17:44.949上午, 1177.0, 38, 34, 36, 36
511, 2.55, 2017/11/15 10:17:44.954上午, 1205.0, 38, 34, 36, 36
512, 2.555, 2017/11/15 10:17:44.959上午, 1211.0, 39, 34, 36, 36
513, 2.56, 2017/11/15 10:17:44.964上午, 1183.0, 38, 34, 36, 36
514, 2.565, 2017/11/15 10:17:44.969上午, 1185.0, 38, 34, 36, 36
515, 2.57, 2017/11/15 10:17:44.974上午, 1180.0, 38, 34, 36, 36
516, 2.575, 2017/11/15 10:17:44.979上午, 1207.0, 38, 34, 36, 36
517, 2.58, 2017/11/15 10:17:44.984上午, 1181.0, 38, 34, 36, 36
518, 2.585, 2017/11/15 10:17:44.989上午, 1186.0, 38, 34, 36, 36
519, 2.59, 2017/11/15 10:17:44.994上午, 1175.0, 38, 34, 36, 36
520, 2.595, 2017/11/15 10:17:44.999上午, 1194.0, 38, 34, 36, 36
521, 2.6, 2017/11/15 10:17:45.004上午, 1192.0, 38, 34, 36, 36
522, 2.605, 2017/11/15 10:17:45.009上午, 1175.0, 38, 34, 36, 36
523, 2.61, 2017/11/15 10:17:45.014上午, 1193.0, 38, 34, 36, 36
524, 2.615, 2017/11/15 10:17:45.019上午, 1170.0, 38, 34, 36, 36
525, 2.62, 2017/11/15 10:17:45.024上午, 1196.0, 38, 34, 36, 36
526, 2.625, 2017/11/15 10:17:45.029上午, 1158.0, 37, 34, 36, 36
527, 2.63, 2017/11/15 10:17:45.034上午, 1195.0, 38, 34, 36, 36
528, 2.635, 2017/11/15 10:17:45.039上午, 1182.0, 38, 35, 36, 36
529, 2.64, 2017/11/15 10:17:45.044上午, 1187.0, 38, 34, 36, 36
530, 2.645, 2017/11/15 10:17:45.049上午, 1165.0, 37, 34, 36, 36
531, 2.65, 2017/11/15 10:17:45.054上午, 1193.0, 38, 35, 36, 36
532, 2.655, 2017/11/15 10:17:45.059上午, 1175.0, 37, 34, 36, 36
533, 2.66, 2017/11/15 10:17:45.064上午, 1188.0, 38, 34, 36, 36
534, 2.665, 2017/11/15 10:17:45.069上午, 1198.0, 38, 34, 36, 36
535, 2.67, 2017/11/15 10:17:45.074上午, 1177.0, 38, 35, 36, 36
536, 2.675, 2017/11/15 10:17:45.079上午, 1194.0, 38, 34, 36, 36
537, 2.68, 2017/11/15 10:17:45.084上午, 1197.0, 38, 34, 36, 36
538, 2.685, 2017/11/15 10:17:45.089上午, 1208.0, 38, 34, 36, 36
539, 2.69, 2017/11/15 10:17:45.094上午, 1203.0, 38, 34, 35, 36
540, 2.695, 2017/11/15 10:17:45.099上午, 1189.0, 38, 34, 36, 36
541, 2.7, 2017/11/15 10:17:45.104上午, 1213.0, 38, 34, 36, 36
542, 2.705, 2017/11/15 10:17:45.109上午, 1170.0, 37, 34, 36, 36
543, 2.71, 2017/11/15 10:17:45.114上午, 1192.0, 37, 34, 36, 36
544, 2.715, 2017/11/15 10:17:45.119上午, 1197.0, 38, 34, 36, 36
545, 2.72, 2017/11/15 10:17:45.124上午, 1190.0, 38, 34, 36, 36
546, 2.725, 2017/11/15 10:17:45.129上午, 1188.0, 37, 34, 36, 36
547, 2.73, 2017/11/15 10:17:45.134上午, 1195.0, 37, 34, 36, 36
548, 2.735, 2017/11/15 10:17:45.139上午, 1186.0, 37, 34, 36, 36
549, 2.74, 2017/11/15 10:17:45.144上午, 1197.0, 38, 34, 36, 36
550, 2.745, 2017/11/15 10:17:45.149上午, 1198.0, 38, 34, 36, 36
551, 2.75, 2017/11/15 10:17:45.154上午, 1194.0, 38, 34, 36, 36
552, 2.755, 2017/11/15 10:17:45.159上午, 1181.0, 37, 34, 36, 36
553, 2.76, 2017/11/15 10:17:45.164上午, 1196.0, 38, 35, 36, 36
554, 2.765, 2017/11/15 10:17:45.169上午, 1203.0, 38, 34, 36, 36
555, 2.77, 2017/11/15 10:17:45.174上午, 1190.0, 38, 34, 36, 36
556, 2.775, 2017/11/15 10:17:45.179上午, 1200.0, 38, 35, 36, 36
557, 2.78, 2017/11/15 10:17:45.184上午, 1200.0, 38, 34, 36, 36
558, 2.785, 2017/11/15 10:17:45.189上午, 1188.0, 38, 34, 36, 36
559, 2.79, 2017/11/15 10:17:45.194上午, 1198.0, 38, 34, 36, 36
560, 2.795, 2017/11/15 10:17:45.199上午, 1182.0, 38, 34, 36, 36
561, 2.8, 2017/11/15 10:17:45.204上午, 1180.0, 38, 34, 36, 36
562, 2.805, 2017/11/15 10:17:45.209上午, 1183.0, 37, 34, 36, 36
563, 2.81, 2017/11/15 10:17:45.214上午, 1176.0, 38, 34, 36, 36
564, 2.815, 2017/11/15 10:17:45.219上午, 1196.0, 38, 34, 36, 36
565, 2.82, 2017/11/15 10:17:45.224上午, 1178.0, 37, 34, 36, 36
566, 2.825, 2017/11/15 10:17:45.229上午, 1190.0, 38, 34, 36, 36
567, 2.83, 2017/11/15 10:17:45.234上午, 1191.0, 38, 34, 36, 36
568, 2.835, 2017/11/15 10:17:45.239上午, 1184.0, 38, 34, 36, 36
569, 2.84, 2017/11/15 10:17:45.244上午, 1202.0, 38, 35, 36, 36
570, 2.845, 2017/11/15 10:17:45.249上午, 1178.0, 38, 34, 36, 36
571, 2.85, 2017/11/15 10:17:45.254上午, 1207.0, 38, 34, 36, 36
572, 2.855, 2017/11/15 10:17:45.259上午, 1188.0, 38, 34, 36, 36
573, 2.86, 2017/11/15 10:17:45.264上午, 1192.0, 38, 34, 36, 36
574, 2.865, 2017/11/15 10:17:45.269上午, 1210.0, 38, 35, 36, 36
575, 2.87, 2017/11/15 10:17:45.274上午, 1201.0, 38, 34, 36, 36
576, 2.875, 2017/11/15 10:17:45.279上午, 1199.0, 38, 34, 36, 36
577, 2.88, 2017/11/15 10:17:45.284上午, 1182.0, 38, 34, 36, 36
578, 2.885, 2017/11/15 10:17:45.289上午, 1166.0, 38, 34, 37, 36
579, 2.89, 2017/11/15 10:17:45.294上午, 1213.0, 38, 34, 36, 36
580, 2.895, 2017/11/15 10:17:45.299上午, 1201.0, 38, 34, 36, 36
581, 2.9, 2017/11/15 10:17:45.304上午, 1194.0, 38, 34, 36, 36
582, 2.905, 2017/11/15 10:17:45.309上午, 1193.0, 38, 34, 36, 36
583, 2.91, 2017/11/15 10:17:45.314上午, 1210.0, 38, 35, 36, 36
584, 2.915, 2017/11/15 10:17:45.319上午, 1198.0, 38, 34, 36, 36
585, 2.92, 2017/11/15 10:17:45.324上午, 1193.0, 38, 35, 36, 36
586, 2.925, 2017/11/15 10:17:45.329上午, 1200.0, 38, 34, 36, 36
587, 2.93, 2017/11/15 10:17:45.334上午, 1188.0, 38, 34, 36, 36
588, 2.935, 2017/11/15 10:17:45.339上午, 1197.0, 38, 34, 36, 36
589, 2.94, 2017/11/15 10:17:45.344上午, 1191.0, 38, 34, 36, 36
590, 2.945, 2017/11/15 10:17:45.349上午, 1215.0, 38, 34, 36, 36
591, 2.95, 2017/11/15 10:17:45.354上午, 1168.0, 38, 35, 36, 36
592, 2.955, 2017/11/15 10:17:45.359上午, 1194.0, 38, 34, 36, 36
593, 2.96, 2017/11/15 10:17:45.364上午, 1189.0, 38, 34, 36, 36
594, 2.965, 2017/11/15 10:17:45.369上午, 1191.0, 38, 34, 36, 36
595, 2.97, 2017/11/15 10:17:45.374上午, 1194.0, 38, 34, 36, 36
596, 2.975, 2017/11/15 10:17:45.379上午, 1188.0, 38, 34, 36, 36
597, 2.98, 2017/11/15 10:17:45.384上午, 1193.0, 38, 34, 37, 36
598, 2.985, 2017/11/15 10:17:45.389上午, 1198.0, 38, 34, 36, 36
599, 2.99, 2017/11/15 10:17:45.394上午, 1195.0, 38, 34, 36, 36
600, 2.995, 2017/11/15 10:17:45.399上午, 1195.0, 38, 34, 36, 36
@@
