DATA_TYPE Graph
VERSION Tekscan Pressure Measurement System 6.70-03
HARDWARE 00114-3443
MAP_VERSION 6.5
HW_TYPE 4
VersaPogoFsx 0
檔案名 C:\Users\Toby\Desktop\Data\S01\Arch\01_0930_socks_L_3.fsx
SENSOR_TYPE FSCAN
ROWS 60
COLS 21
ROW_SPACING 0.508 centimeters
COL_SPACING 0.508 centimeters
SENSEL_AREA 0.258064 cm2
NOISE_THRESHOLD 3
SECONDS_PER_FRAME 0.005
SECONDS_PER_FRAME 0
MICRO_SECOND 0
TIME 2017/9/29 06:41:46.113下午
SATURATION_PRESSURE 3322.35 KPa 
CALIBRATION_POINT_1 132.277 (Pounds) 1750 (Raw Sum) 237 (Number of Loaded Cells)
CALIBRATION_MODE_1 步態
CALIBRATION_INFO C:\Users\Toby\Desktop\Data\S01\Arch\01_0930_socks_L_3.fsx
SENSITIVITY 自定義
MAP_INDEX 1
SUBMAP 1
Patient ID: 

Speed of Gait: 

Weight: 

Gender: 

Physician: 

Technician: 

Shoe: 

START_FRAME 1
END_FRAME 1000
UNITS cm2
ASCII_DATA @@
畫面(X), 時間(X), 絕對時間(X), Raw Sum, 區域(Y:黃色), 區域(Y), 區域(Y)
1, 0, 2017/9/29 06:41:46.113下午, 1119.0, 22.71, 0.00, 22.19
2, 0.005, 2017/9/29 06:41:46.118下午, 1122.0, 22.97, 0.00, 21.94
3, 0.01, 2017/9/29 06:41:46.123下午, 1164.0, 23.48, 0.52, 23.48
4, 0.015, 2017/9/29 06:41:46.128下午, 1095.0, 22.71, 0.00, 22.19
5, 0.02, 2017/9/29 06:41:46.133下午, 1149.0, 23.74, 0.52, 22.97
6, 0.025, 2017/9/29 06:41:46.138下午, 1183.0, 22.97, 0.52, 23.74
7, 0.03, 2017/9/29 06:41:46.143下午, 1144.0, 22.97, 0.52, 22.97
8, 0.035, 2017/9/29 06:41:46.148下午, 1130.0, 22.97, 0.52, 22.19
9, 0.04, 2017/9/29 06:41:46.153下午, 1147.0, 24.00, 0.00, 22.71
10, 0.045, 2017/9/29 06:41:46.158下午, 1163.0, 23.74, 0.52, 23.48
11, 0.05, 2017/9/29 06:41:46.163下午, 1120.0, 23.23, 0.00, 23.23
12, 0.055, 2017/9/29 06:41:46.168下午, 1132.0, 23.48, 0.52, 22.19
13, 0.06, 2017/9/29 06:41:46.173下午, 1155.0, 23.48, 0.52, 22.71
14, 0.065, 2017/9/29 06:41:46.178下午, 1143.0, 23.48, 0.52, 22.45
15, 0.07, 2017/9/29 06:41:46.183下午, 1128.0, 23.23, 0.00, 22.19
16, 0.075, 2017/9/29 06:41:46.188下午, 1158.0, 24.00, 0.00, 22.71
17, 0.08, 2017/9/29 06:41:46.193下午, 1130.0, 22.71, 0.00, 22.71
18, 0.085, 2017/9/29 06:41:46.198下午, 1123.0, 22.97, 0.00, 22.71
19, 0.09, 2017/9/29 06:41:46.203下午, 1145.0, 22.97, 0.00, 22.97
20, 0.095, 2017/9/29 06:41:46.208下午, 1167.0, 23.23, 0.00, 23.74
21, 0.1, 2017/9/29 06:41:46.213下午, 1144.0, 23.23, 0.52, 22.97
22, 0.105, 2017/9/29 06:41:46.218下午, 1156.0, 23.48, 0.52, 22.45
23, 0.11, 2017/9/29 06:41:46.223下午, 1140.0, 23.23, 0.52, 22.45
24, 0.115, 2017/9/29 06:41:46.228下午, 1145.0, 23.48, 0.52, 22.45
25, 0.12, 2017/9/29 06:41:46.233下午, 1147.0, 23.48, 0.52, 22.97
26, 0.125, 2017/9/29 06:41:46.238下午, 1163.0, 23.74, 0.52, 23.23
27, 0.13, 2017/9/29 06:41:46.243下午, 1159.0, 23.74, 0.52, 23.23
28, 0.135, 2017/9/29 06:41:46.248下午, 1152.0, 23.48, 0.00, 22.71
29, 0.14, 2017/9/29 06:41:46.253下午, 1146.0, 23.74, 0.52, 23.23
30, 0.145, 2017/9/29 06:41:46.258下午, 1148.0, 24.00, 0.00, 21.68
31, 0.15, 2017/9/29 06:41:46.263下午, 1135.0, 23.23, 0.00, 22.71
32, 0.155, 2017/9/29 06:41:46.268下午, 1156.0, 24.26, 0.00, 22.71
33, 0.16, 2017/9/29 06:41:46.273下午, 1177.0, 23.48, 0.52, 22.97
34, 0.165, 2017/9/29 06:41:46.278下午, 1144.0, 22.71, 0.52, 22.45
35, 0.17, 2017/9/29 06:41:46.283下午, 1174.0, 23.23, 0.52, 22.97
36, 0.175, 2017/9/29 06:41:46.288下午, 1184.0, 23.48, 0.00, 23.48
37, 0.18, 2017/9/29 06:41:46.293下午, 1148.0, 23.48, 0.00, 22.19
38, 0.185, 2017/9/29 06:41:46.298下午, 1150.0, 23.23, 0.00, 22.97
39, 0.19, 2017/9/29 06:41:46.303下午, 1194.0, 23.74, 0.52, 23.23
40, 0.195, 2017/9/29 06:41:46.308下午, 1168.0, 24.00, 0.52, 22.71
41, 0.2, 2017/9/29 06:41:46.313下午, 1147.0, 23.23, 0.52, 22.71
42, 0.205, 2017/9/29 06:41:46.318下午, 1173.0, 23.23, 0.52, 24.00
43, 0.21, 2017/9/29 06:41:46.323下午, 1177.0, 23.23, 0.52, 23.23
44, 0.215, 2017/9/29 06:41:46.328下午, 1172.0, 22.97, 0.52, 22.97
45, 0.22, 2017/9/29 06:41:46.333下午, 1156.0, 23.48, 0.52, 23.23
46, 0.225, 2017/9/29 06:41:46.338下午, 1182.0, 24.00, 0.52, 23.48
47, 0.23, 2017/9/29 06:41:46.343下午, 1164.0, 23.74, 0.00, 23.48
48, 0.235, 2017/9/29 06:41:46.348下午, 1176.0, 23.23, 0.00, 23.23
49, 0.24, 2017/9/29 06:41:46.353下午, 1186.0, 24.00, 0.00, 23.48
50, 0.245, 2017/9/29 06:41:46.358下午, 1187.0, 23.23, 0.00, 24.00
51, 0.25, 2017/9/29 06:41:46.363下午, 1142.0, 23.48, 0.00, 22.45
52, 0.255, 2017/9/29 06:41:46.368下午, 1174.0, 24.00, 0.52, 22.45
53, 0.26, 2017/9/29 06:41:46.373下午, 1182.0, 24.00, 0.52, 22.71
54, 0.265, 2017/9/29 06:41:46.378下午, 1160.0, 23.74, 0.52, 22.19
55, 0.27, 2017/9/29 06:41:46.383下午, 1206.0, 24.26, 0.77, 23.23
56, 0.275, 2017/9/29 06:41:46.388下午, 1192.0, 23.48, 0.00, 22.97
57, 0.28, 2017/9/29 06:41:46.393下午, 1211.0, 24.00, 0.52, 22.97
58, 0.285, 2017/9/29 06:41:46.398下午, 1180.0, 23.74, 0.00, 22.45
59, 0.29, 2017/9/29 06:41:46.403下午, 1193.0, 23.74, 0.00, 22.71
60, 0.295, 2017/9/29 06:41:46.408下午, 1206.0, 24.00, 0.00, 22.19
61, 0.3, 2017/9/29 06:41:46.413下午, 1185.0, 24.00, 0.52, 21.94
62, 0.305, 2017/9/29 06:41:46.418下午, 1195.0, 23.74, 0.52, 21.94
63, 0.31, 2017/9/29 06:41:46.423下午, 1209.0, 23.74, 0.52, 22.97
64, 0.315, 2017/9/29 06:41:46.428下午, 1202.0, 23.48, 0.52, 22.71
65, 0.32, 2017/9/29 06:41:46.433下午, 1194.0, 22.97, 0.52, 22.45
66, 0.325, 2017/9/29 06:41:46.438下午, 1234.0, 24.00, 0.52, 22.71
67, 0.33, 2017/9/29 06:41:46.443下午, 1227.0, 23.74, 0.52, 22.97
68, 0.335, 2017/9/29 06:41:46.448下午, 1193.0, 23.74, 0.52, 21.94
69, 0.34, 2017/9/29 06:41:46.453下午, 1237.0, 24.00, 0.52, 22.97
70, 0.345, 2017/9/29 06:41:46.458下午, 1222.0, 24.52, 0.00, 22.45
71, 0.35, 2017/9/29 06:41:46.463下午, 1177.0, 22.97, 0.00, 22.19
72, 0.355, 2017/9/29 06:41:46.468下午, 1234.0, 24.26, 0.52, 22.97
73, 0.36, 2017/9/29 06:41:46.473下午, 1228.0, 24.26, 0.52, 22.19
74, 0.365, 2017/9/29 06:41:46.478下午, 1205.0, 23.23, 0.52, 22.19
75, 0.37, 2017/9/29 06:41:46.483下午, 1190.0, 22.97, 0.52, 21.94
76, 0.375, 2017/9/29 06:41:46.488下午, 1230.0, 23.48, 0.52, 22.45
77, 0.38, 2017/9/29 06:41:46.493下午, 1218.0, 23.48, 0.52, 22.97
78, 0.385, 2017/9/29 06:41:46.498下午, 1204.0, 23.23, 0.52, 21.94
79, 0.39, 2017/9/29 06:41:46.503下午, 1165.0, 23.48, 0.00, 20.39
80, 0.395, 2017/9/29 06:41:46.508下午, 1208.0, 23.48, 0.52, 22.45
81, 0.4, 2017/9/29 06:41:46.513下午, 1186.0, 23.23, 0.52, 22.19
82, 0.405, 2017/9/29 06:41:46.518下午, 1192.0, 23.48, 0.52, 20.90
83, 0.41, 2017/9/29 06:41:46.523下午, 1200.0, 23.48, 0.52, 22.45
84, 0.415, 2017/9/29 06:41:46.528下午, 1189.0, 23.23, 0.52, 21.68
85, 0.42, 2017/9/29 06:41:46.533下午, 1196.0, 22.97, 0.52, 22.71
86, 0.425, 2017/9/29 06:41:46.538下午, 1226.0, 23.23, 0.52, 22.97
87, 0.43, 2017/9/29 06:41:46.543下午, 1213.0, 22.97, 0.52, 22.71
88, 0.435, 2017/9/29 06:41:46.548下午, 1136.0, 22.97, 0.00, 20.65
89, 0.44, 2017/9/29 06:41:46.553下午, 1209.0, 23.23, 0.52, 23.23
90, 0.445, 2017/9/29 06:41:46.558下午, 1189.0, 22.71, 0.52, 22.19
91, 0.45, 2017/9/29 06:41:46.563下午, 1156.0, 22.97, 0.52, 21.94
92, 0.455, 2017/9/29 06:41:46.568下午, 1174.0, 23.23, 0.52, 21.94
93, 0.46, 2017/9/29 06:41:46.573下午, 1192.0, 23.23, 0.52, 22.97
94, 0.465, 2017/9/29 06:41:46.578下午, 1142.0, 22.97, 0.52, 21.68
95, 0.47, 2017/9/29 06:41:46.583下午, 1120.0, 22.19, 0.52, 21.16
96, 0.475, 2017/9/29 06:41:46.588下午, 1168.0, 22.45, 0.52, 22.71
97, 0.48, 2017/9/29 06:41:46.593下午, 1148.0, 22.71, 0.00, 22.45
98, 0.485, 2017/9/29 06:41:46.598下午, 1146.0, 22.45, 0.52, 22.97
99, 0.49, 2017/9/29 06:41:46.603下午, 1140.0, 22.71, 0.52, 22.45
100, 0.495, 2017/9/29 06:41:46.608下午, 1132.0, 22.71, 0.52, 23.23
101, 0.5, 2017/9/29 06:41:46.613下午, 1073.0, 22.45, 0.00, 20.65
102, 0.505, 2017/9/29 06:41:46.618下午, 1131.0, 22.19, 0.52, 22.71
103, 0.51, 2017/9/29 06:41:46.623下午, 1096.0, 22.45, 0.00, 21.42
104, 0.515, 2017/9/29 06:41:46.628下午, 1106.0, 22.19, 0.52, 22.19
105, 0.52, 2017/9/29 06:41:46.633下午, 1091.0, 22.97, 0.00, 21.94
106, 0.525, 2017/9/29 06:41:46.638下午, 1128.0, 22.19, 0.52, 22.45
107, 0.53, 2017/9/29 06:41:46.643下午, 1113.0, 22.19, 0.52, 22.71
108, 0.535, 2017/9/29 06:41:46.648下午, 1079.0, 22.19, 0.00, 21.94
109, 0.54, 2017/9/29 06:41:46.653下午, 1105.0, 22.45, 0.52, 21.94
110, 0.545, 2017/9/29 06:41:46.658下午, 1106.0, 21.94, 0.00, 21.94
111, 0.55, 2017/9/29 06:41:46.663下午, 1100.0, 22.19, 0.52, 21.94
112, 0.555, 2017/9/29 06:41:46.668下午, 1091.0, 22.19, 0.52, 21.68
113, 0.56, 2017/9/29 06:41:46.673下午, 1111.0, 22.19, 0.52, 22.71
114, 0.565, 2017/9/29 06:41:46.678下午, 1089.0, 21.68, 0.00, 21.42
115, 0.57, 2017/9/29 06:41:46.683下午, 1068.0, 21.42, 0.00, 21.16
116, 0.575, 2017/9/29 06:41:46.688下午, 1119.0, 22.97, 0.52, 22.19
117, 0.58, 2017/9/29 06:41:46.693下午, 1097.0, 22.71, 0.00, 21.68
118, 0.585, 2017/9/29 06:41:46.698下午, 1076.0, 21.94, 0.52, 21.42
119, 0.59, 2017/9/29 06:41:46.703下午, 1122.0, 22.19, 0.52, 22.19
120, 0.595, 2017/9/29 06:41:46.708下午, 1114.0, 22.97, 0.00, 22.45
121, 0.6, 2017/9/29 06:41:46.713下午, 1075.0, 22.71, 0.00, 20.39
122, 0.605, 2017/9/29 06:41:46.718下午, 1091.0, 21.94, 0.00, 21.68
123, 0.61, 2017/9/29 06:41:46.723下午, 1102.0, 22.19, 0.52, 22.45
124, 0.615, 2017/9/29 06:41:46.728下午, 1140.0, 22.71, 0.52, 23.48
125, 0.62, 2017/9/29 06:41:46.733下午, 1104.0, 22.45, 0.52, 22.45
126, 0.625, 2017/9/29 06:41:46.738下午, 1110.0, 22.19, 0.00, 22.19
127, 0.63, 2017/9/29 06:41:46.743下午, 1123.0, 22.71, 0.52, 22.45
128, 0.635, 2017/9/29 06:41:46.748下午, 1090.0, 22.45, 0.00, 21.16
129, 0.64, 2017/9/29 06:41:46.753下午, 1112.0, 22.45, 0.00, 21.42
130, 0.645, 2017/9/29 06:41:46.758下午, 1117.0, 22.45, 0.52, 22.19
131, 0.65, 2017/9/29 06:41:46.763下午, 1093.0, 21.94, 0.52, 21.68
132, 0.655, 2017/9/29 06:41:46.768下午, 1112.0, 22.45, 0.52, 21.94
133, 0.66, 2017/9/29 06:41:46.773下午, 1118.0, 23.23, 0.52, 21.42
134, 0.665, 2017/9/29 06:41:46.778下午, 1107.0, 22.19, 0.00, 21.68
135, 0.67, 2017/9/29 06:41:46.783下午, 1103.0, 21.94, 0.00, 21.16
136, 0.675, 2017/9/29 06:41:46.788下午, 1133.0, 23.23, 0.00, 22.45
137, 0.68, 2017/9/29 06:41:46.793下午, 1105.0, 22.97, 0.00, 21.94
138, 0.685, 2017/9/29 06:41:46.798下午, 1116.0, 22.19, 0.52, 22.45
139, 0.69, 2017/9/29 06:41:46.803下午, 1086.0, 22.19, 0.00, 21.16
140, 0.695, 2017/9/29 06:41:46.808下午, 1145.0, 23.23, 0.52, 22.45
141, 0.7, 2017/9/29 06:41:46.813下午, 1128.0, 22.45, 0.52, 22.19
142, 0.705, 2017/9/29 06:41:46.818下午, 1134.0, 22.45, 0.52, 22.19
143, 0.71, 2017/9/29 06:41:46.823下午, 1131.0, 22.97, 0.00, 21.94
144, 0.715, 2017/9/29 06:41:46.828下午, 1141.0, 22.45, 0.00, 22.97
145, 0.72, 2017/9/29 06:41:46.833下午, 1108.0, 22.97, 0.00, 21.16
146, 0.725, 2017/9/29 06:41:46.838下午, 1169.0, 23.23, 0.52, 23.23
147, 0.73, 2017/9/29 06:41:46.843下午, 1150.0, 23.23, 0.00, 22.19
148, 0.735, 2017/9/29 06:41:46.848下午, 1132.0, 22.97, 0.52, 22.97
149, 0.74, 2017/9/29 06:41:46.853下午, 1149.0, 22.71, 0.52, 22.45
150, 0.745, 2017/9/29 06:41:46.858下午, 1121.0, 23.23, 0.00, 20.90
151, 0.75, 2017/9/29 06:41:46.863下午, 1127.0, 22.71, 0.52, 21.42
152, 0.755, 2017/9/29 06:41:46.868下午, 1161.0, 23.48, 0.52, 22.45
153, 0.76, 2017/9/29 06:41:46.873下午, 1150.0, 22.97, 0.52, 21.68
154, 0.765, 2017/9/29 06:41:46.878下午, 1155.0, 23.23, 0.52, 22.45
155, 0.77, 2017/9/29 06:41:46.883下午, 1134.0, 22.71, 0.52, 22.97
156, 0.775, 2017/9/29 06:41:46.888下午, 1137.0, 22.97, 0.00, 22.71
157, 0.78, 2017/9/29 06:41:46.893下午, 1147.0, 22.71, 0.52, 22.71
158, 0.785, 2017/9/29 06:41:46.898下午, 1168.0, 22.71, 0.52, 22.97
159, 0.79, 2017/9/29 06:41:46.903下午, 1115.0, 22.97, 0.00, 21.16
160, 0.795, 2017/9/29 06:41:46.908下午, 1155.0, 22.71, 0.00, 24.00
161, 0.8, 2017/9/29 06:41:46.913下午, 1108.0, 21.94, 0.00, 21.68
162, 0.805, 2017/9/29 06:41:46.918下午, 1123.0, 23.48, 0.00, 21.16
163, 0.81, 2017/9/29 06:41:46.923下午, 1162.0, 23.23, 0.52, 22.97
164, 0.815, 2017/9/29 06:41:46.928下午, 1112.0, 22.45, 0.00, 22.71
165, 0.82, 2017/9/29 06:41:46.933下午, 1131.0, 22.97, 0.00, 22.19
166, 0.825, 2017/9/29 06:41:46.938下午, 1133.0, 22.45, 0.52, 22.45
167, 0.83, 2017/9/29 06:41:46.943下午, 1114.0, 21.94, 0.00, 22.19
168, 0.835, 2017/9/29 06:41:46.948下午, 1129.0, 22.45, 0.00, 22.97
169, 0.84, 2017/9/29 06:41:46.953下午, 1156.0, 23.23, 0.00, 22.19
170, 0.845, 2017/9/29 06:41:46.958下午, 1141.0, 23.23, 0.00, 21.94
171, 0.85, 2017/9/29 06:41:46.963下午, 1109.0, 22.71, 0.00, 21.16
172, 0.855, 2017/9/29 06:41:46.968下午, 1151.0, 22.19, 0.52, 22.97
173, 0.86, 2017/9/29 06:41:46.973下午, 1135.0, 23.23, 0.00, 21.94
174, 0.865, 2017/9/29 06:41:46.978下午, 1125.0, 22.71, 0.52, 21.68
175, 0.87, 2017/9/29 06:41:46.983下午, 1133.0, 22.97, 0.00, 22.19
176, 0.875, 2017/9/29 06:41:46.988下午, 1147.0, 22.97, 0.00, 22.45
177, 0.88, 2017/9/29 06:41:46.993下午, 1147.0, 22.71, 0.52, 22.71
178, 0.885, 2017/9/29 06:41:46.998下午, 1130.0, 22.97, 0.00, 22.45
179, 0.89, 2017/9/29 06:41:47.003下午, 1144.0, 22.71, 0.00, 22.97
180, 0.895, 2017/9/29 06:41:47.008下午, 1130.0, 22.45, 0.00, 22.97
181, 0.9, 2017/9/29 06:41:47.013下午, 1159.0, 22.45, 0.00, 22.71
182, 0.905, 2017/9/29 06:41:47.018下午, 1153.0, 22.71, 0.00, 22.71
183, 0.91, 2017/9/29 06:41:47.023下午, 1179.0, 23.23, 0.52, 22.71
184, 0.915, 2017/9/29 06:41:47.028下午, 1169.0, 22.97, 0.52, 23.48
185, 0.92, 2017/9/29 06:41:47.033下午, 1153.0, 22.71, 0.52, 22.71
186, 0.925, 2017/9/29 06:41:47.038下午, 1170.0, 22.45, 0.52, 22.97
187, 0.93, 2017/9/29 06:41:47.043下午, 1157.0, 22.71, 0.52, 23.48
188, 0.935, 2017/9/29 06:41:47.048下午, 1124.0, 21.94, 0.52, 21.94
189, 0.94, 2017/9/29 06:41:47.053下午, 1169.0, 22.45, 0.52, 23.48
190, 0.945, 2017/9/29 06:41:47.058下午, 1154.0, 22.45, 0.52, 22.71
191, 0.95, 2017/9/29 06:41:47.063下午, 1136.0, 22.97, 0.52, 22.19
192, 0.955, 2017/9/29 06:41:47.068下午, 1135.0, 22.71, 0.52, 21.94
193, 0.96, 2017/9/29 06:41:47.073下午, 1170.0, 22.45, 0.52, 22.71
194, 0.965, 2017/9/29 06:41:47.078下午, 1145.0, 22.97, 0.00, 22.71
195, 0.97, 2017/9/29 06:41:47.083下午, 1168.0, 22.97, 0.52, 22.97
196, 0.975, 2017/9/29 06:41:47.088下午, 1178.0, 22.71, 0.52, 22.97
197, 0.98, 2017/9/29 06:41:47.093下午, 1145.0, 23.48, 0.00, 22.19
198, 0.985, 2017/9/29 06:41:47.098下午, 1168.0, 22.45, 0.52, 22.71
199, 0.99, 2017/9/29 06:41:47.103下午, 1153.0, 23.23, 0.00, 22.45
200, 0.995, 2017/9/29 06:41:47.108下午, 1170.0, 22.97, 0.52, 23.23
201, 1, 2017/9/29 06:41:47.113下午, 1163.0, 22.45, 0.52, 22.97
202, 1.005, 2017/9/29 06:41:47.118下午, 1163.0, 22.45, 0.52, 22.45
203, 1.01, 2017/9/29 06:41:47.123下午, 1188.0, 22.71, 0.52, 23.74
204, 1.015, 2017/9/29 06:41:47.128下午, 1176.0, 22.71, 0.52, 23.48
205, 1.02, 2017/9/29 06:41:47.133下午, 1135.0, 22.71, 0.52, 21.94
206, 1.025, 2017/9/29 06:41:47.138下午, 1176.0, 22.97, 0.52, 23.23
207, 1.03, 2017/9/29 06:41:47.143下午, 1175.0, 22.19, 0.52, 22.45
208, 1.035, 2017/9/29 06:41:47.148下午, 1175.0, 22.71, 0.52, 24.00
209, 1.04, 2017/9/29 06:41:47.153下午, 1180.0, 22.45, 0.52, 23.48
210, 1.045, 2017/9/29 06:41:47.158下午, 1159.0, 23.74, 0.00, 22.97
211, 1.05, 2017/9/29 06:41:47.163下午, 1152.0, 23.23, 0.00, 22.19
212, 1.055, 2017/9/29 06:41:47.168下午, 1180.0, 22.71, 0.52, 23.48
213, 1.06, 2017/9/29 06:41:47.173下午, 1148.0, 22.97, 0.52, 22.19
214, 1.065, 2017/9/29 06:41:47.178下午, 1160.0, 22.97, 0.52, 22.71
215, 1.07, 2017/9/29 06:41:47.183下午, 1175.0, 22.97, 0.52, 22.97
216, 1.075, 2017/9/29 06:41:47.188下午, 1147.0, 22.97, 0.00, 21.42
217, 1.08, 2017/9/29 06:41:47.193下午, 1148.0, 22.71, 0.52, 22.19
218, 1.085, 2017/9/29 06:41:47.198下午, 1141.0, 23.74, 0.00, 22.71
219, 1.09, 2017/9/29 06:41:47.203下午, 1171.0, 23.23, 0.00, 22.97
220, 1.095, 2017/9/29 06:41:47.208下午, 1159.0, 22.97, 0.52, 23.23
221, 1.1, 2017/9/29 06:41:47.213下午, 1156.0, 23.48, 0.00, 22.97
222, 1.105, 2017/9/29 06:41:47.218下午, 1160.0, 22.71, 0.52, 22.71
223, 1.11, 2017/9/29 06:41:47.223下午, 1184.0, 22.45, 0.52, 23.48
224, 1.115, 2017/9/29 06:41:47.228下午, 1164.0, 22.71, 0.00, 22.45
225, 1.12, 2017/9/29 06:41:47.233下午, 1149.0, 22.97, 0.52, 22.97
226, 1.125, 2017/9/29 06:41:47.238下午, 1187.0, 23.48, 0.52, 23.48
227, 1.13, 2017/9/29 06:41:47.243下午, 1156.0, 22.71, 0.00, 22.97
228, 1.135, 2017/9/29 06:41:47.248下午, 1132.0, 22.45, 0.52, 22.19
229, 1.14, 2017/9/29 06:41:47.253下午, 1164.0, 22.19, 0.52, 22.97
230, 1.145, 2017/9/29 06:41:47.258下午, 1170.0, 22.97, 0.52, 23.23
231, 1.15, 2017/9/29 06:41:47.263下午, 1150.0, 22.71, 0.52, 22.97
232, 1.155, 2017/9/29 06:41:47.268下午, 1157.0, 22.97, 0.52, 22.71
233, 1.16, 2017/9/29 06:41:47.273下午, 1152.0, 23.74, 0.00, 22.19
234, 1.165, 2017/9/29 06:41:47.278下午, 1172.0, 22.97, 0.52, 22.71
235, 1.17, 2017/9/29 06:41:47.283下午, 1141.0, 22.71, 0.00, 22.71
236, 1.175, 2017/9/29 06:41:47.288下午, 1164.0, 22.71, 0.52, 22.97
237, 1.18, 2017/9/29 06:41:47.293下午, 1158.0, 23.23, 0.52, 22.45
238, 1.185, 2017/9/29 06:41:47.298下午, 1112.0, 21.94, 0.00, 22.45
239, 1.19, 2017/9/29 06:41:47.303下午, 1190.0, 22.71, 0.52, 23.23
240, 1.195, 2017/9/29 06:41:47.308下午, 1168.0, 22.71, 0.52, 22.71
241, 1.2, 2017/9/29 06:41:47.313下午, 1145.0, 22.71, 0.52, 22.19
242, 1.205, 2017/9/29 06:41:47.318下午, 1141.0, 23.23, 0.00, 22.19
243, 1.21, 2017/9/29 06:41:47.323下午, 1160.0, 22.71, 0.52, 23.23
244, 1.215, 2017/9/29 06:41:47.328下午, 1150.0, 22.71, 0.52, 22.45
245, 1.22, 2017/9/29 06:41:47.333下午, 1154.0, 22.45, 0.52, 22.71
246, 1.225, 2017/9/29 06:41:47.338下午, 1164.0, 22.19, 0.52, 23.48
247, 1.23, 2017/9/29 06:41:47.343下午, 1146.0, 23.23, 0.00, 22.45
248, 1.235, 2017/9/29 06:41:47.348下午, 1148.0, 22.19, 0.00, 23.48
249, 1.24, 2017/9/29 06:41:47.353下午, 1169.0, 22.45, 0.00, 23.74
250, 1.245, 2017/9/29 06:41:47.358下午, 1163.0, 23.23, 0.00, 22.97
251, 1.25, 2017/9/29 06:41:47.363下午, 1141.0, 23.23, 0.52, 22.97
252, 1.255, 2017/9/29 06:41:47.368下午, 1172.0, 22.97, 0.00, 23.48
253, 1.26, 2017/9/29 06:41:47.373下午, 1182.0, 22.97, 0.52, 22.71
254, 1.265, 2017/9/29 06:41:47.378下午, 1160.0, 22.45, 0.00, 22.97
255, 1.27, 2017/9/29 06:41:47.383下午, 1153.0, 22.97, 0.00, 22.97
256, 1.275, 2017/9/29 06:41:47.388下午, 1190.0, 23.48, 0.52, 23.48
257, 1.28, 2017/9/29 06:41:47.393下午, 1156.0, 22.71, 0.52, 22.71
258, 1.285, 2017/9/29 06:41:47.398下午, 1139.0, 22.71, 0.52, 22.19
259, 1.29, 2017/9/29 06:41:47.403下午, 1144.0, 22.71, 0.52, 22.71
260, 1.295, 2017/9/29 06:41:47.408下午, 1168.0, 22.45, 0.52, 22.97
261, 1.3, 2017/9/29 06:41:47.413下午, 1160.0, 22.71, 0.52, 22.71
262, 1.305, 2017/9/29 06:41:47.418下午, 1170.0, 22.97, 0.52, 23.23
263, 1.31, 2017/9/29 06:41:47.423下午, 1156.0, 23.48, 0.00, 22.71
264, 1.315, 2017/9/29 06:41:47.428下午, 1150.0, 22.71, 0.00, 22.97
265, 1.32, 2017/9/29 06:41:47.433下午, 1132.0, 23.23, 0.00, 21.68
266, 1.325, 2017/9/29 06:41:47.438下午, 1173.0, 23.23, 0.52, 23.23
267, 1.33, 2017/9/29 06:41:47.443下午, 1187.0, 23.23, 0.52, 23.48
268, 1.335, 2017/9/29 06:41:47.448下午, 1147.0, 22.45, 0.52, 22.71
269, 1.34, 2017/9/29 06:41:47.453下午, 1143.0, 22.45, 0.00, 22.71
270, 1.345, 2017/9/29 06:41:47.458下午, 1162.0, 22.97, 0.00, 22.71
271, 1.35, 2017/9/29 06:41:47.463下午, 1164.0, 22.97, 0.00, 22.71
272, 1.355, 2017/9/29 06:41:47.468下午, 1157.0, 22.19, 0.52, 23.48
273, 1.36, 2017/9/29 06:41:47.473下午, 1172.0, 23.23, 0.52, 23.23
274, 1.365, 2017/9/29 06:41:47.478下午, 1125.0, 22.71, 0.00, 22.19
275, 1.37, 2017/9/29 06:41:47.483下午, 1134.0, 22.71, 0.52, 22.45
276, 1.375, 2017/9/29 06:41:47.488下午, 1172.0, 22.71, 0.52, 22.97
277, 1.38, 2017/9/29 06:41:47.493下午, 1152.0, 22.71, 0.52, 23.23
278, 1.385, 2017/9/29 06:41:47.498下午, 1143.0, 23.23, 0.00, 22.71
279, 1.39, 2017/9/29 06:41:47.503下午, 1165.0, 23.23, 0.52, 23.23
280, 1.395, 2017/9/29 06:41:47.508下午, 1137.0, 22.45, 0.52, 22.71
281, 1.4, 2017/9/29 06:41:47.513下午, 1146.0, 22.19, 0.52, 22.19
282, 1.405, 2017/9/29 06:41:47.518下午, 1145.0, 23.23, 0.00, 22.45
283, 1.41, 2017/9/29 06:41:47.523下午, 1181.0, 22.19, 0.52, 24.00
284, 1.415, 2017/9/29 06:41:47.528下午, 1158.0, 23.23, 0.00, 22.71
285, 1.42, 2017/9/29 06:41:47.533下午, 1129.0, 22.97, 0.00, 21.94
286, 1.425, 2017/9/29 06:41:47.538下午, 1154.0, 22.45, 0.52, 23.23
287, 1.43, 2017/9/29 06:41:47.543下午, 1157.0, 21.94, 0.52, 22.97
288, 1.435, 2017/9/29 06:41:47.548下午, 1123.0, 22.19, 0.00, 22.45
289, 1.44, 2017/9/29 06:41:47.553下午, 1155.0, 22.45, 0.52, 23.48
290, 1.445, 2017/9/29 06:41:47.558下午, 1156.0, 22.97, 0.00, 22.45
291, 1.45, 2017/9/29 06:41:47.563下午, 1151.0, 22.19, 0.52, 22.97
292, 1.455, 2017/9/29 06:41:47.568下午, 1154.0, 22.45, 0.00, 22.97
293, 1.46, 2017/9/29 06:41:47.573下午, 1159.0, 21.94, 0.52, 24.00
294, 1.465, 2017/9/29 06:41:47.578下午, 1117.0, 21.68, 0.52, 22.97
295, 1.47, 2017/9/29 06:41:47.583下午, 1137.0, 22.71, 0.52, 23.48
296, 1.475, 2017/9/29 06:41:47.588下午, 1156.0, 21.68, 0.52, 24.00
297, 1.48, 2017/9/29 06:41:47.593下午, 1171.0, 22.71, 0.00, 23.48
298, 1.485, 2017/9/29 06:41:47.598下午, 1138.0, 22.45, 0.00, 23.48
299, 1.49, 2017/9/29 06:41:47.603下午, 1144.0, 23.23, 0.00, 22.97
300, 1.495, 2017/9/29 06:41:47.608下午, 1160.0, 22.97, 0.52, 23.74
301, 1.5, 2017/9/29 06:41:47.613下午, 1132.0, 22.19, 0.52, 23.23
302, 1.505, 2017/9/29 06:41:47.618下午, 1160.0, 22.45, 0.00, 23.74
303, 1.51, 2017/9/29 06:41:47.623下午, 1174.0, 22.45, 0.52, 24.00
304, 1.515, 2017/9/29 06:41:47.628下午, 1140.0, 22.71, 0.52, 24.00
305, 1.52, 2017/9/29 06:41:47.633下午, 1141.0, 22.45, 0.52, 22.71
306, 1.525, 2017/9/29 06:41:47.638下午, 1155.0, 22.71, 0.00, 23.23
307, 1.53, 2017/9/29 06:41:47.643下午, 1117.0, 22.19, 0.52, 22.97
308, 1.535, 2017/9/29 06:41:47.648下午, 1110.0, 22.19, 0.52, 22.19
309, 1.54, 2017/9/29 06:41:47.653下午, 1136.0, 22.45, 0.52, 22.71
310, 1.545, 2017/9/29 06:41:47.658下午, 1147.0, 22.19, 0.52, 24.00
311, 1.55, 2017/9/29 06:41:47.663下午, 1123.0, 22.45, 0.00, 22.71
312, 1.555, 2017/9/29 06:41:47.668下午, 1166.0, 22.71, 0.52, 23.74
313, 1.56, 2017/9/29 06:41:47.673下午, 1174.0, 22.19, 0.52, 24.00
314, 1.565, 2017/9/29 06:41:47.678下午, 1152.0, 22.71, 0.00, 23.23
315, 1.57, 2017/9/29 06:41:47.683下午, 1149.0, 22.45, 0.00, 24.26
316, 1.575, 2017/9/29 06:41:47.688下午, 1166.0, 22.71, 0.00, 23.74
317, 1.58, 2017/9/29 06:41:47.693下午, 1142.0, 22.19, 0.52, 23.23
318, 1.585, 2017/9/29 06:41:47.698下午, 1129.0, 21.94, 0.52, 23.23
319, 1.59, 2017/9/29 06:41:47.703下午, 1177.0, 22.19, 0.52, 24.52
320, 1.595, 2017/9/29 06:41:47.708下午, 1171.0, 22.71, 0.52, 23.74
321, 1.6, 2017/9/29 06:41:47.713下午, 1188.0, 22.45, 0.52, 24.52
322, 1.605, 2017/9/29 06:41:47.718下午, 1178.0, 22.45, 0.00, 24.26
323, 1.61, 2017/9/29 06:41:47.723下午, 1167.0, 22.45, 0.52, 24.00
324, 1.615, 2017/9/29 06:41:47.728下午, 1165.0, 22.71, 0.52, 24.00
325, 1.62, 2017/9/29 06:41:47.733下午, 1167.0, 22.45, 0.52, 24.26
326, 1.625, 2017/9/29 06:41:47.738下午, 1185.0, 22.71, 0.52, 24.00
327, 1.63, 2017/9/29 06:41:47.743下午, 1211.0, 22.97, 0.52, 24.77
328, 1.635, 2017/9/29 06:41:47.748下午, 1156.0, 22.19, 0.52, 23.74
329, 1.64, 2017/9/29 06:41:47.753下午, 1182.0, 22.71, 0.52, 24.26
330, 1.645, 2017/9/29 06:41:47.758下午, 1174.0, 22.97, 0.00, 23.48
331, 1.65, 2017/9/29 06:41:47.763下午, 1199.0, 22.97, 0.00, 24.52
332, 1.655, 2017/9/29 06:41:47.768下午, 1164.0, 22.19, 0.52, 24.26
333, 1.66, 2017/9/29 06:41:47.773下午, 1187.0, 22.97, 0.52, 24.00
334, 1.665, 2017/9/29 06:41:47.778下午, 1152.0, 22.19, 0.00, 24.00
335, 1.67, 2017/9/29 06:41:47.783下午, 1175.0, 22.71, 0.52, 24.52
336, 1.675, 2017/9/29 06:41:47.788下午, 1178.0, 22.71, 0.52, 23.74
337, 1.68, 2017/9/29 06:41:47.793下午, 1181.0, 22.71, 0.00, 23.74
338, 1.685, 2017/9/29 06:41:47.798下午, 1173.0, 22.71, 0.52, 24.00
339, 1.69, 2017/9/29 06:41:47.803下午, 1173.0, 22.97, 0.00, 24.00
340, 1.695, 2017/9/29 06:41:47.808下午, 1212.0, 22.71, 0.52, 24.77
341, 1.7, 2017/9/29 06:41:47.813下午, 1187.0, 22.19, 0.52, 24.26
342, 1.705, 2017/9/29 06:41:47.818下午, 1165.0, 21.94, 0.00, 24.26
343, 1.71, 2017/9/29 06:41:47.823下午, 1208.0, 22.71, 0.52, 25.03
344, 1.715, 2017/9/29 06:41:47.828下午, 1175.0, 22.45, 0.00, 23.74
345, 1.72, 2017/9/29 06:41:47.833下午, 1175.0, 22.19, 0.52, 24.26
346, 1.725, 2017/9/29 06:41:47.838下午, 1191.0, 22.45, 0.52, 24.00
347, 1.73, 2017/9/29 06:41:47.843下午, 1190.0, 22.71, 0.00, 25.03
348, 1.735, 2017/9/29 06:41:47.848下午, 1187.0, 22.45, 0.52, 24.77
349, 1.74, 2017/9/29 06:41:47.853下午, 1163.0, 22.45, 0.52, 23.23
350, 1.745, 2017/9/29 06:41:47.858下午, 1193.0, 22.71, 0.52, 23.74
351, 1.75, 2017/9/29 06:41:47.863下午, 1197.0, 22.71, 0.52, 24.26
352, 1.755, 2017/9/29 06:41:47.868下午, 1227.0, 23.74, 0.52, 25.03
353, 1.76, 2017/9/29 06:41:47.873下午, 1215.0, 22.71, 0.00, 25.03
354, 1.765, 2017/9/29 06:41:47.878下午, 1204.0, 23.48, 0.00, 24.26
355, 1.77, 2017/9/29 06:41:47.883下午, 1199.0, 22.71, 0.52, 24.52
356, 1.775, 2017/9/29 06:41:47.888下午, 1226.0, 23.23, 0.52, 24.77
357, 1.78, 2017/9/29 06:41:47.893下午, 1181.0, 22.71, 0.52, 23.74
358, 1.785, 2017/9/29 06:41:47.898下午, 1201.0, 22.71, 0.52, 24.77
359, 1.79, 2017/9/29 06:41:47.903下午, 1193.0, 22.45, 0.00, 24.26
360, 1.795, 2017/9/29 06:41:47.908下午, 1214.0, 22.71, 0.52, 25.03
361, 1.8, 2017/9/29 06:41:47.913下午, 1211.0, 22.45, 0.52, 25.03
362, 1.805, 2017/9/29 06:41:47.918下午, 1182.0, 22.71, 0.00, 24.26
363, 1.81, 2017/9/29 06:41:47.923下午, 1219.0, 23.48, 0.00, 24.00
364, 1.815, 2017/9/29 06:41:47.928下午, 1226.0, 23.23, 0.52, 24.52
365, 1.82, 2017/9/29 06:41:47.933下午, 1204.0, 22.45, 0.52, 24.52
366, 1.825, 2017/9/29 06:41:47.938下午, 1222.0, 23.23, 0.52, 24.77
367, 1.83, 2017/9/29 06:41:47.943下午, 1212.0, 22.45, 0.52, 24.52
368, 1.835, 2017/9/29 06:41:47.948下午, 1187.0, 23.23, 0.52, 23.74
369, 1.84, 2017/9/29 06:41:47.953下午, 1213.0, 22.45, 0.52, 24.52
370, 1.845, 2017/9/29 06:41:47.958下午, 1198.0, 22.71, 0.52, 24.26
371, 1.85, 2017/9/29 06:41:47.963下午, 1202.0, 22.45, 0.52, 24.26
372, 1.855, 2017/9/29 06:41:47.968下午, 1213.0, 22.71, 0.00, 24.52
373, 1.86, 2017/9/29 06:41:47.973下午, 1211.0, 22.45, 0.52, 24.52
374, 1.865, 2017/9/29 06:41:47.978下午, 1214.0, 22.71, 0.52, 24.52
375, 1.87, 2017/9/29 06:41:47.983下午, 1203.0, 23.23, 0.52, 24.26
376, 1.875, 2017/9/29 06:41:47.988下午, 1210.0, 23.48, 0.00, 25.03
377, 1.88, 2017/9/29 06:41:47.993下午, 1202.0, 22.71, 0.52, 24.52
378, 1.885, 2017/9/29 06:41:47.998下午, 1183.0, 21.94, 0.52, 24.77
379, 1.89, 2017/9/29 06:41:48.003下午, 1224.0, 22.71, 0.52, 24.77
380, 1.895, 2017/9/29 06:41:48.008下午, 1214.0, 22.97, 0.52, 24.00
381, 1.9, 2017/9/29 06:41:48.013下午, 1206.0, 22.71, 0.00, 25.03
382, 1.905, 2017/9/29 06:41:48.018下午, 1216.0, 22.97, 0.52, 24.52
383, 1.91, 2017/9/29 06:41:48.023下午, 1237.0, 23.48, 0.52, 24.77
384, 1.915, 2017/9/29 06:41:48.028下午, 1197.0, 22.45, 0.52, 24.00
385, 1.92, 2017/9/29 06:41:48.033下午, 1214.0, 22.71, 0.00, 25.03
386, 1.925, 2017/9/29 06:41:48.038下午, 1229.0, 22.97, 0.52, 24.77
387, 1.93, 2017/9/29 06:41:48.043下午, 1206.0, 22.19, 0.52, 25.29
388, 1.935, 2017/9/29 06:41:48.048下午, 1200.0, 22.19, 0.52, 24.77
389, 1.94, 2017/9/29 06:41:48.053下午, 1212.0, 22.45, 0.52, 24.26
390, 1.945, 2017/9/29 06:41:48.058下午, 1203.0, 22.19, 0.52, 24.52
391, 1.95, 2017/9/29 06:41:48.063下午, 1222.0, 22.97, 0.52, 24.52
392, 1.955, 2017/9/29 06:41:48.068下午, 1204.0, 23.23, 0.00, 24.26
393, 1.96, 2017/9/29 06:41:48.073下午, 1232.0, 23.48, 0.52, 25.29
394, 1.965, 2017/9/29 06:41:48.078下午, 1218.0, 23.23, 0.00, 24.77
395, 1.97, 2017/9/29 06:41:48.083下午, 1216.0, 22.45, 0.52, 24.52
396, 1.975, 2017/9/29 06:41:48.088下午, 1220.0, 22.19, 0.52, 25.29
397, 1.98, 2017/9/29 06:41:48.093下午, 1200.0, 22.71, 0.00, 23.74
398, 1.985, 2017/9/29 06:41:48.098下午, 1184.0, 22.71, 0.52, 24.26
399, 1.99, 2017/9/29 06:41:48.103下午, 1222.0, 22.71, 0.52, 24.77
400, 1.995, 2017/9/29 06:41:48.108下午, 1210.0, 22.19, 0.52, 24.77
401, 2, 2017/9/29 06:41:48.113下午, 1208.0, 22.45, 0.52, 24.26
402, 2.005, 2017/9/29 06:41:48.118下午, 1201.0, 22.71, 0.00, 24.52
403, 2.01, 2017/9/29 06:41:48.123下午, 1224.0, 22.71, 0.52, 24.77
404, 2.015, 2017/9/29 06:41:48.128下午, 1212.0, 22.71, 0.52, 24.52
405, 2.02, 2017/9/29 06:41:48.133下午, 1212.0, 22.19, 0.52, 25.55
406, 2.025, 2017/9/29 06:41:48.138下午, 1207.0, 22.19, 0.52, 25.03
407, 2.03, 2017/9/29 06:41:48.143下午, 1206.0, 22.19, 0.52, 25.29
408, 2.035, 2017/9/29 06:41:48.148下午, 1179.0, 21.68, 0.00, 24.52
409, 2.04, 2017/9/29 06:41:48.153下午, 1245.0, 22.71, 0.52, 25.29
410, 2.045, 2017/9/29 06:41:48.158下午, 1201.0, 22.45, 0.52, 24.26
411, 2.05, 2017/9/29 06:41:48.163下午, 1208.0, 22.71, 0.52, 24.77
412, 2.055, 2017/9/29 06:41:48.168下午, 1203.0, 22.19, 0.00, 24.77
413, 2.06, 2017/9/29 06:41:48.173下午, 1197.0, 22.45, 0.00, 24.52
414, 2.065, 2017/9/29 06:41:48.178下午, 1210.0, 22.45, 0.52, 25.03
415, 2.07, 2017/9/29 06:41:48.183下午, 1187.0, 21.68, 0.52, 24.52
416, 2.075, 2017/9/29 06:41:48.188下午, 1220.0, 22.19, 0.52, 25.03
417, 2.08, 2017/9/29 06:41:48.193下午, 1220.0, 22.45, 0.52, 25.29
418, 2.085, 2017/9/29 06:41:48.198下午, 1193.0, 21.94, 0.52, 25.03
419, 2.09, 2017/9/29 06:41:48.203下午, 1209.0, 22.19, 0.52, 25.03
420, 2.095, 2017/9/29 06:41:48.208下午, 1213.0, 22.19, 0.52, 25.03
421, 2.1, 2017/9/29 06:41:48.213下午, 1190.0, 22.45, 0.00, 25.03
422, 2.105, 2017/9/29 06:41:48.218下午, 1212.0, 22.45, 0.52, 24.77
423, 2.11, 2017/9/29 06:41:48.223下午, 1196.0, 21.94, 0.52, 24.77
424, 2.115, 2017/9/29 06:41:48.228下午, 1209.0, 21.68, 0.52, 24.77
425, 2.12, 2017/9/29 06:41:48.233下午, 1200.0, 21.68, 0.52, 25.03
426, 2.125, 2017/9/29 06:41:48.238下午, 1213.0, 22.45, 0.52, 24.77
427, 2.13, 2017/9/29 06:41:48.243下午, 1213.0, 22.19, 0.00, 25.29
428, 2.135, 2017/9/29 06:41:48.248下午, 1192.0, 22.45, 0.00, 24.52
429, 2.14, 2017/9/29 06:41:48.253下午, 1226.0, 21.94, 0.52, 25.03
430, 2.145, 2017/9/29 06:41:48.258下午, 1223.0, 22.97, 0.52, 25.03
431, 2.15, 2017/9/29 06:41:48.263下午, 1194.0, 21.94, 0.52, 24.26
432, 2.155, 2017/9/29 06:41:48.268下午, 1219.0, 22.71, 0.52, 25.55
433, 2.16, 2017/9/29 06:41:48.273下午, 1215.0, 22.45, 0.52, 24.77
434, 2.165, 2017/9/29 06:41:48.278下午, 1220.0, 22.45, 0.52, 24.77
435, 2.17, 2017/9/29 06:41:48.283下午, 1194.0, 21.68, 0.52, 24.52
436, 2.175, 2017/9/29 06:41:48.288下午, 1213.0, 22.71, 0.00, 24.77
437, 2.18, 2017/9/29 06:41:48.293下午, 1202.0, 21.68, 0.52, 24.77
438, 2.185, 2017/9/29 06:41:48.298下午, 1171.0, 21.16, 0.00, 25.55
439, 2.19, 2017/9/29 06:41:48.303下午, 1206.0, 21.94, 0.00, 24.77
440, 2.195, 2017/9/29 06:41:48.308下午, 1218.0, 22.45, 0.00, 25.29
441, 2.2, 2017/9/29 06:41:48.313下午, 1181.0, 21.68, 0.00, 24.77
442, 2.205, 2017/9/29 06:41:48.318下午, 1201.0, 22.45, 0.52, 25.29
443, 2.21, 2017/9/29 06:41:48.323下午, 1206.0, 21.94, 0.00, 25.03
444, 2.215, 2017/9/29 06:41:48.328下午, 1205.0, 22.19, 0.52, 24.77
445, 2.22, 2017/9/29 06:41:48.333下午, 1169.0, 21.94, 0.00, 24.52
446, 2.225, 2017/9/29 06:41:48.338下午, 1181.0, 21.42, 0.00, 24.77
447, 2.23, 2017/9/29 06:41:48.343下午, 1207.0, 22.71, 0.00, 25.03
448, 2.235, 2017/9/29 06:41:48.348下午, 1180.0, 21.68, 0.00, 24.52
449, 2.24, 2017/9/29 06:41:48.353下午, 1200.0, 22.19, 0.00, 24.77
450, 2.245, 2017/9/29 06:41:48.358下午, 1208.0, 21.94, 0.52, 25.29
451, 2.25, 2017/9/29 06:41:48.363下午, 1188.0, 21.94, 0.52, 24.52
452, 2.255, 2017/9/29 06:41:48.368下午, 1218.0, 22.19, 0.52, 25.29
453, 2.26, 2017/9/29 06:41:48.373下午, 1218.0, 22.19, 0.52, 25.29
454, 2.265, 2017/9/29 06:41:48.378下午, 1196.0, 22.19, 0.52, 24.52
455, 2.27, 2017/9/29 06:41:48.383下午, 1183.0, 21.68, 0.52, 24.52
456, 2.275, 2017/9/29 06:41:48.388下午, 1201.0, 21.42, 0.00, 25.55
457, 2.28, 2017/9/29 06:41:48.393下午, 1214.0, 21.94, 0.52, 25.29
458, 2.285, 2017/9/29 06:41:48.398下午, 1180.0, 21.68, 0.00, 24.77
459, 2.29, 2017/9/29 06:41:48.403下午, 1206.0, 22.19, 0.00, 25.03
460, 2.295, 2017/9/29 06:41:48.408下午, 1214.0, 22.19, 0.52, 25.03
461, 2.3, 2017/9/29 06:41:48.413下午, 1206.0, 22.19, 0.52, 25.81
462, 2.305, 2017/9/29 06:41:48.418下午, 1204.0, 22.45, 0.00, 24.77
463, 2.31, 2017/9/29 06:41:48.423下午, 1214.0, 21.94, 0.52, 24.77
464, 2.315, 2017/9/29 06:41:48.428下午, 1206.0, 22.19, 0.00, 25.29
465, 2.32, 2017/9/29 06:41:48.433下午, 1178.0, 21.94, 0.00, 25.03
466, 2.325, 2017/9/29 06:41:48.438下午, 1190.0, 21.68, 0.00, 24.52
467, 2.33, 2017/9/29 06:41:48.443下午, 1187.0, 22.19, 0.52, 23.74
468, 2.335, 2017/9/29 06:41:48.448下午, 1172.0, 21.42, 0.00, 24.77
469, 2.34, 2017/9/29 06:41:48.453下午, 1204.0, 21.68, 0.52, 25.29
470, 2.345, 2017/9/29 06:41:48.458下午, 1188.0, 22.19, 0.00, 24.77
471, 2.35, 2017/9/29 06:41:48.463下午, 1190.0, 21.68, 0.52, 25.03
472, 2.355, 2017/9/29 06:41:48.468下午, 1201.0, 22.19, 0.52, 24.52
473, 2.36, 2017/9/29 06:41:48.473下午, 1222.0, 22.19, 0.52, 25.03
474, 2.365, 2017/9/29 06:41:48.478下午, 1179.0, 21.42, 0.00, 24.52
475, 2.37, 2017/9/29 06:41:48.483下午, 1171.0, 22.19, 0.00, 24.00
476, 2.375, 2017/9/29 06:41:48.488下午, 1202.0, 21.42, 0.00, 25.29
477, 2.38, 2017/9/29 06:41:48.493下午, 1195.0, 21.94, 0.00, 24.77
478, 2.385, 2017/9/29 06:41:48.498下午, 1173.0, 21.42, 0.00, 24.77
479, 2.39, 2017/9/29 06:41:48.503下午, 1204.0, 21.94, 0.00, 25.03
480, 2.395, 2017/9/29 06:41:48.508下午, 1204.0, 22.45, 0.52, 24.77
481, 2.4, 2017/9/29 06:41:48.513下午, 1163.0, 21.42, 0.52, 24.52
482, 2.405, 2017/9/29 06:41:48.518下午, 1184.0, 21.94, 0.52, 25.03
483, 2.41, 2017/9/29 06:41:48.523下午, 1205.0, 22.19, 0.00, 24.77
484, 2.415, 2017/9/29 06:41:48.528下午, 1182.0, 21.42, 0.00, 25.03
485, 2.42, 2017/9/29 06:41:48.533下午, 1191.0, 23.23, 0.52, 24.26
486, 2.425, 2017/9/29 06:41:48.538下午, 1181.0, 21.94, 0.52, 24.77
487, 2.43, 2017/9/29 06:41:48.543下午, 1185.0, 21.94, 0.00, 24.52
488, 2.435, 2017/9/29 06:41:48.548下午, 1165.0, 21.68, 0.00, 24.52
489, 2.44, 2017/9/29 06:41:48.553下午, 1190.0, 22.45, 0.00, 24.77
490, 2.445, 2017/9/29 06:41:48.558下午, 1184.0, 21.94, 0.00, 24.77
491, 2.45, 2017/9/29 06:41:48.563下午, 1187.0, 21.94, 0.52, 25.03
492, 2.455, 2017/9/29 06:41:48.568下午, 1180.0, 21.42, 0.52, 24.77
493, 2.46, 2017/9/29 06:41:48.573下午, 1214.0, 22.45, 0.52, 25.81
494, 2.465, 2017/9/29 06:41:48.578下午, 1179.0, 21.94, 0.52, 24.77
495, 2.47, 2017/9/29 06:41:48.583下午, 1184.0, 22.19, 0.52, 24.52
496, 2.475, 2017/9/29 06:41:48.588下午, 1183.0, 22.19, 0.52, 24.77
497, 2.48, 2017/9/29 06:41:48.593下午, 1166.0, 21.68, 0.52, 25.29
498, 2.485, 2017/9/29 06:41:48.598下午, 1156.0, 22.19, 0.00, 24.52
499, 2.49, 2017/9/29 06:41:48.603下午, 1180.0, 22.45, 0.52, 24.52
500, 2.495, 2017/9/29 06:41:48.608下午, 1189.0, 22.19, 0.00, 24.77
501, 2.5, 2017/9/29 06:41:48.613下午, 1148.0, 21.68, 0.00, 24.26
502, 2.505, 2017/9/29 06:41:48.618下午, 1178.0, 21.68, 0.52, 24.77
503, 2.51, 2017/9/29 06:41:48.623下午, 1187.0, 22.45, 0.52, 24.77
504, 2.515, 2017/9/29 06:41:48.628下午, 1171.0, 22.45, 0.00, 24.26
505, 2.52, 2017/9/29 06:41:48.633下午, 1161.0, 21.68, 0.00, 24.52
506, 2.525, 2017/9/29 06:41:48.638下午, 1192.0, 21.94, 0.52, 25.03
507, 2.53, 2017/9/29 06:41:48.643下午, 1175.0, 22.45, 0.00, 24.52
508, 2.535, 2017/9/29 06:41:48.648下午, 1157.0, 22.19, 0.52, 24.00
509, 2.54, 2017/9/29 06:41:48.653下午, 1200.0, 22.19, 0.00, 25.29
510, 2.545, 2017/9/29 06:41:48.658下午, 1182.0, 22.45, 0.52, 25.03
511, 2.55, 2017/9/29 06:41:48.663下午, 1187.0, 22.19, 0.00, 24.77
512, 2.555, 2017/9/29 06:41:48.668下午, 1155.0, 21.94, 0.00, 24.26
513, 2.56, 2017/9/29 06:41:48.673下午, 1184.0, 22.45, 0.00, 24.52
514, 2.565, 2017/9/29 06:41:48.678下午, 1188.0, 22.45, 0.00, 25.55
515, 2.57, 2017/9/29 06:41:48.683下午, 1150.0, 21.68, 0.00, 24.52
516, 2.575, 2017/9/29 06:41:48.688下午, 1194.0, 22.19, 0.52, 25.03
517, 2.58, 2017/9/29 06:41:48.693下午, 1164.0, 22.19, 0.00, 25.29
518, 2.585, 2017/9/29 06:41:48.698下午, 1171.0, 21.94, 0.00, 24.77
519, 2.59, 2017/9/29 06:41:48.703下午, 1162.0, 21.68, 0.00, 24.77
520, 2.595, 2017/9/29 06:41:48.708下午, 1191.0, 22.45, 0.52, 24.52
521, 2.6, 2017/9/29 06:41:48.713下午, 1171.0, 21.68, 0.52, 25.03
522, 2.605, 2017/9/29 06:41:48.718下午, 1167.0, 21.94, 0.00, 25.03
523, 2.61, 2017/9/29 06:41:48.723下午, 1191.0, 22.45, 0.00, 24.52
524, 2.615, 2017/9/29 06:41:48.728下午, 1171.0, 21.94, 0.00, 24.52
525, 2.62, 2017/9/29 06:41:48.733下午, 1160.0, 21.94, 0.52, 24.52
526, 2.625, 2017/9/29 06:41:48.738下午, 1178.0, 21.94, 0.52, 24.52
527, 2.63, 2017/9/29 06:41:48.743下午, 1187.0, 22.19, 0.00, 25.03
528, 2.635, 2017/9/29 06:41:48.748下午, 1175.0, 21.94, 0.52, 24.77
529, 2.64, 2017/9/29 06:41:48.753下午, 1170.0, 21.68, 0.00, 24.52
530, 2.645, 2017/9/29 06:41:48.758下午, 1173.0, 22.19, 0.00, 24.77
531, 2.65, 2017/9/29 06:41:48.763下午, 1174.0, 21.94, 0.00, 24.77
532, 2.655, 2017/9/29 06:41:48.768下午, 1178.0, 21.94, 0.00, 25.03
533, 2.66, 2017/9/29 06:41:48.773下午, 1206.0, 22.45, 0.52, 25.55
534, 2.665, 2017/9/29 06:41:48.778下午, 1150.0, 21.94, 0.52, 23.74
535, 2.67, 2017/9/29 06:41:48.783下午, 1156.0, 21.94, 0.00, 24.26
536, 2.675, 2017/9/29 06:41:48.788下午, 1182.0, 22.45, 0.00, 24.52
537, 2.68, 2017/9/29 06:41:48.793下午, 1181.0, 21.68, 0.52, 25.03
538, 2.685, 2017/9/29 06:41:48.798下午, 1162.0, 21.94, 0.52, 24.26
539, 2.69, 2017/9/29 06:41:48.803下午, 1186.0, 22.71, 0.52, 24.77
540, 2.695, 2017/9/29 06:41:48.808下午, 1186.0, 21.94, 0.00, 25.29
541, 2.7, 2017/9/29 06:41:48.813下午, 1174.0, 21.68, 0.52, 25.55
542, 2.705, 2017/9/29 06:41:48.818下午, 1187.0, 22.19, 0.00, 24.52
543, 2.71, 2017/9/29 06:41:48.823下午, 1200.0, 22.19, 0.00, 25.29
544, 2.715, 2017/9/29 06:41:48.828下午, 1171.0, 22.45, 0.00, 24.77
545, 2.72, 2017/9/29 06:41:48.833下午, 1175.0, 21.68, 0.52, 24.52
546, 2.725, 2017/9/29 06:41:48.838下午, 1169.0, 21.68, 0.52, 24.77
547, 2.73, 2017/9/29 06:41:48.843下午, 1195.0, 21.94, 0.52, 25.29
548, 2.735, 2017/9/29 06:41:48.848下午, 1157.0, 21.68, 0.00, 24.52
549, 2.74, 2017/9/29 06:41:48.853下午, 1188.0, 21.42, 0.52, 25.03
550, 2.745, 2017/9/29 06:41:48.858下午, 1184.0, 21.94, 0.00, 24.77
551, 2.75, 2017/9/29 06:41:48.863下午, 1169.0, 21.94, 0.52, 24.52
552, 2.755, 2017/9/29 06:41:48.868下午, 1173.0, 22.45, 0.00, 24.00
553, 2.76, 2017/9/29 06:41:48.873下午, 1199.0, 22.45, 0.52, 24.77
554, 2.765, 2017/9/29 06:41:48.878下午, 1177.0, 21.94, 0.52, 24.52
555, 2.77, 2017/9/29 06:41:48.883下午, 1170.0, 22.19, 0.52, 24.77
556, 2.775, 2017/9/29 06:41:48.888下午, 1191.0, 22.19, 0.52, 24.77
557, 2.78, 2017/9/29 06:41:48.893下午, 1197.0, 22.71, 0.00, 24.52
558, 2.785, 2017/9/29 06:41:48.898下午, 1157.0, 21.68, 0.00, 24.26
559, 2.79, 2017/9/29 06:41:48.903下午, 1171.0, 22.19, 0.00, 24.26
560, 2.795, 2017/9/29 06:41:48.908下午, 1172.0, 21.68, 0.00, 24.52
561, 2.8, 2017/9/29 06:41:48.913下午, 1158.0, 21.94, 0.52, 24.26
562, 2.805, 2017/9/29 06:41:48.918下午, 1153.0, 21.94, 0.00, 24.00
563, 2.81, 2017/9/29 06:41:48.923下午, 1194.0, 21.42, 0.52, 25.29
564, 2.815, 2017/9/29 06:41:48.928下午, 1192.0, 22.19, 0.52, 24.77
565, 2.82, 2017/9/29 06:41:48.933下午, 1174.0, 22.19, 0.00, 24.26
566, 2.825, 2017/9/29 06:41:48.938下午, 1197.0, 22.45, 0.52, 24.26
567, 2.83, 2017/9/29 06:41:48.943下午, 1205.0, 22.97, 0.52, 24.77
568, 2.835, 2017/9/29 06:41:48.948下午, 1185.0, 21.94, 0.00, 24.77
569, 2.84, 2017/9/29 06:41:48.953下午, 1186.0, 21.94, 0.52, 24.77
570, 2.845, 2017/9/29 06:41:48.958下午, 1187.0, 22.45, 0.52, 24.26
571, 2.85, 2017/9/29 06:41:48.963下午, 1158.0, 21.42, 0.52, 24.52
572, 2.855, 2017/9/29 06:41:48.968下午, 1175.0, 22.45, 0.00, 24.26
573, 2.86, 2017/9/29 06:41:48.973下午, 1167.0, 21.68, 0.00, 24.77
574, 2.865, 2017/9/29 06:41:48.978下午, 1201.0, 22.19, 0.52, 25.03
575, 2.87, 2017/9/29 06:41:48.983下午, 1143.0, 21.94, 0.00, 24.52
576, 2.875, 2017/9/29 06:41:48.988下午, 1172.0, 22.45, 0.00, 24.52
577, 2.88, 2017/9/29 06:41:48.993下午, 1188.0, 22.97, 0.52, 24.26
578, 2.885, 2017/9/29 06:41:48.998下午, 1176.0, 21.94, 0.52, 24.77
579, 2.89, 2017/9/29 06:41:49.003下午, 1199.0, 22.19, 0.52, 25.29
580, 2.895, 2017/9/29 06:41:49.008下午, 1195.0, 22.45, 0.00, 24.77
581, 2.9, 2017/9/29 06:41:49.013下午, 1154.0, 22.19, 0.52, 24.26
582, 2.905, 2017/9/29 06:41:49.018下午, 1164.0, 21.68, 0.00, 24.26
583, 2.91, 2017/9/29 06:41:49.023下午, 1171.0, 21.68, 0.00, 23.74
584, 2.915, 2017/9/29 06:41:49.028下午, 1183.0, 21.94, 0.52, 25.03
585, 2.92, 2017/9/29 06:41:49.033下午, 1154.0, 21.94, 0.52, 24.00
586, 2.925, 2017/9/29 06:41:49.038下午, 1171.0, 21.68, 0.00, 25.03
587, 2.93, 2017/9/29 06:41:49.043下午, 1153.0, 21.68, 0.00, 23.23
588, 2.935, 2017/9/29 06:41:49.048下午, 1162.0, 21.94, 0.00, 24.52
589, 2.94, 2017/9/29 06:41:49.053下午, 1206.0, 21.94, 0.52, 25.29
590, 2.945, 2017/9/29 06:41:49.058下午, 1195.0, 22.45, 0.00, 24.26
591, 2.95, 2017/9/29 06:41:49.063下午, 1167.0, 22.19, 0.00, 24.26
592, 2.955, 2017/9/29 06:41:49.068下午, 1194.0, 22.19, 0.00, 24.77
593, 2.96, 2017/9/29 06:41:49.073下午, 1188.0, 22.19, 0.00, 24.26
594, 2.965, 2017/9/29 06:41:49.078下午, 1180.0, 22.19, 0.52, 24.52
595, 2.97, 2017/9/29 06:41:49.083下午, 1144.0, 22.19, 0.00, 23.74
596, 2.975, 2017/9/29 06:41:49.088下午, 1180.0, 21.68, 0.00, 24.77
597, 2.98, 2017/9/29 06:41:49.093下午, 1167.0, 22.19, 0.00, 24.00
598, 2.985, 2017/9/29 06:41:49.098下午, 1180.0, 22.71, 0.00, 24.52
599, 2.99, 2017/9/29 06:41:49.103下午, 1198.0, 22.71, 0.52, 24.77
600, 2.995, 2017/9/29 06:41:49.108下午, 1186.0, 22.45, 0.52, 23.74
601, 3, 2017/9/29 06:41:49.113下午, 1174.0, 21.94, 0.00, 24.77
602, 3.005, 2017/9/29 06:41:49.118下午, 1180.0, 22.19, 0.52, 24.00
603, 3.01, 2017/9/29 06:41:49.123下午, 1172.0, 21.94, 0.00, 24.26
604, 3.015, 2017/9/29 06:41:49.128下午, 1207.0, 22.19, 0.52, 25.03
605, 3.02, 2017/9/29 06:41:49.133下午, 1160.0, 21.68, 0.00, 23.74
606, 3.025, 2017/9/29 06:41:49.138下午, 1168.0, 22.19, 0.00, 24.52
607, 3.03, 2017/9/29 06:41:49.143下午, 1171.0, 21.94, 0.00, 24.00
608, 3.035, 2017/9/29 06:41:49.148下午, 1174.0, 21.94, 0.00, 24.26
609, 3.04, 2017/9/29 06:41:49.153下午, 1191.0, 22.45, 0.52, 25.29
610, 3.045, 2017/9/29 06:41:49.158下午, 1194.0, 22.19, 0.00, 24.77
611, 3.05, 2017/9/29 06:41:49.163下午, 1193.0, 22.71, 0.00, 24.77
612, 3.055, 2017/9/29 06:41:49.168下午, 1171.0, 22.19, 0.00, 24.52
613, 3.06, 2017/9/29 06:41:49.173下午, 1174.0, 21.94, 0.52, 24.00
614, 3.065, 2017/9/29 06:41:49.178下午, 1156.0, 22.45, 0.00, 24.00
615, 3.07, 2017/9/29 06:41:49.183下午, 1145.0, 21.42, 0.00, 23.74
616, 3.075, 2017/9/29 06:41:49.188下午, 1180.0, 22.71, 0.00, 23.74
617, 3.08, 2017/9/29 06:41:49.193下午, 1192.0, 22.19, 0.52, 25.03
618, 3.085, 2017/9/29 06:41:49.198下午, 1173.0, 22.45, 0.00, 24.00
619, 3.09, 2017/9/29 06:41:49.203下午, 1175.0, 22.19, 0.52, 24.00
620, 3.095, 2017/9/29 06:41:49.208下午, 1204.0, 22.19, 0.52, 25.03
621, 3.1, 2017/9/29 06:41:49.213下午, 1170.0, 21.94, 0.52, 24.52
622, 3.105, 2017/9/29 06:41:49.218下午, 1172.0, 21.94, 0.00, 24.77
623, 3.11, 2017/9/29 06:41:49.223下午, 1181.0, 22.45, 0.52, 24.00
624, 3.115, 2017/9/29 06:41:49.228下午, 1179.0, 22.45, 0.52, 24.26
625, 3.12, 2017/9/29 06:41:49.233下午, 1175.0, 22.19, 0.00, 24.52
626, 3.125, 2017/9/29 06:41:49.238下午, 1190.0, 22.19, 0.00, 24.52
627, 3.13, 2017/9/29 06:41:49.243下午, 1200.0, 22.97, 0.52, 24.26
628, 3.135, 2017/9/29 06:41:49.248下午, 1171.0, 22.19, 0.00, 24.26
629, 3.14, 2017/9/29 06:41:49.253下午, 1161.0, 22.19, 0.00, 24.00
630, 3.145, 2017/9/29 06:41:49.258下午, 1181.0, 22.71, 0.00, 24.00
631, 3.15, 2017/9/29 06:41:49.263下午, 1188.0, 22.45, 0.52, 24.26
632, 3.155, 2017/9/29 06:41:49.268下午, 1192.0, 21.94, 0.52, 25.03
633, 3.16, 2017/9/29 06:41:49.273下午, 1163.0, 22.19, 0.00, 24.26
634, 3.165, 2017/9/29 06:41:49.278下午, 1156.0, 22.19, 0.00, 23.48
635, 3.17, 2017/9/29 06:41:49.283下午, 1174.0, 22.19, 0.52, 24.26
636, 3.175, 2017/9/29 06:41:49.288下午, 1192.0, 22.19, 0.52, 24.77
637, 3.18, 2017/9/29 06:41:49.293下午, 1209.0, 22.45, 0.52, 24.77
638, 3.185, 2017/9/29 06:41:49.298下午, 1151.0, 21.94, 0.00, 24.00
639, 3.19, 2017/9/29 06:41:49.303下午, 1189.0, 22.71, 0.52, 24.00
640, 3.195, 2017/9/29 06:41:49.308下午, 1199.0, 22.45, 0.52, 23.74
641, 3.2, 2017/9/29 06:41:49.313下午, 1167.0, 22.19, 0.00, 24.00
642, 3.205, 2017/9/29 06:41:49.318下午, 1190.0, 22.45, 0.52, 25.03
643, 3.21, 2017/9/29 06:41:49.323下午, 1161.0, 21.94, 0.00, 24.00
644, 3.215, 2017/9/29 06:41:49.328下午, 1180.0, 22.19, 0.00, 24.52
645, 3.22, 2017/9/29 06:41:49.333下午, 1163.0, 22.19, 0.52, 24.52
646, 3.225, 2017/9/29 06:41:49.338下午, 1206.0, 22.71, 0.52, 25.03
647, 3.23, 2017/9/29 06:41:49.343下午, 1186.0, 21.94, 0.52, 24.26
648, 3.235, 2017/9/29 06:41:49.348下午, 1146.0, 21.94, 0.00, 23.48
649, 3.24, 2017/9/29 06:41:49.353下午, 1192.0, 22.71, 0.00, 24.26
650, 3.245, 2017/9/29 06:41:49.358下午, 1197.0, 22.97, 0.00, 24.00
651, 3.25, 2017/9/29 06:41:49.363下午, 1213.0, 22.97, 0.00, 24.77
652, 3.255, 2017/9/29 06:41:49.368下午, 1193.0, 22.45, 0.52, 24.26
653, 3.26, 2017/9/29 06:41:49.373下午, 1184.0, 22.97, 0.00, 24.26
654, 3.265, 2017/9/29 06:41:49.378下午, 1184.0, 22.19, 0.00, 24.00
655, 3.27, 2017/9/29 06:41:49.383下午, 1166.0, 22.45, 0.00, 23.74
656, 3.275, 2017/9/29 06:41:49.388下午, 1202.0, 22.71, 0.00, 24.52
657, 3.28, 2017/9/29 06:41:49.393下午, 1203.0, 21.94, 0.52, 24.77
658, 3.285, 2017/9/29 06:41:49.398下午, 1178.0, 22.71, 0.52, 24.00
659, 3.29, 2017/9/29 06:41:49.403下午, 1197.0, 22.71, 0.00, 23.74
660, 3.295, 2017/9/29 06:41:49.408下午, 1233.0, 23.48, 0.52, 24.77
661, 3.3, 2017/9/29 06:41:49.413下午, 1192.0, 22.97, 0.52, 24.00
662, 3.305, 2017/9/29 06:41:49.418下午, 1186.0, 22.45, 0.52, 23.48
663, 3.31, 2017/9/29 06:41:49.423下午, 1188.0, 22.19, 0.00, 24.26
664, 3.315, 2017/9/29 06:41:49.428下午, 1157.0, 21.68, 0.00, 23.74
665, 3.32, 2017/9/29 06:41:49.433下午, 1168.0, 22.71, 0.00, 24.00
666, 3.325, 2017/9/29 06:41:49.438下午, 1215.0, 22.45, 0.00, 24.77
667, 3.33, 2017/9/29 06:41:49.443下午, 1205.0, 23.23, 0.52, 23.74
668, 3.335, 2017/9/29 06:41:49.448下午, 1176.0, 22.97, 0.52, 24.00
669, 3.34, 2017/9/29 06:41:49.453下午, 1194.0, 22.71, 0.52, 24.26
670, 3.345, 2017/9/29 06:41:49.458下午, 1183.0, 22.71, 0.00, 24.00
671, 3.35, 2017/9/29 06:41:49.463下午, 1193.0, 22.19, 0.52, 23.74
672, 3.355, 2017/9/29 06:41:49.468下午, 1198.0, 22.97, 0.00, 24.52
673, 3.36, 2017/9/29 06:41:49.473下午, 1205.0, 22.71, 0.52, 24.77
674, 3.365, 2017/9/29 06:41:49.478下午, 1203.0, 22.97, 0.52, 24.00
675, 3.37, 2017/9/29 06:41:49.483下午, 1195.0, 22.45, 0.52, 24.77
676, 3.375, 2017/9/29 06:41:49.488下午, 1234.0, 22.71, 0.52, 25.03
677, 3.38, 2017/9/29 06:41:49.493下午, 1197.0, 22.71, 0.00, 24.00
678, 3.385, 2017/9/29 06:41:49.498下午, 1203.0, 22.71, 0.52, 24.26
679, 3.39, 2017/9/29 06:41:49.503下午, 1213.0, 23.23, 0.00, 23.74
680, 3.395, 2017/9/29 06:41:49.508下午, 1234.0, 23.48, 0.00, 25.03
681, 3.4, 2017/9/29 06:41:49.513下午, 1219.0, 22.45, 0.52, 24.77
682, 3.405, 2017/9/29 06:41:49.518下午, 1220.0, 23.48, 0.00, 24.26
683, 3.41, 2017/9/29 06:41:49.523下午, 1236.0, 22.97, 0.52, 25.03
684, 3.415, 2017/9/29 06:41:49.528下午, 1210.0, 22.71, 0.52, 24.26
685, 3.42, 2017/9/29 06:41:49.533下午, 1195.0, 22.45, 0.52, 24.00
686, 3.425, 2017/9/29 06:41:49.538下午, 1231.0, 22.97, 0.52, 25.03
687, 3.43, 2017/9/29 06:41:49.543下午, 1205.0, 22.71, 0.00, 24.26
688, 3.435, 2017/9/29 06:41:49.548下午, 1214.0, 22.97, 0.52, 23.74
689, 3.44, 2017/9/29 06:41:49.553下午, 1226.0, 22.45, 0.52, 24.77
690, 3.445, 2017/9/29 06:41:49.558下午, 1229.0, 23.48, 0.00, 24.52
691, 3.45, 2017/9/29 06:41:49.563下午, 1233.0, 23.48, 0.52, 25.55
692, 3.455, 2017/9/29 06:41:49.568下午, 1191.0, 22.97, 0.00, 24.00
693, 3.46, 2017/9/29 06:41:49.573下午, 1234.0, 23.23, 0.52, 24.77
694, 3.465, 2017/9/29 06:41:49.578下午, 1222.0, 22.71, 0.52, 25.03
695, 3.47, 2017/9/29 06:41:49.583下午, 1207.0, 22.97, 0.52, 24.26
696, 3.475, 2017/9/29 06:41:49.588下午, 1243.0, 22.97, 0.52, 25.29
697, 3.48, 2017/9/29 06:41:49.593下午, 1212.0, 22.97, 0.52, 23.48
698, 3.485, 2017/9/29 06:41:49.598下午, 1216.0, 23.23, 0.00, 24.26
699, 3.49, 2017/9/29 06:41:49.603下午, 1216.0, 22.45, 0.52, 24.52
700, 3.495, 2017/9/29 06:41:49.608下午, 1222.0, 22.97, 0.52, 24.26
701, 3.5, 2017/9/29 06:41:49.613下午, 1219.0, 21.94, 0.52, 25.03
702, 3.505, 2017/9/29 06:41:49.618下午, 1185.0, 22.19, 0.00, 24.00
703, 3.51, 2017/9/29 06:41:49.623下午, 1216.0, 22.97, 0.52, 23.74
704, 3.515, 2017/9/29 06:41:49.628下午, 1217.0, 22.45, 0.52, 24.52
705, 3.52, 2017/9/29 06:41:49.633下午, 1208.0, 22.71, 0.52, 23.74
706, 3.525, 2017/9/29 06:41:49.638下午, 1238.0, 23.23, 0.52, 24.52
707, 3.53, 2017/9/29 06:41:49.643下午, 1236.0, 23.23, 0.52, 24.00
708, 3.535, 2017/9/29 06:41:49.648下午, 1206.0, 22.71, 0.52, 23.74
709, 3.54, 2017/9/29 06:41:49.653下午, 1223.0, 22.97, 0.52, 25.03
710, 3.545, 2017/9/29 06:41:49.658下午, 1222.0, 23.23, 0.52, 24.26
711, 3.55, 2017/9/29 06:41:49.663下午, 1223.0, 23.23, 0.52, 23.74
712, 3.555, 2017/9/29 06:41:49.668下午, 1192.0, 22.45, 0.52, 23.74
713, 3.56, 2017/9/29 06:41:49.673下午, 1216.0, 22.97, 0.00, 24.26
714, 3.565, 2017/9/29 06:41:49.678下午, 1217.0, 23.23, 0.52, 24.26
715, 3.57, 2017/9/29 06:41:49.683下午, 1193.0, 23.23, 0.52, 24.00
716, 3.575, 2017/9/29 06:41:49.688下午, 1238.0, 22.97, 0.52, 25.29
717, 3.58, 2017/9/29 06:41:49.693下午, 1222.0, 23.48, 0.52, 24.77
718, 3.585, 2017/9/29 06:41:49.698下午, 1204.0, 23.23, 0.52, 23.74
719, 3.59, 2017/9/29 06:41:49.703下午, 1213.0, 22.71, 0.52, 23.74
720, 3.595, 2017/9/29 06:41:49.708下午, 1229.0, 23.23, 0.00, 24.26
721, 3.6, 2017/9/29 06:41:49.713下午, 1231.0, 23.23, 0.52, 24.26
722, 3.605, 2017/9/29 06:41:49.718下午, 1211.0, 22.97, 0.52, 23.48
723, 3.61, 2017/9/29 06:41:49.723下午, 1217.0, 23.23, 0.52, 23.74
724, 3.615, 2017/9/29 06:41:49.728下午, 1218.0, 23.48, 0.52, 24.00
725, 3.62, 2017/9/29 06:41:49.733下午, 1175.0, 22.45, 0.52, 23.48
726, 3.625, 2017/9/29 06:41:49.738下午, 1220.0, 22.97, 0.52, 24.00
727, 3.63, 2017/9/29 06:41:49.743下午, 1199.0, 22.97, 0.52, 23.74
728, 3.635, 2017/9/29 06:41:49.748下午, 1205.0, 22.71, 0.52, 23.74
729, 3.64, 2017/9/29 06:41:49.753下午, 1215.0, 22.71, 0.52, 24.00
730, 3.645, 2017/9/29 06:41:49.758下午, 1209.0, 22.97, 0.52, 23.48
731, 3.65, 2017/9/29 06:41:49.763下午, 1209.0, 22.71, 0.52, 23.23
732, 3.655, 2017/9/29 06:41:49.768下午, 1213.0, 23.23, 0.52, 24.52
733, 3.66, 2017/9/29 06:41:49.773下午, 1214.0, 22.45, 0.52, 24.00
734, 3.665, 2017/9/29 06:41:49.778下午, 1172.0, 22.71, 0.52, 22.71
735, 3.67, 2017/9/29 06:41:49.783下午, 1176.0, 22.19, 0.00, 23.48
736, 3.675, 2017/9/29 06:41:49.788下午, 1207.0, 22.71, 0.52, 23.74
737, 3.68, 2017/9/29 06:41:49.793下午, 1215.0, 23.48, 0.00, 23.74
738, 3.685, 2017/9/29 06:41:49.798下午, 1210.0, 23.23, 0.52, 23.74
739, 3.69, 2017/9/29 06:41:49.803下午, 1196.0, 22.71, 0.52, 23.23
740, 3.695, 2017/9/29 06:41:49.808下午, 1199.0, 23.74, 0.00, 23.48
741, 3.7, 2017/9/29 06:41:49.813下午, 1221.0, 23.48, 0.52, 24.00
742, 3.705, 2017/9/29 06:41:49.818下午, 1172.0, 22.45, 0.52, 23.23
743, 3.71, 2017/9/29 06:41:49.823下午, 1197.0, 22.45, 0.52, 23.48
744, 3.715, 2017/9/29 06:41:49.828下午, 1185.0, 22.45, 0.00, 23.74
745, 3.72, 2017/9/29 06:41:49.833下午, 1164.0, 23.23, 0.00, 23.48
746, 3.725, 2017/9/29 06:41:49.838下午, 1197.0, 22.97, 0.52, 23.74
747, 3.73, 2017/9/29 06:41:49.843下午, 1236.0, 22.97, 0.52, 24.26
748, 3.735, 2017/9/29 06:41:49.848下午, 1182.0, 23.48, 0.00, 23.48
749, 3.74, 2017/9/29 06:41:49.853下午, 1203.0, 23.23, 0.52, 23.23
750, 3.745, 2017/9/29 06:41:49.858下午, 1188.0, 23.23, 0.00, 23.23
751, 3.75, 2017/9/29 06:41:49.863下午, 1209.0, 23.23, 0.52, 23.48
752, 3.755, 2017/9/29 06:41:49.868下午, 1183.0, 22.71, 0.52, 22.97
753, 3.76, 2017/9/29 06:41:49.873下午, 1184.0, 22.71, 0.52, 23.48
754, 3.765, 2017/9/29 06:41:49.878下午, 1200.0, 23.74, 0.52, 23.48
755, 3.77, 2017/9/29 06:41:49.883下午, 1178.0, 22.97, 0.00, 23.48
756, 3.775, 2017/9/29 06:41:49.888下午, 1199.0, 23.48, 0.52, 23.23
757, 3.78, 2017/9/29 06:41:49.893下午, 1188.0, 22.71, 0.00, 23.48
758, 3.785, 2017/9/29 06:41:49.898下午, 1186.0, 22.97, 0.00, 23.23
759, 3.79, 2017/9/29 06:41:49.903下午, 1213.0, 23.23, 0.00, 24.26
760, 3.795, 2017/9/29 06:41:49.908下午, 1228.0, 23.74, 0.52, 24.26
761, 3.8, 2017/9/29 06:41:49.913下午, 1209.0, 22.45, 0.52, 24.52
762, 3.805, 2017/9/29 06:41:49.918下午, 1195.0, 23.23, 0.00, 23.48
763, 3.81, 2017/9/29 06:41:49.923下午, 1217.0, 24.00, 0.00, 24.26
764, 3.815, 2017/9/29 06:41:49.928下午, 1201.0, 23.48, 0.52, 25.03
765, 3.82, 2017/9/29 06:41:49.933下午, 1177.0, 23.74, 0.00, 22.45
766, 3.825, 2017/9/29 06:41:49.938下午, 1199.0, 22.97, 0.52, 23.74
767, 3.83, 2017/9/29 06:41:49.943下午, 1192.0, 23.23, 0.52, 22.97
768, 3.835, 2017/9/29 06:41:49.948下午, 1206.0, 23.74, 0.00, 23.74
769, 3.84, 2017/9/29 06:41:49.953下午, 1216.0, 23.48, 0.00, 24.00
770, 3.845, 2017/9/29 06:41:49.958下午, 1215.0, 23.48, 0.52, 24.26
771, 3.85, 2017/9/29 06:41:49.963下午, 1195.0, 22.97, 0.52, 23.74
772, 3.855, 2017/9/29 06:41:49.968下午, 1177.0, 23.23, 0.00, 23.23
773, 3.86, 2017/9/29 06:41:49.973下午, 1219.0, 23.48, 0.52, 24.00
774, 3.865, 2017/9/29 06:41:49.978下午, 1205.0, 23.48, 0.52, 23.74
775, 3.87, 2017/9/29 06:41:49.983下午, 1194.0, 23.48, 0.00, 24.00
776, 3.875, 2017/9/29 06:41:49.988下午, 1204.0, 22.97, 0.00, 23.48
777, 3.88, 2017/9/29 06:41:49.993下午, 1183.0, 22.71, 0.00, 24.00
778, 3.885, 2017/9/29 06:41:49.998下午, 1228.0, 22.97, 0.52, 24.26
779, 3.89, 2017/9/29 06:41:50.003下午, 1187.0, 22.71, 0.52, 23.23
780, 3.895, 2017/9/29 06:41:50.008下午, 1219.0, 23.23, 0.52, 24.00
781, 3.9, 2017/9/29 06:41:50.013下午, 1208.0, 22.97, 0.52, 23.48
782, 3.905, 2017/9/29 06:41:50.018下午, 1172.0, 23.23, 0.52, 23.23
783, 3.91, 2017/9/29 06:41:50.023下午, 1235.0, 23.74, 0.52, 24.26
784, 3.915, 2017/9/29 06:41:50.028下午, 1215.0, 22.71, 0.52, 23.48
785, 3.92, 2017/9/29 06:41:50.033下午, 1190.0, 23.74, 0.52, 23.23
786, 3.925, 2017/9/29 06:41:50.038下午, 1197.0, 23.23, 0.00, 24.26
787, 3.93, 2017/9/29 06:41:50.043下午, 1216.0, 23.48, 0.52, 23.48
788, 3.935, 2017/9/29 06:41:50.048下午, 1215.0, 23.48, 0.52, 23.48
789, 3.94, 2017/9/29 06:41:50.053下午, 1188.0, 22.97, 0.52, 23.74
790, 3.945, 2017/9/29 06:41:50.058下午, 1199.0, 24.00, 0.52, 23.48
791, 3.95, 2017/9/29 06:41:50.063下午, 1187.0, 23.48, 0.00, 22.97
792, 3.955, 2017/9/29 06:41:50.068下午, 1205.0, 22.71, 0.52, 24.26
793, 3.96, 2017/9/29 06:41:50.073下午, 1217.0, 22.97, 0.52, 24.77
794, 3.965, 2017/9/29 06:41:50.078下午, 1222.0, 23.74, 0.52, 24.52
795, 3.97, 2017/9/29 06:41:50.083下午, 1180.0, 23.48, 0.52, 23.23
796, 3.975, 2017/9/29 06:41:50.088下午, 1189.0, 22.19, 0.52, 23.48
797, 3.98, 2017/9/29 06:41:50.093下午, 1200.0, 23.23, 0.52, 23.74
798, 3.985, 2017/9/29 06:41:50.098下午, 1214.0, 23.23, 0.52, 24.00
799, 3.99, 2017/9/29 06:41:50.103下午, 1188.0, 22.45, 0.00, 23.74
800, 3.995, 2017/9/29 06:41:50.108下午, 1218.0, 23.74, 0.52, 23.48
801, 4, 2017/9/29 06:41:50.113下午, 1211.0, 23.74, 0.52, 23.74
802, 4.005, 2017/9/29 06:41:50.118下午, 1192.0, 23.23, 0.00, 23.74
803, 4.01, 2017/9/29 06:41:50.123下午, 1227.0, 23.48, 0.52, 24.26
804, 4.015, 2017/9/29 06:41:50.128下午, 1215.0, 22.97, 0.52, 24.52
805, 4.02, 2017/9/29 06:41:50.133下午, 1179.0, 22.45, 0.52, 23.23
806, 4.025, 2017/9/29 06:41:50.138下午, 1216.0, 23.48, 0.00, 24.26
807, 4.03, 2017/9/29 06:41:50.143下午, 1200.0, 23.23, 0.00, 23.74
808, 4.035, 2017/9/29 06:41:50.148下午, 1200.0, 22.71, 0.52, 23.74
809, 4.04, 2017/9/29 06:41:50.153下午, 1199.0, 22.71, 0.00, 23.74
810, 4.045, 2017/9/29 06:41:50.158下午, 1205.0, 23.23, 0.52, 23.48
811, 4.05, 2017/9/29 06:41:50.163下午, 1177.0, 22.45, 0.52, 23.48
812, 4.055, 2017/9/29 06:41:50.168下午, 1186.0, 22.97, 0.00, 23.48
813, 4.06, 2017/9/29 06:41:50.173下午, 1211.0, 23.23, 0.52, 23.74
814, 4.065, 2017/9/29 06:41:50.178下午, 1183.0, 23.74, 0.00, 22.97
815, 4.07, 2017/9/29 06:41:50.183下午, 1193.0, 22.97, 0.52, 24.00
816, 4.075, 2017/9/29 06:41:50.188下午, 1204.0, 22.97, 0.52, 24.00
817, 4.08, 2017/9/29 06:41:50.193下午, 1203.0, 23.23, 0.52, 23.48
818, 4.085, 2017/9/29 06:41:50.198下午, 1216.0, 23.23, 0.52, 24.26
819, 4.09, 2017/9/29 06:41:50.203下午, 1201.0, 24.00, 0.00, 23.23
820, 4.095, 2017/9/29 06:41:50.208下午, 1233.0, 23.48, 0.52, 24.52
821, 4.1, 2017/9/29 06:41:50.213下午, 1192.0, 22.97, 0.52, 23.23
822, 4.105, 2017/9/29 06:41:50.218下午, 1166.0, 23.48, 0.00, 23.23
823, 4.11, 2017/9/29 06:41:50.223下午, 1232.0, 23.74, 0.52, 23.74
824, 4.115, 2017/9/29 06:41:50.228下午, 1188.0, 22.97, 0.52, 23.48
825, 4.12, 2017/9/29 06:41:50.233下午, 1188.0, 23.23, 0.52, 23.48
826, 4.125, 2017/9/29 06:41:50.238下午, 1210.0, 22.71, 0.52, 24.26
827, 4.13, 2017/9/29 06:41:50.243下午, 1203.0, 23.48, 0.00, 23.74
828, 4.135, 2017/9/29 06:41:50.248下午, 1199.0, 22.97, 0.52, 23.23
829, 4.14, 2017/9/29 06:41:50.253下午, 1185.0, 23.48, 0.52, 23.48
830, 4.145, 2017/9/29 06:41:50.258下午, 1237.0, 23.48, 0.52, 24.00
831, 4.15, 2017/9/29 06:41:50.263下午, 1220.0, 23.23, 0.52, 24.00
832, 4.155, 2017/9/29 06:41:50.268下午, 1186.0, 23.48, 0.00, 22.97
833, 4.16, 2017/9/29 06:41:50.273下午, 1228.0, 23.74, 0.52, 24.26
834, 4.165, 2017/9/29 06:41:50.278下午, 1207.0, 22.71, 0.52, 24.26
835, 4.17, 2017/9/29 06:41:50.283下午, 1184.0, 22.97, 0.52, 23.23
836, 4.175, 2017/9/29 06:41:50.288下午, 1205.0, 23.48, 0.52, 23.48
837, 4.18, 2017/9/29 06:41:50.293下午, 1206.0, 23.48, 0.52, 24.26
838, 4.185, 2017/9/29 06:41:50.298下午, 1207.0, 23.23, 0.52, 23.74
839, 4.19, 2017/9/29 06:41:50.303下午, 1200.0, 22.97, 0.52, 23.74
840, 4.195, 2017/9/29 06:41:50.308下午, 1255.0, 23.74, 0.52, 25.55
841, 4.2, 2017/9/29 06:41:50.313下午, 1193.0, 24.00, 0.52, 23.74
842, 4.205, 2017/9/29 06:41:50.318下午, 1200.0, 23.23, 0.52, 23.74
843, 4.21, 2017/9/29 06:41:50.323下午, 1197.0, 23.48, 0.00, 23.48
844, 4.215, 2017/9/29 06:41:50.328下午, 1189.0, 22.71, 0.00, 23.23
845, 4.22, 2017/9/29 06:41:50.333下午, 1205.0, 22.97, 0.00, 23.74
846, 4.225, 2017/9/29 06:41:50.338下午, 1211.0, 23.74, 0.52, 23.74
847, 4.23, 2017/9/29 06:41:50.343下午, 1214.0, 23.48, 0.00, 22.71
848, 4.235, 2017/9/29 06:41:50.348下午, 1210.0, 22.97, 0.52, 24.00
849, 4.24, 2017/9/29 06:41:50.353下午, 1195.0, 22.97, 0.00, 23.74
850, 4.245, 2017/9/29 06:41:50.358下午, 1227.0, 23.48, 0.52, 24.00
851, 4.25, 2017/9/29 06:41:50.363下午, 1218.0, 23.23, 0.52, 24.00
852, 4.255, 2017/9/29 06:41:50.368下午, 1183.0, 22.45, 0.00, 23.48
853, 4.26, 2017/9/29 06:41:50.373下午, 1228.0, 23.74, 0.52, 24.00
854, 4.265, 2017/9/29 06:41:50.378下午, 1210.0, 22.45, 0.00, 23.74
855, 4.27, 2017/9/29 06:41:50.383下午, 1194.0, 22.97, 0.52, 23.74
856, 4.275, 2017/9/29 06:41:50.388下午, 1223.0, 23.48, 0.52, 24.00
857, 4.28, 2017/9/29 06:41:50.393下午, 1208.0, 23.48, 0.00, 23.48
858, 4.285, 2017/9/29 06:41:50.398下午, 1210.0, 23.23, 0.52, 23.74
859, 4.29, 2017/9/29 06:41:50.403下午, 1206.0, 24.00, 0.00, 23.23
860, 4.295, 2017/9/29 06:41:50.408下午, 1235.0, 23.48, 0.52, 24.26
861, 4.3, 2017/9/29 06:41:50.413下午, 1213.0, 23.74, 0.00, 23.48
862, 4.305, 2017/9/29 06:41:50.418下午, 1180.0, 23.48, 0.00, 22.97
863, 4.31, 2017/9/29 06:41:50.423下午, 1215.0, 23.23, 0.52, 24.00
864, 4.315, 2017/9/29 06:41:50.428下午, 1211.0, 22.71, 0.00, 23.74
865, 4.32, 2017/9/29 06:41:50.433下午, 1215.0, 23.48, 0.52, 24.00
866, 4.325, 2017/9/29 06:41:50.438下午, 1222.0, 24.00, 0.00, 23.74
867, 4.33, 2017/9/29 06:41:50.443下午, 1202.0, 24.00, 0.00, 23.74
868, 4.335, 2017/9/29 06:41:50.448下午, 1215.0, 22.97, 0.52, 24.26
869, 4.34, 2017/9/29 06:41:50.453下午, 1195.0, 22.71, 0.00, 23.74
870, 4.345, 2017/9/29 06:41:50.458下午, 1231.0, 23.48, 0.00, 24.52
871, 4.35, 2017/9/29 06:41:50.463下午, 1218.0, 23.48, 0.00, 23.74
872, 4.355, 2017/9/29 06:41:50.468下午, 1201.0, 22.71, 0.00, 23.74
873, 4.36, 2017/9/29 06:41:50.473下午, 1197.0, 22.97, 0.52, 23.23
874, 4.365, 2017/9/29 06:41:50.478下午, 1219.0, 23.48, 0.52, 24.00
875, 4.37, 2017/9/29 06:41:50.483下午, 1202.0, 23.23, 0.00, 23.48
876, 4.375, 2017/9/29 06:41:50.488下午, 1228.0, 23.48, 0.00, 24.00
877, 4.38, 2017/9/29 06:41:50.493下午, 1205.0, 22.71, 0.52, 24.00
878, 4.385, 2017/9/29 06:41:50.498下午, 1201.0, 22.97, 0.52, 23.48
879, 4.39, 2017/9/29 06:41:50.503下午, 1220.0, 23.23, 0.52, 24.00
880, 4.395, 2017/9/29 06:41:50.508下午, 1235.0, 23.74, 0.52, 24.77
881, 4.4, 2017/9/29 06:41:50.513下午, 1209.0, 23.48, 0.52, 23.74
882, 4.405, 2017/9/29 06:41:50.518下午, 1198.0, 23.23, 0.00, 23.48
883, 4.41, 2017/9/29 06:41:50.523下午, 1228.0, 22.97, 0.52, 24.77
884, 4.415, 2017/9/29 06:41:50.528下午, 1198.0, 23.23, 0.52, 24.26
885, 4.42, 2017/9/29 06:41:50.533下午, 1216.0, 22.97, 0.52, 24.00
886, 4.425, 2017/9/29 06:41:50.538下午, 1212.0, 22.97, 0.00, 23.74
887, 4.43, 2017/9/29 06:41:50.543下午, 1241.0, 24.26, 0.52, 23.48
888, 4.435, 2017/9/29 06:41:50.548下午, 1216.0, 22.97, 0.52, 24.26
889, 4.44, 2017/9/29 06:41:50.553下午, 1213.0, 23.48, 0.52, 24.00
890, 4.445, 2017/9/29 06:41:50.558下午, 1219.0, 23.48, 0.52, 23.48
891, 4.45, 2017/9/29 06:41:50.563下午, 1218.0, 23.48, 0.52, 24.26
892, 4.455, 2017/9/29 06:41:50.568下午, 1208.0, 22.71, 0.52, 23.74
893, 4.46, 2017/9/29 06:41:50.573下午, 1249.0, 23.48, 0.00, 25.03
894, 4.465, 2017/9/29 06:41:50.578下午, 1208.0, 23.23, 0.52, 24.00
895, 4.47, 2017/9/29 06:41:50.583下午, 1198.0, 23.48, 0.00, 24.26
896, 4.475, 2017/9/29 06:41:50.588下午, 1212.0, 23.23, 0.52, 24.00
897, 4.48, 2017/9/29 06:41:50.593下午, 1217.0, 22.97, 0.52, 23.74
898, 4.485, 2017/9/29 06:41:50.598下午, 1227.0, 23.48, 0.00, 24.26
899, 4.49, 2017/9/29 06:41:50.603下午, 1212.0, 23.23, 0.52, 24.26
900, 4.495, 2017/9/29 06:41:50.608下午, 1235.0, 23.48, 0.52, 24.00
901, 4.5, 2017/9/29 06:41:50.613下午, 1222.0, 23.48, 0.00, 23.74
902, 4.505, 2017/9/29 06:41:50.618下午, 1199.0, 23.48, 0.52, 23.74
903, 4.51, 2017/9/29 06:41:50.623下午, 1247.0, 23.74, 0.52, 24.26
904, 4.515, 2017/9/29 06:41:50.628下午, 1216.0, 23.23, 0.52, 24.00
905, 4.52, 2017/9/29 06:41:50.633下午, 1203.0, 22.71, 0.52, 24.26
906, 4.525, 2017/9/29 06:41:50.638下午, 1224.0, 23.23, 0.52, 24.52
907, 4.53, 2017/9/29 06:41:50.643下午, 1229.0, 23.23, 0.00, 24.77
908, 4.535, 2017/9/29 06:41:50.648下午, 1233.0, 24.00, 0.00, 24.00
909, 4.54, 2017/9/29 06:41:50.653下午, 1218.0, 23.48, 0.00, 24.77
910, 4.545, 2017/9/29 06:41:50.658下午, 1223.0, 23.48, 0.52, 24.26
911, 4.55, 2017/9/29 06:41:50.663下午, 1242.0, 23.48, 0.52, 24.26
912, 4.555, 2017/9/29 06:41:50.668下午, 1218.0, 22.97, 0.52, 23.48
913, 4.56, 2017/9/29 06:41:50.673下午, 1237.0, 23.48, 0.00, 24.26
914, 4.565, 2017/9/29 06:41:50.678下午, 1228.0, 23.23, 0.52, 24.26
915, 4.57, 2017/9/29 06:41:50.683下午, 1205.0, 24.00, 0.52, 23.23
916, 4.575, 2017/9/29 06:41:50.688下午, 1193.0, 23.74, 0.00, 23.23
917, 4.58, 2017/9/29 06:41:50.693下午, 1226.0, 23.23, 0.52, 24.26
918, 4.585, 2017/9/29 06:41:50.698下午, 1218.0, 23.74, 0.00, 24.52
919, 4.59, 2017/9/29 06:41:50.703下午, 1220.0, 22.97, 0.52, 23.48
920, 4.595, 2017/9/29 06:41:50.708下午, 1215.0, 23.48, 0.52, 24.26
921, 4.6, 2017/9/29 06:41:50.713下午, 1205.0, 23.23, 0.00, 23.74
922, 4.605, 2017/9/29 06:41:50.718下午, 1225.0, 22.97, 0.00, 24.26
923, 4.61, 2017/9/29 06:41:50.723下午, 1244.0, 23.48, 0.52, 24.00
924, 4.615, 2017/9/29 06:41:50.728下午, 1225.0, 23.23, 0.52, 24.26
925, 4.62, 2017/9/29 06:41:50.733下午, 1192.0, 22.45, 0.52, 24.00
926, 4.625, 2017/9/29 06:41:50.738下午, 1214.0, 23.74, 0.00, 23.48
927, 4.63, 2017/9/29 06:41:50.743下午, 1224.0, 23.23, 0.52, 24.26
928, 4.635, 2017/9/29 06:41:50.748下午, 1203.0, 23.23, 0.52, 24.00
929, 4.64, 2017/9/29 06:41:50.753下午, 1229.0, 22.97, 0.52, 24.26
930, 4.645, 2017/9/29 06:41:50.758下午, 1226.0, 23.74, 0.52, 24.26
931, 4.65, 2017/9/29 06:41:50.763下午, 1201.0, 23.74, 0.00, 23.74
932, 4.655, 2017/9/29 06:41:50.768下午, 1206.0, 23.48, 0.52, 24.00
933, 4.66, 2017/9/29 06:41:50.773下午, 1238.0, 23.23, 0.52, 24.77
934, 4.665, 2017/9/29 06:41:50.778下午, 1213.0, 23.23, 0.52, 24.26
935, 4.67, 2017/9/29 06:41:50.783下午, 1179.0, 22.71, 0.52, 23.48
936, 4.675, 2017/9/29 06:41:50.788下午, 1211.0, 23.48, 0.00, 23.74
937, 4.68, 2017/9/29 06:41:50.793下午, 1211.0, 23.23, 0.52, 23.48
938, 4.685, 2017/9/29 06:41:50.798下午, 1196.0, 23.23, 0.52, 23.48
939, 4.69, 2017/9/29 06:41:50.803下午, 1235.0, 23.74, 0.52, 24.77
940, 4.695, 2017/9/29 06:41:50.808下午, 1199.0, 23.74, 0.00, 23.23
941, 4.7, 2017/9/29 06:41:50.813下午, 1184.0, 22.97, 0.52, 23.23
942, 4.705, 2017/9/29 06:41:50.818下午, 1182.0, 22.45, 0.52, 23.74
943, 4.71, 2017/9/29 06:41:50.823下午, 1211.0, 23.23, 0.52, 24.26
944, 4.715, 2017/9/29 06:41:50.828下午, 1196.0, 23.23, 0.00, 22.97
945, 4.72, 2017/9/29 06:41:50.833下午, 1172.0, 23.23, 0.00, 24.00
946, 4.725, 2017/9/29 06:41:50.838下午, 1208.0, 24.00, 0.52, 24.26
947, 4.73, 2017/9/29 06:41:50.843下午, 1233.0, 24.00, 0.00, 24.52
948, 4.735, 2017/9/29 06:41:50.848下午, 1216.0, 24.00, 0.52, 23.74
949, 4.74, 2017/9/29 06:41:50.853下午, 1197.0, 22.71, 0.00, 24.26
950, 4.745, 2017/9/29 06:41:50.858下午, 1194.0, 22.71, 0.00, 24.00
951, 4.75, 2017/9/29 06:41:50.863下午, 1184.0, 23.48, 0.00, 22.97
952, 4.755, 2017/9/29 06:41:50.868下午, 1200.0, 23.48, 0.52, 23.74
953, 4.76, 2017/9/29 06:41:50.873下午, 1223.0, 23.74, 0.52, 24.00
954, 4.765, 2017/9/29 06:41:50.878下午, 1210.0, 23.48, 0.00, 24.00
955, 4.77, 2017/9/29 06:41:50.883下午, 1182.0, 23.23, 0.00, 22.97
956, 4.775, 2017/9/29 06:41:50.888下午, 1196.0, 22.71, 0.52, 23.48
957, 4.78, 2017/9/29 06:41:50.893下午, 1201.0, 23.48, 0.00, 23.48
958, 4.785, 2017/9/29 06:41:50.898下午, 1216.0, 23.23, 0.52, 24.52
959, 4.79, 2017/9/29 06:41:50.903下午, 1202.0, 23.23, 0.52, 23.74
960, 4.795, 2017/9/29 06:41:50.908下午, 1187.0, 23.23, 0.00, 24.00
961, 4.8, 2017/9/29 06:41:50.913下午, 1212.0, 23.48, 0.00, 24.26
962, 4.805, 2017/9/29 06:41:50.918下午, 1181.0, 22.97, 0.00, 23.74
963, 4.81, 2017/9/29 06:41:50.923下午, 1205.0, 22.97, 0.00, 24.00
964, 4.815, 2017/9/29 06:41:50.928下午, 1214.0, 23.23, 0.00, 24.26
965, 4.82, 2017/9/29 06:41:50.933下午, 1187.0, 22.71, 0.00, 23.74
966, 4.825, 2017/9/29 06:41:50.938下午, 1213.0, 22.97, 0.52, 25.03
967, 4.83, 2017/9/29 06:41:50.943下午, 1182.0, 23.48, 0.00, 23.23
968, 4.835, 2017/9/29 06:41:50.948下午, 1198.0, 23.74, 0.52, 23.48
969, 4.84, 2017/9/29 06:41:50.953下午, 1188.0, 23.23, 0.00, 23.23
970, 4.845, 2017/9/29 06:41:50.958下午, 1195.0, 22.97, 0.52, 23.74
971, 4.85, 2017/9/29 06:41:50.963下午, 1207.0, 23.23, 0.52, 24.00
972, 4.855, 2017/9/29 06:41:50.968下午, 1172.0, 23.74, 0.00, 23.48
973, 4.86, 2017/9/29 06:41:50.973下午, 1201.0, 22.97, 0.52, 24.26
974, 4.865, 2017/9/29 06:41:50.978下午, 1197.0, 22.71, 0.00, 23.48
975, 4.87, 2017/9/29 06:41:50.983下午, 1188.0, 23.48, 0.00, 24.26
976, 4.875, 2017/9/29 06:41:50.988下午, 1223.0, 23.23, 0.52, 24.26
977, 4.88, 2017/9/29 06:41:50.993下午, 1180.0, 22.45, 0.00, 23.48
978, 4.885, 2017/9/29 06:41:50.998下午, 1189.0, 23.48, 0.00, 24.00
979, 4.89, 2017/9/29 06:41:51.003下午, 1183.0, 22.71, 0.00, 23.74
980, 4.895, 2017/9/29 06:41:51.008下午, 1199.0, 23.48, 0.52, 23.74
981, 4.9, 2017/9/29 06:41:51.013下午, 1201.0, 22.71, 0.52, 24.26
982, 4.905, 2017/9/29 06:41:51.018下午, 1186.0, 23.48, 0.52, 23.74
983, 4.91, 2017/9/29 06:41:51.023下午, 1186.0, 23.23, 0.52, 23.48
984, 4.915, 2017/9/29 06:41:51.028下午, 1211.0, 23.48, 0.52, 24.00
985, 4.92, 2017/9/29 06:41:51.033下午, 1208.0, 22.97, 0.52, 24.00
986, 4.925, 2017/9/29 06:41:51.038下午, 1193.0, 22.45, 0.52, 24.00
987, 4.93, 2017/9/29 06:41:51.043下午, 1204.0, 22.97, 0.52, 24.26
988, 4.935, 2017/9/29 06:41:51.048下午, 1193.0, 22.97, 0.00, 23.74
989, 4.94, 2017/9/29 06:41:51.053下午, 1187.0, 22.97, 0.00, 23.74
990, 4.945, 2017/9/29 06:41:51.058下午, 1216.0, 23.23, 0.00, 24.77
991, 4.95, 2017/9/29 06:41:51.063下午, 1195.0, 22.71, 0.52, 24.00
992, 4.955, 2017/9/29 06:41:51.068下午, 1162.0, 23.23, 0.00, 22.71
993, 4.96, 2017/9/29 06:41:51.073下午, 1190.0, 23.48, 0.00, 23.23
994, 4.965, 2017/9/29 06:41:51.078下午, 1205.0, 22.97, 0.52, 23.74
995, 4.97, 2017/9/29 06:41:51.083下午, 1213.0, 23.48, 0.52, 23.74
996, 4.975, 2017/9/29 06:41:51.088下午, 1190.0, 23.23, 0.00, 24.00
997, 4.98, 2017/9/29 06:41:51.093下午, 1214.0, 24.00, 0.00, 24.00
998, 4.985, 2017/9/29 06:41:51.098下午, 1170.0, 22.45, 0.00, 23.48
999, 4.99, 2017/9/29 06:41:51.103下午, 1194.0, 23.48, 0.00, 23.74
1000, 4.995, 2017/9/29 06:41:51.108下午, 1219.0, 23.48, 0.00, 24.00
@@
