DATA_TYPE Graph
VERSION Tekscan Pressure Measurement System 6.70-03
HARDWARE 00114-3443
MAP_VERSION 6.5
HW_TYPE 4
VersaPogoFsx 0
FILENAME C:\Users\User\Desktop\Subject01\plantar pressure\EVA_STAND_LEFT_SUPPORT_3.fsx
SENSOR_TYPE FSCAN
ROWS 60
COLS 21
ROW_SPACING 0.508 centimeters
COL_SPACING 0.508 centimeters
SENSEL_AREA 0.258064 cm2
NOISE_THRESHOLD 3
SECONDS_PER_FRAME 0.005
SECONDS_PER_FRAME 0
MICRO_SECOND 0
TIME 2017/11/14 06:18:14.079下午
SATURATION_PRESSURE 2976.18 KPa 
CALIBRATION_POINT_1 59.0001 (Kilograms) 1921 (Raw Sum) 193 (Number of Loaded Cells)
CALIBRATION_MODE_1 Step
CALIBRATION_INFO C:\Users\User\Desktop\Subject01\plantar pressure\EVA_STAND_LEFT_SUPPORT_3.fsx
SENSITIVITY Custom
MAP_INDEX 1
SUBMAP 1
Patient ID: 

Speed of Gait: 

Weight: 

Gender: 

Physician: 

Technician: 

Shoe: 

START_FRAME 1
END_FRAME 600
UNITS KPa
ASCII_DATA @@
Frames(X), Time(X), Absolute Time(X), Raw Sum, Pressure(Y:blue), Pressure(Y), Pressure(Y), Pressure(Y)
1, 0, 2017/11/14 06:18:14.079下午, 432.0, 41, 42, 41, 41
2, 0.005, 2017/11/14 06:18:14.084下午, 432.0, 40, 42, 41, 41
3, 0.01, 2017/11/14 06:18:14.089下午, 419.0, 40, 42, 41, 41
4, 0.015, 2017/11/14 06:18:14.094下午, 456.0, 40, 42, 39, 41
5, 0.02, 2017/11/14 06:18:14.099下午, 448.0, 40, 42, 40, 41
6, 0.025, 2017/11/14 06:18:14.104下午, 435.0, 41, 41, 40, 40
7, 0.03, 2017/11/14 06:18:14.109下午, 437.0, 40, 42, 39, 41
8, 0.035, 2017/11/14 06:18:14.114下午, 429.0, 41, 40, 40, 41
9, 0.04, 2017/11/14 06:18:14.119下午, 456.0, 41, 41, 40, 41
10, 0.045, 2017/11/14 06:18:14.124下午, 414.0, 40, 42, 42, 41
11, 0.05, 2017/11/14 06:18:14.129下午, 436.0, 40, 42, 40, 41
12, 0.055, 2017/11/14 06:18:14.134下午, 448.0, 40, 42, 40, 41
13, 0.06, 2017/11/14 06:18:14.139下午, 449.0, 40, 42, 40, 41
14, 0.065, 2017/11/14 06:18:14.144下午, 421.0, 41, 42, 40, 41
15, 0.07, 2017/11/14 06:18:14.149下午, 446.0, 40, 42, 40, 41
16, 0.075, 2017/11/14 06:18:14.154下午, 445.0, 42, 42, 41, 42
17, 0.08, 2017/11/14 06:18:14.159下午, 431.0, 41, 40, 40, 40
18, 0.085, 2017/11/14 06:18:14.164下午, 416.0, 41, 41, 41, 41
19, 0.09, 2017/11/14 06:18:14.169下午, 420.0, 41, 41, 41, 41
20, 0.095, 2017/11/14 06:18:14.174下午, 419.0, 41, 41, 42, 41
21, 0.1, 2017/11/14 06:18:14.179下午, 426.0, 41, 41, 41, 41
22, 0.105, 2017/11/14 06:18:14.184下午, 446.0, 41, 42, 40, 41
23, 0.11, 2017/11/14 06:18:14.189下午, 432.0, 40, 42, 41, 41
24, 0.115, 2017/11/14 06:18:14.194下午, 455.0, 41, 40, 40, 40
25, 0.12, 2017/11/14 06:18:14.199下午, 464.0, 40, 42, 40, 40
26, 0.125, 2017/11/14 06:18:14.204下午, 439.0, 40, 40, 40, 40
27, 0.13, 2017/11/14 06:18:14.209下午, 427.0, 40, 40, 40, 40
28, 0.135, 2017/11/14 06:18:14.214下午, 427.0, 41, 42, 42, 42
29, 0.14, 2017/11/14 06:18:14.219下午, 428.0, 40, 42, 41, 41
30, 0.145, 2017/11/14 06:18:14.224下午, 445.0, 40, 42, 40, 41
31, 0.15, 2017/11/14 06:18:14.229下午, 446.0, 40, 40, 40, 40
32, 0.155, 2017/11/14 06:18:14.234下午, 443.0, 40, 40, 39, 40
33, 0.16, 2017/11/14 06:18:14.239下午, 430.0, 41, 41, 41, 41
34, 0.165, 2017/11/14 06:18:14.244下午, 433.0, 41, 42, 40, 41
35, 0.17, 2017/11/14 06:18:14.249下午, 416.0, 41, 41, 41, 41
36, 0.175, 2017/11/14 06:18:14.254下午, 445.0, 40, 41, 40, 41
37, 0.18, 2017/11/14 06:18:14.259下午, 445.0, 40, 40, 40, 40
38, 0.185, 2017/11/14 06:18:14.264下午, 436.0, 40, 41, 39, 40
39, 0.19, 2017/11/14 06:18:14.269下午, 446.0, 40, 40, 39, 40
40, 0.195, 2017/11/14 06:18:14.274下午, 433.0, 40, 40, 39, 40
41, 0.2, 2017/11/14 06:18:14.279下午, 440.0, 40, 40, 39, 40
42, 0.205, 2017/11/14 06:18:14.284下午, 439.0, 40, 40, 41, 40
43, 0.21, 2017/11/14 06:18:14.289下午, 434.0, 41, 40, 40, 40
44, 0.215, 2017/11/14 06:18:14.294下午, 437.0, 41, 40, 40, 41
45, 0.22, 2017/11/14 06:18:14.299下午, 425.0, 41, 41, 40, 41
46, 0.225, 2017/11/14 06:18:14.304下午, 406.0, 41, 41, 41, 41
47, 0.23, 2017/11/14 06:18:14.309下午, 406.0, 41, 42, 42, 42
48, 0.235, 2017/11/14 06:18:14.314下午, 444.0, 41, 41, 39, 40
49, 0.24, 2017/11/14 06:18:14.319下午, 461.0, 39, 40, 39, 39
50, 0.245, 2017/11/14 06:18:14.324下午, 439.0, 40, 40, 40, 40
51, 0.25, 2017/11/14 06:18:14.329下午, 448.0, 41, 40, 39, 40
52, 0.255, 2017/11/14 06:18:14.334下午, 436.0, 41, 41, 40, 41
53, 0.26, 2017/11/14 06:18:14.339下午, 455.0, 41, 41, 39, 41
54, 0.265, 2017/11/14 06:18:14.344下午, 426.0, 40, 41, 40, 41
55, 0.27, 2017/11/14 06:18:14.349下午, 430.0, 40, 41, 39, 40
56, 0.275, 2017/11/14 06:18:14.354下午, 432.0, 41, 41, 39, 40
57, 0.28, 2017/11/14 06:18:14.359下午, 446.0, 39, 40, 39, 40
58, 0.285, 2017/11/14 06:18:14.364下午, 423.0, 41, 40, 40, 41
59, 0.29, 2017/11/14 06:18:14.369下午, 439.0, 41, 40, 40, 40
60, 0.295, 2017/11/14 06:18:14.374下午, 429.0, 41, 42, 40, 41
61, 0.3, 2017/11/14 06:18:14.379下午, 438.0, 40, 41, 40, 40
62, 0.305, 2017/11/14 06:18:14.384下午, 412.0, 40, 41, 42, 41
63, 0.31, 2017/11/14 06:18:14.389下午, 429.0, 40, 41, 39, 40
64, 0.315, 2017/11/14 06:18:14.394下午, 433.0, 40, 41, 40, 41
65, 0.32, 2017/11/14 06:18:14.399下午, 450.0, 40, 41, 39, 40
66, 0.325, 2017/11/14 06:18:14.404下午, 450.0, 40, 41, 40, 40
67, 0.33, 2017/11/14 06:18:14.409下午, 454.0, 40, 41, 40, 40
68, 0.335, 2017/11/14 06:18:14.414下午, 446.0, 41, 40, 39, 40
69, 0.34, 2017/11/14 06:18:14.419下午, 439.0, 41, 40, 40, 40
70, 0.345, 2017/11/14 06:18:14.424下午, 431.0, 40, 40, 40, 40
71, 0.35, 2017/11/14 06:18:14.429下午, 434.0, 40, 41, 40, 41
72, 0.355, 2017/11/14 06:18:14.434下午, 447.0, 40, 41, 40, 40
73, 0.36, 2017/11/14 06:18:14.439下午, 450.0, 40, 40, 40, 40
74, 0.365, 2017/11/14 06:18:14.444下午, 465.0, 40, 40, 39, 40
75, 0.37, 2017/11/14 06:18:14.449下午, 442.0, 41, 40, 41, 40
76, 0.375, 2017/11/14 06:18:14.454下午, 428.0, 40, 40, 40, 40
77, 0.38, 2017/11/14 06:18:14.459下午, 418.0, 40, 41, 41, 41
78, 0.385, 2017/11/14 06:18:14.464下午, 464.0, 40, 40, 39, 40
79, 0.39, 2017/11/14 06:18:14.469下午, 450.0, 40, 41, 40, 40
80, 0.395, 2017/11/14 06:18:14.474下午, 450.0, 41, 41, 39, 40
81, 0.4, 2017/11/14 06:18:14.479下午, 459.0, 41, 40, 39, 40
82, 0.405, 2017/11/14 06:18:14.484下午, 451.0, 40, 39, 39, 39
83, 0.41, 2017/11/14 06:18:14.489下午, 438.0, 40, 41, 39, 40
84, 0.415, 2017/11/14 06:18:14.494下午, 437.0, 41, 40, 40, 40
85, 0.42, 2017/11/14 06:18:14.499下午, 436.0, 41, 40, 39, 40
86, 0.425, 2017/11/14 06:18:14.504下午, 431.0, 41, 41, 40, 41
87, 0.43, 2017/11/14 06:18:14.509下午, 427.0, 40, 40, 40, 40
88, 0.435, 2017/11/14 06:18:14.514下午, 443.0, 41, 41, 39, 40
89, 0.44, 2017/11/14 06:18:14.519下午, 458.0, 40, 41, 39, 40
90, 0.445, 2017/11/14 06:18:14.524下午, 442.0, 40, 41, 40, 40
91, 0.45, 2017/11/14 06:18:14.529下午, 458.0, 40, 40, 39, 40
92, 0.455, 2017/11/14 06:18:14.534下午, 458.0, 40, 40, 40, 40
93, 0.46, 2017/11/14 06:18:14.539下午, 416.0, 40, 40, 40, 40
94, 0.465, 2017/11/14 06:18:14.544下午, 430.0, 40, 41, 40, 40
95, 0.47, 2017/11/14 06:18:14.549下午, 447.0, 40, 41, 39, 40
96, 0.475, 2017/11/14 06:18:14.554下午, 441.0, 40, 41, 40, 40
97, 0.48, 2017/11/14 06:18:14.559下午, 434.0, 40, 40, 40, 40
98, 0.485, 2017/11/14 06:18:14.564下午, 449.0, 40, 40, 40, 40
99, 0.49, 2017/11/14 06:18:14.569下午, 421.0, 40, 40, 39, 40
100, 0.495, 2017/11/14 06:18:14.574下午, 447.0, 41, 39, 40, 40
101, 0.5, 2017/11/14 06:18:14.579下午, 435.0, 40, 41, 40, 41
102, 0.505, 2017/11/14 06:18:14.584下午, 411.0, 40, 40, 41, 40
103, 0.51, 2017/11/14 06:18:14.589下午, 447.0, 41, 41, 40, 41
104, 0.515, 2017/11/14 06:18:14.594下午, 451.0, 40, 41, 39, 40
105, 0.52, 2017/11/14 06:18:14.599下午, 452.0, 40, 40, 39, 40
106, 0.525, 2017/11/14 06:18:14.604下午, 441.0, 40, 40, 40, 40
107, 0.53, 2017/11/14 06:18:14.609下午, 463.0, 39, 41, 40, 40
108, 0.535, 2017/11/14 06:18:14.614下午, 449.0, 41, 40, 41, 40
109, 0.54, 2017/11/14 06:18:14.619下午, 417.0, 40, 40, 42, 41
110, 0.545, 2017/11/14 06:18:14.624下午, 447.0, 39, 41, 40, 40
111, 0.55, 2017/11/14 06:18:14.629下午, 430.0, 40, 41, 40, 40
112, 0.555, 2017/11/14 06:18:14.634下午, 431.0, 40, 41, 40, 40
113, 0.56, 2017/11/14 06:18:14.639下午, 446.0, 40, 40, 39, 40
114, 0.565, 2017/11/14 06:18:14.644下午, 418.0, 40, 41, 40, 40
115, 0.57, 2017/11/14 06:18:14.649下午, 410.0, 40, 41, 41, 40
116, 0.575, 2017/11/14 06:18:14.654下午, 461.0, 41, 40, 39, 40
117, 0.58, 2017/11/14 06:18:14.659下午, 436.0, 40, 40, 40, 40
118, 0.585, 2017/11/14 06:18:14.664下午, 455.0, 40, 41, 39, 40
119, 0.59, 2017/11/14 06:18:14.669下午, 447.0, 40, 40, 39, 40
120, 0.595, 2017/11/14 06:18:14.674下午, 450.0, 40, 40, 39, 40
121, 0.6, 2017/11/14 06:18:14.679下午, 430.0, 39, 40, 40, 40
122, 0.605, 2017/11/14 06:18:14.684下午, 424.0, 40, 40, 40, 40
123, 0.61, 2017/11/14 06:18:14.689下午, 441.0, 40, 39, 39, 39
124, 0.615, 2017/11/14 06:18:14.694下午, 429.0, 41, 40, 40, 40
125, 0.62, 2017/11/14 06:18:14.699下午, 411.0, 40, 41, 41, 41
126, 0.625, 2017/11/14 06:18:14.704下午, 423.0, 40, 41, 40, 40
127, 0.63, 2017/11/14 06:18:14.709下午, 420.0, 40, 41, 41, 40
128, 0.635, 2017/11/14 06:18:14.714下午, 445.0, 40, 40, 39, 40
129, 0.64, 2017/11/14 06:18:14.719下午, 436.0, 40, 39, 39, 39
130, 0.645, 2017/11/14 06:18:14.724下午, 437.0, 40, 40, 40, 40
131, 0.65, 2017/11/14 06:18:14.729下午, 455.0, 40, 40, 39, 40
132, 0.655, 2017/11/14 06:18:14.734下午, 434.0, 40, 40, 40, 40
133, 0.66, 2017/11/14 06:18:14.739下午, 431.0, 41, 41, 40, 40
134, 0.665, 2017/11/14 06:18:14.744下午, 424.0, 41, 40, 40, 40
135, 0.67, 2017/11/14 06:18:14.749下午, 425.0, 40, 41, 41, 40
136, 0.675, 2017/11/14 06:18:14.754下午, 453.0, 40, 41, 39, 40
137, 0.68, 2017/11/14 06:18:14.759下午, 450.0, 40, 40, 39, 40
138, 0.685, 2017/11/14 06:18:14.764下午, 453.0, 40, 40, 39, 40
139, 0.69, 2017/11/14 06:18:14.769下午, 454.0, 40, 40, 39, 40
140, 0.695, 2017/11/14 06:18:14.774下午, 435.0, 41, 41, 40, 40
141, 0.7, 2017/11/14 06:18:14.779下午, 441.0, 40, 41, 39, 40
142, 0.705, 2017/11/14 06:18:14.784下午, 446.0, 41, 41, 40, 40
143, 0.71, 2017/11/14 06:18:14.789下午, 462.0, 40, 41, 39, 40
144, 0.715, 2017/11/14 06:18:14.794下午, 444.0, 41, 41, 40, 41
145, 0.72, 2017/11/14 06:18:14.799下午, 448.0, 40, 41, 39, 40
146, 0.725, 2017/11/14 06:18:14.804下午, 451.0, 41, 39, 39, 40
147, 0.73, 2017/11/14 06:18:14.809下午, 439.0, 40, 40, 40, 40
148, 0.735, 2017/11/14 06:18:14.814下午, 428.0, 40, 41, 40, 40
149, 0.74, 2017/11/14 06:18:14.819下午, 451.0, 40, 41, 40, 40
150, 0.745, 2017/11/14 06:18:14.824下午, 443.0, 40, 40, 40, 40
151, 0.75, 2017/11/14 06:18:14.829下午, 429.0, 40, 40, 39, 40
152, 0.755, 2017/11/14 06:18:14.834下午, 445.0, 40, 40, 39, 40
153, 0.76, 2017/11/14 06:18:14.839下午, 429.0, 41, 40, 40, 40
154, 0.765, 2017/11/14 06:18:14.844下午, 424.0, 40, 41, 40, 40
155, 0.77, 2017/11/14 06:18:14.849下午, 441.0, 40, 40, 40, 40
156, 0.775, 2017/11/14 06:18:14.854下午, 435.0, 39, 39, 40, 39
157, 0.78, 2017/11/14 06:18:14.859下午, 431.0, 41, 41, 40, 40
158, 0.785, 2017/11/14 06:18:14.864下午, 415.0, 41, 41, 41, 41
159, 0.79, 2017/11/14 06:18:14.869下午, 444.0, 40, 40, 40, 40
160, 0.795, 2017/11/14 06:18:14.874下午, 412.0, 40, 41, 41, 41
161, 0.8, 2017/11/14 06:18:14.879下午, 454.0, 40, 41, 39, 40
162, 0.805, 2017/11/14 06:18:14.884下午, 459.0, 40, 41, 39, 40
163, 0.81, 2017/11/14 06:18:14.889下午, 444.0, 40, 40, 39, 40
164, 0.815, 2017/11/14 06:18:14.894下午, 461.0, 41, 41, 40, 40
165, 0.82, 2017/11/14 06:18:14.899下午, 436.0, 40, 40, 40, 40
166, 0.825, 2017/11/14 06:18:14.904下午, 425.0, 41, 41, 40, 40
167, 0.83, 2017/11/14 06:18:14.909下午, 435.0, 41, 41, 41, 41
168, 0.835, 2017/11/14 06:18:14.914下午, 451.0, 40, 40, 39, 40
169, 0.84, 2017/11/14 06:18:14.919下午, 452.0, 41, 41, 40, 40
170, 0.845, 2017/11/14 06:18:14.924下午, 447.0, 41, 40, 40, 40
171, 0.85, 2017/11/14 06:18:14.929下午, 437.0, 40, 41, 40, 40
172, 0.855, 2017/11/14 06:18:14.934下午, 402.0, 40, 41, 41, 40
173, 0.86, 2017/11/14 06:18:14.939下午, 457.0, 40, 41, 40, 40
174, 0.865, 2017/11/14 06:18:14.944下午, 455.0, 40, 41, 39, 40
175, 0.87, 2017/11/14 06:18:14.949下午, 459.0, 41, 40, 40, 40
176, 0.875, 2017/11/14 06:18:14.954下午, 444.0, 41, 39, 40, 40
177, 0.88, 2017/11/14 06:18:14.959下午, 408.0, 40, 41, 41, 40
178, 0.885, 2017/11/14 06:18:14.964下午, 449.0, 40, 41, 39, 40
179, 0.89, 2017/11/14 06:18:14.969下午, 432.0, 40, 40, 40, 40
180, 0.895, 2017/11/14 06:18:14.974下午, 450.0, 40, 41, 40, 40
181, 0.9, 2017/11/14 06:18:14.979下午, 457.0, 40, 41, 39, 40
182, 0.905, 2017/11/14 06:18:14.984下午, 451.0, 40, 41, 40, 40
183, 0.91, 2017/11/14 06:18:14.989下午, 448.0, 40, 41, 40, 40
184, 0.915, 2017/11/14 06:18:14.994下午, 431.0, 40, 39, 41, 40
185, 0.92, 2017/11/14 06:18:14.999下午, 457.0, 41, 40, 40, 41
186, 0.925, 2017/11/14 06:18:15.004下午, 427.0, 39, 40, 42, 40
187, 0.93, 2017/11/14 06:18:15.009下午, 419.0, 40, 40, 41, 40
188, 0.935, 2017/11/14 06:18:15.014下午, 408.0, 40, 41, 41, 41
189, 0.94, 2017/11/14 06:18:15.019下午, 458.0, 41, 41, 40, 40
190, 0.945, 2017/11/14 06:18:15.024下午, 454.0, 40, 41, 39, 40
191, 0.95, 2017/11/14 06:18:15.029下午, 449.0, 40, 40, 40, 40
192, 0.955, 2017/11/14 06:18:15.034下午, 460.0, 40, 39, 39, 39
193, 0.96, 2017/11/14 06:18:15.039下午, 449.0, 41, 39, 40, 40
194, 0.965, 2017/11/14 06:18:15.044下午, 434.0, 40, 40, 40, 40
195, 0.97, 2017/11/14 06:18:15.049下午, 406.0, 39, 40, 41, 40
196, 0.975, 2017/11/14 06:18:15.054下午, 452.0, 39, 41, 39, 40
197, 0.98, 2017/11/14 06:18:15.059下午, 461.0, 41, 40, 40, 40
198, 0.985, 2017/11/14 06:18:15.064下午, 448.0, 40, 40, 39, 40
199, 0.99, 2017/11/14 06:18:15.069下午, 443.0, 39, 41, 40, 40
200, 0.995, 2017/11/14 06:18:15.074下午, 439.0, 40, 41, 40, 40
201, 1, 2017/11/14 06:18:15.079下午, 444.0, 41, 40, 39, 40
202, 1.005, 2017/11/14 06:18:15.084下午, 457.0, 40, 39, 39, 40
203, 1.01, 2017/11/14 06:18:15.089下午, 444.0, 40, 40, 39, 40
204, 1.015, 2017/11/14 06:18:15.094下午, 444.0, 40, 39, 40, 40
205, 1.02, 2017/11/14 06:18:15.099下午, 435.0, 41, 39, 40, 40
206, 1.025, 2017/11/14 06:18:15.104下午, 436.0, 40, 39, 40, 40
207, 1.03, 2017/11/14 06:18:15.109下午, 447.0, 41, 41, 40, 41
208, 1.035, 2017/11/14 06:18:15.114下午, 434.0, 41, 40, 41, 41
209, 1.04, 2017/11/14 06:18:15.119下午, 448.0, 40, 40, 40, 40
210, 1.045, 2017/11/14 06:18:15.124下午, 464.0, 40, 40, 39, 40
211, 1.05, 2017/11/14 06:18:15.129下午, 436.0, 40, 40, 40, 40
212, 1.055, 2017/11/14 06:18:15.134下午, 445.0, 41, 39, 40, 40
213, 1.06, 2017/11/14 06:18:15.139下午, 446.0, 41, 40, 40, 40
214, 1.065, 2017/11/14 06:18:15.144下午, 435.0, 40, 41, 40, 40
215, 1.07, 2017/11/14 06:18:15.149下午, 425.0, 40, 40, 40, 40
216, 1.075, 2017/11/14 06:18:15.154下午, 444.0, 39, 41, 40, 40
217, 1.08, 2017/11/14 06:18:15.159下午, 465.0, 40, 41, 39, 40
218, 1.085, 2017/11/14 06:18:15.164下午, 450.0, 40, 40, 40, 40
219, 1.09, 2017/11/14 06:18:15.169下午, 443.0, 39, 41, 40, 40
220, 1.095, 2017/11/14 06:18:15.174下午, 426.0, 40, 40, 40, 40
221, 1.1, 2017/11/14 06:18:15.179下午, 451.0, 40, 41, 39, 40
222, 1.105, 2017/11/14 06:18:15.184下午, 455.0, 40, 40, 39, 40
223, 1.11, 2017/11/14 06:18:15.189下午, 429.0, 40, 41, 41, 41
224, 1.115, 2017/11/14 06:18:15.194下午, 450.0, 40, 40, 39, 40
225, 1.12, 2017/11/14 06:18:15.199下午, 456.0, 40, 39, 39, 40
226, 1.125, 2017/11/14 06:18:15.204下午, 459.0, 40, 39, 39, 39
227, 1.13, 2017/11/14 06:18:15.209下午, 453.0, 41, 39, 40, 40
228, 1.135, 2017/11/14 06:18:15.214下午, 423.0, 41, 40, 41, 41
229, 1.14, 2017/11/14 06:18:15.219下午, 445.0, 41, 41, 40, 41
230, 1.145, 2017/11/14 06:18:15.224下午, 425.0, 39, 40, 41, 40
231, 1.15, 2017/11/14 06:18:15.229下午, 459.0, 40, 41, 40, 40
232, 1.155, 2017/11/14 06:18:15.234下午, 453.0, 40, 40, 40, 40
233, 1.16, 2017/11/14 06:18:15.239下午, 441.0, 40, 40, 40, 40
234, 1.165, 2017/11/14 06:18:15.244下午, 454.0, 40, 39, 40, 40
235, 1.17, 2017/11/14 06:18:15.249下午, 447.0, 40, 40, 40, 40
236, 1.175, 2017/11/14 06:18:15.254下午, 428.0, 41, 41, 40, 41
237, 1.18, 2017/11/14 06:18:15.259下午, 438.0, 40, 41, 40, 40
238, 1.185, 2017/11/14 06:18:15.264下午, 442.0, 40, 39, 39, 40
239, 1.19, 2017/11/14 06:18:15.269下午, 456.0, 40, 40, 39, 40
240, 1.195, 2017/11/14 06:18:15.274下午, 409.0, 40, 39, 41, 40
241, 1.2, 2017/11/14 06:18:15.279下午, 434.0, 41, 40, 40, 40
242, 1.205, 2017/11/14 06:18:15.284下午, 438.0, 41, 41, 40, 40
243, 1.21, 2017/11/14 06:18:15.289下午, 436.0, 40, 40, 41, 40
244, 1.215, 2017/11/14 06:18:15.294下午, 459.0, 39, 41, 39, 40
245, 1.22, 2017/11/14 06:18:15.299下午, 457.0, 40, 41, 40, 40
246, 1.225, 2017/11/14 06:18:15.304下午, 444.0, 41, 40, 40, 40
247, 1.23, 2017/11/14 06:18:15.309下午, 455.0, 40, 41, 39, 40
248, 1.235, 2017/11/14 06:18:15.314下午, 445.0, 40, 39, 40, 40
249, 1.24, 2017/11/14 06:18:15.319下午, 447.0, 41, 40, 39, 40
250, 1.245, 2017/11/14 06:18:15.324下午, 448.0, 41, 40, 39, 40
251, 1.25, 2017/11/14 06:18:15.329下午, 456.0, 40, 40, 40, 40
252, 1.255, 2017/11/14 06:18:15.334下午, 452.0, 40, 39, 39, 39
253, 1.26, 2017/11/14 06:18:15.339下午, 453.0, 40, 39, 39, 39
254, 1.265, 2017/11/14 06:18:15.344下午, 448.0, 41, 40, 40, 40
255, 1.27, 2017/11/14 06:18:15.349下午, 450.0, 41, 40, 40, 40
256, 1.275, 2017/11/14 06:18:15.354下午, 447.0, 40, 41, 40, 40
257, 1.28, 2017/11/14 06:18:15.359下午, 450.0, 41, 41, 40, 40
258, 1.285, 2017/11/14 06:18:15.364下午, 451.0, 40, 39, 40, 40
259, 1.29, 2017/11/14 06:18:15.369下午, 455.0, 40, 40, 40, 40
260, 1.295, 2017/11/14 06:18:15.374下午, 443.0, 40, 39, 39, 39
261, 1.3, 2017/11/14 06:18:15.379下午, 447.0, 41, 41, 40, 40
262, 1.305, 2017/11/14 06:18:15.384下午, 444.0, 42, 40, 41, 41
263, 1.31, 2017/11/14 06:18:15.389下午, 430.0, 40, 40, 40, 40
264, 1.315, 2017/11/14 06:18:15.394下午, 455.0, 41, 40, 40, 40
265, 1.32, 2017/11/14 06:18:15.399下午, 453.0, 42, 40, 39, 41
266, 1.325, 2017/11/14 06:18:15.404下午, 455.0, 40, 41, 40, 40
267, 1.33, 2017/11/14 06:18:15.409下午, 462.0, 39, 40, 38, 39
268, 1.335, 2017/11/14 06:18:15.414下午, 465.0, 41, 39, 40, 40
269, 1.34, 2017/11/14 06:18:15.419下午, 430.0, 42, 40, 40, 41
270, 1.345, 2017/11/14 06:18:15.424下午, 460.0, 41, 41, 39, 40
271, 1.35, 2017/11/14 06:18:15.429下午, 460.0, 40, 40, 39, 40
272, 1.355, 2017/11/14 06:18:15.434下午, 458.0, 41, 39, 39, 40
273, 1.36, 2017/11/14 06:18:15.439下午, 440.0, 41, 41, 40, 41
274, 1.365, 2017/11/14 06:18:15.444下午, 449.0, 40, 41, 40, 40
275, 1.37, 2017/11/14 06:18:15.449下午, 445.0, 40, 40, 39, 40
276, 1.375, 2017/11/14 06:18:15.454下午, 453.0, 42, 39, 39, 40
277, 1.38, 2017/11/14 06:18:15.459下午, 443.0, 41, 41, 39, 40
278, 1.385, 2017/11/14 06:18:15.464下午, 457.0, 42, 40, 40, 41
279, 1.39, 2017/11/14 06:18:15.469下午, 458.0, 39, 40, 39, 40
280, 1.395, 2017/11/14 06:18:15.474下午, 431.0, 40, 40, 40, 40
281, 1.4, 2017/11/14 06:18:15.479下午, 454.0, 41, 39, 39, 40
282, 1.405, 2017/11/14 06:18:15.484下午, 456.0, 40, 41, 39, 40
283, 1.41, 2017/11/14 06:18:15.489下午, 458.0, 40, 40, 39, 40
284, 1.415, 2017/11/14 06:18:15.494下午, 458.0, 41, 39, 40, 40
285, 1.42, 2017/11/14 06:18:15.499下午, 462.0, 41, 39, 39, 40
286, 1.425, 2017/11/14 06:18:15.504下午, 479.0, 41, 39, 40, 40
287, 1.43, 2017/11/14 06:18:15.509下午, 433.0, 41, 40, 40, 40
288, 1.435, 2017/11/14 06:18:15.514下午, 454.0, 41, 40, 39, 40
289, 1.44, 2017/11/14 06:18:15.519下午, 456.0, 40, 40, 39, 40
290, 1.445, 2017/11/14 06:18:15.524下午, 467.0, 41, 40, 40, 40
291, 1.45, 2017/11/14 06:18:15.529下午, 465.0, 41, 39, 39, 40
292, 1.455, 2017/11/14 06:18:15.534下午, 425.0, 41, 40, 40, 40
293, 1.46, 2017/11/14 06:18:15.539下午, 452.0, 40, 40, 40, 40
294, 1.465, 2017/11/14 06:18:15.544下午, 449.0, 40, 41, 40, 40
295, 1.47, 2017/11/14 06:18:15.549下午, 461.0, 41, 39, 39, 40
296, 1.475, 2017/11/14 06:18:15.554下午, 448.0, 41, 40, 39, 40
297, 1.48, 2017/11/14 06:18:15.559下午, 417.0, 41, 41, 41, 41
298, 1.485, 2017/11/14 06:18:15.564下午, 431.0, 40, 40, 40, 40
299, 1.49, 2017/11/14 06:18:15.569下午, 445.0, 40, 40, 39, 39
300, 1.495, 2017/11/14 06:18:15.574下午, 456.0, 40, 40, 40, 40
301, 1.5, 2017/11/14 06:18:15.579下午, 457.0, 40, 40, 39, 40
302, 1.505, 2017/11/14 06:18:15.584下午, 462.0, 40, 39, 39, 40
303, 1.51, 2017/11/14 06:18:15.589下午, 465.0, 40, 39, 38, 39
304, 1.515, 2017/11/14 06:18:15.594下午, 446.0, 41, 40, 40, 41
305, 1.52, 2017/11/14 06:18:15.599下午, 463.0, 40, 40, 39, 40
306, 1.525, 2017/11/14 06:18:15.604下午, 445.0, 41, 41, 40, 41
307, 1.53, 2017/11/14 06:18:15.609下午, 458.0, 40, 39, 40, 40
308, 1.535, 2017/11/14 06:18:15.614下午, 432.0, 40, 39, 39, 39
309, 1.54, 2017/11/14 06:18:15.619下午, 463.0, 41, 39, 39, 40
310, 1.545, 2017/11/14 06:18:15.624下午, 446.0, 40, 41, 40, 40
311, 1.55, 2017/11/14 06:18:15.629下午, 451.0, 40, 40, 40, 40
312, 1.555, 2017/11/14 06:18:15.634下午, 460.0, 40, 39, 39, 40
313, 1.56, 2017/11/14 06:18:15.639下午, 459.0, 40, 39, 38, 39
314, 1.565, 2017/11/14 06:18:15.644下午, 452.0, 41, 39, 40, 40
315, 1.57, 2017/11/14 06:18:15.649下午, 440.0, 41, 40, 40, 40
316, 1.575, 2017/11/14 06:18:15.654下午, 461.0, 41, 40, 40, 40
317, 1.58, 2017/11/14 06:18:15.659下午, 451.0, 40, 39, 38, 39
318, 1.585, 2017/11/14 06:18:15.664下午, 473.0, 40, 40, 38, 40
319, 1.59, 2017/11/14 06:18:15.669下午, 448.0, 40, 39, 39, 40
320, 1.595, 2017/11/14 06:18:15.674下午, 463.0, 41, 40, 39, 40
321, 1.6, 2017/11/14 06:18:15.679下午, 447.0, 41, 40, 40, 40
322, 1.605, 2017/11/14 06:18:15.684下午, 458.0, 41, 40, 39, 40
323, 1.61, 2017/11/14 06:18:15.689下午, 439.0, 40, 40, 40, 40
324, 1.615, 2017/11/14 06:18:15.694下午, 460.0, 41, 40, 39, 40
325, 1.62, 2017/11/14 06:18:15.699下午, 461.0, 40, 38, 39, 39
326, 1.625, 2017/11/14 06:18:15.704下午, 465.0, 40, 39, 39, 39
327, 1.63, 2017/11/14 06:18:15.709下午, 455.0, 41, 40, 40, 40
328, 1.635, 2017/11/14 06:18:15.714下午, 462.0, 40, 40, 40, 40
329, 1.64, 2017/11/14 06:18:15.719下午, 461.0, 40, 39, 40, 40
330, 1.645, 2017/11/14 06:18:15.724下午, 453.0, 40, 39, 39, 39
331, 1.65, 2017/11/14 06:18:15.729下午, 458.0, 42, 40, 39, 40
332, 1.655, 2017/11/14 06:18:15.734下午, 444.0, 41, 40, 40, 40
333, 1.66, 2017/11/14 06:18:15.739下午, 437.0, 41, 40, 40, 40
334, 1.665, 2017/11/14 06:18:15.744下午, 465.0, 41, 39, 39, 40
335, 1.67, 2017/11/14 06:18:15.749下午, 448.0, 41, 39, 40, 40
336, 1.675, 2017/11/14 06:18:15.754下午, 458.0, 41, 40, 40, 41
337, 1.68, 2017/11/14 06:18:15.759下午, 453.0, 40, 40, 40, 40
338, 1.685, 2017/11/14 06:18:15.764下午, 467.0, 41, 40, 40, 40
339, 1.69, 2017/11/14 06:18:15.769下午, 465.0, 40, 40, 39, 40
340, 1.695, 2017/11/14 06:18:15.774下午, 455.0, 41, 39, 39, 39
341, 1.7, 2017/11/14 06:18:15.779下午, 470.0, 41, 39, 39, 39
342, 1.705, 2017/11/14 06:18:15.784下午, 452.0, 41, 39, 40, 40
343, 1.71, 2017/11/14 06:18:15.789下午, 429.0, 41, 40, 41, 40
344, 1.715, 2017/11/14 06:18:15.794下午, 423.0, 41, 41, 41, 41
345, 1.72, 2017/11/14 06:18:15.799下午, 453.0, 40, 39, 39, 40
346, 1.725, 2017/11/14 06:18:15.804下午, 451.0, 41, 40, 39, 40
347, 1.73, 2017/11/14 06:18:15.809下午, 449.0, 41, 39, 39, 39
348, 1.735, 2017/11/14 06:18:15.814下午, 461.0, 41, 40, 39, 40
349, 1.74, 2017/11/14 06:18:15.819下午, 459.0, 41, 40, 39, 40
350, 1.745, 2017/11/14 06:18:15.824下午, 461.0, 41, 40, 39, 40
351, 1.75, 2017/11/14 06:18:15.829下午, 451.0, 41, 40, 39, 40
352, 1.755, 2017/11/14 06:18:15.834下午, 464.0, 41, 39, 38, 40
353, 1.76, 2017/11/14 06:18:15.839下午, 476.0, 40, 39, 39, 40
354, 1.765, 2017/11/14 06:18:15.844下午, 468.0, 41, 39, 39, 40
355, 1.77, 2017/11/14 06:18:15.849下午, 462.0, 41, 40, 39, 40
356, 1.775, 2017/11/14 06:18:15.854下午, 453.0, 40, 40, 39, 40
357, 1.78, 2017/11/14 06:18:15.859下午, 446.0, 40, 39, 39, 39
358, 1.785, 2017/11/14 06:18:15.864下午, 465.0, 42, 39, 39, 40
359, 1.79, 2017/11/14 06:18:15.869下午, 479.0, 42, 39, 39, 40
360, 1.795, 2017/11/14 06:18:15.874下午, 450.0, 42, 40, 40, 41
361, 1.8, 2017/11/14 06:18:15.879下午, 429.0, 40, 39, 40, 40
362, 1.805, 2017/11/14 06:18:15.884下午, 441.0, 40, 40, 41, 40
363, 1.81, 2017/11/14 06:18:15.889下午, 463.0, 41, 40, 38, 40
364, 1.815, 2017/11/14 06:18:15.894下午, 469.0, 42, 40, 39, 40
365, 1.82, 2017/11/14 06:18:15.899下午, 462.0, 41, 39, 39, 40
366, 1.825, 2017/11/14 06:18:15.904下午, 465.0, 41, 39, 40, 40
367, 1.83, 2017/11/14 06:18:15.909下午, 473.0, 40, 40, 40, 40
368, 1.835, 2017/11/14 06:18:15.914下午, 459.0, 40, 40, 39, 40
369, 1.84, 2017/11/14 06:18:15.919下午, 437.0, 40, 40, 40, 40
370, 1.845, 2017/11/14 06:18:15.924下午, 463.0, 41, 39, 39, 40
371, 1.85, 2017/11/14 06:18:15.929下午, 459.0, 40, 39, 39, 40
372, 1.855, 2017/11/14 06:18:15.934下午, 466.0, 41, 40, 39, 40
373, 1.86, 2017/11/14 06:18:15.939下午, 466.0, 41, 39, 39, 40
374, 1.865, 2017/11/14 06:18:15.944下午, 464.0, 41, 40, 40, 40
375, 1.87, 2017/11/14 06:18:15.949下午, 469.0, 41, 39, 38, 40
376, 1.875, 2017/11/14 06:18:15.954下午, 480.0, 40, 39, 39, 40
377, 1.88, 2017/11/14 06:18:15.959下午, 460.0, 41, 39, 39, 40
378, 1.885, 2017/11/14 06:18:15.964下午, 459.0, 41, 40, 38, 40
379, 1.89, 2017/11/14 06:18:15.969下午, 416.0, 41, 41, 40, 40
380, 1.895, 2017/11/14 06:18:15.974下午, 458.0, 41, 40, 39, 40
381, 1.9, 2017/11/14 06:18:15.979下午, 429.0, 40, 39, 40, 39
382, 1.905, 2017/11/14 06:18:15.984下午, 440.0, 40, 39, 39, 40
383, 1.91, 2017/11/14 06:18:15.989下午, 451.0, 41, 40, 41, 40
384, 1.915, 2017/11/14 06:18:15.994下午, 438.0, 41, 40, 41, 40
385, 1.92, 2017/11/14 06:18:15.999下午, 434.0, 41, 40, 41, 41
386, 1.925, 2017/11/14 06:18:16.004下午, 472.0, 40, 40, 39, 40
387, 1.93, 2017/11/14 06:18:16.009下午, 464.0, 40, 40, 39, 40
388, 1.935, 2017/11/14 06:18:16.014下午, 463.0, 42, 39, 39, 40
389, 1.94, 2017/11/14 06:18:16.019下午, 451.0, 41, 40, 40, 40
390, 1.945, 2017/11/14 06:18:16.024下午, 453.0, 41, 40, 39, 40
391, 1.95, 2017/11/14 06:18:16.029下午, 481.0, 40, 40, 39, 40
392, 1.955, 2017/11/14 06:18:16.034下午, 463.0, 41, 39, 39, 40
393, 1.96, 2017/11/14 06:18:16.039下午, 446.0, 40, 39, 39, 40
394, 1.965, 2017/11/14 06:18:16.044下午, 459.0, 40, 40, 39, 40
395, 1.97, 2017/11/14 06:18:16.049下午, 482.0, 40, 39, 39, 39
396, 1.975, 2017/11/14 06:18:16.054下午, 467.0, 41, 39, 38, 40
397, 1.98, 2017/11/14 06:18:16.059下午, 452.0, 40, 41, 40, 40
398, 1.985, 2017/11/14 06:18:16.064下午, 450.0, 40, 41, 39, 40
399, 1.99, 2017/11/14 06:18:16.069下午, 463.0, 41, 40, 39, 40
400, 1.995, 2017/11/14 06:18:16.074下午, 454.0, 40, 40, 39, 40
401, 2, 2017/11/14 06:18:16.079下午, 465.0, 40, 39, 39, 39
402, 2.005, 2017/11/14 06:18:16.084下午, 452.0, 41, 40, 39, 40
403, 2.01, 2017/11/14 06:18:16.089下午, 485.0, 42, 39, 39, 40
404, 2.015, 2017/11/14 06:18:16.094下午, 436.0, 41, 40, 42, 41
405, 2.02, 2017/11/14 06:18:16.099下午, 461.0, 41, 40, 39, 40
406, 2.025, 2017/11/14 06:18:16.104下午, 444.0, 40, 40, 39, 40
407, 2.03, 2017/11/14 06:18:16.109下午, 449.0, 40, 38, 39, 39
408, 2.035, 2017/11/14 06:18:16.114下午, 451.0, 40, 39, 39, 39
409, 2.04, 2017/11/14 06:18:16.119下午, 446.0, 41, 40, 40, 40
410, 2.045, 2017/11/14 06:18:16.124下午, 470.0, 40, 40, 39, 40
411, 2.05, 2017/11/14 06:18:16.129下午, 453.0, 39, 40, 39, 39
412, 2.055, 2017/11/14 06:18:16.134下午, 489.0, 41, 39, 39, 40
413, 2.06, 2017/11/14 06:18:16.139下午, 453.0, 41, 40, 39, 40
414, 2.065, 2017/11/14 06:18:16.144下午, 433.0, 40, 40, 41, 40
415, 2.07, 2017/11/14 06:18:16.149下午, 460.0, 40, 40, 39, 40
416, 2.075, 2017/11/14 06:18:16.154下午, 458.0, 40, 40, 40, 40
417, 2.08, 2017/11/14 06:18:16.159下午, 473.0, 41, 39, 38, 40
418, 2.085, 2017/11/14 06:18:16.164下午, 470.0, 41, 39, 39, 40
419, 2.09, 2017/11/14 06:18:16.169下午, 457.0, 41, 40, 39, 40
420, 2.095, 2017/11/14 06:18:16.174下午, 443.0, 40, 39, 40, 40
421, 2.1, 2017/11/14 06:18:16.179下午, 452.0, 40, 40, 40, 40
422, 2.105, 2017/11/14 06:18:16.184下午, 455.0, 40, 39, 39, 40
423, 2.11, 2017/11/14 06:18:16.189下午, 468.0, 40, 40, 39, 40
424, 2.115, 2017/11/14 06:18:16.194下午, 461.0, 40, 39, 39, 39
425, 2.12, 2017/11/14 06:18:16.199下午, 475.0, 40, 39, 38, 39
426, 2.125, 2017/11/14 06:18:16.204下午, 466.0, 40, 39, 39, 39
427, 2.13, 2017/11/14 06:18:16.209下午, 451.0, 41, 39, 39, 40
428, 2.135, 2017/11/14 06:18:16.214下午, 414.0, 40, 40, 41, 40
429, 2.14, 2017/11/14 06:18:16.219下午, 433.0, 40, 40, 41, 40
430, 2.145, 2017/11/14 06:18:16.224下午, 456.0, 41, 39, 38, 39
431, 2.15, 2017/11/14 06:18:16.229下午, 472.0, 40, 40, 39, 40
432, 2.155, 2017/11/14 06:18:16.234下午, 454.0, 40, 39, 39, 40
433, 2.16, 2017/11/14 06:18:16.239下午, 431.0, 41, 40, 40, 40
434, 2.165, 2017/11/14 06:18:16.244下午, 456.0, 41, 40, 39, 40
435, 2.17, 2017/11/14 06:18:16.249下午, 470.0, 40, 39, 38, 39
436, 2.175, 2017/11/14 06:18:16.254下午, 455.0, 41, 39, 38, 39
437, 2.18, 2017/11/14 06:18:16.259下午, 475.0, 42, 40, 39, 40
438, 2.185, 2017/11/14 06:18:16.264下午, 461.0, 40, 40, 39, 40
439, 2.19, 2017/11/14 06:18:16.269下午, 446.0, 41, 40, 40, 40
440, 2.195, 2017/11/14 06:18:16.274下午, 472.0, 40, 40, 40, 40
441, 2.2, 2017/11/14 06:18:16.279下午, 459.0, 40, 40, 40, 40
442, 2.205, 2017/11/14 06:18:16.284下午, 448.0, 40, 39, 38, 39
443, 2.21, 2017/11/14 06:18:16.289下午, 466.0, 40, 40, 40, 40
444, 2.215, 2017/11/14 06:18:16.294下午, 475.0, 40, 40, 39, 39
445, 2.22, 2017/11/14 06:18:16.299下午, 463.0, 41, 40, 39, 40
446, 2.225, 2017/11/14 06:18:16.304下午, 485.0, 41, 39, 39, 40
447, 2.23, 2017/11/14 06:18:16.309下午, 468.0, 40, 39, 39, 40
448, 2.235, 2017/11/14 06:18:16.314下午, 449.0, 41, 40, 40, 41
449, 2.24, 2017/11/14 06:18:16.319下午, 441.0, 40, 40, 40, 40
450, 2.245, 2017/11/14 06:18:16.324下午, 453.0, 40, 40, 39, 40
451, 2.25, 2017/11/14 06:18:16.329下午, 463.0, 39, 39, 39, 39
452, 2.255, 2017/11/14 06:18:16.334下午, 465.0, 40, 39, 38, 39
453, 2.26, 2017/11/14 06:18:16.339下午, 472.0, 40, 39, 40, 40
454, 2.265, 2017/11/14 06:18:16.344下午, 455.0, 40, 40, 40, 40
455, 2.27, 2017/11/14 06:18:16.349下午, 442.0, 40, 40, 39, 40
456, 2.275, 2017/11/14 06:18:16.354下午, 458.0, 40, 40, 40, 40
457, 2.28, 2017/11/14 06:18:16.359下午, 467.0, 40, 40, 38, 39
458, 2.285, 2017/11/14 06:18:16.364下午, 456.0, 40, 39, 39, 39
459, 2.29, 2017/11/14 06:18:16.369下午, 463.0, 39, 40, 39, 39
460, 2.295, 2017/11/14 06:18:16.374下午, 456.0, 39, 39, 39, 39
461, 2.3, 2017/11/14 06:18:16.379下午, 477.0, 41, 39, 39, 40
462, 2.305, 2017/11/14 06:18:16.384下午, 465.0, 40, 40, 39, 40
463, 2.31, 2017/11/14 06:18:16.389下午, 457.0, 41, 40, 39, 40
464, 2.315, 2017/11/14 06:18:16.394下午, 450.0, 40, 40, 40, 40
465, 2.32, 2017/11/14 06:18:16.399下午, 458.0, 40, 40, 40, 40
466, 2.325, 2017/11/14 06:18:16.404下午, 466.0, 40, 40, 39, 40
467, 2.33, 2017/11/14 06:18:16.409下午, 447.0, 40, 40, 40, 40
468, 2.335, 2017/11/14 06:18:16.414下午, 454.0, 40, 39, 39, 39
469, 2.34, 2017/11/14 06:18:16.419下午, 471.0, 40, 39, 40, 39
470, 2.345, 2017/11/14 06:18:16.424下午, 455.0, 41, 40, 39, 40
471, 2.35, 2017/11/14 06:18:16.429下午, 451.0, 41, 40, 40, 40
472, 2.355, 2017/11/14 06:18:16.434下午, 444.0, 40, 40, 40, 40
473, 2.36, 2017/11/14 06:18:16.439下午, 450.0, 41, 40, 39, 40
474, 2.365, 2017/11/14 06:18:16.444下午, 458.0, 39, 39, 39, 39
475, 2.37, 2017/11/14 06:18:16.449下午, 483.0, 40, 40, 39, 40
476, 2.375, 2017/11/14 06:18:16.454下午, 473.0, 41, 39, 39, 40
477, 2.38, 2017/11/14 06:18:16.459下午, 458.0, 40, 40, 40, 40
478, 2.385, 2017/11/14 06:18:16.464下午, 453.0, 40, 40, 40, 40
479, 2.39, 2017/11/14 06:18:16.469下午, 459.0, 40, 40, 39, 40
480, 2.395, 2017/11/14 06:18:16.474下午, 456.0, 40, 40, 40, 40
481, 2.4, 2017/11/14 06:18:16.479下午, 466.0, 40, 39, 38, 39
482, 2.405, 2017/11/14 06:18:16.484下午, 482.0, 40, 40, 40, 40
483, 2.41, 2017/11/14 06:18:16.489下午, 467.0, 39, 39, 39, 39
484, 2.415, 2017/11/14 06:18:16.494下午, 462.0, 40, 40, 39, 40
485, 2.42, 2017/11/14 06:18:16.499下午, 472.0, 40, 39, 39, 39
486, 2.425, 2017/11/14 06:18:16.504下午, 454.0, 41, 40, 39, 40
487, 2.43, 2017/11/14 06:18:16.509下午, 416.0, 40, 40, 41, 40
488, 2.435, 2017/11/14 06:18:16.514下午, 439.0, 39, 41, 39, 40
489, 2.44, 2017/11/14 06:18:16.519下午, 450.0, 40, 40, 39, 40
490, 2.445, 2017/11/14 06:18:16.524下午, 454.0, 39, 39, 39, 39
491, 2.45, 2017/11/14 06:18:16.529下午, 458.0, 40, 39, 39, 40
492, 2.455, 2017/11/14 06:18:16.534下午, 437.0, 39, 40, 39, 39
493, 2.46, 2017/11/14 06:18:16.539下午, 449.0, 39, 40, 39, 39
494, 2.465, 2017/11/14 06:18:16.544下午, 463.0, 40, 39, 39, 39
495, 2.47, 2017/11/14 06:18:16.549下午, 447.0, 40, 40, 40, 40
496, 2.475, 2017/11/14 06:18:16.554下午, 449.0, 39, 40, 39, 39
497, 2.48, 2017/11/14 06:18:16.559下午, 464.0, 39, 40, 40, 39
498, 2.485, 2017/11/14 06:18:16.564下午, 469.0, 40, 39, 39, 39
499, 2.49, 2017/11/14 06:18:16.569下午, 452.0, 39, 39, 39, 39
500, 2.495, 2017/11/14 06:18:16.574下午, 479.0, 40, 40, 39, 40
501, 2.5, 2017/11/14 06:18:16.579下午, 480.0, 39, 39, 39, 39
502, 2.505, 2017/11/14 06:18:16.584下午, 442.0, 40, 40, 40, 40
503, 2.51, 2017/11/14 06:18:16.589下午, 440.0, 39, 40, 40, 40
504, 2.515, 2017/11/14 06:18:16.594下午, 452.0, 39, 39, 40, 39
505, 2.52, 2017/11/14 06:18:16.599下午, 460.0, 39, 40, 39, 39
506, 2.525, 2017/11/14 06:18:16.604下午, 448.0, 39, 40, 39, 39
507, 2.53, 2017/11/14 06:18:16.609下午, 458.0, 39, 40, 40, 40
508, 2.535, 2017/11/14 06:18:16.614下午, 457.0, 40, 39, 39, 39
509, 2.54, 2017/11/14 06:18:16.619下午, 453.0, 40, 40, 39, 40
510, 2.545, 2017/11/14 06:18:16.624下午, 434.0, 40, 41, 41, 40
511, 2.55, 2017/11/14 06:18:16.629下午, 424.0, 39, 40, 41, 40
512, 2.555, 2017/11/14 06:18:16.634下午, 450.0, 39, 39, 39, 39
513, 2.56, 2017/11/14 06:18:16.639下午, 460.0, 40, 39, 38, 39
514, 2.565, 2017/11/14 06:18:16.644下午, 470.0, 40, 39, 39, 40
515, 2.57, 2017/11/14 06:18:16.649下午, 419.0, 40, 41, 41, 41
516, 2.575, 2017/11/14 06:18:16.654下午, 417.0, 39, 40, 39, 39
517, 2.58, 2017/11/14 06:18:16.659下午, 460.0, 39, 39, 39, 39
518, 2.585, 2017/11/14 06:18:16.664下午, 456.0, 39, 39, 39, 39
519, 2.59, 2017/11/14 06:18:16.669下午, 483.0, 40, 39, 38, 39
520, 2.595, 2017/11/14 06:18:16.674下午, 440.0, 40, 40, 40, 40
521, 2.6, 2017/11/14 06:18:16.679下午, 428.0, 40, 41, 41, 40
522, 2.605, 2017/11/14 06:18:16.684下午, 438.0, 39, 41, 39, 40
523, 2.61, 2017/11/14 06:18:16.689下午, 423.0, 38, 40, 41, 40
524, 2.615, 2017/11/14 06:18:16.694下午, 472.0, 39, 40, 39, 39
525, 2.62, 2017/11/14 06:18:16.699下午, 469.0, 39, 40, 39, 39
526, 2.625, 2017/11/14 06:18:16.704下午, 470.0, 38, 40, 39, 39
527, 2.63, 2017/11/14 06:18:16.709下午, 472.0, 39, 40, 38, 39
528, 2.635, 2017/11/14 06:18:16.714下午, 452.0, 39, 39, 39, 39
529, 2.64, 2017/11/14 06:18:16.719下午, 449.0, 39, 40, 39, 39
530, 2.645, 2017/11/14 06:18:16.724下午, 428.0, 39, 40, 39, 39
531, 2.65, 2017/11/14 06:18:16.729下午, 460.0, 39, 40, 39, 39
532, 2.655, 2017/11/14 06:18:16.734下午, 459.0, 38, 39, 39, 39
533, 2.66, 2017/11/14 06:18:16.739下午, 452.0, 39, 40, 39, 39
534, 2.665, 2017/11/14 06:18:16.744下午, 443.0, 40, 41, 40, 40
535, 2.67, 2017/11/14 06:18:16.749下午, 435.0, 39, 40, 39, 40
536, 2.675, 2017/11/14 06:18:16.754下午, 448.0, 39, 40, 40, 39
537, 2.68, 2017/11/14 06:18:16.759下午, 463.0, 38, 39, 39, 39
538, 2.685, 2017/11/14 06:18:16.764下午, 463.0, 40, 40, 39, 40
539, 2.69, 2017/11/14 06:18:16.769下午, 456.0, 39, 40, 39, 40
540, 2.695, 2017/11/14 06:18:16.774下午, 463.0, 39, 40, 39, 40
541, 2.7, 2017/11/14 06:18:16.779下午, 428.0, 40, 41, 39, 40
542, 2.705, 2017/11/14 06:18:16.784下午, 425.0, 39, 40, 39, 39
543, 2.71, 2017/11/14 06:18:16.789下午, 463.0, 39, 40, 39, 39
544, 2.715, 2017/11/14 06:18:16.794下午, 475.0, 39, 40, 39, 39
545, 2.72, 2017/11/14 06:18:16.799下午, 481.0, 40, 40, 40, 40
546, 2.725, 2017/11/14 06:18:16.804下午, 430.0, 40, 41, 40, 40
547, 2.73, 2017/11/14 06:18:16.809下午, 446.0, 39, 41, 40, 40
548, 2.735, 2017/11/14 06:18:16.814下午, 462.0, 39, 40, 39, 39
549, 2.74, 2017/11/14 06:18:16.819下午, 453.0, 39, 39, 40, 39
550, 2.745, 2017/11/14 06:18:16.824下午, 470.0, 40, 39, 39, 39
551, 2.75, 2017/11/14 06:18:16.829下午, 426.0, 39, 41, 41, 40
552, 2.755, 2017/11/14 06:18:16.834下午, 435.0, 39, 40, 40, 40
553, 2.76, 2017/11/14 06:18:16.839下午, 454.0, 39, 40, 39, 39
554, 2.765, 2017/11/14 06:18:16.844下午, 482.0, 38, 41, 40, 39
555, 2.77, 2017/11/14 06:18:16.849下午, 457.0, 39, 40, 39, 39
556, 2.775, 2017/11/14 06:18:16.854下午, 452.0, 39, 41, 40, 40
557, 2.78, 2017/11/14 06:18:16.859下午, 444.0, 39, 40, 39, 39
558, 2.785, 2017/11/14 06:18:16.864下午, 457.0, 38, 40, 39, 39
559, 2.79, 2017/11/14 06:18:16.869下午, 452.0, 39, 40, 39, 39
560, 2.795, 2017/11/14 06:18:16.874下午, 448.0, 38, 39, 39, 39
561, 2.8, 2017/11/14 06:18:16.879下午, 450.0, 39, 40, 39, 39
562, 2.805, 2017/11/14 06:18:16.884下午, 467.0, 39, 40, 39, 39
563, 2.81, 2017/11/14 06:18:16.889下午, 446.0, 40, 40, 40, 40
564, 2.815, 2017/11/14 06:18:16.894下午, 442.0, 39, 41, 40, 40
565, 2.82, 2017/11/14 06:18:16.899下午, 458.0, 40, 40, 40, 40
566, 2.825, 2017/11/14 06:18:16.904下午, 447.0, 39, 40, 39, 39
567, 2.83, 2017/11/14 06:18:16.909下午, 451.0, 39, 40, 39, 40
568, 2.835, 2017/11/14 06:18:16.914下午, 460.0, 39, 40, 39, 39
569, 2.84, 2017/11/14 06:18:16.919下午, 457.0, 38, 40, 39, 39
570, 2.845, 2017/11/14 06:18:16.924下午, 458.0, 40, 40, 39, 40
571, 2.85, 2017/11/14 06:18:16.929下午, 451.0, 40, 39, 38, 39
572, 2.855, 2017/11/14 06:18:16.934下午, 459.0, 40, 39, 40, 40
573, 2.86, 2017/11/14 06:18:16.939下午, 437.0, 39, 41, 40, 40
574, 2.865, 2017/11/14 06:18:16.944下午, 448.0, 38, 40, 39, 39
575, 2.87, 2017/11/14 06:18:16.949下午, 458.0, 39, 40, 39, 39
576, 2.875, 2017/11/14 06:18:16.954下午, 472.0, 39, 40, 39, 39
577, 2.88, 2017/11/14 06:18:16.959下午, 463.0, 40, 39, 39, 39
578, 2.885, 2017/11/14 06:18:16.964下午, 467.0, 39, 40, 40, 40
579, 2.89, 2017/11/14 06:18:16.969下午, 439.0, 40, 40, 39, 40
580, 2.895, 2017/11/14 06:18:16.974下午, 426.0, 40, 41, 41, 40
581, 2.9, 2017/11/14 06:18:16.979下午, 443.0, 39, 40, 40, 40
582, 2.905, 2017/11/14 06:18:16.984下午, 462.0, 39, 40, 38, 39
583, 2.91, 2017/11/14 06:18:16.989下午, 456.0, 39, 40, 38, 39
584, 2.915, 2017/11/14 06:18:16.994下午, 462.0, 39, 40, 39, 39
585, 2.92, 2017/11/14 06:18:16.999下午, 466.0, 39, 39, 39, 39
586, 2.925, 2017/11/14 06:18:17.004下午, 476.0, 40, 40, 39, 40
587, 2.93, 2017/11/14 06:18:17.009下午, 453.0, 39, 40, 39, 39
588, 2.935, 2017/11/14 06:18:17.014下午, 476.0, 39, 39, 38, 39
589, 2.94, 2017/11/14 06:18:17.019下午, 472.0, 38, 39, 39, 39
590, 2.945, 2017/11/14 06:18:17.024下午, 456.0, 40, 40, 39, 40
591, 2.95, 2017/11/14 06:18:17.029下午, 455.0, 39, 40, 40, 40
592, 2.955, 2017/11/14 06:18:17.034下午, 480.0, 39, 40, 39, 39
593, 2.96, 2017/11/14 06:18:17.039下午, 475.0, 39, 40, 39, 39
594, 2.965, 2017/11/14 06:18:17.044下午, 469.0, 40, 40, 39, 40
595, 2.97, 2017/11/14 06:18:17.049下午, 461.0, 40, 41, 40, 40
596, 2.975, 2017/11/14 06:18:17.054下午, 418.0, 39, 40, 41, 40
597, 2.98, 2017/11/14 06:18:17.059下午, 454.0, 39, 40, 39, 39
598, 2.985, 2017/11/14 06:18:17.064下午, 464.0, 39, 39, 39, 39
599, 2.99, 2017/11/14 06:18:17.069下午, 472.0, 39, 40, 39, 39
600, 2.995, 2017/11/14 06:18:17.074下午, 482.0, 40, 40, 39, 40
@@
