DATA_TYPE Graph
VERSION Tekscan Pressure Measurement System 6.70-03
HARDWARE 00114-3447
MAP_VERSION 6.5
HW_TYPE 4
VersaPogoFsx 0
檔案名 C:\Users\asus\Desktop\工研院_計畫\收案資料\Subject02\Plantar Pressure\EVA_STAND_RIGHT_1.fsx
SENSOR_TYPE FSCAN
ROWS 60
COLS 21
ROW_SPACING 0.508 centimeters
COL_SPACING 0.508 centimeters
SENSEL_AREA 0.258064 cm2
NOISE_THRESHOLD 3
SECONDS_PER_FRAME 0.005
SECONDS_PER_FRAME 0
MICRO_SECOND 0
TIME 2017/11/15 10:15:19.619上午
SATURATION_PRESSURE 2347.96 KPa 
CALIBRATION_POINT_1 48.0001 (Kilograms) 1981 (Raw Sum) 199 (Number of Loaded Cells)
CALIBRATION_MODE_1 步態
CALIBRATION_INFO C:\Users\asus\Desktop\工研院_計畫\收案資料\Subject02\Plantar Pressure\EVA_STAND_RIGHT_1.fsx
SENSITIVITY 自定義
MAP_INDEX 0
SUBMAP 0
Patient ID: 

Speed of Gait: 

Weight: 

Gender: 

Physician: 

Technician: 

Shoe: 

START_FRAME 1
END_FRAME 600
UNITS cm2
ASCII_DATA @@
畫面(X), 時間(X), 絕對時間(X), Raw Sum, 區域(Y:天藍色), 區域(Y), 區域(Y), 區域(Y)
1, 0, 2017/11/15 10:15:19.619上午, 882.0, 14.71, 14.45, 16.26, 45.42
2, 0.005, 2017/11/15 10:15:19.624上午, 864.0, 14.71, 14.19, 16.00, 44.90
3, 0.01, 2017/11/15 10:15:19.629上午, 854.0, 14.97, 14.71, 14.97, 44.65
4, 0.015, 2017/11/15 10:15:19.634上午, 845.0, 14.71, 14.71, 14.97, 44.39
5, 0.02, 2017/11/15 10:15:19.639上午, 848.0, 14.45, 14.19, 14.97, 43.61
6, 0.025, 2017/11/15 10:15:19.644上午, 837.0, 14.45, 12.90, 14.97, 42.32
7, 0.03, 2017/11/15 10:15:19.649上午, 866.0, 14.97, 13.42, 15.23, 43.61
8, 0.035, 2017/11/15 10:15:19.654上午, 874.0, 14.97, 13.94, 15.23, 44.13
9, 0.04, 2017/11/15 10:15:19.659上午, 867.0, 14.97, 13.94, 15.74, 44.65
10, 0.045, 2017/11/15 10:15:19.664上午, 857.0, 14.97, 13.94, 15.74, 44.65
11, 0.05, 2017/11/15 10:15:19.669上午, 853.0, 14.71, 14.19, 14.97, 43.87
12, 0.055, 2017/11/15 10:15:19.674上午, 860.0, 14.45, 14.45, 15.23, 44.13
13, 0.06, 2017/11/15 10:15:19.679上午, 868.0, 15.23, 13.94, 15.23, 44.39
14, 0.065, 2017/11/15 10:15:19.684上午, 866.0, 14.97, 13.94, 14.71, 43.61
15, 0.07, 2017/11/15 10:15:19.689上午, 871.0, 14.97, 13.94, 15.23, 44.13
16, 0.075, 2017/11/15 10:15:19.694上午, 857.0, 14.45, 13.68, 15.23, 43.35
17, 0.08, 2017/11/15 10:15:19.699上午, 869.0, 14.97, 14.19, 15.48, 44.65
18, 0.085, 2017/11/15 10:15:19.704上午, 867.0, 14.97, 14.71, 15.74, 45.42
19, 0.09, 2017/11/15 10:15:19.709上午, 855.0, 14.71, 14.19, 14.97, 43.87
20, 0.095, 2017/11/15 10:15:19.714上午, 866.0, 14.45, 14.71, 15.48, 44.65
21, 0.1, 2017/11/15 10:15:19.719上午, 861.0, 15.23, 13.16, 14.97, 43.35
22, 0.105, 2017/11/15 10:15:19.724上午, 866.0, 15.23, 13.16, 14.97, 43.35
23, 0.11, 2017/11/15 10:15:19.729上午, 870.0, 14.97, 13.68, 15.48, 44.13
24, 0.115, 2017/11/15 10:15:19.734上午, 873.0, 14.97, 13.68, 15.48, 44.13
25, 0.12, 2017/11/15 10:15:19.739上午, 870.0, 14.97, 13.94, 15.74, 44.65
26, 0.125, 2017/11/15 10:15:19.744上午, 872.0, 14.97, 14.45, 15.74, 45.16
27, 0.13, 2017/11/15 10:15:19.749上午, 868.0, 14.97, 14.97, 15.48, 45.42
28, 0.135, 2017/11/15 10:15:19.754上午, 866.0, 14.97, 14.71, 14.71, 44.39
29, 0.14, 2017/11/15 10:15:19.759上午, 843.0, 14.45, 14.19, 14.71, 43.35
30, 0.145, 2017/11/15 10:15:19.764上午, 861.0, 14.97, 13.94, 14.71, 43.61
31, 0.15, 2017/11/15 10:15:19.769上午, 860.0, 14.97, 13.16, 14.97, 43.10
32, 0.155, 2017/11/15 10:15:19.774上午, 874.0, 14.97, 13.68, 14.97, 43.61
33, 0.16, 2017/11/15 10:15:19.779上午, 877.0, 14.97, 13.94, 15.74, 44.65
34, 0.165, 2017/11/15 10:15:19.784上午, 858.0, 14.97, 13.16, 15.74, 43.87
35, 0.17, 2017/11/15 10:15:19.789上午, 862.0, 14.71, 13.68, 15.48, 43.87
36, 0.175, 2017/11/15 10:15:19.794上午, 867.0, 14.97, 14.19, 15.48, 44.65
37, 0.18, 2017/11/15 10:15:19.799上午, 863.0, 14.97, 13.94, 15.23, 44.13
38, 0.185, 2017/11/15 10:15:19.804上午, 874.0, 14.97, 14.19, 15.23, 44.39
39, 0.19, 2017/11/15 10:15:19.809上午, 865.0, 14.97, 13.68, 15.74, 44.39
40, 0.195, 2017/11/15 10:15:19.814上午, 860.0, 14.71, 13.68, 15.74, 44.13
41, 0.2, 2017/11/15 10:15:19.819上午, 867.0, 14.97, 13.68, 15.74, 44.39
42, 0.205, 2017/11/15 10:15:19.824上午, 857.0, 14.71, 13.42, 15.74, 43.87
43, 0.21, 2017/11/15 10:15:19.829上午, 843.0, 14.97, 13.94, 15.23, 44.13
44, 0.215, 2017/11/15 10:15:19.834上午, 841.0, 14.71, 13.68, 15.23, 43.61
45, 0.22, 2017/11/15 10:15:19.839上午, 867.0, 14.97, 14.97, 15.23, 45.16
46, 0.225, 2017/11/15 10:15:19.844上午, 855.0, 14.97, 13.94, 15.23, 44.13
47, 0.23, 2017/11/15 10:15:19.849上午, 870.0, 14.97, 14.45, 14.97, 44.39
48, 0.235, 2017/11/15 10:15:19.854上午, 877.0, 14.97, 13.68, 15.74, 44.39
49, 0.24, 2017/11/15 10:15:19.859上午, 872.0, 14.97, 13.94, 15.74, 44.65
50, 0.245, 2017/11/15 10:15:19.864上午, 863.0, 14.71, 14.97, 15.23, 44.90
51, 0.25, 2017/11/15 10:15:19.869上午, 847.0, 14.97, 13.94, 14.71, 43.61
52, 0.255, 2017/11/15 10:15:19.874上午, 874.0, 15.23, 14.71, 14.97, 44.90
53, 0.26, 2017/11/15 10:15:19.879上午, 875.0, 14.97, 13.68, 16.00, 44.65
54, 0.265, 2017/11/15 10:15:19.884上午, 869.0, 14.97, 13.68, 15.23, 43.87
55, 0.27, 2017/11/15 10:15:19.889上午, 865.0, 14.97, 13.68, 15.48, 44.13
56, 0.275, 2017/11/15 10:15:19.894上午, 861.0, 14.45, 14.19, 15.23, 43.87
57, 0.28, 2017/11/15 10:15:19.899上午, 864.0, 14.71, 13.42, 15.74, 43.87
58, 0.285, 2017/11/15 10:15:19.904上午, 880.0, 14.97, 14.45, 15.74, 45.16
59, 0.29, 2017/11/15 10:15:19.909上午, 864.0, 14.71, 13.94, 15.74, 44.39
60, 0.295, 2017/11/15 10:15:19.914上午, 857.0, 14.97, 13.94, 15.48, 44.39
61, 0.3, 2017/11/15 10:15:19.919上午, 843.0, 14.97, 14.45, 14.71, 44.13
62, 0.305, 2017/11/15 10:15:19.924上午, 862.0, 14.45, 13.94, 15.23, 43.61
63, 0.31, 2017/11/15 10:15:19.929上午, 848.0, 14.71, 12.90, 15.23, 42.84
64, 0.315, 2017/11/15 10:15:19.934上午, 858.0, 15.23, 13.42, 14.71, 43.35
65, 0.32, 2017/11/15 10:15:19.939上午, 865.0, 15.23, 13.16, 15.48, 43.87
66, 0.325, 2017/11/15 10:15:19.944上午, 872.0, 14.97, 14.71, 14.71, 44.39
67, 0.33, 2017/11/15 10:15:19.949上午, 879.0, 14.97, 14.45, 15.48, 44.90
68, 0.335, 2017/11/15 10:15:19.954上午, 871.0, 14.97, 13.68, 15.48, 44.13
69, 0.34, 2017/11/15 10:15:19.959上午, 873.0, 14.97, 13.94, 15.74, 44.65
70, 0.345, 2017/11/15 10:15:19.964上午, 861.0, 14.97, 14.71, 14.97, 44.65
71, 0.35, 2017/11/15 10:15:19.969上午, 852.0, 14.97, 14.71, 14.97, 44.65
72, 0.355, 2017/11/15 10:15:19.974上午, 853.0, 14.45, 13.94, 14.97, 43.35
73, 0.36, 2017/11/15 10:15:19.979上午, 885.0, 14.97, 14.19, 15.23, 44.39
74, 0.365, 2017/11/15 10:15:19.984上午, 886.0, 15.23, 14.45, 15.74, 45.42
75, 0.37, 2017/11/15 10:15:19.989上午, 880.0, 14.97, 14.45, 15.74, 45.16
76, 0.375, 2017/11/15 10:15:19.994上午, 875.0, 14.97, 14.45, 15.23, 44.65
77, 0.38, 2017/11/15 10:15:19.999上午, 865.0, 14.71, 14.19, 15.74, 44.65
78, 0.385, 2017/11/15 10:15:20.004上午, 866.0, 14.97, 14.45, 15.74, 45.16
79, 0.39, 2017/11/15 10:15:20.009上午, 843.0, 14.71, 13.16, 14.97, 42.84
80, 0.395, 2017/11/15 10:15:20.014上午, 861.0, 14.71, 14.45, 14.97, 44.13
81, 0.4, 2017/11/15 10:15:20.019上午, 867.0, 14.71, 13.94, 15.48, 44.13
82, 0.405, 2017/11/15 10:15:20.024上午, 865.0, 14.97, 13.94, 15.23, 44.13
83, 0.41, 2017/11/15 10:15:20.029上午, 878.0, 14.97, 14.45, 15.48, 44.90
84, 0.415, 2017/11/15 10:15:20.034上午, 862.0, 14.45, 13.42, 15.74, 43.61
85, 0.42, 2017/11/15 10:15:20.039上午, 872.0, 14.97, 14.19, 16.00, 45.16
86, 0.425, 2017/11/15 10:15:20.044上午, 876.0, 14.97, 14.71, 16.00, 45.68
87, 0.43, 2017/11/15 10:15:20.049上午, 865.0, 14.97, 13.94, 14.97, 43.87
88, 0.435, 2017/11/15 10:15:20.054上午, 885.0, 14.97, 14.19, 16.00, 45.16
89, 0.44, 2017/11/15 10:15:20.059上午, 852.0, 14.71, 13.68, 14.71, 43.10
90, 0.445, 2017/11/15 10:15:20.064上午, 858.0, 14.97, 14.97, 14.71, 44.65
91, 0.45, 2017/11/15 10:15:20.069上午, 841.0, 14.71, 13.42, 14.97, 43.10
92, 0.455, 2017/11/15 10:15:20.074上午, 868.0, 15.23, 13.94, 15.23, 44.39
93, 0.46, 2017/11/15 10:15:20.079上午, 874.0, 15.23, 13.68, 15.48, 44.39
94, 0.465, 2017/11/15 10:15:20.084上午, 883.0, 14.97, 14.19, 15.48, 44.65
95, 0.47, 2017/11/15 10:15:20.089上午, 873.0, 15.23, 13.68, 15.23, 44.13
96, 0.475, 2017/11/15 10:15:20.094上午, 869.0, 14.97, 14.45, 15.23, 44.65
97, 0.48, 2017/11/15 10:15:20.099上午, 872.0, 14.71, 14.19, 15.74, 44.65
98, 0.485, 2017/11/15 10:15:20.104上午, 851.0, 14.71, 13.68, 15.23, 43.61
99, 0.49, 2017/11/15 10:15:20.109上午, 854.0, 14.71, 13.42, 15.74, 43.87
100, 0.495, 2017/11/15 10:15:20.114上午, 870.0, 14.97, 14.45, 15.74, 45.16
101, 0.5, 2017/11/15 10:15:20.119上午, 869.0, 14.71, 14.71, 15.74, 45.16
102, 0.505, 2017/11/15 10:15:20.124上午, 846.0, 14.97, 14.19, 14.71, 43.87
103, 0.51, 2017/11/15 10:15:20.129上午, 858.0, 15.23, 13.42, 15.74, 44.39
104, 0.515, 2017/11/15 10:15:20.134上午, 874.0, 15.23, 13.94, 16.26, 45.42
105, 0.52, 2017/11/15 10:15:20.139上午, 857.0, 15.23, 13.16, 14.71, 43.10
106, 0.525, 2017/11/15 10:15:20.144上午, 867.0, 14.97, 13.94, 14.97, 43.87
107, 0.53, 2017/11/15 10:15:20.149上午, 863.0, 15.23, 14.19, 15.23, 44.65
108, 0.535, 2017/11/15 10:15:20.154上午, 868.0, 14.97, 13.16, 15.74, 43.87
109, 0.54, 2017/11/15 10:15:20.159上午, 870.0, 14.97, 13.94, 15.74, 44.65
110, 0.545, 2017/11/15 10:15:20.164上午, 859.0, 14.71, 13.94, 15.48, 44.13
111, 0.55, 2017/11/15 10:15:20.169上午, 862.0, 15.23, 14.45, 14.71, 44.39
112, 0.555, 2017/11/15 10:15:20.174上午, 867.0, 14.97, 13.68, 14.71, 43.35
113, 0.56, 2017/11/15 10:15:20.179上午, 870.0, 14.97, 13.42, 15.23, 43.61
114, 0.565, 2017/11/15 10:15:20.184上午, 864.0, 14.97, 13.68, 15.23, 43.87
115, 0.57, 2017/11/15 10:15:20.189上午, 854.0, 14.97, 13.68, 14.97, 43.61
116, 0.575, 2017/11/15 10:15:20.194上午, 856.0, 15.23, 12.90, 15.48, 43.61
117, 0.58, 2017/11/15 10:15:20.199上午, 863.0, 15.23, 14.19, 14.97, 44.39
118, 0.585, 2017/11/15 10:15:20.204上午, 853.0, 15.23, 13.94, 14.97, 44.13
119, 0.59, 2017/11/15 10:15:20.209上午, 858.0, 15.23, 13.94, 14.97, 44.13
120, 0.595, 2017/11/15 10:15:20.214上午, 867.0, 15.23, 14.19, 15.23, 44.65
121, 0.6, 2017/11/15 10:15:20.219上午, 877.0, 14.97, 14.45, 14.71, 44.13
122, 0.605, 2017/11/15 10:15:20.224上午, 888.0, 15.23, 13.94, 15.74, 44.90
123, 0.61, 2017/11/15 10:15:20.229上午, 874.0, 14.97, 13.42, 15.23, 43.61
124, 0.615, 2017/11/15 10:15:20.234上午, 871.0, 14.97, 13.68, 15.74, 44.39
125, 0.62, 2017/11/15 10:15:20.239上午, 862.0, 14.97, 13.42, 15.48, 43.87
126, 0.625, 2017/11/15 10:15:20.244上午, 880.0, 15.48, 13.94, 16.00, 45.42
127, 0.63, 2017/11/15 10:15:20.249上午, 850.0, 15.23, 13.16, 14.97, 43.35
128, 0.635, 2017/11/15 10:15:20.254上午, 866.0, 15.23, 14.19, 14.97, 44.39
129, 0.64, 2017/11/15 10:15:20.259上午, 889.0, 15.23, 13.94, 15.74, 44.90
130, 0.645, 2017/11/15 10:15:20.264上午, 880.0, 15.23, 13.68, 15.23, 44.13
131, 0.65, 2017/11/15 10:15:20.269上午, 871.0, 14.97, 13.94, 15.23, 44.13
132, 0.655, 2017/11/15 10:15:20.274上午, 866.0, 15.23, 13.94, 15.48, 44.65
133, 0.66, 2017/11/15 10:15:20.279上午, 857.0, 15.23, 13.68, 14.97, 43.87
134, 0.665, 2017/11/15 10:15:20.284上午, 867.0, 15.23, 14.71, 14.71, 44.65
135, 0.67, 2017/11/15 10:15:20.289上午, 883.0, 15.23, 14.19, 15.74, 45.16
136, 0.675, 2017/11/15 10:15:20.294上午, 880.0, 14.97, 13.68, 15.48, 44.13
137, 0.68, 2017/11/15 10:15:20.299上午, 864.0, 15.23, 13.68, 15.23, 44.13
138, 0.685, 2017/11/15 10:15:20.304上午, 868.0, 15.23, 13.94, 14.97, 44.13
139, 0.69, 2017/11/15 10:15:20.309上午, 879.0, 15.23, 14.45, 15.23, 44.90
140, 0.695, 2017/11/15 10:15:20.314上午, 880.0, 15.23, 14.71, 15.23, 45.16
141, 0.7, 2017/11/15 10:15:20.319上午, 856.0, 15.23, 14.19, 15.48, 44.90
142, 0.705, 2017/11/15 10:15:20.324上午, 882.0, 15.74, 14.19, 15.74, 45.68
143, 0.71, 2017/11/15 10:15:20.329上午, 873.0, 15.23, 13.68, 16.00, 44.90
144, 0.715, 2017/11/15 10:15:20.334上午, 858.0, 15.23, 13.68, 14.97, 43.87
145, 0.72, 2017/11/15 10:15:20.339上午, 854.0, 15.23, 13.42, 14.71, 43.35
146, 0.725, 2017/11/15 10:15:20.344上午, 873.0, 15.48, 13.68, 15.23, 44.39
147, 0.73, 2017/11/15 10:15:20.349上午, 889.0, 15.48, 13.94, 15.23, 44.65
148, 0.735, 2017/11/15 10:15:20.354上午, 866.0, 15.23, 13.94, 15.23, 44.39
149, 0.74, 2017/11/15 10:15:20.359上午, 850.0, 14.97, 13.94, 15.48, 44.39
150, 0.745, 2017/11/15 10:15:20.364上午, 862.0, 14.97, 14.19, 14.97, 44.13
151, 0.75, 2017/11/15 10:15:20.369上午, 858.0, 15.23, 13.68, 14.97, 43.87
152, 0.755, 2017/11/15 10:15:20.374上午, 878.0, 15.48, 13.68, 15.48, 44.65
153, 0.76, 2017/11/15 10:15:20.379上午, 875.0, 15.48, 13.68, 14.97, 44.13
154, 0.765, 2017/11/15 10:15:20.384上午, 869.0, 14.97, 13.42, 14.97, 43.35
155, 0.77, 2017/11/15 10:15:20.389上午, 862.0, 15.48, 13.94, 14.71, 44.13
156, 0.775, 2017/11/15 10:15:20.394上午, 854.0, 14.71, 13.94, 14.71, 43.35
157, 0.78, 2017/11/15 10:15:20.399上午, 869.0, 15.23, 14.19, 15.23, 44.65
158, 0.785, 2017/11/15 10:15:20.404上午, 871.0, 15.23, 14.19, 16.52, 45.94
159, 0.79, 2017/11/15 10:15:20.409上午, 857.0, 15.23, 13.42, 15.48, 44.13
160, 0.795, 2017/11/15 10:15:20.414上午, 837.0, 15.23, 12.90, 14.71, 42.84
161, 0.8, 2017/11/15 10:15:20.419上午, 866.0, 14.97, 13.16, 15.48, 43.61
162, 0.805, 2017/11/15 10:15:20.424上午, 852.0, 15.23, 13.16, 15.23, 43.61
163, 0.81, 2017/11/15 10:15:20.429上午, 881.0, 15.23, 13.68, 15.23, 44.13
164, 0.815, 2017/11/15 10:15:20.434上午, 888.0, 15.23, 14.45, 15.48, 45.16
165, 0.82, 2017/11/15 10:15:20.439上午, 874.0, 15.23, 14.45, 15.48, 45.16
166, 0.825, 2017/11/15 10:15:20.444上午, 866.0, 15.23, 14.45, 14.71, 44.39
167, 0.83, 2017/11/15 10:15:20.449上午, 855.0, 15.23, 13.16, 14.97, 43.35
168, 0.835, 2017/11/15 10:15:20.454上午, 876.0, 15.23, 13.94, 15.23, 44.39
169, 0.84, 2017/11/15 10:15:20.459上午, 862.0, 15.23, 13.42, 15.23, 43.87
170, 0.845, 2017/11/15 10:15:20.464上午, 873.0, 15.23, 13.94, 15.48, 44.65
171, 0.85, 2017/11/15 10:15:20.469上午, 873.0, 15.23, 13.42, 15.74, 44.39
172, 0.855, 2017/11/15 10:15:20.474上午, 867.0, 14.71, 14.97, 14.97, 44.65
173, 0.86, 2017/11/15 10:15:20.479上午, 859.0, 15.23, 13.68, 15.23, 44.13
174, 0.865, 2017/11/15 10:15:20.484上午, 877.0, 15.23, 13.68, 16.26, 45.16
175, 0.87, 2017/11/15 10:15:20.489上午, 865.0, 15.23, 13.68, 14.97, 43.87
176, 0.875, 2017/11/15 10:15:20.494上午, 867.0, 15.23, 13.42, 14.97, 43.61
177, 0.88, 2017/11/15 10:15:20.499上午, 872.0, 14.97, 14.71, 14.97, 44.65
178, 0.885, 2017/11/15 10:15:20.504上午, 875.0, 15.23, 14.19, 15.48, 44.90
179, 0.89, 2017/11/15 10:15:20.509上午, 870.0, 15.23, 13.68, 15.48, 44.39
180, 0.895, 2017/11/15 10:15:20.514上午, 874.0, 15.23, 14.45, 14.97, 44.65
181, 0.9, 2017/11/15 10:15:20.519上午, 880.0, 15.23, 14.19, 15.23, 44.65
182, 0.905, 2017/11/15 10:15:20.524上午, 853.0, 15.23, 13.94, 14.97, 44.13
183, 0.91, 2017/11/15 10:15:20.529上午, 879.0, 15.48, 13.94, 15.48, 44.90
184, 0.915, 2017/11/15 10:15:20.534上午, 876.0, 15.23, 13.94, 15.23, 44.39
185, 0.92, 2017/11/15 10:15:20.539上午, 870.0, 15.23, 13.16, 15.23, 43.61
186, 0.925, 2017/11/15 10:15:20.544上午, 882.0, 16.26, 13.94, 15.48, 45.68
187, 0.93, 2017/11/15 10:15:20.549上午, 866.0, 15.23, 13.94, 14.97, 44.13
188, 0.935, 2017/11/15 10:15:20.554上午, 871.0, 15.23, 14.19, 15.23, 44.65
189, 0.94, 2017/11/15 10:15:20.559上午, 863.0, 14.97, 13.68, 14.71, 43.35
190, 0.945, 2017/11/15 10:15:20.564上午, 891.0, 15.23, 14.97, 15.23, 45.42
191, 0.95, 2017/11/15 10:15:20.569上午, 864.0, 15.23, 13.42, 15.23, 43.87
192, 0.955, 2017/11/15 10:15:20.574上午, 863.0, 15.23, 13.68, 15.23, 44.13
193, 0.96, 2017/11/15 10:15:20.579上午, 871.0, 15.23, 13.68, 15.48, 44.39
194, 0.965, 2017/11/15 10:15:20.584上午, 876.0, 15.23, 13.94, 16.52, 45.68
195, 0.97, 2017/11/15 10:15:20.589上午, 864.0, 15.48, 13.16, 15.23, 43.87
196, 0.975, 2017/11/15 10:15:20.594上午, 863.0, 15.23, 13.68, 15.23, 44.13
197, 0.98, 2017/11/15 10:15:20.599上午, 858.0, 15.23, 12.90, 14.97, 43.10
198, 0.985, 2017/11/15 10:15:20.604上午, 857.0, 14.97, 13.16, 14.97, 43.10
199, 0.99, 2017/11/15 10:15:20.609上午, 860.0, 15.23, 13.42, 14.71, 43.35
200, 0.995, 2017/11/15 10:15:20.614上午, 871.0, 15.23, 14.19, 15.23, 44.65
201, 1, 2017/11/15 10:15:20.619上午, 856.0, 15.23, 13.16, 14.97, 43.35
202, 1.005, 2017/11/15 10:15:20.624上午, 875.0, 15.23, 13.42, 15.74, 44.39
203, 1.01, 2017/11/15 10:15:20.629上午, 869.0, 15.23, 14.19, 15.23, 44.65
204, 1.015, 2017/11/15 10:15:20.634上午, 873.0, 14.97, 14.71, 15.48, 45.16
205, 1.02, 2017/11/15 10:15:20.639上午, 873.0, 15.23, 14.19, 15.48, 44.90
206, 1.025, 2017/11/15 10:15:20.644上午, 862.0, 15.23, 13.68, 14.97, 43.87
207, 1.03, 2017/11/15 10:15:20.649上午, 877.0, 15.48, 14.45, 14.71, 44.65
208, 1.035, 2017/11/15 10:15:20.654上午, 885.0, 15.23, 14.19, 15.48, 44.90
209, 1.04, 2017/11/15 10:15:20.659上午, 865.0, 15.74, 13.16, 14.97, 43.87
210, 1.045, 2017/11/15 10:15:20.664上午, 876.0, 15.23, 14.19, 16.00, 45.42
211, 1.05, 2017/11/15 10:15:20.669上午, 887.0, 15.48, 14.45, 16.00, 45.94
212, 1.055, 2017/11/15 10:15:20.674上午, 880.0, 15.74, 14.97, 14.97, 45.68
213, 1.06, 2017/11/15 10:15:20.679上午, 869.0, 15.23, 14.45, 15.74, 45.42
214, 1.065, 2017/11/15 10:15:20.684上午, 870.0, 15.23, 14.19, 15.74, 45.16
215, 1.07, 2017/11/15 10:15:20.689上午, 871.0, 14.97, 13.94, 14.97, 43.87
216, 1.075, 2017/11/15 10:15:20.694上午, 865.0, 14.97, 13.68, 14.97, 43.61
217, 1.08, 2017/11/15 10:15:20.699上午, 871.0, 15.23, 14.19, 14.71, 44.13
218, 1.085, 2017/11/15 10:15:20.704上午, 867.0, 15.48, 13.68, 14.97, 44.13
219, 1.09, 2017/11/15 10:15:20.709上午, 879.0, 15.23, 13.68, 15.23, 44.13
220, 1.095, 2017/11/15 10:15:20.714上午, 876.0, 15.48, 13.16, 16.00, 44.65
221, 1.1, 2017/11/15 10:15:20.719上午, 874.0, 15.74, 13.68, 15.74, 45.16
222, 1.105, 2017/11/15 10:15:20.724上午, 857.0, 15.23, 13.68, 14.71, 43.61
223, 1.11, 2017/11/15 10:15:20.729上午, 877.0, 15.23, 14.97, 15.23, 45.42
224, 1.115, 2017/11/15 10:15:20.734上午, 864.0, 15.23, 12.90, 15.48, 43.61
225, 1.12, 2017/11/15 10:15:20.739上午, 873.0, 15.23, 13.42, 15.48, 44.13
226, 1.125, 2017/11/15 10:15:20.744上午, 865.0, 15.23, 14.19, 14.97, 44.39
227, 1.13, 2017/11/15 10:15:20.749上午, 860.0, 15.23, 13.42, 14.97, 43.61
228, 1.135, 2017/11/15 10:15:20.754上午, 845.0, 15.23, 13.68, 14.45, 43.35
229, 1.14, 2017/11/15 10:15:20.759上午, 879.0, 15.23, 13.94, 16.26, 45.42
230, 1.145, 2017/11/15 10:15:20.764上午, 890.0, 15.48, 13.94, 15.23, 44.65
231, 1.15, 2017/11/15 10:15:20.769上午, 882.0, 15.48, 14.19, 14.71, 44.39
232, 1.155, 2017/11/15 10:15:20.774上午, 888.0, 15.23, 14.97, 15.23, 45.42
233, 1.16, 2017/11/15 10:15:20.779上午, 864.0, 15.48, 14.19, 14.97, 44.65
234, 1.165, 2017/11/15 10:15:20.784上午, 871.0, 15.23, 14.45, 15.23, 44.90
235, 1.17, 2017/11/15 10:15:20.789上午, 876.0, 15.23, 14.19, 15.48, 44.90
236, 1.175, 2017/11/15 10:15:20.794上午, 887.0, 15.48, 14.45, 15.48, 45.42
237, 1.18, 2017/11/15 10:15:20.799上午, 886.0, 15.23, 13.94, 15.48, 44.65
238, 1.185, 2017/11/15 10:15:20.804上午, 890.0, 15.48, 14.19, 14.97, 44.65
239, 1.19, 2017/11/15 10:15:20.809上午, 882.0, 14.97, 13.42, 15.48, 43.87
240, 1.195, 2017/11/15 10:15:20.814上午, 876.0, 14.97, 14.19, 14.97, 44.13
241, 1.2, 2017/11/15 10:15:20.819上午, 877.0, 15.23, 13.42, 15.48, 44.13
242, 1.205, 2017/11/15 10:15:20.824上午, 886.0, 15.23, 14.19, 15.74, 45.16
243, 1.21, 2017/11/15 10:15:20.829上午, 859.0, 14.71, 13.94, 15.23, 43.87
244, 1.215, 2017/11/15 10:15:20.834上午, 857.0, 14.97, 14.19, 14.97, 44.13
245, 1.22, 2017/11/15 10:15:20.839上午, 878.0, 15.23, 14.71, 15.48, 45.42
246, 1.225, 2017/11/15 10:15:20.844上午, 881.0, 15.23, 13.68, 16.00, 44.90
247, 1.23, 2017/11/15 10:15:20.849上午, 881.0, 14.97, 13.94, 15.23, 44.13
248, 1.235, 2017/11/15 10:15:20.854上午, 882.0, 15.23, 13.94, 14.97, 44.13
249, 1.24, 2017/11/15 10:15:20.859上午, 868.0, 15.23, 13.68, 15.48, 44.39
250, 1.245, 2017/11/15 10:15:20.864上午, 879.0, 15.23, 13.94, 15.48, 44.65
251, 1.25, 2017/11/15 10:15:20.869上午, 876.0, 15.23, 13.68, 15.48, 44.39
252, 1.255, 2017/11/15 10:15:20.874上午, 873.0, 14.97, 13.94, 15.23, 44.13
253, 1.26, 2017/11/15 10:15:20.879上午, 883.0, 15.23, 14.45, 15.74, 45.42
254, 1.265, 2017/11/15 10:15:20.884上午, 850.0, 14.71, 13.42, 15.23, 43.35
255, 1.27, 2017/11/15 10:15:20.889上午, 851.0, 15.23, 13.42, 15.23, 43.87
256, 1.275, 2017/11/15 10:15:20.894上午, 873.0, 15.23, 13.94, 15.23, 44.39
257, 1.28, 2017/11/15 10:15:20.899上午, 880.0, 15.23, 14.19, 15.23, 44.65
258, 1.285, 2017/11/15 10:15:20.904上午, 881.0, 15.23, 13.94, 15.48, 44.65
259, 1.29, 2017/11/15 10:15:20.909上午, 884.0, 15.23, 14.19, 14.97, 44.39
260, 1.295, 2017/11/15 10:15:20.914上午, 869.0, 15.23, 13.94, 14.97, 44.13
261, 1.3, 2017/11/15 10:15:20.919上午, 882.0, 15.23, 14.19, 15.74, 45.16
262, 1.305, 2017/11/15 10:15:20.924上午, 867.0, 14.97, 13.94, 15.74, 44.65
263, 1.31, 2017/11/15 10:15:20.929上午, 868.0, 14.97, 13.68, 15.74, 44.39
264, 1.315, 2017/11/15 10:15:20.934上午, 891.0, 14.97, 15.23, 15.74, 45.94
265, 1.32, 2017/11/15 10:15:20.939上午, 896.0, 14.97, 14.97, 16.26, 46.19
266, 1.325, 2017/11/15 10:15:20.944上午, 870.0, 14.97, 13.68, 15.23, 43.87
267, 1.33, 2017/11/15 10:15:20.949上午, 872.0, 14.71, 13.94, 15.74, 44.39
268, 1.335, 2017/11/15 10:15:20.954上午, 882.0, 15.23, 14.19, 16.00, 45.42
269, 1.34, 2017/11/15 10:15:20.959上午, 886.0, 14.97, 15.23, 15.48, 45.68
270, 1.345, 2017/11/15 10:15:20.964上午, 867.0, 15.23, 13.16, 15.74, 44.13
271, 1.35, 2017/11/15 10:15:20.969上午, 881.0, 15.23, 14.71, 14.97, 44.90
272, 1.355, 2017/11/15 10:15:20.974上午, 871.0, 14.71, 14.45, 15.23, 44.39
273, 1.36, 2017/11/15 10:15:20.979上午, 865.0, 14.97, 14.19, 15.23, 44.39
274, 1.365, 2017/11/15 10:15:20.984上午, 865.0, 14.97, 14.45, 14.97, 44.39
275, 1.37, 2017/11/15 10:15:20.989上午, 897.0, 15.23, 14.45, 15.74, 45.42
276, 1.375, 2017/11/15 10:15:20.994上午, 871.0, 14.71, 14.19, 14.97, 43.87
277, 1.38, 2017/11/15 10:15:20.999上午, 871.0, 15.23, 14.19, 15.48, 44.90
278, 1.385, 2017/11/15 10:15:21.004上午, 862.0, 14.97, 13.68, 15.48, 44.13
279, 1.39, 2017/11/15 10:15:21.009上午, 884.0, 15.23, 14.97, 16.26, 46.45
280, 1.395, 2017/11/15 10:15:21.014上午, 881.0, 14.97, 14.97, 15.23, 45.16
281, 1.4, 2017/11/15 10:15:21.019上午, 886.0, 15.23, 14.45, 15.74, 45.42
282, 1.405, 2017/11/15 10:15:21.024上午, 868.0, 15.23, 13.94, 14.71, 43.87
283, 1.41, 2017/11/15 10:15:21.029上午, 879.0, 15.23, 14.19, 14.97, 44.39
284, 1.415, 2017/11/15 10:15:21.034上午, 875.0, 15.23, 13.68, 15.74, 44.65
285, 1.42, 2017/11/15 10:15:21.039上午, 870.0, 14.71, 14.45, 16.00, 45.16
286, 1.425, 2017/11/15 10:15:21.044上午, 876.0, 15.23, 13.94, 15.48, 44.65
287, 1.43, 2017/11/15 10:15:21.049上午, 882.0, 14.97, 13.42, 16.00, 44.39
288, 1.435, 2017/11/15 10:15:21.054上午, 893.0, 15.23, 14.19, 15.48, 44.90
289, 1.44, 2017/11/15 10:15:21.059上午, 879.0, 14.97, 15.23, 15.48, 45.68
290, 1.445, 2017/11/15 10:15:21.064上午, 891.0, 14.97, 14.45, 16.26, 45.68
291, 1.45, 2017/11/15 10:15:21.069上午, 884.0, 15.23, 13.94, 16.26, 45.42
292, 1.455, 2017/11/15 10:15:21.074上午, 876.0, 14.45, 14.71, 15.48, 44.65
293, 1.46, 2017/11/15 10:15:21.079上午, 867.0, 14.97, 14.97, 15.23, 45.16
294, 1.465, 2017/11/15 10:15:21.084上午, 877.0, 14.45, 14.45, 16.52, 45.42
295, 1.47, 2017/11/15 10:15:21.089上午, 875.0, 14.45, 14.19, 15.23, 43.87
296, 1.475, 2017/11/15 10:15:21.094上午, 877.0, 15.23, 14.19, 15.23, 44.65
297, 1.48, 2017/11/15 10:15:21.099上午, 877.0, 14.97, 14.97, 15.48, 45.42
298, 1.485, 2017/11/15 10:15:21.104上午, 868.0, 14.97, 13.94, 16.00, 44.90
299, 1.49, 2017/11/15 10:15:21.109上午, 867.0, 15.23, 14.97, 15.48, 45.68
300, 1.495, 2017/11/15 10:15:21.114上午, 869.0, 14.97, 14.45, 15.74, 45.16
301, 1.5, 2017/11/15 10:15:21.119上午, 880.0, 15.23, 13.94, 16.26, 45.42
302, 1.505, 2017/11/15 10:15:21.124上午, 893.0, 15.23, 14.45, 16.00, 45.68
303, 1.51, 2017/11/15 10:15:21.129上午, 884.0, 15.23, 13.94, 15.48, 44.65
304, 1.515, 2017/11/15 10:15:21.134上午, 878.0, 14.97, 14.97, 16.00, 45.94
305, 1.52, 2017/11/15 10:15:21.139上午, 864.0, 14.97, 14.71, 15.48, 45.16
306, 1.525, 2017/11/15 10:15:21.144上午, 851.0, 14.19, 14.45, 15.48, 44.13
307, 1.53, 2017/11/15 10:15:21.149上午, 874.0, 14.97, 14.45, 15.74, 45.16
308, 1.535, 2017/11/15 10:15:21.154上午, 877.0, 14.97, 14.45, 15.23, 44.65
309, 1.54, 2017/11/15 10:15:21.159上午, 864.0, 14.97, 14.45, 15.23, 44.65
310, 1.545, 2017/11/15 10:15:21.164上午, 859.0, 14.71, 14.19, 15.48, 44.39
311, 1.55, 2017/11/15 10:15:21.169上午, 860.0, 14.19, 14.19, 15.74, 44.13
312, 1.555, 2017/11/15 10:15:21.174上午, 869.0, 14.97, 14.19, 15.48, 44.65
313, 1.56, 2017/11/15 10:15:21.179上午, 846.0, 14.19, 13.16, 15.23, 42.58
314, 1.565, 2017/11/15 10:15:21.184上午, 870.0, 14.45, 14.71, 16.00, 45.16
315, 1.57, 2017/11/15 10:15:21.189上午, 864.0, 14.97, 14.97, 16.00, 45.94
316, 1.575, 2017/11/15 10:15:21.194上午, 879.0, 14.97, 14.97, 16.00, 45.94
317, 1.58, 2017/11/15 10:15:21.199上午, 863.0, 14.45, 14.97, 15.48, 44.90
318, 1.585, 2017/11/15 10:15:21.204上午, 872.0, 14.97, 14.19, 16.52, 45.68
319, 1.59, 2017/11/15 10:15:21.209上午, 849.0, 14.71, 13.68, 15.23, 43.61
320, 1.595, 2017/11/15 10:15:21.214上午, 870.0, 15.23, 14.19, 15.74, 45.16
321, 1.6, 2017/11/15 10:15:21.219上午, 875.0, 14.45, 14.19, 15.48, 44.13
322, 1.605, 2017/11/15 10:15:21.224上午, 864.0, 14.45, 13.94, 16.00, 44.39
323, 1.61, 2017/11/15 10:15:21.229上午, 862.0, 14.97, 14.45, 15.48, 44.90
324, 1.615, 2017/11/15 10:15:21.234上午, 872.0, 14.97, 14.19, 16.26, 45.42
325, 1.62, 2017/11/15 10:15:21.239上午, 841.0, 13.94, 13.68, 15.48, 43.10
326, 1.625, 2017/11/15 10:15:21.244上午, 858.0, 14.97, 13.94, 15.48, 44.39
327, 1.63, 2017/11/15 10:15:21.249上午, 865.0, 14.45, 15.23, 15.23, 44.90
328, 1.635, 2017/11/15 10:15:21.254上午, 860.0, 14.45, 14.71, 15.74, 44.90
329, 1.64, 2017/11/15 10:15:21.259上午, 862.0, 14.97, 14.97, 14.71, 44.65
330, 1.645, 2017/11/15 10:15:21.264上午, 865.0, 14.19, 14.45, 15.48, 44.13
331, 1.65, 2017/11/15 10:15:21.269上午, 863.0, 14.19, 13.42, 16.00, 43.61
332, 1.655, 2017/11/15 10:15:21.274上午, 866.0, 15.23, 14.97, 15.74, 45.94
333, 1.66, 2017/11/15 10:15:21.279上午, 849.0, 14.71, 13.68, 15.48, 43.87
334, 1.665, 2017/11/15 10:15:21.284上午, 856.0, 14.97, 13.68, 15.23, 43.87
335, 1.67, 2017/11/15 10:15:21.289上午, 875.0, 14.71, 14.45, 15.23, 44.39
336, 1.675, 2017/11/15 10:15:21.294上午, 865.0, 14.71, 14.71, 16.52, 45.94
337, 1.68, 2017/11/15 10:15:21.299上午, 855.0, 14.71, 14.71, 15.23, 44.65
338, 1.685, 2017/11/15 10:15:21.304上午, 871.0, 14.71, 14.45, 16.26, 45.42
339, 1.69, 2017/11/15 10:15:21.309上午, 874.0, 14.71, 14.19, 15.74, 44.65
340, 1.695, 2017/11/15 10:15:21.314上午, 854.0, 13.94, 13.42, 15.48, 42.84
341, 1.7, 2017/11/15 10:15:21.319上午, 857.0, 14.45, 14.19, 15.74, 44.39
342, 1.705, 2017/11/15 10:15:21.324上午, 865.0, 14.45, 14.97, 15.48, 44.90
343, 1.71, 2017/11/15 10:15:21.329上午, 861.0, 14.45, 14.71, 15.74, 44.90
344, 1.715, 2017/11/15 10:15:21.334上午, 839.0, 14.71, 12.90, 15.48, 43.10
345, 1.72, 2017/11/15 10:15:21.339上午, 864.0, 14.97, 14.45, 15.23, 44.65
346, 1.725, 2017/11/15 10:15:21.344上午, 842.0, 14.45, 13.94, 14.45, 42.84
347, 1.73, 2017/11/15 10:15:21.349上午, 848.0, 14.45, 14.45, 15.23, 44.13
348, 1.735, 2017/11/15 10:15:21.354上午, 857.0, 14.19, 14.71, 15.23, 44.13
349, 1.74, 2017/11/15 10:15:21.359上午, 864.0, 14.71, 14.71, 15.23, 44.65
350, 1.745, 2017/11/15 10:15:21.364上午, 861.0, 14.71, 13.68, 15.74, 44.13
351, 1.75, 2017/11/15 10:15:21.369上午, 852.0, 14.97, 13.94, 14.71, 43.61
352, 1.755, 2017/11/15 10:15:21.374上午, 846.0, 13.68, 14.19, 15.48, 43.35
353, 1.76, 2017/11/15 10:15:21.379上午, 858.0, 14.19, 14.97, 15.48, 44.65
354, 1.765, 2017/11/15 10:15:21.384上午, 840.0, 14.19, 13.68, 15.74, 43.61
355, 1.77, 2017/11/15 10:15:21.389上午, 849.0, 14.19, 13.68, 15.48, 43.35
356, 1.775, 2017/11/15 10:15:21.394上午, 853.0, 14.19, 13.94, 15.23, 43.35
357, 1.78, 2017/11/15 10:15:21.399上午, 854.0, 14.45, 13.94, 14.97, 43.35
358, 1.785, 2017/11/15 10:15:21.404上午, 870.0, 14.97, 14.45, 15.48, 44.90
359, 1.79, 2017/11/15 10:15:21.409上午, 842.0, 14.71, 13.68, 15.23, 43.61
360, 1.795, 2017/11/15 10:15:21.414上午, 842.0, 14.19, 13.68, 15.48, 43.35
361, 1.8, 2017/11/15 10:15:21.419上午, 862.0, 14.19, 14.97, 15.48, 44.65
362, 1.805, 2017/11/15 10:15:21.424上午, 843.0, 14.71, 13.94, 14.71, 43.35
363, 1.81, 2017/11/15 10:15:21.429上午, 851.0, 14.71, 13.68, 14.97, 43.35
364, 1.815, 2017/11/15 10:15:21.434上午, 872.0, 14.45, 13.68, 15.48, 43.61
365, 1.82, 2017/11/15 10:15:21.439上午, 855.0, 14.97, 14.19, 15.48, 44.65
366, 1.825, 2017/11/15 10:15:21.444上午, 871.0, 14.97, 14.71, 15.23, 44.90
367, 1.83, 2017/11/15 10:15:21.449上午, 849.0, 14.97, 13.94, 14.71, 43.61
368, 1.835, 2017/11/15 10:15:21.454上午, 865.0, 14.97, 13.94, 15.48, 44.39
369, 1.84, 2017/11/15 10:15:21.459上午, 875.0, 14.71, 14.71, 16.00, 45.42
370, 1.845, 2017/11/15 10:15:21.464上午, 855.0, 14.71, 13.68, 15.48, 43.87
371, 1.85, 2017/11/15 10:15:21.469上午, 860.0, 14.71, 13.68, 15.23, 43.61
372, 1.855, 2017/11/15 10:15:21.474上午, 854.0, 14.97, 13.94, 14.71, 43.61
373, 1.86, 2017/11/15 10:15:21.479上午, 870.0, 14.45, 14.97, 15.48, 44.90
374, 1.865, 2017/11/15 10:15:21.484上午, 868.0, 14.19, 14.71, 16.00, 44.90
375, 1.87, 2017/11/15 10:15:21.489上午, 857.0, 14.45, 14.19, 14.97, 43.61
376, 1.875, 2017/11/15 10:15:21.494上午, 854.0, 14.45, 13.68, 14.97, 43.10
377, 1.88, 2017/11/15 10:15:21.499上午, 860.0, 14.71, 14.19, 15.48, 44.39
378, 1.885, 2017/11/15 10:15:21.504上午, 866.0, 14.97, 14.45, 15.23, 44.65
379, 1.89, 2017/11/15 10:15:21.509上午, 859.0, 14.97, 13.42, 16.00, 44.39
380, 1.895, 2017/11/15 10:15:21.514上午, 850.0, 14.71, 13.94, 15.23, 43.87
381, 1.9, 2017/11/15 10:15:21.519上午, 854.0, 14.71, 13.68, 15.23, 43.61
382, 1.905, 2017/11/15 10:15:21.524上午, 862.0, 14.19, 14.19, 16.00, 44.39
383, 1.91, 2017/11/15 10:15:21.529上午, 860.0, 14.71, 13.94, 15.23, 43.87
384, 1.915, 2017/11/15 10:15:21.534上午, 843.0, 14.71, 12.90, 15.48, 43.10
385, 1.92, 2017/11/15 10:15:21.539上午, 858.0, 14.97, 13.68, 15.48, 44.13
386, 1.925, 2017/11/15 10:15:21.544上午, 856.0, 15.23, 13.94, 14.71, 43.87
387, 1.93, 2017/11/15 10:15:21.549上午, 856.0, 14.71, 13.94, 15.74, 44.39
388, 1.935, 2017/11/15 10:15:21.554上午, 858.0, 14.71, 14.45, 14.97, 44.13
389, 1.94, 2017/11/15 10:15:21.559上午, 840.0, 14.71, 13.16, 14.71, 42.58
390, 1.945, 2017/11/15 10:15:21.564上午, 868.0, 14.97, 14.19, 15.23, 44.39
391, 1.95, 2017/11/15 10:15:21.569上午, 849.0, 15.23, 13.68, 14.45, 43.35
392, 1.955, 2017/11/15 10:15:21.574上午, 856.0, 15.23, 13.68, 14.71, 43.61
393, 1.96, 2017/11/15 10:15:21.579上午, 856.0, 14.71, 13.68, 14.97, 43.35
394, 1.965, 2017/11/15 10:15:21.584上午, 858.0, 15.23, 14.71, 14.71, 44.65
395, 1.97, 2017/11/15 10:15:21.589上午, 861.0, 15.23, 13.68, 15.23, 44.13
396, 1.975, 2017/11/15 10:15:21.594上午, 850.0, 14.97, 13.16, 15.74, 43.87
397, 1.98, 2017/11/15 10:15:21.599上午, 858.0, 15.23, 14.19, 14.45, 43.87
398, 1.985, 2017/11/15 10:15:21.604上午, 862.0, 15.23, 13.42, 15.23, 43.87
399, 1.99, 2017/11/15 10:15:21.609上午, 874.0, 15.23, 13.68, 15.48, 44.39
400, 1.995, 2017/11/15 10:15:21.614上午, 846.0, 14.97, 13.42, 15.23, 43.61
401, 2, 2017/11/15 10:15:21.619上午, 852.0, 14.71, 13.94, 14.71, 43.35
402, 2.005, 2017/11/15 10:15:21.624上午, 874.0, 15.23, 14.71, 15.23, 45.16
403, 2.01, 2017/11/15 10:15:21.629上午, 859.0, 14.97, 13.68, 15.23, 43.87
404, 2.015, 2017/11/15 10:15:21.634上午, 874.0, 14.97, 13.94, 15.48, 44.39
405, 2.02, 2017/11/15 10:15:21.639上午, 856.0, 15.23, 14.19, 14.71, 44.13
406, 2.025, 2017/11/15 10:15:21.644上午, 862.0, 15.23, 13.94, 15.23, 44.39
407, 2.03, 2017/11/15 10:15:21.649上午, 857.0, 14.71, 13.16, 15.74, 43.61
408, 2.035, 2017/11/15 10:15:21.654上午, 853.0, 14.71, 13.94, 15.48, 44.13
409, 2.04, 2017/11/15 10:15:21.659上午, 869.0, 15.23, 13.68, 16.00, 44.90
410, 2.045, 2017/11/15 10:15:21.664上午, 866.0, 15.23, 14.19, 14.97, 44.39
411, 2.05, 2017/11/15 10:15:21.669上午, 861.0, 15.23, 13.16, 15.23, 43.61
412, 2.055, 2017/11/15 10:15:21.674上午, 871.0, 14.97, 14.19, 16.00, 45.16
413, 2.06, 2017/11/15 10:15:21.679上午, 866.0, 15.23, 13.68, 16.26, 45.16
414, 2.065, 2017/11/15 10:15:21.684上午, 862.0, 15.23, 13.94, 15.23, 44.39
415, 2.07, 2017/11/15 10:15:21.689上午, 866.0, 15.23, 13.16, 15.48, 43.87
416, 2.075, 2017/11/15 10:15:21.694上午, 859.0, 15.23, 13.94, 15.23, 44.39
417, 2.08, 2017/11/15 10:15:21.699上午, 863.0, 15.23, 13.42, 15.23, 43.87
418, 2.085, 2017/11/15 10:15:21.704上午, 853.0, 15.23, 13.42, 14.97, 43.61
419, 2.09, 2017/11/15 10:15:21.709上午, 868.0, 15.23, 13.94, 15.23, 44.39
420, 2.095, 2017/11/15 10:15:21.714上午, 852.0, 14.97, 13.16, 14.97, 43.10
421, 2.1, 2017/11/15 10:15:21.719上午, 864.0, 14.97, 14.19, 15.48, 44.65
422, 2.105, 2017/11/15 10:15:21.724上午, 860.0, 14.97, 14.45, 15.23, 44.65
423, 2.11, 2017/11/15 10:15:21.729上午, 847.0, 15.23, 13.68, 14.71, 43.61
424, 2.115, 2017/11/15 10:15:21.734上午, 870.0, 15.23, 14.19, 15.23, 44.65
425, 2.12, 2017/11/15 10:15:21.739上午, 851.0, 15.23, 13.68, 14.97, 43.87
426, 2.125, 2017/11/15 10:15:21.744上午, 875.0, 15.23, 14.19, 15.23, 44.65
427, 2.13, 2017/11/15 10:15:21.749上午, 862.0, 14.97, 13.68, 15.48, 44.13
428, 2.135, 2017/11/15 10:15:21.754上午, 875.0, 14.97, 14.71, 15.23, 44.90
429, 2.14, 2017/11/15 10:15:21.759上午, 862.0, 14.97, 13.94, 15.48, 44.39
430, 2.145, 2017/11/15 10:15:21.764上午, 870.0, 15.23, 13.68, 16.26, 45.16
431, 2.15, 2017/11/15 10:15:21.769上午, 858.0, 15.23, 13.68, 14.97, 43.87
432, 2.155, 2017/11/15 10:15:21.774上午, 857.0, 15.48, 13.94, 14.71, 44.13
433, 2.16, 2017/11/15 10:15:21.779上午, 861.0, 15.23, 13.42, 15.48, 44.13
434, 2.165, 2017/11/15 10:15:21.784上午, 846.0, 15.23, 13.68, 14.97, 43.87
435, 2.17, 2017/11/15 10:15:21.789上午, 866.0, 15.23, 13.68, 16.00, 44.90
436, 2.175, 2017/11/15 10:15:21.794上午, 849.0, 14.97, 13.94, 14.97, 43.87
437, 2.18, 2017/11/15 10:15:21.799上午, 867.0, 15.23, 14.71, 14.97, 44.90
438, 2.185, 2017/11/15 10:15:21.804上午, 853.0, 14.45, 13.94, 16.00, 44.39
439, 2.19, 2017/11/15 10:15:21.809上午, 852.0, 15.23, 13.68, 14.71, 43.61
440, 2.195, 2017/11/15 10:15:21.814上午, 863.0, 14.97, 14.19, 15.23, 44.39
441, 2.2, 2017/11/15 10:15:21.819上午, 854.0, 15.23, 13.42, 14.97, 43.61
442, 2.205, 2017/11/15 10:15:21.824上午, 862.0, 15.48, 13.94, 14.45, 43.87
443, 2.21, 2017/11/15 10:15:21.829上午, 859.0, 15.23, 13.94, 14.45, 43.61
444, 2.215, 2017/11/15 10:15:21.834上午, 853.0, 14.97, 13.42, 14.97, 43.35
445, 2.22, 2017/11/15 10:15:21.839上午, 873.0, 15.23, 14.19, 16.00, 45.42
446, 2.225, 2017/11/15 10:15:21.844上午, 881.0, 15.23, 14.71, 15.48, 45.42
447, 2.23, 2017/11/15 10:15:21.849上午, 852.0, 14.71, 13.42, 15.23, 43.35
448, 2.235, 2017/11/15 10:15:21.854上午, 855.0, 14.97, 13.68, 15.48, 44.13
449, 2.24, 2017/11/15 10:15:21.859上午, 850.0, 14.97, 13.68, 14.45, 43.10
450, 2.245, 2017/11/15 10:15:21.864上午, 856.0, 14.97, 13.94, 14.97, 43.87
451, 2.25, 2017/11/15 10:15:21.869上午, 859.0, 14.71, 13.68, 14.97, 43.35
452, 2.255, 2017/11/15 10:15:21.874上午, 868.0, 14.97, 14.71, 14.97, 44.65
453, 2.26, 2017/11/15 10:15:21.879上午, 866.0, 15.23, 13.68, 15.48, 44.39
454, 2.265, 2017/11/15 10:15:21.884上午, 862.0, 15.23, 13.94, 14.97, 44.13
455, 2.27, 2017/11/15 10:15:21.889上午, 861.0, 14.97, 13.42, 15.48, 43.87
456, 2.275, 2017/11/15 10:15:21.894上午, 842.0, 14.97, 13.16, 14.71, 42.84
457, 2.28, 2017/11/15 10:15:21.899上午, 859.0, 15.23, 13.42, 15.23, 43.87
458, 2.285, 2017/11/15 10:15:21.904上午, 853.0, 14.97, 13.94, 15.23, 44.13
459, 2.29, 2017/11/15 10:15:21.909上午, 857.0, 14.97, 13.68, 15.48, 44.13
460, 2.295, 2017/11/15 10:15:21.914上午, 850.0, 14.71, 13.42, 15.23, 43.35
461, 2.3, 2017/11/15 10:15:21.919上午, 854.0, 15.23, 13.68, 15.23, 44.13
462, 2.305, 2017/11/15 10:15:21.924上午, 862.0, 14.97, 13.68, 16.00, 44.65
463, 2.31, 2017/11/15 10:15:21.929上午, 848.0, 14.97, 12.90, 15.48, 43.35
464, 2.315, 2017/11/15 10:15:21.934上午, 863.0, 14.97, 14.19, 14.97, 44.13
465, 2.32, 2017/11/15 10:15:21.939上午, 867.0, 14.97, 13.68, 15.23, 43.87
466, 2.325, 2017/11/15 10:15:21.944上午, 858.0, 14.97, 12.90, 14.97, 42.84
467, 2.33, 2017/11/15 10:15:21.949上午, 854.0, 14.97, 13.94, 15.23, 44.13
468, 2.335, 2017/11/15 10:15:21.954上午, 863.0, 14.71, 14.45, 15.23, 44.39
469, 2.34, 2017/11/15 10:15:21.959上午, 853.0, 14.71, 14.19, 14.71, 43.61
470, 2.345, 2017/11/15 10:15:21.964上午, 871.0, 15.23, 13.68, 16.26, 45.16
471, 2.35, 2017/11/15 10:15:21.969上午, 870.0, 15.23, 13.42, 15.23, 43.87
472, 2.355, 2017/11/15 10:15:21.974上午, 879.0, 14.97, 14.19, 15.23, 44.39
473, 2.36, 2017/11/15 10:15:21.979上午, 859.0, 14.97, 13.68, 15.48, 44.13
474, 2.365, 2017/11/15 10:15:21.984上午, 861.0, 14.71, 14.45, 15.23, 44.39
475, 2.37, 2017/11/15 10:15:21.989上午, 848.0, 14.71, 13.42, 14.97, 43.10
476, 2.375, 2017/11/15 10:15:21.994上午, 867.0, 14.71, 14.71, 15.23, 44.65
477, 2.38, 2017/11/15 10:15:21.999上午, 861.0, 14.97, 13.94, 15.74, 44.65
478, 2.385, 2017/11/15 10:15:22.004上午, 859.0, 15.23, 13.16, 15.48, 43.87
479, 2.39, 2017/11/15 10:15:22.009上午, 860.0, 15.23, 13.68, 15.23, 44.13
480, 2.395, 2017/11/15 10:15:22.014上午, 861.0, 15.23, 13.68, 14.45, 43.35
481, 2.4, 2017/11/15 10:15:22.019上午, 869.0, 15.23, 13.42, 14.97, 43.61
482, 2.405, 2017/11/15 10:15:22.024上午, 866.0, 15.23, 13.94, 15.48, 44.65
483, 2.41, 2017/11/15 10:15:22.029上午, 856.0, 14.71, 14.45, 14.97, 44.13
484, 2.415, 2017/11/15 10:15:22.034上午, 848.0, 14.71, 13.42, 14.97, 43.10
485, 2.42, 2017/11/15 10:15:22.039上午, 862.0, 15.23, 14.19, 14.97, 44.39
486, 2.425, 2017/11/15 10:15:22.044上午, 866.0, 14.97, 14.45, 15.23, 44.65
487, 2.43, 2017/11/15 10:15:22.049上午, 860.0, 15.23, 13.68, 14.97, 43.87
488, 2.435, 2017/11/15 10:15:22.054上午, 884.0, 15.23, 14.19, 15.23, 44.65
489, 2.44, 2017/11/15 10:15:22.059上午, 875.0, 15.23, 14.45, 15.48, 45.16
490, 2.445, 2017/11/15 10:15:22.064上午, 862.0, 14.97, 14.45, 14.71, 44.13
491, 2.45, 2017/11/15 10:15:22.069上午, 876.0, 14.97, 14.45, 15.48, 44.90
492, 2.455, 2017/11/15 10:15:22.074上午, 862.0, 15.23, 13.94, 15.23, 44.39
493, 2.46, 2017/11/15 10:15:22.079上午, 855.0, 15.23, 13.68, 14.45, 43.35
494, 2.465, 2017/11/15 10:15:22.084上午, 860.0, 14.71, 13.94, 15.74, 44.39
495, 2.47, 2017/11/15 10:15:22.089上午, 865.0, 14.97, 13.68, 16.00, 44.65
496, 2.475, 2017/11/15 10:15:22.094上午, 855.0, 14.71, 13.68, 14.97, 43.35
497, 2.48, 2017/11/15 10:15:22.099上午, 856.0, 14.97, 14.45, 14.45, 43.87
498, 2.485, 2017/11/15 10:15:22.104上午, 870.0, 15.23, 13.68, 15.48, 44.39
499, 2.49, 2017/11/15 10:15:22.109上午, 865.0, 14.97, 13.68, 15.48, 44.13
500, 2.495, 2017/11/15 10:15:22.114上午, 859.0, 15.23, 13.16, 15.48, 43.87
501, 2.5, 2017/11/15 10:15:22.119上午, 862.0, 15.23, 13.68, 15.23, 44.13
502, 2.505, 2017/11/15 10:15:22.124上午, 872.0, 15.23, 13.94, 15.23, 44.39
503, 2.51, 2017/11/15 10:15:22.129上午, 870.0, 15.23, 13.94, 14.97, 44.13
504, 2.515, 2017/11/15 10:15:22.134上午, 867.0, 14.97, 13.68, 14.97, 43.61
505, 2.52, 2017/11/15 10:15:22.139上午, 885.0, 15.23, 14.45, 15.23, 44.90
506, 2.525, 2017/11/15 10:15:22.144上午, 883.0, 15.23, 13.94, 15.74, 44.90
507, 2.53, 2017/11/15 10:15:22.149上午, 859.0, 14.71, 13.94, 14.71, 43.35
508, 2.535, 2017/11/15 10:15:22.154上午, 876.0, 15.23, 14.45, 15.48, 45.16
509, 2.54, 2017/11/15 10:15:22.159上午, 873.0, 15.48, 14.45, 14.71, 44.65
510, 2.545, 2017/11/15 10:15:22.164上午, 880.0, 15.23, 14.71, 15.23, 45.16
511, 2.55, 2017/11/15 10:15:22.169上午, 866.0, 15.23, 13.68, 14.97, 43.87
512, 2.555, 2017/11/15 10:15:22.174上午, 862.0, 15.23, 13.94, 14.71, 43.87
513, 2.56, 2017/11/15 10:15:22.179上午, 847.0, 14.97, 13.68, 14.45, 43.10
514, 2.565, 2017/11/15 10:15:22.184上午, 854.0, 14.97, 13.94, 14.71, 43.61
515, 2.57, 2017/11/15 10:15:22.189上午, 879.0, 15.23, 14.97, 15.23, 45.42
516, 2.575, 2017/11/15 10:15:22.194上午, 875.0, 15.23, 14.45, 15.23, 44.90
517, 2.58, 2017/11/15 10:15:22.199上午, 856.0, 15.23, 13.16, 14.97, 43.35
518, 2.585, 2017/11/15 10:15:22.204上午, 864.0, 15.48, 14.19, 14.45, 44.13
519, 2.59, 2017/11/15 10:15:22.209上午, 863.0, 15.23, 13.94, 14.97, 44.13
520, 2.595, 2017/11/15 10:15:22.214上午, 866.0, 14.97, 14.71, 14.97, 44.65
521, 2.6, 2017/11/15 10:15:22.219上午, 858.0, 14.97, 14.45, 14.97, 44.39
522, 2.605, 2017/11/15 10:15:22.224上午, 848.0, 15.23, 13.16, 14.71, 43.10
523, 2.61, 2017/11/15 10:15:22.229上午, 871.0, 15.23, 14.97, 14.71, 44.90
524, 2.615, 2017/11/15 10:15:22.234上午, 870.0, 15.23, 13.94, 15.48, 44.65
525, 2.62, 2017/11/15 10:15:22.239上午, 855.0, 15.23, 12.90, 14.97, 43.10
526, 2.625, 2017/11/15 10:15:22.244上午, 857.0, 15.23, 13.68, 14.71, 43.61
527, 2.63, 2017/11/15 10:15:22.249上午, 881.0, 15.23, 14.71, 14.71, 44.65
528, 2.635, 2017/11/15 10:15:22.254上午, 889.0, 15.23, 14.97, 15.48, 45.68
529, 2.64, 2017/11/15 10:15:22.259上午, 876.0, 15.48, 13.94, 15.74, 45.16
530, 2.645, 2017/11/15 10:15:22.264上午, 881.0, 15.23, 14.97, 14.71, 44.90
531, 2.65, 2017/11/15 10:15:22.269上午, 878.0, 14.97, 14.97, 15.23, 45.16
532, 2.655, 2017/11/15 10:15:22.274上午, 873.0, 15.23, 14.19, 15.23, 44.65
533, 2.66, 2017/11/15 10:15:22.279上午, 867.0, 15.23, 13.94, 14.45, 43.61
534, 2.665, 2017/11/15 10:15:22.284上午, 872.0, 15.23, 13.68, 15.74, 44.65
535, 2.67, 2017/11/15 10:15:22.289上午, 848.0, 15.23, 13.94, 14.97, 44.13
536, 2.675, 2017/11/15 10:15:22.294上午, 858.0, 15.74, 13.16, 14.97, 43.87
537, 2.68, 2017/11/15 10:15:22.299上午, 882.0, 16.00, 14.19, 14.71, 44.90
538, 2.685, 2017/11/15 10:15:22.304上午, 891.0, 15.48, 14.71, 15.23, 45.42
539, 2.69, 2017/11/15 10:15:22.309上午, 881.0, 15.23, 14.71, 15.74, 45.68
540, 2.695, 2017/11/15 10:15:22.314上午, 874.0, 15.23, 14.19, 15.23, 44.65
541, 2.7, 2017/11/15 10:15:22.319上午, 882.0, 15.48, 14.71, 14.45, 44.65
542, 2.705, 2017/11/15 10:15:22.324上午, 876.0, 15.48, 14.19, 14.97, 44.65
543, 2.71, 2017/11/15 10:15:22.329上午, 869.0, 15.48, 13.94, 14.45, 43.87
544, 2.715, 2017/11/15 10:15:22.334上午, 868.0, 15.23, 13.94, 14.45, 43.61
545, 2.72, 2017/11/15 10:15:22.339上午, 862.0, 14.97, 13.42, 15.23, 43.61
546, 2.725, 2017/11/15 10:15:22.344上午, 887.0, 15.48, 13.94, 14.97, 44.39
547, 2.73, 2017/11/15 10:15:22.349上午, 888.0, 16.00, 14.71, 14.97, 45.68
548, 2.735, 2017/11/15 10:15:22.354上午, 872.0, 15.74, 13.94, 14.97, 44.65
549, 2.74, 2017/11/15 10:15:22.359上午, 882.0, 15.48, 15.23, 14.71, 45.42
550, 2.745, 2017/11/15 10:15:22.364上午, 873.0, 15.48, 14.19, 14.45, 44.13
551, 2.75, 2017/11/15 10:15:22.369上午, 887.0, 15.74, 14.71, 14.45, 44.90
552, 2.755, 2017/11/15 10:15:22.374上午, 871.0, 15.48, 13.68, 14.71, 43.87
553, 2.76, 2017/11/15 10:15:22.379上午, 869.0, 15.48, 13.16, 14.97, 43.61
554, 2.765, 2017/11/15 10:15:22.384上午, 873.0, 15.23, 14.19, 14.71, 44.13
555, 2.77, 2017/11/15 10:15:22.389上午, 879.0, 15.48, 14.45, 14.71, 44.65
556, 2.775, 2017/11/15 10:15:22.394上午, 882.0, 15.48, 14.45, 15.23, 45.16
557, 2.78, 2017/11/15 10:15:22.399上午, 875.0, 15.48, 14.71, 14.45, 44.65
558, 2.785, 2017/11/15 10:15:22.404上午, 877.0, 15.48, 13.94, 14.45, 43.87
559, 2.79, 2017/11/15 10:15:22.409上午, 881.0, 15.48, 14.45, 15.23, 45.16
560, 2.795, 2017/11/15 10:15:22.414上午, 883.0, 16.00, 13.94, 14.71, 44.65
561, 2.8, 2017/11/15 10:15:22.419上午, 889.0, 15.48, 14.19, 14.71, 44.39
562, 2.805, 2017/11/15 10:15:22.424上午, 889.0, 15.48, 14.19, 15.48, 45.16
563, 2.81, 2017/11/15 10:15:22.429上午, 887.0, 16.00, 14.71, 14.97, 45.68
564, 2.815, 2017/11/15 10:15:22.434上午, 882.0, 15.74, 14.19, 14.71, 44.65
565, 2.82, 2017/11/15 10:15:22.439上午, 899.0, 16.00, 13.94, 15.74, 45.68
566, 2.825, 2017/11/15 10:15:22.444上午, 881.0, 15.74, 14.71, 14.45, 44.90
567, 2.83, 2017/11/15 10:15:22.449上午, 872.0, 15.48, 14.45, 14.97, 44.90
568, 2.835, 2017/11/15 10:15:22.454上午, 872.0, 15.23, 14.45, 14.97, 44.65
569, 2.84, 2017/11/15 10:15:22.459上午, 878.0, 15.48, 14.19, 15.48, 45.16
570, 2.845, 2017/11/15 10:15:22.464上午, 883.0, 15.74, 14.45, 14.71, 44.90
571, 2.85, 2017/11/15 10:15:22.469上午, 871.0, 15.74, 12.65, 14.97, 43.35
572, 2.855, 2017/11/15 10:15:22.474上午, 880.0, 15.74, 14.19, 14.45, 44.39
573, 2.86, 2017/11/15 10:15:22.479上午, 893.0, 16.00, 14.71, 14.97, 45.68
574, 2.865, 2017/11/15 10:15:22.484上午, 882.0, 14.97, 14.97, 14.97, 44.90
575, 2.87, 2017/11/15 10:15:22.489上午, 899.0, 16.00, 14.45, 15.74, 46.19
576, 2.875, 2017/11/15 10:15:22.494上午, 885.0, 15.74, 14.45, 14.97, 45.16
577, 2.88, 2017/11/15 10:15:22.499上午, 900.0, 15.74, 14.97, 14.71, 45.42
578, 2.885, 2017/11/15 10:15:22.504上午, 903.0, 15.74, 14.97, 15.23, 45.94
579, 2.89, 2017/11/15 10:15:22.509上午, 895.0, 15.74, 14.45, 15.23, 45.42
580, 2.895, 2017/11/15 10:15:22.514上午, 879.0, 15.48, 13.42, 14.97, 43.87
581, 2.9, 2017/11/15 10:15:22.519上午, 885.0, 15.48, 14.45, 14.71, 44.65
582, 2.905, 2017/11/15 10:15:22.524上午, 889.0, 15.23, 14.45, 14.71, 44.39
583, 2.91, 2017/11/15 10:15:22.529上午, 891.0, 15.48, 15.23, 14.71, 45.42
584, 2.915, 2017/11/15 10:15:22.534上午, 887.0, 15.74, 14.71, 14.71, 45.16
585, 2.92, 2017/11/15 10:15:22.539上午, 904.0, 16.26, 15.23, 15.23, 46.71
586, 2.925, 2017/11/15 10:15:22.544上午, 892.0, 16.26, 14.45, 14.97, 45.68
587, 2.93, 2017/11/15 10:15:22.549上午, 882.0, 15.48, 13.94, 15.23, 44.65
588, 2.935, 2017/11/15 10:15:22.554上午, 890.0, 15.74, 14.45, 14.97, 45.16
589, 2.94, 2017/11/15 10:15:22.559上午, 895.0, 15.74, 14.19, 15.23, 45.16
590, 2.945, 2017/11/15 10:15:22.564上午, 894.0, 16.00, 14.45, 15.23, 45.68
591, 2.95, 2017/11/15 10:15:22.569上午, 894.0, 16.00, 14.45, 14.97, 45.42
592, 2.955, 2017/11/15 10:15:22.574上午, 872.0, 15.74, 13.94, 15.23, 44.90
593, 2.96, 2017/11/15 10:15:22.579上午, 881.0, 15.74, 14.19, 14.97, 44.90
594, 2.965, 2017/11/15 10:15:22.584上午, 889.0, 15.23, 14.97, 14.45, 44.65
595, 2.97, 2017/11/15 10:15:22.589上午, 881.0, 15.23, 14.19, 14.97, 44.39
596, 2.975, 2017/11/15 10:15:22.594上午, 907.0, 16.26, 14.19, 16.00, 46.45
597, 2.98, 2017/11/15 10:15:22.599上午, 878.0, 15.23, 14.45, 14.45, 44.13
598, 2.985, 2017/11/15 10:15:22.604上午, 882.0, 15.48, 14.45, 14.71, 44.65
599, 2.99, 2017/11/15 10:15:22.609上午, 892.0, 16.00, 14.19, 15.23, 45.42
600, 2.995, 2017/11/15 10:15:22.614上午, 878.0, 15.74, 13.42, 14.97, 44.13
@@
