DATA_TYPE Graph
VERSION Tekscan Pressure Measurement System 6.70-03
HARDWARE 00114-3443
MAP_VERSION 6.5
HW_TYPE 4
VersaPogoFsx 0
檔案名 C:\Users\Toby\Desktop\Data\S01\Arch\01_0930_socks_L_2.fsx
SENSOR_TYPE FSCAN
ROWS 60
COLS 21
ROW_SPACING 0.508 centimeters
COL_SPACING 0.508 centimeters
SENSEL_AREA 0.258064 cm2
NOISE_THRESHOLD 3
SECONDS_PER_FRAME 0.005
SECONDS_PER_FRAME 0
MICRO_SECOND 0
TIME 2017/9/29 06:40:51.6下午
SATURATION_PRESSURE 3322.35 KPa 
CALIBRATION_POINT_1 132.277 (Pounds) 1750 (Raw Sum) 237 (Number of Loaded Cells)
CALIBRATION_MODE_1 步態
CALIBRATION_INFO C:\Users\Toby\Desktop\Data\S01\Arch\01_0930_socks_L_2.fsx
SENSITIVITY 自定義
MAP_INDEX 1
SUBMAP 1
Patient ID: 

Speed of Gait: 

Weight: 

Gender: 

Physician: 

Technician: 

Shoe: 

START_FRAME 1
END_FRAME 1000
UNITS KPa
ASCII_DATA @@
畫面(X), 時間(X), 絕對時間(X), Raw Sum, 壓力(Y:黃色), 壓力(Y), 壓力(Y)
1, 0, 2017/9/29 06:40:51.6下午, 1081.0, 52, 0, 44
2, 0.005, 2017/9/29 06:40:51.605下午, 1066.0, 51, 0, 44
3, 0.01, 2017/9/29 06:40:51.61下午, 1104.0, 53, 0, 45
4, 0.015, 2017/9/29 06:40:51.615下午, 1086.0, 52, 0, 45
5, 0.02, 2017/9/29 06:40:51.62下午, 1071.0, 52, 0, 44
6, 0.025, 2017/9/29 06:40:51.625下午, 1060.0, 52, 0, 45
7, 0.03, 2017/9/29 06:40:51.63下午, 1063.0, 52, 0, 46
8, 0.035, 2017/9/29 06:40:51.635下午, 1090.0, 52, 0, 45
9, 0.04, 2017/9/29 06:40:51.64下午, 1054.0, 52, 0, 45
10, 0.045, 2017/9/29 06:40:51.645下午, 1063.0, 52, 0, 45
11, 0.05, 2017/9/29 06:40:51.65下午, 1048.0, 52, 0, 44
12, 0.055, 2017/9/29 06:40:51.655下午, 1059.0, 52, 0, 43
13, 0.06, 2017/9/29 06:40:51.66下午, 1077.0, 52, 0, 45
14, 0.065, 2017/9/29 06:40:51.665下午, 1080.0, 51, 0, 45
15, 0.07, 2017/9/29 06:40:51.67下午, 1034.0, 52, 0, 43
16, 0.075, 2017/9/29 06:40:51.675下午, 1065.0, 53, 0, 46
17, 0.08, 2017/9/29 06:40:51.68下午, 1078.0, 53, 0, 45
18, 0.085, 2017/9/29 06:40:51.685下午, 1070.0, 52, 0, 45
19, 0.09, 2017/9/29 06:40:51.69下午, 1062.0, 53, 0, 44
20, 0.095, 2017/9/29 06:40:51.695下午, 1074.0, 53, 0, 45
21, 0.1, 2017/9/29 06:40:51.7下午, 1084.0, 53, 0, 45
22, 0.105, 2017/9/29 06:40:51.705下午, 1036.0, 52, 0, 45
23, 0.11, 2017/9/29 06:40:51.71下午, 1084.0, 52, 0, 45
24, 0.115, 2017/9/29 06:40:51.715下午, 1092.0, 53, 0, 45
25, 0.12, 2017/9/29 06:40:51.72下午, 1065.0, 52, 0, 45
26, 0.125, 2017/9/29 06:40:51.725下午, 1086.0, 53, 0, 44
27, 0.13, 2017/9/29 06:40:51.73下午, 1096.0, 53, 0, 46
28, 0.135, 2017/9/29 06:40:51.735下午, 1071.0, 53, 0, 45
29, 0.14, 2017/9/29 06:40:51.74下午, 1068.0, 53, 0, 44
30, 0.145, 2017/9/29 06:40:51.745下午, 1089.0, 53, 0, 45
31, 0.15, 2017/9/29 06:40:51.75下午, 1052.0, 52, 0, 45
32, 0.155, 2017/9/29 06:40:51.755下午, 1084.0, 53, 0, 45
33, 0.16, 2017/9/29 06:40:51.76下午, 1038.0, 53, 0, 44
34, 0.165, 2017/9/29 06:40:51.765下午, 1068.0, 52, 0, 45
35, 0.17, 2017/9/29 06:40:51.77下午, 1078.0, 53, 0, 44
36, 0.175, 2017/9/29 06:40:51.775下午, 1077.0, 52, 0, 46
37, 0.18, 2017/9/29 06:40:51.78下午, 1089.0, 53, 0, 45
38, 0.185, 2017/9/29 06:40:51.785下午, 1065.0, 53, 0, 44
39, 0.19, 2017/9/29 06:40:51.79下午, 1077.0, 53, 0, 46
40, 0.195, 2017/9/29 06:40:51.795下午, 1074.0, 52, 0, 46
41, 0.2, 2017/9/29 06:40:51.8下午, 1062.0, 53, 0, 45
42, 0.205, 2017/9/29 06:40:51.805下午, 1027.0, 52, 0, 44
43, 0.21, 2017/9/29 06:40:51.81下午, 1100.0, 53, 0, 45
44, 0.215, 2017/9/29 06:40:51.815下午, 1097.0, 52, 0, 45
45, 0.22, 2017/9/29 06:40:51.82下午, 1041.0, 53, 0, 45
46, 0.225, 2017/9/29 06:40:51.825下午, 1077.0, 53, 0, 44
47, 0.23, 2017/9/29 06:40:51.83下午, 1085.0, 52, 0, 45
48, 0.235, 2017/9/29 06:40:51.835下午, 1073.0, 53, 0, 45
49, 0.24, 2017/9/29 06:40:51.84下午, 1043.0, 52, 0, 43
50, 0.245, 2017/9/29 06:40:51.845下午, 1061.0, 54, 0, 44
51, 0.25, 2017/9/29 06:40:51.85下午, 1054.0, 53, 0, 44
52, 0.255, 2017/9/29 06:40:51.855下午, 1044.0, 53, 0, 45
53, 0.26, 2017/9/29 06:40:51.86下午, 1093.0, 54, 0, 45
54, 0.265, 2017/9/29 06:40:51.865下午, 1072.0, 53, 0, 46
55, 0.27, 2017/9/29 06:40:51.87下午, 1044.0, 53, 0, 44
56, 0.275, 2017/9/29 06:40:51.875下午, 1077.0, 54, 0, 44
57, 0.28, 2017/9/29 06:40:51.88下午, 1084.0, 54, 0, 45
58, 0.285, 2017/9/29 06:40:51.885下午, 1090.0, 53, 0, 45
59, 0.29, 2017/9/29 06:40:51.89下午, 1092.0, 53, 0, 46
60, 0.295, 2017/9/29 06:40:51.895下午, 1080.0, 54, 0, 45
61, 0.3, 2017/9/29 06:40:51.9下午, 1069.0, 53, 0, 46
62, 0.305, 2017/9/29 06:40:51.905下午, 1048.0, 53, 0, 45
63, 0.31, 2017/9/29 06:40:51.91下午, 1080.0, 53, 0, 46
64, 0.315, 2017/9/29 06:40:51.915下午, 1064.0, 53, 0, 45
65, 0.32, 2017/9/29 06:40:51.92下午, 1061.0, 52, 0, 46
66, 0.325, 2017/9/29 06:40:51.925下午, 1080.0, 53, 0, 46
67, 0.33, 2017/9/29 06:40:51.93下午, 1084.0, 54, 0, 46
68, 0.335, 2017/9/29 06:40:51.935下午, 1058.0, 53, 0, 46
69, 0.34, 2017/9/29 06:40:51.94下午, 1065.0, 53, 0, 46
70, 0.345, 2017/9/29 06:40:51.945下午, 1080.0, 54, 0, 46
71, 0.35, 2017/9/29 06:40:51.95下午, 1065.0, 53, 0, 46
72, 0.355, 2017/9/29 06:40:51.955下午, 1075.0, 52, 0, 45
73, 0.36, 2017/9/29 06:40:51.96下午, 1052.0, 53, 0, 44
74, 0.365, 2017/9/29 06:40:51.965下午, 1059.0, 53, 0, 46
75, 0.37, 2017/9/29 06:40:51.97下午, 1064.0, 55, 0, 44
76, 0.375, 2017/9/29 06:40:51.975下午, 1085.0, 53, 0, 46
77, 0.38, 2017/9/29 06:40:51.98下午, 1110.0, 54, 0, 47
78, 0.385, 2017/9/29 06:40:51.985下午, 1056.0, 53, 0, 45
79, 0.39, 2017/9/29 06:40:51.99下午, 1105.0, 53, 0, 46
80, 0.395, 2017/9/29 06:40:51.995下午, 1109.0, 53, 0, 46
81, 0.4, 2017/9/29 06:40:52下午, 1077.0, 53, 0, 45
82, 0.405, 2017/9/29 06:40:52.005下午, 1093.0, 53, 0, 46
83, 0.41, 2017/9/29 06:40:52.01下午, 1099.0, 53, 0, 47
84, 0.415, 2017/9/29 06:40:52.015下午, 1093.0, 53, 0, 46
85, 0.42, 2017/9/29 06:40:52.02下午, 1080.0, 52, 0, 47
86, 0.425, 2017/9/29 06:40:52.025下午, 1084.0, 52, 0, 47
87, 0.43, 2017/9/29 06:40:52.03下午, 1103.0, 53, 0, 47
88, 0.435, 2017/9/29 06:40:52.035下午, 1080.0, 53, 0, 47
89, 0.44, 2017/9/29 06:40:52.04下午, 1077.0, 53, 0, 46
90, 0.445, 2017/9/29 06:40:52.045下午, 1110.0, 53, 0, 47
91, 0.45, 2017/9/29 06:40:52.05下午, 1077.0, 52, 0, 47
92, 0.455, 2017/9/29 06:40:52.055下午, 1060.0, 52, 0, 45
93, 0.46, 2017/9/29 06:40:52.06下午, 1098.0, 54, 0, 46
94, 0.465, 2017/9/29 06:40:52.065下午, 1079.0, 53, 0, 47
95, 0.47, 2017/9/29 06:40:52.07下午, 1053.0, 52, 0, 46
96, 0.475, 2017/9/29 06:40:52.075下午, 1101.0, 53, 0, 46
97, 0.48, 2017/9/29 06:40:52.08下午, 1082.0, 52, 0, 46
98, 0.485, 2017/9/29 06:40:52.085下午, 1109.0, 53, 0, 46
99, 0.49, 2017/9/29 06:40:52.09下午, 1109.0, 52, 0, 48
100, 0.495, 2017/9/29 06:40:52.095下午, 1085.0, 53, 0, 45
101, 0.5, 2017/9/29 06:40:52.1下午, 1075.0, 52, 0, 46
102, 0.505, 2017/9/29 06:40:52.105下午, 1059.0, 51, 0, 46
103, 0.51, 2017/9/29 06:40:52.11下午, 1077.0, 52, 0, 46
104, 0.515, 2017/9/29 06:40:52.115下午, 1115.0, 52, 0, 47
105, 0.52, 2017/9/29 06:40:52.12下午, 1068.0, 51, 0, 46
106, 0.525, 2017/9/29 06:40:52.125下午, 1081.0, 53, 0, 46
107, 0.53, 2017/9/29 06:40:52.13下午, 1081.0, 52, 0, 48
108, 0.535, 2017/9/29 06:40:52.135下午, 1086.0, 53, 0, 47
109, 0.54, 2017/9/29 06:40:52.14下午, 1093.0, 52, 0, 45
110, 0.545, 2017/9/29 06:40:52.145下午, 1103.0, 53, 0, 47
111, 0.55, 2017/9/29 06:40:52.15下午, 1087.0, 52, 0, 47
112, 0.555, 2017/9/29 06:40:52.155下午, 1068.0, 52, 0, 47
113, 0.56, 2017/9/29 06:40:52.16下午, 1115.0, 53, 0, 46
114, 0.565, 2017/9/29 06:40:52.165下午, 1080.0, 53, 0, 46
115, 0.57, 2017/9/29 06:40:52.17下午, 1087.0, 53, 0, 45
116, 0.575, 2017/9/29 06:40:52.175下午, 1104.0, 52, 0, 46
117, 0.58, 2017/9/29 06:40:52.18下午, 1099.0, 54, 0, 47
118, 0.585, 2017/9/29 06:40:52.185下午, 1106.0, 54, 0, 46
119, 0.59, 2017/9/29 06:40:52.19下午, 1065.0, 52, 0, 46
120, 0.595, 2017/9/29 06:40:52.195下午, 1105.0, 53, 0, 46
121, 0.6, 2017/9/29 06:40:52.2下午, 1097.0, 53, 0, 45
122, 0.605, 2017/9/29 06:40:52.205下午, 1067.0, 53, 0, 45
123, 0.61, 2017/9/29 06:40:52.21下午, 1114.0, 53, 0, 46
124, 0.615, 2017/9/29 06:40:52.215下午, 1091.0, 52, 0, 46
125, 0.62, 2017/9/29 06:40:52.22下午, 1062.0, 52, 0, 45
126, 0.625, 2017/9/29 06:40:52.225下午, 1093.0, 52, 0, 45
127, 0.63, 2017/9/29 06:40:52.23下午, 1072.0, 52, 0, 45
128, 0.635, 2017/9/29 06:40:52.235下午, 1120.0, 52, 0, 47
129, 0.64, 2017/9/29 06:40:52.24下午, 1076.0, 52, 0, 45
130, 0.645, 2017/9/29 06:40:52.245下午, 1101.0, 53, 0, 47
131, 0.65, 2017/9/29 06:40:52.25下午, 1089.0, 53, 0, 46
132, 0.655, 2017/9/29 06:40:52.255下午, 1072.0, 52, 0, 47
133, 0.66, 2017/9/29 06:40:52.26下午, 1105.0, 53, 0, 46
134, 0.665, 2017/9/29 06:40:52.265下午, 1076.0, 53, 0, 45
135, 0.67, 2017/9/29 06:40:52.27下午, 1081.0, 52, 0, 46
136, 0.675, 2017/9/29 06:40:52.275下午, 1088.0, 52, 0, 46
137, 0.68, 2017/9/29 06:40:52.28下午, 1099.0, 52, 0, 46
138, 0.685, 2017/9/29 06:40:52.285下午, 1079.0, 53, 0, 46
139, 0.69, 2017/9/29 06:40:52.29下午, 1072.0, 52, 0, 46
140, 0.695, 2017/9/29 06:40:52.295下午, 1083.0, 52, 0, 46
141, 0.7, 2017/9/29 06:40:52.3下午, 1071.0, 52, 0, 46
142, 0.705, 2017/9/29 06:40:52.305下午, 1048.0, 53, 0, 45
143, 0.71, 2017/9/29 06:40:52.31下午, 1106.0, 53, 0, 47
144, 0.715, 2017/9/29 06:40:52.315下午, 1088.0, 52, 0, 47
145, 0.72, 2017/9/29 06:40:52.32下午, 1056.0, 52, 0, 45
146, 0.725, 2017/9/29 06:40:52.325下午, 1078.0, 52, 0, 45
147, 0.73, 2017/9/29 06:40:52.33下午, 1075.0, 53, 0, 46
148, 0.735, 2017/9/29 06:40:52.335下午, 1088.0, 53, 0, 46
149, 0.74, 2017/9/29 06:40:52.34下午, 1093.0, 53, 0, 46
150, 0.745, 2017/9/29 06:40:52.345下午, 1089.0, 54, 0, 46
151, 0.75, 2017/9/29 06:40:52.35下午, 1062.0, 53, 0, 46
152, 0.755, 2017/9/29 06:40:52.355下午, 1044.0, 53, 0, 46
153, 0.76, 2017/9/29 06:40:52.36下午, 1097.0, 52, 0, 47
154, 0.765, 2017/9/29 06:40:52.365下午, 1084.0, 53, 0, 45
155, 0.77, 2017/9/29 06:40:52.37下午, 1050.0, 53, 0, 45
156, 0.775, 2017/9/29 06:40:52.375下午, 1080.0, 53, 0, 46
157, 0.78, 2017/9/29 06:40:52.38下午, 1094.0, 53, 0, 46
158, 0.785, 2017/9/29 06:40:52.385下午, 1086.0, 53, 0, 46
159, 0.79, 2017/9/29 06:40:52.39下午, 1090.0, 54, 0, 46
160, 0.795, 2017/9/29 06:40:52.395下午, 1074.0, 53, 0, 45
161, 0.8, 2017/9/29 06:40:52.4下午, 1072.0, 53, 0, 45
162, 0.805, 2017/9/29 06:40:52.405下午, 1042.0, 52, 0, 45
163, 0.81, 2017/9/29 06:40:52.41下午, 1096.0, 53, 0, 46
164, 0.815, 2017/9/29 06:40:52.415下午, 1100.0, 52, 0, 46
165, 0.82, 2017/9/29 06:40:52.42下午, 1072.0, 52, 0, 45
166, 0.825, 2017/9/29 06:40:52.425下午, 1075.0, 53, 0, 45
167, 0.83, 2017/9/29 06:40:52.43下午, 1076.0, 53, 0, 47
168, 0.835, 2017/9/29 06:40:52.435下午, 1090.0, 53, 0, 46
169, 0.84, 2017/9/29 06:40:52.44下午, 1066.0, 52, 0, 44
170, 0.845, 2017/9/29 06:40:52.445下午, 1082.0, 53, 0, 45
171, 0.85, 2017/9/29 06:40:52.45下午, 1053.0, 52, 0, 45
172, 0.855, 2017/9/29 06:40:52.455下午, 1067.0, 53, 0, 46
173, 0.86, 2017/9/29 06:40:52.46下午, 1089.0, 52, 0, 47
174, 0.865, 2017/9/29 06:40:52.465下午, 1067.0, 53, 0, 45
175, 0.87, 2017/9/29 06:40:52.47下午, 1031.0, 53, 0, 44
176, 0.875, 2017/9/29 06:40:52.475下午, 1059.0, 53, 0, 46
177, 0.88, 2017/9/29 06:40:52.48下午, 1098.0, 53, 0, 46
178, 0.885, 2017/9/29 06:40:52.485下午, 1084.0, 53, 0, 46
179, 0.89, 2017/9/29 06:40:52.49下午, 1075.0, 53, 0, 45
180, 0.895, 2017/9/29 06:40:52.495下午, 1092.0, 53, 0, 45
181, 0.9, 2017/9/29 06:40:52.5下午, 1096.0, 53, 0, 46
182, 0.905, 2017/9/29 06:40:52.505下午, 1056.0, 52, 0, 46
183, 0.91, 2017/9/29 06:40:52.51下午, 1083.0, 53, 0, 46
184, 0.915, 2017/9/29 06:40:52.515下午, 1068.0, 53, 0, 45
185, 0.92, 2017/9/29 06:40:52.52下午, 1053.0, 52, 0, 44
186, 0.925, 2017/9/29 06:40:52.525下午, 1089.0, 53, 0, 45
187, 0.93, 2017/9/29 06:40:52.53下午, 1076.0, 53, 0, 45
188, 0.935, 2017/9/29 06:40:52.535下午, 1109.0, 53, 0, 45
189, 0.94, 2017/9/29 06:40:52.54下午, 1067.0, 52, 0, 45
190, 0.945, 2017/9/29 06:40:52.545下午, 1087.0, 53, 0, 46
191, 0.95, 2017/9/29 06:40:52.55下午, 1068.0, 53, 0, 45
192, 0.955, 2017/9/29 06:40:52.555下午, 1084.0, 53, 0, 45
193, 0.96, 2017/9/29 06:40:52.56下午, 1092.0, 53, 0, 46
194, 0.965, 2017/9/29 06:40:52.565下午, 1076.0, 52, 0, 45
195, 0.97, 2017/9/29 06:40:52.57下午, 1031.0, 52, 0, 45
196, 0.975, 2017/9/29 06:40:52.575下午, 1074.0, 53, 0, 45
197, 0.98, 2017/9/29 06:40:52.58下午, 1113.0, 53, 0, 46
198, 0.985, 2017/9/29 06:40:52.585下午, 1076.0, 52, 0, 47
199, 0.99, 2017/9/29 06:40:52.59下午, 1073.0, 53, 0, 46
200, 0.995, 2017/9/29 06:40:52.595下午, 1059.0, 52, 0, 45
201, 1, 2017/9/29 06:40:52.6下午, 1074.0, 53, 0, 46
202, 1.005, 2017/9/29 06:40:52.605下午, 1061.0, 53, 0, 45
203, 1.01, 2017/9/29 06:40:52.61下午, 1107.0, 53, 0, 46
204, 1.015, 2017/9/29 06:40:52.615下午, 1059.0, 53, 0, 46
205, 1.02, 2017/9/29 06:40:52.62下午, 1043.0, 53, 0, 44
206, 1.025, 2017/9/29 06:40:52.625下午, 1070.0, 53, 0, 45
207, 1.03, 2017/9/29 06:40:52.63下午, 1075.0, 53, 0, 45
208, 1.035, 2017/9/29 06:40:52.635下午, 1086.0, 53, 0, 45
209, 1.04, 2017/9/29 06:40:52.64下午, 1079.0, 53, 0, 46
210, 1.045, 2017/9/29 06:40:52.645下午, 1077.0, 52, 0, 46
211, 1.05, 2017/9/29 06:40:52.65下午, 1060.0, 53, 0, 45
212, 1.055, 2017/9/29 06:40:52.655下午, 1058.0, 53, 0, 44
213, 1.06, 2017/9/29 06:40:52.66下午, 1068.0, 52, 0, 46
214, 1.065, 2017/9/29 06:40:52.665下午, 1073.0, 53, 0, 44
215, 1.07, 2017/9/29 06:40:52.67下午, 1056.0, 52, 0, 44
216, 1.075, 2017/9/29 06:40:52.675下午, 1085.0, 53, 0, 46
217, 1.08, 2017/9/29 06:40:52.68下午, 1097.0, 53, 0, 46
218, 1.085, 2017/9/29 06:40:52.685下午, 1060.0, 52, 0, 45
219, 1.09, 2017/9/29 06:40:52.69下午, 1084.0, 53, 0, 46
220, 1.095, 2017/9/29 06:40:52.695下午, 1079.0, 53, 0, 44
221, 1.1, 2017/9/29 06:40:52.7下午, 1072.0, 53, 0, 45
222, 1.105, 2017/9/29 06:40:52.705下午, 1064.0, 52, 0, 46
223, 1.11, 2017/9/29 06:40:52.71下午, 1069.0, 52, 0, 45
224, 1.115, 2017/9/29 06:40:52.715下午, 1072.0, 53, 0, 45
225, 1.12, 2017/9/29 06:40:52.72下午, 1057.0, 52, 0, 44
226, 1.125, 2017/9/29 06:40:52.725下午, 1067.0, 52, 0, 45
227, 1.13, 2017/9/29 06:40:52.73下午, 1069.0, 52, 0, 46
228, 1.135, 2017/9/29 06:40:52.735下午, 1065.0, 52, 0, 45
229, 1.14, 2017/9/29 06:40:52.74下午, 1076.0, 53, 0, 44
230, 1.145, 2017/9/29 06:40:52.745下午, 1081.0, 52, 0, 46
231, 1.15, 2017/9/29 06:40:52.75下午, 1073.0, 52, 0, 46
232, 1.155, 2017/9/29 06:40:52.755下午, 1051.0, 52, 0, 45
233, 1.16, 2017/9/29 06:40:52.76下午, 1062.0, 53, 0, 46
234, 1.165, 2017/9/29 06:40:52.765下午, 1077.0, 52, 0, 45
235, 1.17, 2017/9/29 06:40:52.77下午, 1066.0, 53, 0, 45
236, 1.175, 2017/9/29 06:40:52.775下午, 1096.0, 53, 0, 45
237, 1.18, 2017/9/29 06:40:52.78下午, 1083.0, 53, 0, 45
238, 1.185, 2017/9/29 06:40:52.785下午, 1058.0, 53, 0, 45
239, 1.19, 2017/9/29 06:40:52.79下午, 1049.0, 52, 0, 45
240, 1.195, 2017/9/29 06:40:52.795下午, 1079.0, 54, 0, 46
241, 1.2, 2017/9/29 06:40:52.8下午, 1070.0, 53, 0, 45
242, 1.205, 2017/9/29 06:40:52.805下午, 1061.0, 52, 0, 46
243, 1.21, 2017/9/29 06:40:52.81下午, 1068.0, 52, 0, 45
244, 1.215, 2017/9/29 06:40:52.815下午, 1073.0, 54, 0, 46
245, 1.22, 2017/9/29 06:40:52.82下午, 1051.0, 53, 0, 45
246, 1.225, 2017/9/29 06:40:52.825下午, 1077.0, 53, 0, 45
247, 1.23, 2017/9/29 06:40:52.83下午, 1096.0, 52, 0, 47
248, 1.235, 2017/9/29 06:40:52.835下午, 1067.0, 52, 0, 46
249, 1.24, 2017/9/29 06:40:52.84下午, 1057.0, 53, 0, 45
250, 1.245, 2017/9/29 06:40:52.845下午, 1075.0, 52, 0, 45
251, 1.25, 2017/9/29 06:40:52.85下午, 1058.0, 52, 0, 45
252, 1.255, 2017/9/29 06:40:52.855下午, 1079.0, 52, 0, 46
253, 1.26, 2017/9/29 06:40:52.86下午, 1072.0, 53, 0, 45
254, 1.265, 2017/9/29 06:40:52.865下午, 1062.0, 53, 0, 47
255, 1.27, 2017/9/29 06:40:52.87下午, 1060.0, 52, 0, 44
256, 1.275, 2017/9/29 06:40:52.875下午, 1081.0, 53, 0, 46
257, 1.28, 2017/9/29 06:40:52.88下午, 1089.0, 53, 0, 46
258, 1.285, 2017/9/29 06:40:52.885下午, 1078.0, 53, 0, 45
259, 1.29, 2017/9/29 06:40:52.89下午, 1090.0, 53, 0, 46
260, 1.295, 2017/9/29 06:40:52.895下午, 1085.0, 53, 0, 46
261, 1.3, 2017/9/29 06:40:52.9下午, 1063.0, 54, 0, 46
262, 1.305, 2017/9/29 06:40:52.905下午, 1068.0, 52, 0, 46
263, 1.31, 2017/9/29 06:40:52.91下午, 1083.0, 53, 0, 46
264, 1.315, 2017/9/29 06:40:52.915下午, 1072.0, 54, 0, 45
265, 1.32, 2017/9/29 06:40:52.92下午, 1045.0, 52, 0, 45
266, 1.325, 2017/9/29 06:40:52.925下午, 1047.0, 53, 0, 45
267, 1.33, 2017/9/29 06:40:52.93下午, 1059.0, 53, 0, 45
268, 1.335, 2017/9/29 06:40:52.935下午, 1080.0, 53, 0, 46
269, 1.34, 2017/9/29 06:40:52.94下午, 1056.0, 53, 0, 47
270, 1.345, 2017/9/29 06:40:52.945下午, 1084.0, 52, 0, 47
271, 1.35, 2017/9/29 06:40:52.95下午, 1061.0, 53, 0, 45
272, 1.355, 2017/9/29 06:40:52.955下午, 1039.0, 53, 0, 46
273, 1.36, 2017/9/29 06:40:52.96下午, 1084.0, 53, 0, 45
274, 1.365, 2017/9/29 06:40:52.965下午, 1050.0, 53, 0, 45
275, 1.37, 2017/9/29 06:40:52.97下午, 1055.0, 53, 0, 44
276, 1.375, 2017/9/29 06:40:52.975下午, 1086.0, 53, 0, 45
277, 1.38, 2017/9/29 06:40:52.98下午, 1070.0, 53, 0, 46
278, 1.385, 2017/9/29 06:40:52.985下午, 1081.0, 52, 0, 46
279, 1.39, 2017/9/29 06:40:52.99下午, 1078.0, 53, 0, 45
280, 1.395, 2017/9/29 06:40:52.995下午, 1075.0, 53, 0, 46
281, 1.4, 2017/9/29 06:40:53下午, 1044.0, 53, 0, 45
282, 1.405, 2017/9/29 06:40:53.005下午, 1035.0, 53, 0, 45
283, 1.41, 2017/9/29 06:40:53.01下午, 1086.0, 53, 0, 47
284, 1.415, 2017/9/29 06:40:53.015下午, 1065.0, 53, 0, 44
285, 1.42, 2017/9/29 06:40:53.02下午, 1056.0, 53, 0, 45
286, 1.425, 2017/9/29 06:40:53.025下午, 1063.0, 53, 0, 45
287, 1.43, 2017/9/29 06:40:53.03下午, 1075.0, 53, 0, 46
288, 1.435, 2017/9/29 06:40:53.035下午, 1051.0, 54, 0, 44
289, 1.44, 2017/9/29 06:40:53.04下午, 1075.0, 53, 0, 46
290, 1.445, 2017/9/29 06:40:53.045下午, 1073.0, 53, 0, 44
291, 1.45, 2017/9/29 06:40:53.05下午, 1082.0, 54, 0, 44
292, 1.455, 2017/9/29 06:40:53.055下午, 1056.0, 53, 0, 46
293, 1.46, 2017/9/29 06:40:53.06下午, 1084.0, 53, 0, 45
294, 1.465, 2017/9/29 06:40:53.065下午, 1075.0, 53, 0, 45
295, 1.47, 2017/9/29 06:40:53.07下午, 1049.0, 53, 0, 45
296, 1.475, 2017/9/29 06:40:53.075下午, 1064.0, 53, 0, 46
297, 1.48, 2017/9/29 06:40:53.08下午, 1091.0, 54, 0, 45
298, 1.485, 2017/9/29 06:40:53.085下午, 1073.0, 52, 0, 46
299, 1.49, 2017/9/29 06:40:53.09下午, 1061.0, 53, 0, 46
300, 1.495, 2017/9/29 06:40:53.095下午, 1080.0, 54, 0, 45
301, 1.5, 2017/9/29 06:40:53.1下午, 1071.0, 54, 0, 46
302, 1.505, 2017/9/29 06:40:53.105下午, 1074.0, 54, 0, 44
303, 1.51, 2017/9/29 06:40:53.11下午, 1066.0, 53, 0, 45
304, 1.515, 2017/9/29 06:40:53.115下午, 1079.0, 54, 0, 45
305, 1.52, 2017/9/29 06:40:53.12下午, 1060.0, 53, 0, 45
306, 1.525, 2017/9/29 06:40:53.125下午, 1089.0, 54, 0, 45
307, 1.53, 2017/9/29 06:40:53.13下午, 1070.0, 53, 0, 47
308, 1.535, 2017/9/29 06:40:53.135下午, 1054.0, 52, 0, 46
309, 1.54, 2017/9/29 06:40:53.14下午, 1070.0, 54, 0, 46
310, 1.545, 2017/9/29 06:40:53.145下午, 1101.0, 55, 0, 46
311, 1.55, 2017/9/29 06:40:53.15下午, 1080.0, 54, 0, 46
312, 1.555, 2017/9/29 06:40:53.155下午, 1056.0, 53, 0, 45
313, 1.56, 2017/9/29 06:40:53.16下午, 1071.0, 54, 0, 45
314, 1.565, 2017/9/29 06:40:53.165下午, 1072.0, 54, 0, 46
315, 1.57, 2017/9/29 06:40:53.17下午, 1058.0, 53, 0, 46
316, 1.575, 2017/9/29 06:40:53.175下午, 1055.0, 53, 0, 45
317, 1.58, 2017/9/29 06:40:53.18下午, 1075.0, 53, 0, 46
318, 1.585, 2017/9/29 06:40:53.185下午, 1060.0, 53, 0, 45
319, 1.59, 2017/9/29 06:40:53.19下午, 1059.0, 53, 0, 45
320, 1.595, 2017/9/29 06:40:53.195下午, 1116.0, 54, 0, 46
321, 1.6, 2017/9/29 06:40:53.2下午, 1072.0, 53, 0, 45
322, 1.605, 2017/9/29 06:40:53.205下午, 1033.0, 53, 0, 44
323, 1.61, 2017/9/29 06:40:53.21下午, 1096.0, 55, 0, 45
324, 1.615, 2017/9/29 06:40:53.215下午, 1067.0, 54, 0, 45
325, 1.62, 2017/9/29 06:40:53.22下午, 1059.0, 53, 0, 45
326, 1.625, 2017/9/29 06:40:53.225下午, 1083.0, 53, 0, 46
327, 1.63, 2017/9/29 06:40:53.23下午, 1084.0, 54, 0, 45
328, 1.635, 2017/9/29 06:40:53.235下午, 1081.0, 53, 0, 45
329, 1.64, 2017/9/29 06:40:53.24下午, 1080.0, 53, 0, 46
330, 1.645, 2017/9/29 06:40:53.245下午, 1084.0, 54, 0, 44
331, 1.65, 2017/9/29 06:40:53.25下午, 1058.0, 54, 0, 45
332, 1.655, 2017/9/29 06:40:53.255下午, 1047.0, 53, 0, 44
333, 1.66, 2017/9/29 06:40:53.26下午, 1089.0, 54, 0, 45
334, 1.665, 2017/9/29 06:40:53.265下午, 1057.0, 53, 0, 44
335, 1.67, 2017/9/29 06:40:53.27下午, 1049.0, 53, 0, 45
336, 1.675, 2017/9/29 06:40:53.275下午, 1076.0, 54, 0, 45
337, 1.68, 2017/9/29 06:40:53.28下午, 1084.0, 54, 0, 45
338, 1.685, 2017/9/29 06:40:53.285下午, 1089.0, 53, 0, 46
339, 1.69, 2017/9/29 06:40:53.29下午, 1061.0, 54, 0, 46
340, 1.695, 2017/9/29 06:40:53.295下午, 1070.0, 54, 0, 46
341, 1.7, 2017/9/29 06:40:53.3下午, 1069.0, 53, 0, 45
342, 1.705, 2017/9/29 06:40:53.305下午, 1049.0, 53, 0, 44
343, 1.71, 2017/9/29 06:40:53.31下午, 1110.0, 54, 0, 46
344, 1.715, 2017/9/29 06:40:53.315下午, 1075.0, 54, 0, 45
345, 1.72, 2017/9/29 06:40:53.32下午, 1056.0, 52, 0, 46
346, 1.725, 2017/9/29 06:40:53.325下午, 1074.0, 53, 0, 46
347, 1.73, 2017/9/29 06:40:53.33下午, 1074.0, 53, 0, 45
348, 1.735, 2017/9/29 06:40:53.335下午, 1088.0, 54, 0, 46
349, 1.74, 2017/9/29 06:40:53.34下午, 1097.0, 54, 0, 45
350, 1.745, 2017/9/29 06:40:53.345下午, 1065.0, 53, 0, 45
351, 1.75, 2017/9/29 06:40:53.35下午, 1068.0, 54, 0, 46
352, 1.755, 2017/9/29 06:40:53.355下午, 1068.0, 52, 0, 45
353, 1.76, 2017/9/29 06:40:53.36下午, 1085.0, 54, 0, 46
354, 1.765, 2017/9/29 06:40:53.365下午, 1053.0, 54, 0, 45
355, 1.77, 2017/9/29 06:40:53.37下午, 1037.0, 54, 0, 44
356, 1.775, 2017/9/29 06:40:53.375下午, 1062.0, 54, 0, 45
357, 1.78, 2017/9/29 06:40:53.38下午, 1084.0, 54, 0, 46
358, 1.785, 2017/9/29 06:40:53.385下午, 1067.0, 53, 0, 45
359, 1.79, 2017/9/29 06:40:53.39下午, 1076.0, 54, 0, 44
360, 1.795, 2017/9/29 06:40:53.395下午, 1076.0, 54, 0, 45
361, 1.8, 2017/9/29 06:40:53.4下午, 1055.0, 54, 0, 45
362, 1.805, 2017/9/29 06:40:53.405下午, 1080.0, 54, 0, 45
363, 1.81, 2017/9/29 06:40:53.41下午, 1095.0, 54, 0, 46
364, 1.815, 2017/9/29 06:40:53.415下午, 1062.0, 54, 0, 44
365, 1.82, 2017/9/29 06:40:53.42下午, 1064.0, 54, 0, 45
366, 1.825, 2017/9/29 06:40:53.425下午, 1076.0, 54, 0, 45
367, 1.83, 2017/9/29 06:40:53.43下午, 1082.0, 54, 0, 45
368, 1.835, 2017/9/29 06:40:53.435下午, 1071.0, 54, 0, 46
369, 1.84, 2017/9/29 06:40:53.44下午, 1052.0, 54, 0, 45
370, 1.845, 2017/9/29 06:40:53.445下午, 1071.0, 54, 0, 45
371, 1.85, 2017/9/29 06:40:53.45下午, 1067.0, 54, 0, 45
372, 1.855, 2017/9/29 06:40:53.455下午, 1052.0, 53, 0, 46
373, 1.86, 2017/9/29 06:40:53.46下午, 1058.0, 53, 0, 46
374, 1.865, 2017/9/29 06:40:53.465下午, 1068.0, 53, 0, 46
375, 1.87, 2017/9/29 06:40:53.47下午, 1032.0, 54, 0, 44
376, 1.875, 2017/9/29 06:40:53.475下午, 1051.0, 53, 0, 45
377, 1.88, 2017/9/29 06:40:53.48下午, 1067.0, 53, 0, 46
378, 1.885, 2017/9/29 06:40:53.485下午, 1051.0, 52, 0, 46
379, 1.89, 2017/9/29 06:40:53.49下午, 1069.0, 53, 0, 45
380, 1.895, 2017/9/29 06:40:53.495下午, 1079.0, 53, 0, 46
381, 1.9, 2017/9/29 06:40:53.5下午, 1075.0, 53, 0, 45
382, 1.905, 2017/9/29 06:40:53.505下午, 1053.0, 54, 0, 46
383, 1.91, 2017/9/29 06:40:53.51下午, 1067.0, 53, 0, 46
384, 1.915, 2017/9/29 06:40:53.515下午, 1066.0, 53, 0, 46
385, 1.92, 2017/9/29 06:40:53.52下午, 1066.0, 54, 0, 44
386, 1.925, 2017/9/29 06:40:53.525下午, 1068.0, 54, 0, 46
387, 1.93, 2017/9/29 06:40:53.53下午, 1066.0, 54, 0, 45
388, 1.935, 2017/9/29 06:40:53.535下午, 1064.0, 55, 0, 45
389, 1.94, 2017/9/29 06:40:53.54下午, 1055.0, 53, 0, 45
390, 1.945, 2017/9/29 06:40:53.545下午, 1054.0, 54, 0, 45
391, 1.95, 2017/9/29 06:40:53.55下午, 1068.0, 53, 0, 45
392, 1.955, 2017/9/29 06:40:53.555下午, 1068.0, 53, 0, 46
393, 1.96, 2017/9/29 06:40:53.56下午, 1081.0, 52, 0, 47
394, 1.965, 2017/9/29 06:40:53.565下午, 1088.0, 54, 0, 47
395, 1.97, 2017/9/29 06:40:53.57下午, 1071.0, 53, 0, 45
396, 1.975, 2017/9/29 06:40:53.575下午, 1084.0, 54, 0, 46
397, 1.98, 2017/9/29 06:40:53.58下午, 1085.0, 54, 0, 44
398, 1.985, 2017/9/29 06:40:53.585下午, 1063.0, 53, 0, 45
399, 1.99, 2017/9/29 06:40:53.59下午, 1071.0, 53, 0, 46
400, 1.995, 2017/9/29 06:40:53.595下午, 1089.0, 54, 0, 46
401, 2, 2017/9/29 06:40:53.6下午, 1068.0, 53, 0, 45
402, 2.005, 2017/9/29 06:40:53.605下午, 1059.0, 53, 0, 45
403, 2.01, 2017/9/29 06:40:53.61下午, 1085.0, 52, 0, 46
404, 2.015, 2017/9/29 06:40:53.615下午, 1075.0, 52, 0, 46
405, 2.02, 2017/9/29 06:40:53.62下午, 1053.0, 53, 0, 45
406, 2.025, 2017/9/29 06:40:53.625下午, 1068.0, 53, 0, 46
407, 2.03, 2017/9/29 06:40:53.63下午, 1090.0, 53, 0, 46
408, 2.035, 2017/9/29 06:40:53.635下午, 1060.0, 53, 0, 46
409, 2.04, 2017/9/29 06:40:53.64下午, 1076.0, 53, 0, 46
410, 2.045, 2017/9/29 06:40:53.645下午, 1085.0, 55, 0, 46
411, 2.05, 2017/9/29 06:40:53.65下午, 1060.0, 53, 0, 46
412, 2.055, 2017/9/29 06:40:53.655下午, 1037.0, 53, 0, 44
413, 2.06, 2017/9/29 06:40:53.66下午, 1094.0, 53, 0, 47
414, 2.065, 2017/9/29 06:40:53.665下午, 1061.0, 52, 0, 46
415, 2.07, 2017/9/29 06:40:53.67下午, 1062.0, 53, 0, 45
416, 2.075, 2017/9/29 06:40:53.675下午, 1059.0, 52, 0, 45
417, 2.08, 2017/9/29 06:40:53.68下午, 1073.0, 54, 0, 45
418, 2.085, 2017/9/29 06:40:53.685下午, 1074.0, 53, 0, 45
419, 2.09, 2017/9/29 06:40:53.69下午, 1080.0, 52, 0, 46
420, 2.095, 2017/9/29 06:40:53.695下午, 1083.0, 53, 0, 44
421, 2.1, 2017/9/29 06:40:53.7下午, 1063.0, 54, 0, 44
422, 2.105, 2017/9/29 06:40:53.705下午, 1051.0, 53, 0, 45
423, 2.11, 2017/9/29 06:40:53.71下午, 1102.0, 54, 0, 45
424, 2.115, 2017/9/29 06:40:53.715下午, 1057.0, 53, 0, 45
425, 2.12, 2017/9/29 06:40:53.72下午, 1052.0, 52, 0, 45
426, 2.125, 2017/9/29 06:40:53.725下午, 1056.0, 53, 0, 45
427, 2.13, 2017/9/29 06:40:53.73下午, 1058.0, 53, 0, 45
428, 2.135, 2017/9/29 06:40:53.735下午, 1091.0, 53, 0, 47
429, 2.14, 2017/9/29 06:40:53.74下午, 1086.0, 53, 0, 46
430, 2.145, 2017/9/29 06:40:53.745下午, 1056.0, 53, 0, 45
431, 2.15, 2017/9/29 06:40:53.75下午, 1057.0, 53, 0, 45
432, 2.155, 2017/9/29 06:40:53.755下午, 1047.0, 53, 0, 44
433, 2.16, 2017/9/29 06:40:53.76下午, 1083.0, 54, 0, 45
434, 2.165, 2017/9/29 06:40:53.765下午, 1081.0, 54, 0, 45
435, 2.17, 2017/9/29 06:40:53.77下午, 1041.0, 53, 0, 44
436, 2.175, 2017/9/29 06:40:53.775下午, 1071.0, 53, 0, 45
437, 2.18, 2017/9/29 06:40:53.78下午, 1053.0, 53, 0, 44
438, 2.185, 2017/9/29 06:40:53.785下午, 1088.0, 54, 0, 45
439, 2.19, 2017/9/29 06:40:53.79下午, 1069.0, 53, 0, 45
440, 2.195, 2017/9/29 06:40:53.795下午, 1098.0, 54, 0, 46
441, 2.2, 2017/9/29 06:40:53.8下午, 1057.0, 53, 0, 45
442, 2.205, 2017/9/29 06:40:53.805下午, 1057.0, 53, 0, 46
443, 2.21, 2017/9/29 06:40:53.81下午, 1043.0, 54, 0, 44
444, 2.215, 2017/9/29 06:40:53.815下午, 1081.0, 53, 0, 46
445, 2.22, 2017/9/29 06:40:53.82下午, 1067.0, 54, 0, 44
446, 2.225, 2017/9/29 06:40:53.825下午, 1088.0, 54, 0, 45
447, 2.23, 2017/9/29 06:40:53.83下午, 1087.0, 54, 0, 45
448, 2.235, 2017/9/29 06:40:53.835下午, 1060.0, 53, 0, 45
449, 2.24, 2017/9/29 06:40:53.84下午, 1062.0, 53, 0, 45
450, 2.245, 2017/9/29 06:40:53.845下午, 1103.0, 53, 0, 46
451, 2.25, 2017/9/29 06:40:53.85下午, 1103.0, 54, 0, 45
452, 2.255, 2017/9/29 06:40:53.855下午, 1073.0, 53, 0, 46
453, 2.26, 2017/9/29 06:40:53.86下午, 1070.0, 53, 0, 45
454, 2.265, 2017/9/29 06:40:53.865下午, 1091.0, 52, 0, 46
455, 2.27, 2017/9/29 06:40:53.87下午, 1060.0, 53, 0, 46
456, 2.275, 2017/9/29 06:40:53.875下午, 1090.0, 53, 0, 46
457, 2.28, 2017/9/29 06:40:53.88下午, 1106.0, 53, 0, 46
458, 2.285, 2017/9/29 06:40:53.885下午, 1049.0, 53, 0, 45
459, 2.29, 2017/9/29 06:40:53.89下午, 1064.0, 53, 0, 45
460, 2.295, 2017/9/29 06:40:53.895下午, 1088.0, 54, 0, 45
461, 2.3, 2017/9/29 06:40:53.9下午, 1094.0, 54, 0, 46
462, 2.305, 2017/9/29 06:40:53.905下午, 1069.0, 53, 0, 45
463, 2.31, 2017/9/29 06:40:53.91下午, 1040.0, 53, 0, 44
464, 2.315, 2017/9/29 06:40:53.915下午, 1078.0, 53, 0, 44
465, 2.32, 2017/9/29 06:40:53.92下午, 1053.0, 52, 0, 45
466, 2.325, 2017/9/29 06:40:53.925下午, 1057.0, 54, 0, 45
467, 2.33, 2017/9/29 06:40:53.93下午, 1081.0, 53, 0, 46
468, 2.335, 2017/9/29 06:40:53.935下午, 1074.0, 53, 0, 45
469, 2.34, 2017/9/29 06:40:53.94下午, 1081.0, 55, 0, 46
470, 2.345, 2017/9/29 06:40:53.945下午, 1073.0, 54, 0, 45
471, 2.35, 2017/9/29 06:40:53.95下午, 1051.0, 54, 0, 45
472, 2.355, 2017/9/29 06:40:53.955下午, 1068.0, 53, 0, 45
473, 2.36, 2017/9/29 06:40:53.96下午, 1083.0, 53, 0, 46
474, 2.365, 2017/9/29 06:40:53.965下午, 1056.0, 54, 0, 45
475, 2.37, 2017/9/29 06:40:53.97下午, 1020.0, 53, 0, 44
476, 2.375, 2017/9/29 06:40:53.975下午, 1084.0, 54, 0, 44
477, 2.38, 2017/9/29 06:40:53.98下午, 1066.0, 53, 0, 45
478, 2.385, 2017/9/29 06:40:53.985下午, 1091.0, 54, 0, 45
479, 2.39, 2017/9/29 06:40:53.99下午, 1046.0, 53, 0, 45
480, 2.395, 2017/9/29 06:40:53.995下午, 1095.0, 53, 0, 45
481, 2.4, 2017/9/29 06:40:54下午, 1055.0, 53, 0, 44
482, 2.405, 2017/9/29 06:40:54.005下午, 1071.0, 53, 0, 45
483, 2.41, 2017/9/29 06:40:54.01下午, 1087.0, 53, 0, 46
484, 2.415, 2017/9/29 06:40:54.015下午, 1086.0, 53, 0, 45
485, 2.42, 2017/9/29 06:40:54.02下午, 1064.0, 53, 0, 45
486, 2.425, 2017/9/29 06:40:54.025下午, 1075.0, 53, 0, 45
487, 2.43, 2017/9/29 06:40:54.03下午, 1081.0, 53, 0, 44
488, 2.435, 2017/9/29 06:40:54.035下午, 1087.0, 53, 0, 45
489, 2.44, 2017/9/29 06:40:54.04下午, 1072.0, 53, 0, 45
490, 2.445, 2017/9/29 06:40:54.045下午, 1080.0, 54, 0, 45
491, 2.45, 2017/9/29 06:40:54.05下午, 1084.0, 53, 0, 45
492, 2.455, 2017/9/29 06:40:54.055下午, 1057.0, 53, 0, 46
493, 2.46, 2017/9/29 06:40:54.06下午, 1097.0, 54, 0, 46
494, 2.465, 2017/9/29 06:40:54.065下午, 1082.0, 53, 0, 44
495, 2.47, 2017/9/29 06:40:54.07下午, 1063.0, 53, 0, 46
496, 2.475, 2017/9/29 06:40:54.075下午, 1067.0, 53, 0, 45
497, 2.48, 2017/9/29 06:40:54.08下午, 1072.0, 53, 0, 45
498, 2.485, 2017/9/29 06:40:54.085下午, 1083.0, 53, 0, 46
499, 2.49, 2017/9/29 06:40:54.09下午, 1064.0, 53, 0, 45
500, 2.495, 2017/9/29 06:40:54.095下午, 1077.0, 53, 0, 45
501, 2.5, 2017/9/29 06:40:54.1下午, 1073.0, 53, 0, 46
502, 2.505, 2017/9/29 06:40:54.105下午, 1045.0, 53, 0, 44
503, 2.51, 2017/9/29 06:40:54.11下午, 1082.0, 54, 0, 45
504, 2.515, 2017/9/29 06:40:54.115下午, 1041.0, 54, 0, 46
505, 2.52, 2017/9/29 06:40:54.12下午, 1057.0, 52, 0, 45
506, 2.525, 2017/9/29 06:40:54.125下午, 1073.0, 53, 0, 45
507, 2.53, 2017/9/29 06:40:54.13下午, 1094.0, 53, 0, 46
508, 2.535, 2017/9/29 06:40:54.135下午, 1074.0, 54, 0, 45
509, 2.54, 2017/9/29 06:40:54.14下午, 1065.0, 53, 0, 45
510, 2.545, 2017/9/29 06:40:54.145下午, 1100.0, 53, 0, 46
511, 2.55, 2017/9/29 06:40:54.15下午, 1074.0, 53, 0, 45
512, 2.555, 2017/9/29 06:40:54.155下午, 1052.0, 53, 0, 45
513, 2.56, 2017/9/29 06:40:54.16下午, 1092.0, 53, 0, 45
514, 2.565, 2017/9/29 06:40:54.165下午, 1090.0, 54, 0, 44
515, 2.57, 2017/9/29 06:40:54.17下午, 1061.0, 52, 0, 45
516, 2.575, 2017/9/29 06:40:54.175下午, 1068.0, 52, 0, 46
517, 2.58, 2017/9/29 06:40:54.18下午, 1080.0, 53, 0, 45
518, 2.585, 2017/9/29 06:40:54.185下午, 1079.0, 53, 0, 46
519, 2.59, 2017/9/29 06:40:54.19下午, 1072.0, 53, 0, 45
520, 2.595, 2017/9/29 06:40:54.195下午, 1095.0, 53, 0, 46
521, 2.6, 2017/9/29 06:40:54.2下午, 1059.0, 53, 0, 46
522, 2.605, 2017/9/29 06:40:54.205下午, 1058.0, 53, 0, 44
523, 2.61, 2017/9/29 06:40:54.21下午, 1095.0, 54, 0, 46
524, 2.615, 2017/9/29 06:40:54.215下午, 1067.0, 53, 0, 45
525, 2.62, 2017/9/29 06:40:54.22下午, 1030.0, 53, 0, 44
526, 2.625, 2017/9/29 06:40:54.225下午, 1066.0, 54, 0, 44
527, 2.63, 2017/9/29 06:40:54.23下午, 1090.0, 53, 0, 46
528, 2.635, 2017/9/29 06:40:54.235下午, 1075.0, 54, 0, 45
529, 2.64, 2017/9/29 06:40:54.24下午, 1047.0, 53, 0, 45
530, 2.645, 2017/9/29 06:40:54.245下午, 1080.0, 53, 0, 46
531, 2.65, 2017/9/29 06:40:54.25下午, 1060.0, 53, 0, 45
532, 2.655, 2017/9/29 06:40:54.255下午, 1065.0, 54, 0, 44
533, 2.66, 2017/9/29 06:40:54.26下午, 1089.0, 54, 0, 45
534, 2.665, 2017/9/29 06:40:54.265下午, 1095.0, 53, 0, 45
535, 2.67, 2017/9/29 06:40:54.27下午, 1071.0, 53, 0, 44
536, 2.675, 2017/9/29 06:40:54.275下午, 1072.0, 54, 0, 44
537, 2.68, 2017/9/29 06:40:54.28下午, 1075.0, 53, 0, 44
538, 2.685, 2017/9/29 06:40:54.285下午, 1081.0, 54, 0, 45
539, 2.69, 2017/9/29 06:40:54.29下午, 1057.0, 53, 0, 43
540, 2.695, 2017/9/29 06:40:54.295下午, 1069.0, 53, 0, 45
541, 2.7, 2017/9/29 06:40:54.3下午, 1054.0, 53, 0, 44
542, 2.705, 2017/9/29 06:40:54.305下午, 1083.0, 54, 0, 44
543, 2.71, 2017/9/29 06:40:54.31下午, 1095.0, 53, 0, 46
544, 2.715, 2017/9/29 06:40:54.315下午, 1079.0, 53, 0, 46
545, 2.72, 2017/9/29 06:40:54.32下午, 1041.0, 53, 0, 44
546, 2.725, 2017/9/29 06:40:54.325下午, 1069.0, 53, 0, 45
547, 2.73, 2017/9/29 06:40:54.33下午, 1074.0, 54, 0, 44
548, 2.735, 2017/9/29 06:40:54.335下午, 1091.0, 53, 0, 44
549, 2.74, 2017/9/29 06:40:54.34下午, 1072.0, 53, 0, 45
550, 2.745, 2017/9/29 06:40:54.345下午, 1091.0, 53, 0, 45
551, 2.75, 2017/9/29 06:40:54.35下午, 1069.0, 53, 0, 45
552, 2.755, 2017/9/29 06:40:54.355下午, 1078.0, 53, 0, 46
553, 2.76, 2017/9/29 06:40:54.36下午, 1110.0, 53, 0, 46
554, 2.765, 2017/9/29 06:40:54.365下午, 1068.0, 53, 0, 45
555, 2.77, 2017/9/29 06:40:54.37下午, 1046.0, 53, 0, 44
556, 2.775, 2017/9/29 06:40:54.375下午, 1070.0, 53, 0, 45
557, 2.78, 2017/9/29 06:40:54.38下午, 1105.0, 53, 0, 46
558, 2.785, 2017/9/29 06:40:54.385下午, 1093.0, 53, 0, 46
559, 2.79, 2017/9/29 06:40:54.39下午, 1090.0, 53, 0, 46
560, 2.795, 2017/9/29 06:40:54.395下午, 1091.0, 53, 0, 46
561, 2.8, 2017/9/29 06:40:54.4下午, 1071.0, 54, 0, 46
562, 2.805, 2017/9/29 06:40:54.405下午, 1051.0, 53, 0, 44
563, 2.81, 2017/9/29 06:40:54.41下午, 1094.0, 53, 0, 46
564, 2.815, 2017/9/29 06:40:54.415下午, 1074.0, 53, 0, 46
565, 2.82, 2017/9/29 06:40:54.42下午, 1060.0, 53, 0, 44
566, 2.825, 2017/9/29 06:40:54.425下午, 1101.0, 54, 0, 46
567, 2.83, 2017/9/29 06:40:54.43下午, 1106.0, 53, 0, 46
568, 2.835, 2017/9/29 06:40:54.435下午, 1081.0, 53, 0, 46
569, 2.84, 2017/9/29 06:40:54.44下午, 1084.0, 54, 0, 45
570, 2.845, 2017/9/29 06:40:54.445下午, 1091.0, 54, 0, 46
571, 2.85, 2017/9/29 06:40:54.45下午, 1091.0, 54, 0, 45
572, 2.855, 2017/9/29 06:40:54.455下午, 1083.0, 53, 0, 46
573, 2.86, 2017/9/29 06:40:54.46下午, 1081.0, 53, 0, 45
574, 2.865, 2017/9/29 06:40:54.465下午, 1081.0, 52, 0, 45
575, 2.87, 2017/9/29 06:40:54.47下午, 1074.0, 53, 0, 46
576, 2.875, 2017/9/29 06:40:54.475下午, 1093.0, 53, 0, 46
577, 2.88, 2017/9/29 06:40:54.48下午, 1101.0, 54, 0, 46
578, 2.885, 2017/9/29 06:40:54.485下午, 1038.0, 53, 0, 45
579, 2.89, 2017/9/29 06:40:54.49下午, 1079.0, 53, 0, 45
580, 2.895, 2017/9/29 06:40:54.495下午, 1099.0, 54, 0, 47
581, 2.9, 2017/9/29 06:40:54.5下午, 1067.0, 54, 0, 45
582, 2.905, 2017/9/29 06:40:54.505下午, 1060.0, 53, 0, 45
583, 2.91, 2017/9/29 06:40:54.51下午, 1057.0, 54, 0, 45
584, 2.915, 2017/9/29 06:40:54.515下午, 1062.0, 54, 0, 45
585, 2.92, 2017/9/29 06:40:54.52下午, 1073.0, 53, 0, 44
586, 2.925, 2017/9/29 06:40:54.525下午, 1080.0, 53, 0, 46
587, 2.93, 2017/9/29 06:40:54.53下午, 1078.0, 53, 0, 46
588, 2.935, 2017/9/29 06:40:54.535下午, 1066.0, 53, 0, 44
589, 2.94, 2017/9/29 06:40:54.54下午, 1084.0, 53, 0, 46
590, 2.945, 2017/9/29 06:40:54.545下午, 1120.0, 54, 0, 45
591, 2.95, 2017/9/29 06:40:54.55下午, 1058.0, 53, 0, 45
592, 2.955, 2017/9/29 06:40:54.555下午, 1075.0, 53, 0, 44
593, 2.96, 2017/9/29 06:40:54.56下午, 1083.0, 53, 0, 45
594, 2.965, 2017/9/29 06:40:54.565下午, 1077.0, 53, 0, 45
595, 2.97, 2017/9/29 06:40:54.57下午, 1048.0, 53, 0, 45
596, 2.975, 2017/9/29 06:40:54.575下午, 1072.0, 53, 0, 45
597, 2.98, 2017/9/29 06:40:54.58下午, 1091.0, 53, 0, 46
598, 2.985, 2017/9/29 06:40:54.585下午, 1096.0, 54, 0, 46
599, 2.99, 2017/9/29 06:40:54.59下午, 1049.0, 54, 0, 46
600, 2.995, 2017/9/29 06:40:54.595下午, 1123.0, 52, 0, 48
601, 3, 2017/9/29 06:40:54.6下午, 1098.0, 53, 0, 46
602, 3.005, 2017/9/29 06:40:54.605下午, 1046.0, 54, 0, 44
603, 3.01, 2017/9/29 06:40:54.61下午, 1100.0, 54, 0, 45
604, 3.015, 2017/9/29 06:40:54.615下午, 1060.0, 55, 0, 44
605, 3.02, 2017/9/29 06:40:54.62下午, 1058.0, 53, 0, 44
606, 3.025, 2017/9/29 06:40:54.625下午, 1074.0, 53, 0, 45
607, 3.03, 2017/9/29 06:40:54.63下午, 1081.0, 53, 0, 46
608, 3.035, 2017/9/29 06:40:54.635下午, 1070.0, 53, 0, 44
609, 3.04, 2017/9/29 06:40:54.64下午, 1061.0, 53, 0, 45
610, 3.045, 2017/9/29 06:40:54.645下午, 1069.0, 53, 0, 45
611, 3.05, 2017/9/29 06:40:54.65下午, 1056.0, 53, 0, 44
612, 3.055, 2017/9/29 06:40:54.655下午, 1070.0, 52, 0, 45
613, 3.06, 2017/9/29 06:40:54.66下午, 1122.0, 53, 0, 46
614, 3.065, 2017/9/29 06:40:54.665下午, 1075.0, 53, 0, 45
615, 3.07, 2017/9/29 06:40:54.67下午, 1082.0, 53, 0, 45
616, 3.075, 2017/9/29 06:40:54.675下午, 1081.0, 54, 0, 45
617, 3.08, 2017/9/29 06:40:54.68下午, 1084.0, 54, 0, 45
618, 3.085, 2017/9/29 06:40:54.685下午, 1088.0, 54, 0, 45
619, 3.09, 2017/9/29 06:40:54.69下午, 1071.0, 54, 0, 44
620, 3.095, 2017/9/29 06:40:54.695下午, 1112.0, 55, 0, 45
621, 3.1, 2017/9/29 06:40:54.7下午, 1050.0, 54, 0, 45
622, 3.105, 2017/9/29 06:40:54.705下午, 1063.0, 53, 0, 45
623, 3.11, 2017/9/29 06:40:54.71下午, 1094.0, 54, 0, 45
624, 3.115, 2017/9/29 06:40:54.715下午, 1052.0, 53, 0, 44
625, 3.12, 2017/9/29 06:40:54.72下午, 1049.0, 52, 0, 44
626, 3.125, 2017/9/29 06:40:54.725下午, 1074.0, 54, 0, 45
627, 3.13, 2017/9/29 06:40:54.73下午, 1102.0, 54, 0, 45
628, 3.135, 2017/9/29 06:40:54.735下午, 1101.0, 53, 0, 46
629, 3.14, 2017/9/29 06:40:54.74下午, 1106.0, 52, 0, 46
630, 3.145, 2017/9/29 06:40:54.745下午, 1093.0, 53, 0, 45
631, 3.15, 2017/9/29 06:40:54.75下午, 1083.0, 53, 0, 45
632, 3.155, 2017/9/29 06:40:54.755下午, 1078.0, 53, 0, 44
633, 3.16, 2017/9/29 06:40:54.76下午, 1091.0, 52, 0, 46
634, 3.165, 2017/9/29 06:40:54.765下午, 1100.0, 53, 0, 45
635, 3.17, 2017/9/29 06:40:54.77下午, 1060.0, 54, 0, 45
636, 3.175, 2017/9/29 06:40:54.775下午, 1068.0, 54, 0, 45
637, 3.18, 2017/9/29 06:40:54.78下午, 1098.0, 53, 0, 45
638, 3.185, 2017/9/29 06:40:54.785下午, 1066.0, 53, 0, 45
639, 3.19, 2017/9/29 06:40:54.79下午, 1070.0, 53, 0, 46
640, 3.195, 2017/9/29 06:40:54.795下午, 1085.0, 54, 0, 44
641, 3.2, 2017/9/29 06:40:54.8下午, 1075.0, 54, 0, 44
642, 3.205, 2017/9/29 06:40:54.805下午, 1061.0, 53, 0, 45
643, 3.21, 2017/9/29 06:40:54.81下午, 1070.0, 54, 0, 44
644, 3.215, 2017/9/29 06:40:54.815下午, 1081.0, 52, 0, 45
645, 3.22, 2017/9/29 06:40:54.82下午, 1053.0, 52, 0, 44
646, 3.225, 2017/9/29 06:40:54.825下午, 1087.0, 52, 0, 46
647, 3.23, 2017/9/29 06:40:54.83下午, 1100.0, 53, 0, 46
648, 3.235, 2017/9/29 06:40:54.835下午, 1091.0, 53, 0, 45
649, 3.24, 2017/9/29 06:40:54.84下午, 1092.0, 53, 0, 46
650, 3.245, 2017/9/29 06:40:54.845下午, 1113.0, 54, 0, 46
651, 3.25, 2017/9/29 06:40:54.85下午, 1092.0, 52, 0, 46
652, 3.255, 2017/9/29 06:40:54.855下午, 1083.0, 52, 0, 45
653, 3.26, 2017/9/29 06:40:54.86下午, 1086.0, 52, 0, 46
654, 3.265, 2017/9/29 06:40:54.865下午, 1091.0, 53, 0, 45
655, 3.27, 2017/9/29 06:40:54.87下午, 1069.0, 53, 0, 45
656, 3.275, 2017/9/29 06:40:54.875下午, 1093.0, 53, 0, 46
657, 3.28, 2017/9/29 06:40:54.88下午, 1090.0, 52, 0, 45
658, 3.285, 2017/9/29 06:40:54.885下午, 1063.0, 52, 0, 45
659, 3.29, 2017/9/29 06:40:54.89下午, 1063.0, 53, 0, 46
660, 3.295, 2017/9/29 06:40:54.895下午, 1088.0, 53, 0, 46
661, 3.3, 2017/9/29 06:40:54.9下午, 1083.0, 53, 0, 46
662, 3.305, 2017/9/29 06:40:54.905下午, 1056.0, 52, 0, 45
663, 3.31, 2017/9/29 06:40:54.91下午, 1058.0, 53, 0, 44
664, 3.315, 2017/9/29 06:40:54.915下午, 1084.0, 53, 0, 45
665, 3.32, 2017/9/29 06:40:54.92下午, 1066.0, 53, 0, 45
666, 3.325, 2017/9/29 06:40:54.925下午, 1085.0, 52, 0, 45
667, 3.33, 2017/9/29 06:40:54.93下午, 1073.0, 53, 0, 45
668, 3.335, 2017/9/29 06:40:54.935下午, 1046.0, 52, 0, 44
669, 3.34, 2017/9/29 06:40:54.94下午, 1063.0, 53, 0, 45
670, 3.345, 2017/9/29 06:40:54.945下午, 1113.0, 53, 0, 46
671, 3.35, 2017/9/29 06:40:54.95下午, 1063.0, 52, 0, 45
672, 3.355, 2017/9/29 06:40:54.955下午, 1071.0, 52, 0, 44
673, 3.36, 2017/9/29 06:40:54.96下午, 1076.0, 52, 0, 46
674, 3.365, 2017/9/29 06:40:54.965下午, 1059.0, 52, 0, 45
675, 3.37, 2017/9/29 06:40:54.97下午, 1033.0, 53, 0, 44
676, 3.375, 2017/9/29 06:40:54.975下午, 1042.0, 53, 0, 45
677, 3.38, 2017/9/29 06:40:54.98下午, 1063.0, 53, 0, 45
678, 3.385, 2017/9/29 06:40:54.985下午, 1080.0, 53, 0, 45
679, 3.39, 2017/9/29 06:40:54.99下午, 1069.0, 52, 0, 46
680, 3.395, 2017/9/29 06:40:54.995下午, 1088.0, 52, 0, 45
681, 3.4, 2017/9/29 06:40:55下午, 1055.0, 52, 0, 44
682, 3.405, 2017/9/29 06:40:55.005下午, 1084.0, 53, 0, 45
683, 3.41, 2017/9/29 06:40:55.01下午, 1110.0, 53, 0, 45
684, 3.415, 2017/9/29 06:40:55.015下午, 1083.0, 52, 0, 44
685, 3.42, 2017/9/29 06:40:55.02下午, 1065.0, 52, 0, 45
686, 3.425, 2017/9/29 06:40:55.025下午, 1088.0, 52, 0, 45
687, 3.43, 2017/9/29 06:40:55.03下午, 1101.0, 52, 0, 45
688, 3.435, 2017/9/29 06:40:55.035下午, 1096.0, 52, 0, 46
689, 3.44, 2017/9/29 06:40:55.04下午, 1075.0, 53, 0, 45
690, 3.445, 2017/9/29 06:40:55.045下午, 1073.0, 54, 0, 45
691, 3.45, 2017/9/29 06:40:55.05下午, 1068.0, 54, 0, 45
692, 3.455, 2017/9/29 06:40:55.055下午, 1057.0, 52, 0, 46
693, 3.46, 2017/9/29 06:40:55.06下午, 1062.0, 53, 0, 44
694, 3.465, 2017/9/29 06:40:55.065下午, 1066.0, 52, 0, 45
695, 3.47, 2017/9/29 06:40:55.07下午, 1068.0, 52, 0, 46
696, 3.475, 2017/9/29 06:40:55.075下午, 1085.0, 53, 0, 46
697, 3.48, 2017/9/29 06:40:55.08下午, 1101.0, 53, 0, 46
698, 3.485, 2017/9/29 06:40:55.085下午, 1059.0, 52, 0, 44
699, 3.49, 2017/9/29 06:40:55.09下午, 1092.0, 52, 0, 46
700, 3.495, 2017/9/29 06:40:55.095下午, 1097.0, 52, 0, 46
701, 3.5, 2017/9/29 06:40:55.1下午, 1066.0, 51, 0, 46
702, 3.505, 2017/9/29 06:40:55.105下午, 1051.0, 52, 0, 44
703, 3.51, 2017/9/29 06:40:55.11下午, 1089.0, 53, 0, 45
704, 3.515, 2017/9/29 06:40:55.115下午, 1055.0, 52, 0, 45
705, 3.52, 2017/9/29 06:40:55.12下午, 1045.0, 52, 0, 44
706, 3.525, 2017/9/29 06:40:55.125下午, 1061.0, 52, 0, 45
707, 3.53, 2017/9/29 06:40:55.13下午, 1066.0, 53, 0, 44
708, 3.535, 2017/9/29 06:40:55.135下午, 1083.0, 53, 0, 45
709, 3.54, 2017/9/29 06:40:55.14下午, 1066.0, 53, 0, 45
710, 3.545, 2017/9/29 06:40:55.145下午, 1078.0, 52, 0, 45
711, 3.55, 2017/9/29 06:40:55.15下午, 1079.0, 53, 0, 45
712, 3.555, 2017/9/29 06:40:55.155下午, 1081.0, 52, 0, 46
713, 3.56, 2017/9/29 06:40:55.16下午, 1089.0, 52, 0, 47
714, 3.565, 2017/9/29 06:40:55.165下午, 1066.0, 53, 0, 45
715, 3.57, 2017/9/29 06:40:55.17下午, 1066.0, 53, 0, 45
716, 3.575, 2017/9/29 06:40:55.175下午, 1092.0, 53, 0, 46
717, 3.58, 2017/9/29 06:40:55.18下午, 1079.0, 53, 0, 44
718, 3.585, 2017/9/29 06:40:55.185下午, 1054.0, 52, 0, 44
719, 3.59, 2017/9/29 06:40:55.19下午, 1076.0, 52, 0, 45
720, 3.595, 2017/9/29 06:40:55.195下午, 1070.0, 53, 0, 43
721, 3.6, 2017/9/29 06:40:55.2下午, 1066.0, 53, 0, 44
722, 3.605, 2017/9/29 06:40:55.205下午, 1071.0, 52, 0, 45
723, 3.61, 2017/9/29 06:40:55.21下午, 1066.0, 53, 0, 45
724, 3.615, 2017/9/29 06:40:55.215下午, 1069.0, 51, 0, 46
725, 3.62, 2017/9/29 06:40:55.22下午, 1061.0, 52, 0, 45
726, 3.625, 2017/9/29 06:40:55.225下午, 1078.0, 52, 0, 45
727, 3.63, 2017/9/29 06:40:55.23下午, 1074.0, 52, 0, 45
728, 3.635, 2017/9/29 06:40:55.235下午, 1085.0, 53, 0, 44
729, 3.64, 2017/9/29 06:40:55.24下午, 1085.0, 54, 0, 44
730, 3.645, 2017/9/29 06:40:55.245下午, 1093.0, 53, 0, 46
731, 3.65, 2017/9/29 06:40:55.25下午, 1080.0, 52, 0, 45
732, 3.655, 2017/9/29 06:40:55.255下午, 1066.0, 52, 0, 45
733, 3.66, 2017/9/29 06:40:55.26下午, 1090.0, 53, 0, 46
734, 3.665, 2017/9/29 06:40:55.265下午, 1079.0, 53, 0, 44
735, 3.67, 2017/9/29 06:40:55.27下午, 1064.0, 53, 0, 44
736, 3.675, 2017/9/29 06:40:55.275下午, 1102.0, 53, 0, 45
737, 3.68, 2017/9/29 06:40:55.28下午, 1085.0, 52, 0, 46
738, 3.685, 2017/9/29 06:40:55.285下午, 1094.0, 53, 0, 45
739, 3.69, 2017/9/29 06:40:55.29下午, 1072.0, 52, 0, 46
740, 3.695, 2017/9/29 06:40:55.295下午, 1087.0, 55, 0, 44
741, 3.7, 2017/9/29 06:40:55.3下午, 1080.0, 54, 0, 44
742, 3.705, 2017/9/29 06:40:55.305下午, 1072.0, 52, 0, 46
743, 3.71, 2017/9/29 06:40:55.31下午, 1065.0, 52, 0, 44
744, 3.715, 2017/9/29 06:40:55.315下午, 1102.0, 52, 0, 46
745, 3.72, 2017/9/29 06:40:55.32下午, 1054.0, 53, 0, 45
746, 3.725, 2017/9/29 06:40:55.325下午, 1088.0, 52, 0, 47
747, 3.73, 2017/9/29 06:40:55.33下午, 1082.0, 54, 0, 45
748, 3.735, 2017/9/29 06:40:55.335下午, 1074.0, 52, 0, 45
749, 3.74, 2017/9/29 06:40:55.34下午, 1093.0, 53, 0, 44
750, 3.745, 2017/9/29 06:40:55.345下午, 1079.0, 53, 0, 46
751, 3.75, 2017/9/29 06:40:55.35下午, 1073.0, 53, 0, 45
752, 3.755, 2017/9/29 06:40:55.355下午, 1069.0, 52, 0, 45
753, 3.76, 2017/9/29 06:40:55.36下午, 1083.0, 53, 0, 46
754, 3.765, 2017/9/29 06:40:55.365下午, 1047.0, 53, 0, 44
755, 3.77, 2017/9/29 06:40:55.37下午, 1058.0, 52, 0, 45
756, 3.775, 2017/9/29 06:40:55.375下午, 1079.0, 53, 0, 45
757, 3.78, 2017/9/29 06:40:55.38下午, 1092.0, 54, 0, 46
758, 3.785, 2017/9/29 06:40:55.385下午, 1074.0, 53, 0, 45
759, 3.79, 2017/9/29 06:40:55.39下午, 1113.0, 53, 0, 46
760, 3.795, 2017/9/29 06:40:55.395下午, 1103.0, 53, 0, 45
761, 3.8, 2017/9/29 06:40:55.4下午, 1080.0, 53, 0, 45
762, 3.805, 2017/9/29 06:40:55.405下午, 1111.0, 54, 0, 45
763, 3.81, 2017/9/29 06:40:55.41下午, 1094.0, 52, 0, 46
764, 3.815, 2017/9/29 06:40:55.415下午, 1080.0, 53, 0, 45
765, 3.82, 2017/9/29 06:40:55.42下午, 1057.0, 54, 0, 44
766, 3.825, 2017/9/29 06:40:55.425下午, 1096.0, 53, 0, 45
767, 3.83, 2017/9/29 06:40:55.43下午, 1064.0, 53, 0, 44
768, 3.835, 2017/9/29 06:40:55.435下午, 1060.0, 53, 0, 43
769, 3.84, 2017/9/29 06:40:55.44下午, 1060.0, 53, 0, 45
770, 3.845, 2017/9/29 06:40:55.445下午, 1090.0, 53, 0, 46
771, 3.85, 2017/9/29 06:40:55.45下午, 1056.0, 53, 0, 45
772, 3.855, 2017/9/29 06:40:55.455下午, 1068.0, 52, 0, 45
773, 3.86, 2017/9/29 06:40:55.46下午, 1071.0, 53, 0, 44
774, 3.865, 2017/9/29 06:40:55.465下午, 1075.0, 53, 0, 44
775, 3.87, 2017/9/29 06:40:55.47下午, 1088.0, 52, 0, 46
776, 3.875, 2017/9/29 06:40:55.475下午, 1074.0, 53, 0, 46
777, 3.88, 2017/9/29 06:40:55.48下午, 1080.0, 53, 0, 45
778, 3.885, 2017/9/29 06:40:55.485下午, 1091.0, 53, 0, 45
779, 3.89, 2017/9/29 06:40:55.49下午, 1090.0, 54, 0, 45
780, 3.895, 2017/9/29 06:40:55.495下午, 1080.0, 54, 0, 45
781, 3.9, 2017/9/29 06:40:55.5下午, 1078.0, 53, 0, 45
782, 3.905, 2017/9/29 06:40:55.505下午, 1074.0, 54, 0, 45
783, 3.91, 2017/9/29 06:40:55.51下午, 1090.0, 54, 0, 46
784, 3.915, 2017/9/29 06:40:55.515下午, 1063.0, 53, 0, 44
785, 3.92, 2017/9/29 06:40:55.52下午, 1067.0, 53, 0, 44
786, 3.925, 2017/9/29 06:40:55.525下午, 1110.0, 54, 0, 45
787, 3.93, 2017/9/29 06:40:55.53下午, 1067.0, 53, 0, 45
788, 3.935, 2017/9/29 06:40:55.535下午, 1079.0, 53, 0, 45
789, 3.94, 2017/9/29 06:40:55.54下午, 1066.0, 53, 0, 45
790, 3.945, 2017/9/29 06:40:55.545下午, 1112.0, 53, 0, 46
791, 3.95, 2017/9/29 06:40:55.55下午, 1090.0, 53, 0, 45
792, 3.955, 2017/9/29 06:40:55.555下午, 1073.0, 53, 0, 45
793, 3.96, 2017/9/29 06:40:55.56下午, 1084.0, 53, 0, 44
794, 3.965, 2017/9/29 06:40:55.565下午, 1064.0, 55, 0, 45
795, 3.97, 2017/9/29 06:40:55.57下午, 1078.0, 52, 0, 45
796, 3.975, 2017/9/29 06:40:55.575下午, 1069.0, 53, 0, 45
797, 3.98, 2017/9/29 06:40:55.58下午, 1070.0, 53, 0, 45
798, 3.985, 2017/9/29 06:40:55.585下午, 1073.0, 53, 0, 45
799, 3.99, 2017/9/29 06:40:55.59下午, 1058.0, 52, 0, 44
800, 3.995, 2017/9/29 06:40:55.595下午, 1090.0, 53, 0, 45
801, 4, 2017/9/29 06:40:55.6下午, 1051.0, 52, 0, 45
802, 4.005, 2017/9/29 06:40:55.605下午, 1074.0, 53, 0, 45
803, 4.01, 2017/9/29 06:40:55.61下午, 1111.0, 53, 0, 46
804, 4.015, 2017/9/29 06:40:55.615下午, 1095.0, 53, 0, 46
805, 4.02, 2017/9/29 06:40:55.62下午, 1075.0, 52, 0, 44
806, 4.025, 2017/9/29 06:40:55.625下午, 1068.0, 53, 0, 44
807, 4.03, 2017/9/29 06:40:55.63下午, 1087.0, 52, 0, 46
808, 4.035, 2017/9/29 06:40:55.635下午, 1065.0, 53, 0, 45
809, 4.04, 2017/9/29 06:40:55.64下午, 1095.0, 52, 0, 47
810, 4.045, 2017/9/29 06:40:55.645下午, 1094.0, 53, 0, 46
811, 4.05, 2017/9/29 06:40:55.65下午, 1095.0, 53, 0, 46
812, 4.055, 2017/9/29 06:40:55.655下午, 1079.0, 53, 0, 46
813, 4.06, 2017/9/29 06:40:55.66下午, 1074.0, 52, 0, 45
814, 4.065, 2017/9/29 06:40:55.665下午, 1082.0, 53, 0, 45
815, 4.07, 2017/9/29 06:40:55.67下午, 1078.0, 53, 0, 45
816, 4.075, 2017/9/29 06:40:55.675下午, 1079.0, 52, 0, 45
817, 4.08, 2017/9/29 06:40:55.68下午, 1073.0, 53, 0, 44
818, 4.085, 2017/9/29 06:40:55.685下午, 1066.0, 53, 0, 45
819, 4.09, 2017/9/29 06:40:55.69下午, 1046.0, 53, 0, 44
820, 4.095, 2017/9/29 06:40:55.695下午, 1087.0, 53, 0, 45
821, 4.1, 2017/9/29 06:40:55.7下午, 1064.0, 53, 0, 45
822, 4.105, 2017/9/29 06:40:55.705下午, 1068.0, 53, 0, 46
823, 4.11, 2017/9/29 06:40:55.71下午, 1088.0, 53, 0, 45
824, 4.115, 2017/9/29 06:40:55.715下午, 1066.0, 52, 0, 45
825, 4.12, 2017/9/29 06:40:55.72下午, 1049.0, 51, 0, 44
826, 4.125, 2017/9/29 06:40:55.725下午, 1072.0, 53, 0, 44
827, 4.13, 2017/9/29 06:40:55.73下午, 1109.0, 53, 0, 46
828, 4.135, 2017/9/29 06:40:55.735下午, 1098.0, 52, 0, 46
829, 4.14, 2017/9/29 06:40:55.74下午, 1086.0, 52, 0, 46
830, 4.145, 2017/9/29 06:40:55.745下午, 1081.0, 53, 0, 46
831, 4.15, 2017/9/29 06:40:55.75下午, 1073.0, 52, 0, 46
832, 4.155, 2017/9/29 06:40:55.755下午, 1061.0, 52, 0, 44
833, 4.16, 2017/9/29 06:40:55.76下午, 1074.0, 52, 0, 45
834, 4.165, 2017/9/29 06:40:55.765下午, 1073.0, 53, 0, 45
835, 4.17, 2017/9/29 06:40:55.77下午, 1071.0, 52, 0, 44
836, 4.175, 2017/9/29 06:40:55.775下午, 1082.0, 52, 0, 44
837, 4.18, 2017/9/29 06:40:55.78下午, 1065.0, 53, 0, 44
838, 4.185, 2017/9/29 06:40:55.785下午, 1074.0, 53, 0, 44
839, 4.19, 2017/9/29 06:40:55.79下午, 1072.0, 52, 0, 44
840, 4.195, 2017/9/29 06:40:55.795下午, 1101.0, 52, 0, 46
841, 4.2, 2017/9/29 06:40:55.8下午, 1063.0, 52, 0, 46
842, 4.205, 2017/9/29 06:40:55.805下午, 1083.0, 52, 0, 44
843, 4.21, 2017/9/29 06:40:55.81下午, 1094.0, 53, 0, 46
844, 4.215, 2017/9/29 06:40:55.815下午, 1055.0, 52, 0, 45
845, 4.22, 2017/9/29 06:40:55.82下午, 1062.0, 53, 0, 44
846, 4.225, 2017/9/29 06:40:55.825下午, 1093.0, 53, 0, 45
847, 4.23, 2017/9/29 06:40:55.83下午, 1075.0, 52, 0, 44
848, 4.235, 2017/9/29 06:40:55.835下午, 1047.0, 52, 0, 44
849, 4.24, 2017/9/29 06:40:55.84下午, 1072.0, 52, 0, 45
850, 4.245, 2017/9/29 06:40:55.845下午, 1088.0, 53, 0, 44
851, 4.25, 2017/9/29 06:40:55.85下午, 1084.0, 52, 0, 45
852, 4.255, 2017/9/29 06:40:55.855下午, 1054.0, 52, 0, 45
853, 4.26, 2017/9/29 06:40:55.86下午, 1068.0, 54, 0, 44
854, 4.265, 2017/9/29 06:40:55.865下午, 1057.0, 53, 0, 46
855, 4.27, 2017/9/29 06:40:55.87下午, 1054.0, 52, 0, 45
856, 4.275, 2017/9/29 06:40:55.875下午, 1052.0, 52, 0, 45
857, 4.28, 2017/9/29 06:40:55.88下午, 1092.0, 53, 0, 46
858, 4.285, 2017/9/29 06:40:55.885下午, 1077.0, 52, 0, 46
859, 4.29, 2017/9/29 06:40:55.89下午, 1085.0, 53, 0, 45
860, 4.295, 2017/9/29 06:40:55.895下午, 1070.0, 53, 0, 44
861, 4.3, 2017/9/29 06:40:55.9下午, 1069.0, 53, 0, 45
862, 4.305, 2017/9/29 06:40:55.905下午, 1065.0, 52, 0, 45
863, 4.31, 2017/9/29 06:40:55.91下午, 1051.0, 53, 0, 44
864, 4.315, 2017/9/29 06:40:55.915下午, 1071.0, 53, 0, 45
865, 4.32, 2017/9/29 06:40:55.92下午, 1072.0, 51, 0, 45
866, 4.325, 2017/9/29 06:40:55.925下午, 1070.0, 52, 0, 45
867, 4.33, 2017/9/29 06:40:55.93下午, 1061.0, 53, 0, 44
868, 4.335, 2017/9/29 06:40:55.935下午, 1057.0, 52, 0, 44
869, 4.34, 2017/9/29 06:40:55.94下午, 1068.0, 52, 0, 44
870, 4.345, 2017/9/29 06:40:55.945下午, 1091.0, 52, 0, 45
871, 4.35, 2017/9/29 06:40:55.95下午, 1065.0, 53, 0, 44
872, 4.355, 2017/9/29 06:40:55.955下午, 1072.0, 52, 0, 45
873, 4.36, 2017/9/29 06:40:55.96下午, 1070.0, 53, 0, 45
874, 4.365, 2017/9/29 06:40:55.965下午, 1068.0, 52, 0, 46
875, 4.37, 2017/9/29 06:40:55.97下午, 1056.0, 53, 0, 45
876, 4.375, 2017/9/29 06:40:55.975下午, 1082.0, 53, 0, 45
877, 4.38, 2017/9/29 06:40:55.98下午, 1078.0, 53, 0, 45
878, 4.385, 2017/9/29 06:40:55.985下午, 1054.0, 52, 0, 44
879, 4.39, 2017/9/29 06:40:55.99下午, 1065.0, 51, 0, 44
880, 4.395, 2017/9/29 06:40:55.995下午, 1084.0, 53, 0, 45
881, 4.4, 2017/9/29 06:40:56下午, 1042.0, 53, 0, 45
882, 4.405, 2017/9/29 06:40:56.005下午, 1067.0, 53, 0, 44
883, 4.41, 2017/9/29 06:40:56.01下午, 1081.0, 53, 0, 44
884, 4.415, 2017/9/29 06:40:56.015下午, 1075.0, 53, 0, 46
885, 4.42, 2017/9/29 06:40:56.02下午, 1048.0, 53, 0, 44
886, 4.425, 2017/9/29 06:40:56.025下午, 1060.0, 53, 0, 44
887, 4.43, 2017/9/29 06:40:56.03下午, 1073.0, 53, 0, 44
888, 4.435, 2017/9/29 06:40:56.035下午, 1069.0, 52, 0, 45
889, 4.44, 2017/9/29 06:40:56.04下午, 1065.0, 53, 0, 44
890, 4.445, 2017/9/29 06:40:56.045下午, 1091.0, 53, 0, 44
891, 4.45, 2017/9/29 06:40:56.05下午, 1072.0, 52, 0, 45
892, 4.455, 2017/9/29 06:40:56.055下午, 1038.0, 52, 0, 44
893, 4.46, 2017/9/29 06:40:56.06下午, 1067.0, 52, 0, 46
894, 4.465, 2017/9/29 06:40:56.065下午, 1091.0, 52, 0, 46
895, 4.47, 2017/9/29 06:40:56.07下午, 1044.0, 51, 0, 45
896, 4.475, 2017/9/29 06:40:56.075下午, 1083.0, 53, 0, 44
897, 4.48, 2017/9/29 06:40:56.08下午, 1092.0, 53, 0, 45
898, 4.485, 2017/9/29 06:40:56.085下午, 1076.0, 52, 0, 45
899, 4.49, 2017/9/29 06:40:56.09下午, 1090.0, 53, 0, 45
900, 4.495, 2017/9/29 06:40:56.095下午, 1084.0, 53, 0, 45
901, 4.5, 2017/9/29 06:40:56.1下午, 1079.0, 52, 0, 46
902, 4.505, 2017/9/29 06:40:56.105下午, 1053.0, 51, 0, 44
903, 4.51, 2017/9/29 06:40:56.11下午, 1068.0, 52, 0, 45
904, 4.515, 2017/9/29 06:40:56.115下午, 1078.0, 53, 0, 45
905, 4.52, 2017/9/29 06:40:56.12下午, 1057.0, 52, 0, 45
906, 4.525, 2017/9/29 06:40:56.125下午, 1064.0, 53, 0, 44
907, 4.53, 2017/9/29 06:40:56.13下午, 1072.0, 53, 0, 45
908, 4.535, 2017/9/29 06:40:56.135下午, 1076.0, 53, 0, 45
909, 4.54, 2017/9/29 06:40:56.14下午, 1074.0, 53, 0, 45
910, 4.545, 2017/9/29 06:40:56.145下午, 1060.0, 53, 0, 44
911, 4.55, 2017/9/29 06:40:56.15下午, 1066.0, 52, 0, 45
912, 4.555, 2017/9/29 06:40:56.155下午, 1050.0, 52, 0, 44
913, 4.56, 2017/9/29 06:40:56.16下午, 1086.0, 53, 0, 45
914, 4.565, 2017/9/29 06:40:56.165下午, 1076.0, 52, 0, 45
915, 4.57, 2017/9/29 06:40:56.17下午, 1074.0, 52, 0, 45
916, 4.575, 2017/9/29 06:40:56.175下午, 1087.0, 53, 0, 45
917, 4.58, 2017/9/29 06:40:56.18下午, 1080.0, 53, 0, 44
918, 4.585, 2017/9/29 06:40:56.185下午, 1049.0, 53, 0, 44
919, 4.59, 2017/9/29 06:40:56.19下午, 1065.0, 53, 0, 45
920, 4.595, 2017/9/29 06:40:56.195下午, 1057.0, 54, 0, 45
921, 4.6, 2017/9/29 06:40:56.2下午, 1067.0, 52, 0, 45
922, 4.605, 2017/9/29 06:40:56.205下午, 1070.0, 52, 0, 45
923, 4.61, 2017/9/29 06:40:56.21下午, 1059.0, 53, 0, 45
924, 4.615, 2017/9/29 06:40:56.215下午, 1075.0, 52, 0, 45
925, 4.62, 2017/9/29 06:40:56.22下午, 1040.0, 52, 0, 45
926, 4.625, 2017/9/29 06:40:56.225下午, 1087.0, 53, 0, 45
927, 4.63, 2017/9/29 06:40:56.23下午, 1081.0, 53, 0, 46
928, 4.635, 2017/9/29 06:40:56.235下午, 1069.0, 52, 0, 44
929, 4.64, 2017/9/29 06:40:56.24下午, 1080.0, 53, 0, 44
930, 4.645, 2017/9/29 06:40:56.245下午, 1094.0, 54, 0, 45
931, 4.65, 2017/9/29 06:40:56.25下午, 1079.0, 52, 0, 45
932, 4.655, 2017/9/29 06:40:56.255下午, 1050.0, 54, 0, 44
933, 4.66, 2017/9/29 06:40:56.26下午, 1069.0, 53, 0, 44
934, 4.665, 2017/9/29 06:40:56.265下午, 1069.0, 52, 0, 45
935, 4.67, 2017/9/29 06:40:56.27下午, 1051.0, 53, 0, 44
936, 4.675, 2017/9/29 06:40:56.275下午, 1093.0, 53, 0, 44
937, 4.68, 2017/9/29 06:40:56.28下午, 1095.0, 54, 0, 46
938, 4.685, 2017/9/29 06:40:56.285下午, 1080.0, 52, 0, 45
939, 4.69, 2017/9/29 06:40:56.29下午, 1051.0, 54, 0, 45
940, 4.695, 2017/9/29 06:40:56.295下午, 1107.0, 54, 0, 46
941, 4.7, 2017/9/29 06:40:56.3下午, 1084.0, 54, 0, 45
942, 4.705, 2017/9/29 06:40:56.305下午, 1038.0, 52, 0, 44
943, 4.71, 2017/9/29 06:40:56.31下午, 1055.0, 53, 0, 44
944, 4.715, 2017/9/29 06:40:56.315下午, 1071.0, 54, 0, 45
945, 4.72, 2017/9/29 06:40:56.32下午, 1049.0, 52, 0, 44
946, 4.725, 2017/9/29 06:40:56.325下午, 1067.0, 53, 0, 45
947, 4.73, 2017/9/29 06:40:56.33下午, 1083.0, 54, 0, 45
948, 4.735, 2017/9/29 06:40:56.335下午, 1090.0, 54, 0, 45
949, 4.74, 2017/9/29 06:40:56.34下午, 1057.0, 53, 0, 44
950, 4.745, 2017/9/29 06:40:56.345下午, 1081.0, 54, 0, 45
951, 4.75, 2017/9/29 06:40:56.35下午, 1068.0, 53, 0, 45
952, 4.755, 2017/9/29 06:40:56.355下午, 1059.0, 53, 0, 45
953, 4.76, 2017/9/29 06:40:56.36下午, 1069.0, 52, 0, 45
954, 4.765, 2017/9/29 06:40:56.365下午, 1056.0, 54, 0, 44
955, 4.77, 2017/9/29 06:40:56.37下午, 1074.0, 53, 0, 44
956, 4.775, 2017/9/29 06:40:56.375下午, 1058.0, 53, 0, 44
957, 4.78, 2017/9/29 06:40:56.38下午, 1089.0, 53, 0, 45
958, 4.785, 2017/9/29 06:40:56.385下午, 1049.0, 54, 0, 43
959, 4.79, 2017/9/29 06:40:56.39下午, 1079.0, 54, 0, 45
960, 4.795, 2017/9/29 06:40:56.395下午, 1084.0, 53, 0, 46
961, 4.8, 2017/9/29 06:40:56.4下午, 1055.0, 54, 0, 44
962, 4.805, 2017/9/29 06:40:56.405下午, 1081.0, 54, 0, 44
963, 4.81, 2017/9/29 06:40:56.41下午, 1088.0, 53, 0, 46
964, 4.815, 2017/9/29 06:40:56.415下午, 1074.0, 53, 0, 46
965, 4.82, 2017/9/29 06:40:56.42下午, 1057.0, 54, 0, 44
966, 4.825, 2017/9/29 06:40:56.425下午, 1079.0, 54, 0, 44
967, 4.83, 2017/9/29 06:40:56.43下午, 1060.0, 54, 0, 45
968, 4.835, 2017/9/29 06:40:56.435下午, 1078.0, 53, 0, 45
969, 4.84, 2017/9/29 06:40:56.44下午, 1065.0, 53, 0, 45
970, 4.845, 2017/9/29 06:40:56.445下午, 1100.0, 54, 0, 45
971, 4.85, 2017/9/29 06:40:56.45下午, 1080.0, 54, 0, 45
972, 4.855, 2017/9/29 06:40:56.455下午, 1063.0, 53, 0, 44
973, 4.86, 2017/9/29 06:40:56.46下午, 1081.0, 54, 0, 44
974, 4.865, 2017/9/29 06:40:56.465下午, 1080.0, 54, 0, 45
975, 4.87, 2017/9/29 06:40:56.47下午, 1057.0, 52, 0, 45
976, 4.875, 2017/9/29 06:40:56.475下午, 1082.0, 53, 0, 45
977, 4.88, 2017/9/29 06:40:56.48下午, 1084.0, 53, 0, 44
978, 4.885, 2017/9/29 06:40:56.485下午, 1076.0, 54, 0, 45
979, 4.89, 2017/9/29 06:40:56.49下午, 1074.0, 54, 0, 44
980, 4.895, 2017/9/29 06:40:56.495下午, 1085.0, 54, 0, 45
981, 4.9, 2017/9/29 06:40:56.5下午, 1074.0, 53, 0, 45
982, 4.905, 2017/9/29 06:40:56.505下午, 1055.0, 53, 0, 45
983, 4.91, 2017/9/29 06:40:56.51下午, 1076.0, 53, 0, 46
984, 4.915, 2017/9/29 06:40:56.515下午, 1069.0, 53, 0, 45
985, 4.92, 2017/9/29 06:40:56.52下午, 1027.0, 53, 0, 43
986, 4.925, 2017/9/29 06:40:56.525下午, 1054.0, 55, 0, 44
987, 4.93, 2017/9/29 06:40:56.53下午, 1082.0, 53, 0, 46
988, 4.935, 2017/9/29 06:40:56.535下午, 1071.0, 53, 0, 45
989, 4.94, 2017/9/29 06:40:56.54下午, 1082.0, 53, 0, 44
990, 4.945, 2017/9/29 06:40:56.545下午, 1099.0, 54, 0, 45
991, 4.95, 2017/9/29 06:40:56.55下午, 1064.0, 53, 0, 45
992, 4.955, 2017/9/29 06:40:56.555下午, 1063.0, 53, 0, 45
993, 4.96, 2017/9/29 06:40:56.56下午, 1070.0, 54, 0, 44
994, 4.965, 2017/9/29 06:40:56.565下午, 1043.0, 53, 0, 43
995, 4.97, 2017/9/29 06:40:56.57下午, 1080.0, 53, 0, 45
996, 4.975, 2017/9/29 06:40:56.575下午, 1058.0, 53, 0, 46
997, 4.98, 2017/9/29 06:40:56.58下午, 1079.0, 53, 0, 44
998, 4.985, 2017/9/29 06:40:56.585下午, 1069.0, 53, 0, 45
999, 4.99, 2017/9/29 06:40:56.59下午, 1060.0, 54, 0, 45
1000, 4.995, 2017/9/29 06:40:56.595下午, 1066.0, 53, 0, 44
@@
