DATA_TYPE Graph
VERSION Tekscan Pressure Measurement System 6.70-03
HARDWARE 00114-3447
MAP_VERSION 6.5
HW_TYPE 4
VersaPogoFsx 0
檔案名 C:\Users\asus\Desktop\工研院_計畫\收案資料\Subject02\Plantar Pressure\R65_STAND_RIGHT_1.fsx
SENSOR_TYPE FSCAN
ROWS 60
COLS 21
ROW_SPACING 0.508 centimeters
COL_SPACING 0.508 centimeters
SENSEL_AREA 0.258064 cm2
NOISE_THRESHOLD 3
SECONDS_PER_FRAME 0.005
SECONDS_PER_FRAME 0
MICRO_SECOND 0
TIME 2017/11/15 10:45:02.275上午
SATURATION_PRESSURE 2347.96 KPa 
CALIBRATION_POINT_1 48.0001 (Kilograms) 1981 (Raw Sum) 199 (Number of Loaded Cells)
CALIBRATION_MODE_1 步態
CALIBRATION_INFO C:\Users\asus\Desktop\工研院_計畫\收案資料\Subject02\Plantar Pressure\R65_STAND_RIGHT_1.fsx
SENSITIVITY 自定義
MAP_INDEX 0
SUBMAP 0
Patient ID: 

Speed of Gait: 

Weight: 

Gender: 

Physician: 

Technician: 

Shoe: 

START_FRAME 1
END_FRAME 600
UNITS cm2
ASCII_DATA @@
畫面(X), 時間(X), 絕對時間(X), Raw Sum, 區域(Y:天藍色), 區域(Y), 區域(Y), 區域(Y)
1, 0, 2017/11/15 10:45:02.275上午, 564.0, 13.68, 1.81, 13.42, 28.90
2, 0.005, 2017/11/15 10:45:02.28上午, 575.0, 13.42, 2.32, 13.68, 29.42
3, 0.01, 2017/11/15 10:45:02.285上午, 578.0, 13.68, 2.32, 13.94, 29.94
4, 0.015, 2017/11/15 10:45:02.29上午, 564.0, 13.16, 2.06, 13.42, 28.65
5, 0.02, 2017/11/15 10:45:02.295上午, 570.0, 13.16, 2.58, 13.42, 29.16
6, 0.025, 2017/11/15 10:45:02.3上午, 582.0, 13.42, 1.81, 14.45, 29.68
7, 0.03, 2017/11/15 10:45:02.305上午, 573.0, 13.42, 2.58, 13.94, 29.94
8, 0.035, 2017/11/15 10:45:02.31上午, 584.0, 13.68, 2.32, 13.94, 29.94
9, 0.04, 2017/11/15 10:45:02.315上午, 568.0, 13.94, 1.55, 13.42, 28.90
10, 0.045, 2017/11/15 10:45:02.32上午, 560.0, 13.16, 1.55, 13.42, 28.13
11, 0.05, 2017/11/15 10:45:02.325上午, 561.0, 12.65, 2.32, 13.68, 28.65
12, 0.055, 2017/11/15 10:45:02.33上午, 572.0, 13.68, 2.32, 13.68, 29.68
13, 0.06, 2017/11/15 10:45:02.335上午, 571.0, 13.42, 2.06, 13.68, 29.16
14, 0.065, 2017/11/15 10:45:02.34上午, 571.0, 13.42, 2.32, 13.42, 29.16
15, 0.07, 2017/11/15 10:45:02.345上午, 566.0, 13.68, 2.58, 13.16, 29.42
16, 0.075, 2017/11/15 10:45:02.35上午, 574.0, 13.16, 2.06, 14.19, 29.42
17, 0.08, 2017/11/15 10:45:02.355上午, 564.0, 13.16, 2.32, 13.16, 28.65
18, 0.085, 2017/11/15 10:45:02.36上午, 574.0, 13.42, 2.58, 13.68, 29.68
19, 0.09, 2017/11/15 10:45:02.365上午, 572.0, 13.42, 2.32, 13.94, 29.68
20, 0.095, 2017/11/15 10:45:02.37上午, 578.0, 13.16, 2.84, 14.19, 30.19
21, 0.1, 2017/11/15 10:45:02.375上午, 565.0, 13.16, 1.81, 13.68, 28.65
22, 0.105, 2017/11/15 10:45:02.38上午, 569.0, 13.16, 2.06, 13.94, 29.16
23, 0.11, 2017/11/15 10:45:02.385上午, 569.0, 13.16, 2.06, 14.19, 29.42
24, 0.115, 2017/11/15 10:45:02.39上午, 571.0, 13.16, 2.58, 13.94, 29.68
25, 0.12, 2017/11/15 10:45:02.395上午, 560.0, 13.42, 2.06, 13.94, 29.42
26, 0.125, 2017/11/15 10:45:02.4上午, 554.0, 12.90, 1.81, 13.94, 28.65
27, 0.13, 2017/11/15 10:45:02.405上午, 562.0, 13.68, 1.55, 13.94, 29.16
28, 0.135, 2017/11/15 10:45:02.41上午, 549.0, 13.16, 1.29, 13.94, 28.39
29, 0.14, 2017/11/15 10:45:02.415上午, 547.0, 13.16, 1.55, 13.68, 28.39
30, 0.145, 2017/11/15 10:45:02.42上午, 562.0, 13.42, 1.81, 14.19, 29.42
31, 0.15, 2017/11/15 10:45:02.425上午, 546.0, 13.42, 0.77, 13.68, 27.87
32, 0.155, 2017/11/15 10:45:02.43上午, 550.0, 13.16, 1.55, 12.90, 27.61
33, 0.16, 2017/11/15 10:45:02.435上午, 569.0, 12.90, 2.58, 13.68, 29.16
34, 0.165, 2017/11/15 10:45:02.44上午, 567.0, 12.90, 2.58, 13.68, 29.16
35, 0.17, 2017/11/15 10:45:02.445上午, 559.0, 13.16, 2.32, 13.68, 29.16
36, 0.175, 2017/11/15 10:45:02.45上午, 566.0, 12.90, 2.32, 13.68, 28.90
37, 0.18, 2017/11/15 10:45:02.455上午, 559.0, 13.16, 2.06, 13.68, 28.90
38, 0.185, 2017/11/15 10:45:02.46上午, 563.0, 13.16, 2.32, 14.19, 29.68
39, 0.19, 2017/11/15 10:45:02.465上午, 564.0, 12.90, 2.32, 13.68, 28.90
40, 0.195, 2017/11/15 10:45:02.47上午, 558.0, 13.16, 1.81, 13.68, 28.65
41, 0.2, 2017/11/15 10:45:02.475上午, 557.0, 12.90, 2.06, 13.68, 28.65
42, 0.205, 2017/11/15 10:45:02.48上午, 540.0, 13.16, 0.52, 13.94, 27.61
43, 0.21, 2017/11/15 10:45:02.485上午, 548.0, 13.16, 2.06, 13.42, 28.65
44, 0.215, 2017/11/15 10:45:02.49上午, 556.0, 13.16, 1.55, 14.19, 28.90
45, 0.22, 2017/11/15 10:45:02.495上午, 536.0, 12.39, 0.77, 14.45, 27.61
46, 0.225, 2017/11/15 10:45:02.5上午, 569.0, 12.90, 2.58, 14.45, 29.94
47, 0.23, 2017/11/15 10:45:02.505上午, 568.0, 13.16, 2.58, 13.94, 29.68
48, 0.235, 2017/11/15 10:45:02.51上午, 566.0, 12.90, 2.32, 14.45, 29.68
49, 0.24, 2017/11/15 10:45:02.515上午, 562.0, 12.39, 2.58, 14.19, 29.16
50, 0.245, 2017/11/15 10:45:02.52上午, 560.0, 12.65, 2.58, 13.68, 28.90
51, 0.25, 2017/11/15 10:45:02.525上午, 568.0, 13.16, 2.32, 13.94, 29.42
52, 0.255, 2017/11/15 10:45:02.53上午, 550.0, 12.90, 2.06, 13.42, 28.39
53, 0.26, 2017/11/15 10:45:02.535上午, 564.0, 13.42, 2.32, 13.42, 29.16
54, 0.265, 2017/11/15 10:45:02.54上午, 561.0, 13.16, 2.32, 13.68, 29.16
55, 0.27, 2017/11/15 10:45:02.545上午, 552.0, 12.90, 2.06, 13.68, 28.65
56, 0.275, 2017/11/15 10:45:02.55上午, 567.0, 12.90, 2.32, 13.68, 28.90
57, 0.28, 2017/11/15 10:45:02.555上午, 578.0, 13.16, 3.10, 14.19, 30.45
58, 0.285, 2017/11/15 10:45:02.56上午, 560.0, 13.16, 2.32, 13.94, 29.42
59, 0.29, 2017/11/15 10:45:02.565上午, 565.0, 13.16, 2.84, 13.68, 29.68
60, 0.295, 2017/11/15 10:45:02.57上午, 554.0, 13.16, 2.06, 13.68, 28.90
61, 0.3, 2017/11/15 10:45:02.575上午, 552.0, 13.16, 1.81, 13.68, 28.65
62, 0.305, 2017/11/15 10:45:02.58上午, 551.0, 13.16, 1.55, 13.68, 28.39
63, 0.31, 2017/11/15 10:45:02.585上午, 564.0, 13.16, 2.58, 14.19, 29.94
64, 0.315, 2017/11/15 10:45:02.59上午, 553.0, 13.16, 1.81, 13.94, 28.90
65, 0.32, 2017/11/15 10:45:02.595上午, 562.0, 13.16, 2.58, 13.94, 29.68
66, 0.325, 2017/11/15 10:45:02.6上午, 554.0, 13.16, 2.58, 13.94, 29.68
67, 0.33, 2017/11/15 10:45:02.605上午, 565.0, 13.16, 2.84, 13.94, 29.94
68, 0.335, 2017/11/15 10:45:02.61上午, 557.0, 13.16, 2.06, 14.19, 29.42
69, 0.34, 2017/11/15 10:45:02.615上午, 556.0, 13.16, 2.58, 13.42, 29.16
70, 0.345, 2017/11/15 10:45:02.62上午, 561.0, 13.16, 2.06, 14.45, 29.68
71, 0.35, 2017/11/15 10:45:02.625上午, 544.0, 12.65, 1.55, 14.45, 28.65
72, 0.355, 2017/11/15 10:45:02.63上午, 553.0, 12.65, 2.06, 14.45, 29.16
73, 0.36, 2017/11/15 10:45:02.635上午, 552.0, 13.16, 1.81, 14.19, 29.16
74, 0.365, 2017/11/15 10:45:02.64上午, 553.0, 12.90, 1.81, 14.45, 29.16
75, 0.37, 2017/11/15 10:45:02.645上午, 556.0, 13.16, 2.58, 13.94, 29.68
76, 0.375, 2017/11/15 10:45:02.65上午, 555.0, 12.90, 1.55, 14.45, 28.90
77, 0.38, 2017/11/15 10:45:02.655上午, 560.0, 13.16, 2.06, 14.45, 29.68
78, 0.385, 2017/11/15 10:45:02.66上午, 558.0, 13.16, 2.06, 13.68, 28.90
79, 0.39, 2017/11/15 10:45:02.665上午, 565.0, 13.16, 2.32, 14.19, 29.68
80, 0.395, 2017/11/15 10:45:02.67上午, 558.0, 12.90, 2.06, 14.19, 29.16
81, 0.4, 2017/11/15 10:45:02.675上午, 556.0, 13.16, 1.55, 14.19, 28.90
82, 0.405, 2017/11/15 10:45:02.68上午, 562.0, 12.90, 2.32, 13.94, 29.16
83, 0.41, 2017/11/15 10:45:02.685上午, 550.0, 12.90, 1.81, 13.68, 28.39
84, 0.415, 2017/11/15 10:45:02.69上午, 556.0, 13.16, 2.32, 13.68, 29.16
85, 0.42, 2017/11/15 10:45:02.695上午, 573.0, 13.16, 2.84, 14.45, 30.45
86, 0.425, 2017/11/15 10:45:02.7上午, 564.0, 13.16, 2.32, 14.19, 29.68
87, 0.43, 2017/11/15 10:45:02.705上午, 563.0, 13.16, 2.58, 14.45, 30.19
88, 0.435, 2017/11/15 10:45:02.71上午, 558.0, 13.16, 2.58, 14.45, 30.19
89, 0.44, 2017/11/15 10:45:02.715上午, 562.0, 13.16, 2.58, 14.45, 30.19
90, 0.445, 2017/11/15 10:45:02.72上午, 554.0, 13.16, 1.81, 14.45, 29.42
91, 0.45, 2017/11/15 10:45:02.725上午, 558.0, 13.16, 1.81, 14.19, 29.16
92, 0.455, 2017/11/15 10:45:02.73上午, 563.0, 13.16, 2.58, 13.68, 29.42
93, 0.46, 2017/11/15 10:45:02.735上午, 552.0, 13.16, 1.55, 13.94, 28.65
94, 0.465, 2017/11/15 10:45:02.74上午, 551.0, 12.90, 1.55, 14.45, 28.90
95, 0.47, 2017/11/15 10:45:02.745上午, 554.0, 12.90, 2.32, 14.19, 29.42
96, 0.475, 2017/11/15 10:45:02.75上午, 560.0, 12.65, 2.32, 14.45, 29.42
97, 0.48, 2017/11/15 10:45:02.755上午, 559.0, 13.16, 2.58, 13.94, 29.68
98, 0.485, 2017/11/15 10:45:02.76上午, 556.0, 13.16, 2.58, 13.68, 29.42
99, 0.49, 2017/11/15 10:45:02.765上午, 548.0, 12.90, 2.06, 13.94, 28.90
100, 0.495, 2017/11/15 10:45:02.77上午, 556.0, 13.16, 2.32, 13.68, 29.16
101, 0.5, 2017/11/15 10:45:02.775上午, 560.0, 13.16, 2.32, 14.19, 29.68
102, 0.505, 2017/11/15 10:45:02.78上午, 554.0, 13.16, 2.32, 13.94, 29.42
103, 0.51, 2017/11/15 10:45:02.785上午, 558.0, 13.16, 2.58, 14.19, 29.94
104, 0.515, 2017/11/15 10:45:02.79上午, 539.0, 13.16, 0.52, 13.68, 27.35
105, 0.52, 2017/11/15 10:45:02.795上午, 528.0, 12.65, 0.77, 13.42, 26.84
106, 0.525, 2017/11/15 10:45:02.8上午, 555.0, 12.65, 2.06, 14.45, 29.16
107, 0.53, 2017/11/15 10:45:02.805上午, 555.0, 12.39, 2.32, 14.45, 29.16
108, 0.535, 2017/11/15 10:45:02.81上午, 563.0, 12.65, 2.58, 14.45, 29.68
109, 0.54, 2017/11/15 10:45:02.815上午, 559.0, 12.65, 2.58, 13.94, 29.16
110, 0.545, 2017/11/15 10:45:02.82上午, 553.0, 12.90, 2.06, 13.68, 28.65
111, 0.55, 2017/11/15 10:45:02.825上午, 561.0, 13.16, 2.06, 13.94, 29.16
112, 0.555, 2017/11/15 10:45:02.83上午, 558.0, 13.16, 2.06, 14.19, 29.42
113, 0.56, 2017/11/15 10:45:02.835上午, 557.0, 13.16, 1.81, 14.19, 29.16
114, 0.565, 2017/11/15 10:45:02.84上午, 561.0, 13.42, 2.58, 14.19, 30.19
115, 0.57, 2017/11/15 10:45:02.845上午, 562.0, 13.16, 2.06, 14.45, 29.68
116, 0.575, 2017/11/15 10:45:02.85上午, 566.0, 13.16, 2.32, 14.19, 29.68
117, 0.58, 2017/11/15 10:45:02.855上午, 564.0, 13.16, 2.58, 13.94, 29.68
118, 0.585, 2017/11/15 10:45:02.86上午, 551.0, 12.90, 1.81, 13.94, 28.65
119, 0.59, 2017/11/15 10:45:02.865上午, 560.0, 13.16, 2.84, 13.68, 29.68
120, 0.595, 2017/11/15 10:45:02.87上午, 566.0, 13.16, 2.32, 13.94, 29.42
121, 0.6, 2017/11/15 10:45:02.875上午, 555.0, 12.90, 2.06, 14.19, 29.16
122, 0.605, 2017/11/15 10:45:02.88上午, 573.0, 13.16, 2.84, 14.71, 30.71
123, 0.61, 2017/11/15 10:45:02.885上午, 549.0, 12.90, 2.06, 13.68, 28.65
124, 0.615, 2017/11/15 10:45:02.89上午, 560.0, 13.16, 2.32, 14.19, 29.68
125, 0.62, 2017/11/15 10:45:02.895上午, 559.0, 13.16, 2.32, 14.45, 29.94
126, 0.625, 2017/11/15 10:45:02.9上午, 559.0, 13.16, 2.32, 14.45, 29.94
127, 0.63, 2017/11/15 10:45:02.905上午, 550.0, 12.90, 1.55, 13.68, 28.13
128, 0.635, 2017/11/15 10:45:02.91上午, 548.0, 12.90, 1.55, 13.68, 28.13
129, 0.64, 2017/11/15 10:45:02.915上午, 560.0, 12.65, 2.58, 13.42, 28.65
130, 0.645, 2017/11/15 10:45:02.92上午, 559.0, 12.90, 2.32, 13.68, 28.90
131, 0.65, 2017/11/15 10:45:02.925上午, 557.0, 12.90, 1.81, 14.19, 28.90
132, 0.655, 2017/11/15 10:45:02.93上午, 561.0, 13.16, 1.55, 14.19, 28.90
133, 0.66, 2017/11/15 10:45:02.935上午, 567.0, 13.16, 2.84, 13.94, 29.94
134, 0.665, 2017/11/15 10:45:02.94上午, 549.0, 12.90, 1.81, 13.94, 28.65
135, 0.67, 2017/11/15 10:45:02.945上午, 553.0, 12.90, 1.81, 14.19, 28.90
136, 0.675, 2017/11/15 10:45:02.95上午, 564.0, 13.42, 2.58, 13.94, 29.94
137, 0.68, 2017/11/15 10:45:02.955上午, 562.0, 13.16, 2.84, 13.68, 29.68
138, 0.685, 2017/11/15 10:45:02.96上午, 561.0, 12.90, 2.84, 13.94, 29.68
139, 0.69, 2017/11/15 10:45:02.965上午, 564.0, 13.16, 2.58, 14.45, 30.19
140, 0.695, 2017/11/15 10:45:02.97上午, 561.0, 13.16, 2.32, 13.94, 29.42
141, 0.7, 2017/11/15 10:45:02.975上午, 564.0, 13.16, 2.06, 14.19, 29.42
142, 0.705, 2017/11/15 10:45:02.98上午, 564.0, 13.16, 2.58, 14.19, 29.94
143, 0.71, 2017/11/15 10:45:02.985上午, 559.0, 12.90, 2.32, 13.94, 29.16
144, 0.715, 2017/11/15 10:45:02.99上午, 557.0, 13.16, 1.55, 14.19, 28.90
145, 0.72, 2017/11/15 10:45:02.995上午, 539.0, 13.16, 0.77, 14.19, 28.13
146, 0.725, 2017/11/15 10:45:03上午, 532.0, 12.39, 0.77, 14.19, 27.35
147, 0.73, 2017/11/15 10:45:03.005上午, 557.0, 12.39, 2.58, 13.94, 28.90
148, 0.735, 2017/11/15 10:45:03.01上午, 557.0, 12.65, 2.58, 13.68, 28.90
149, 0.74, 2017/11/15 10:45:03.015上午, 559.0, 13.16, 2.32, 13.42, 28.90
150, 0.745, 2017/11/15 10:45:03.02上午, 560.0, 12.90, 2.32, 13.42, 28.65
151, 0.75, 2017/11/15 10:45:03.025上午, 559.0, 12.90, 2.06, 14.19, 29.16
152, 0.755, 2017/11/15 10:45:03.03上午, 560.0, 13.16, 2.32, 13.94, 29.42
153, 0.76, 2017/11/15 10:45:03.035上午, 560.0, 13.16, 2.32, 13.94, 29.42
154, 0.765, 2017/11/15 10:45:03.04上午, 553.0, 12.90, 1.81, 14.19, 28.90
155, 0.77, 2017/11/15 10:45:03.045上午, 554.0, 12.65, 1.81, 14.45, 28.90
156, 0.775, 2017/11/15 10:45:03.05上午, 560.0, 13.16, 2.84, 13.68, 29.68
157, 0.78, 2017/11/15 10:45:03.055上午, 548.0, 13.42, 0.77, 14.45, 28.65
158, 0.785, 2017/11/15 10:45:03.06上午, 561.0, 12.90, 2.84, 14.19, 29.94
159, 0.79, 2017/11/15 10:45:03.065上午, 534.0, 12.90, 0.77, 13.94, 27.61
160, 0.795, 2017/11/15 10:45:03.07上午, 547.0, 12.39, 1.55, 14.19, 28.13
161, 0.8, 2017/11/15 10:45:03.075上午, 553.0, 13.16, 1.55, 14.45, 29.16
162, 0.805, 2017/11/15 10:45:03.08上午, 553.0, 12.39, 2.32, 14.19, 28.90
163, 0.81, 2017/11/15 10:45:03.085上午, 560.0, 13.42, 2.06, 13.42, 28.90
164, 0.815, 2017/11/15 10:45:03.09上午, 533.0, 12.90, 1.03, 13.42, 27.35
165, 0.82, 2017/11/15 10:45:03.095上午, 563.0, 12.90, 2.58, 13.42, 28.90
166, 0.825, 2017/11/15 10:45:03.1上午, 562.0, 12.90, 1.81, 14.19, 28.90
167, 0.83, 2017/11/15 10:45:03.105上午, 569.0, 13.16, 2.06, 14.45, 29.68
168, 0.835, 2017/11/15 10:45:03.11上午, 569.0, 13.16, 2.84, 14.19, 30.19
169, 0.84, 2017/11/15 10:45:03.115上午, 550.0, 12.90, 1.81, 13.94, 28.65
170, 0.845, 2017/11/15 10:45:03.12上午, 549.0, 13.42, 0.77, 14.19, 28.39
171, 0.85, 2017/11/15 10:45:03.125上午, 541.0, 12.65, 1.03, 14.45, 28.13
172, 0.855, 2017/11/15 10:45:03.13上午, 566.0, 13.16, 2.58, 14.19, 29.94
173, 0.86, 2017/11/15 10:45:03.135上午, 564.0, 12.65, 2.32, 14.45, 29.42
174, 0.865, 2017/11/15 10:45:03.14上午, 554.0, 12.39, 2.32, 13.68, 28.39
175, 0.87, 2017/11/15 10:45:03.145上午, 560.0, 12.65, 2.58, 13.42, 28.65
176, 0.875, 2017/11/15 10:45:03.15上午, 547.0, 12.65, 2.32, 13.16, 28.13
177, 0.88, 2017/11/15 10:45:03.155上午, 557.0, 12.39, 2.32, 14.19, 28.90
178, 0.885, 2017/11/15 10:45:03.16上午, 554.0, 12.39, 2.58, 13.42, 28.39
179, 0.89, 2017/11/15 10:45:03.165上午, 567.0, 13.42, 2.06, 13.94, 29.42
180, 0.895, 2017/11/15 10:45:03.17上午, 556.0, 12.39, 2.32, 14.19, 28.90
181, 0.9, 2017/11/15 10:45:03.175上午, 565.0, 12.90, 2.32, 13.42, 28.65
182, 0.905, 2017/11/15 10:45:03.18上午, 559.0, 13.16, 1.81, 14.19, 29.16
183, 0.91, 2017/11/15 10:45:03.185上午, 564.0, 13.16, 1.81, 13.94, 28.90
184, 0.915, 2017/11/15 10:45:03.19上午, 560.0, 13.16, 2.06, 13.94, 29.16
185, 0.92, 2017/11/15 10:45:03.195上午, 557.0, 13.16, 1.81, 14.45, 29.42
186, 0.925, 2017/11/15 10:45:03.2上午, 556.0, 12.90, 2.06, 14.19, 29.16
187, 0.93, 2017/11/15 10:45:03.205上午, 542.0, 13.16, 0.77, 13.94, 27.87
188, 0.935, 2017/11/15 10:45:03.21上午, 537.0, 12.90, 1.03, 13.42, 27.35
189, 0.94, 2017/11/15 10:45:03.215上午, 566.0, 12.90, 2.58, 13.68, 29.16
190, 0.945, 2017/11/15 10:45:03.22上午, 563.0, 12.90, 2.32, 14.19, 29.42
191, 0.95, 2017/11/15 10:45:03.225上午, 563.0, 13.16, 1.81, 14.45, 29.42
192, 0.955, 2017/11/15 10:45:03.23上午, 559.0, 12.90, 2.32, 13.94, 29.16
193, 0.96, 2017/11/15 10:45:03.235上午, 566.0, 13.16, 2.84, 13.94, 29.94
194, 0.965, 2017/11/15 10:45:03.24上午, 562.0, 12.90, 2.58, 14.45, 29.94
195, 0.97, 2017/11/15 10:45:03.245上午, 542.0, 13.16, 0.77, 14.19, 28.13
196, 0.975, 2017/11/15 10:45:03.25上午, 560.0, 13.42, 2.06, 14.19, 29.68
197, 0.98, 2017/11/15 10:45:03.255上午, 544.0, 13.16, 0.77, 14.45, 28.39
198, 0.985, 2017/11/15 10:45:03.26上午, 560.0, 12.65, 2.32, 13.68, 28.65
199, 0.99, 2017/11/15 10:45:03.265上午, 532.0, 13.16, 0.77, 13.42, 27.35
200, 0.995, 2017/11/15 10:45:03.27上午, 550.0, 13.42, 0.77, 14.45, 28.65
201, 1, 2017/11/15 10:45:03.275上午, 550.0, 12.65, 2.06, 13.68, 28.39
202, 1.005, 2017/11/15 10:45:03.28上午, 541.0, 12.90, 0.77, 13.68, 27.35
203, 1.01, 2017/11/15 10:45:03.285上午, 560.0, 12.65, 2.58, 13.42, 28.65
204, 1.015, 2017/11/15 10:45:03.29上午, 558.0, 13.16, 2.58, 13.42, 29.16
205, 1.02, 2017/11/15 10:45:03.295上午, 553.0, 13.16, 1.55, 13.68, 28.39
206, 1.025, 2017/11/15 10:45:03.3上午, 565.0, 13.16, 2.32, 13.94, 29.42
207, 1.03, 2017/11/15 10:45:03.305上午, 556.0, 13.16, 1.81, 13.94, 28.90
208, 1.035, 2017/11/15 10:45:03.31上午, 560.0, 13.16, 1.81, 14.19, 29.16
209, 1.04, 2017/11/15 10:45:03.315上午, 552.0, 13.68, 0.77, 14.19, 28.65
210, 1.045, 2017/11/15 10:45:03.32上午, 550.0, 13.42, 0.77, 13.94, 28.13
211, 1.05, 2017/11/15 10:45:03.325上午, 557.0, 12.90, 2.58, 12.90, 28.39
212, 1.055, 2017/11/15 10:45:03.33上午, 568.0, 12.90, 2.32, 14.19, 29.42
213, 1.06, 2017/11/15 10:45:03.335上午, 566.0, 13.16, 2.32, 13.94, 29.42
214, 1.065, 2017/11/15 10:45:03.34上午, 572.0, 13.16, 2.32, 14.19, 29.68
215, 1.07, 2017/11/15 10:45:03.345上午, 564.0, 12.90, 2.58, 13.94, 29.42
216, 1.075, 2017/11/15 10:45:03.35上午, 572.0, 13.16, 2.58, 14.19, 29.94
217, 1.08, 2017/11/15 10:45:03.355上午, 546.0, 13.16, 0.77, 14.19, 28.13
218, 1.085, 2017/11/15 10:45:03.36上午, 563.0, 13.16, 1.81, 14.19, 29.16
219, 1.09, 2017/11/15 10:45:03.365上午, 558.0, 13.16, 1.55, 14.19, 28.90
220, 1.095, 2017/11/15 10:45:03.37上午, 570.0, 13.16, 2.32, 14.45, 29.94
221, 1.1, 2017/11/15 10:45:03.375上午, 560.0, 13.68, 1.03, 13.68, 28.39
222, 1.105, 2017/11/15 10:45:03.38上午, 554.0, 12.65, 2.32, 13.42, 28.39
223, 1.11, 2017/11/15 10:45:03.385上午, 559.0, 13.16, 2.06, 13.68, 28.90
224, 1.115, 2017/11/15 10:45:03.39上午, 572.0, 13.16, 2.58, 13.94, 29.68
225, 1.12, 2017/11/15 10:45:03.395上午, 553.0, 13.16, 1.81, 13.68, 28.65
226, 1.125, 2017/11/15 10:45:03.4上午, 564.0, 13.42, 1.81, 13.94, 29.16
227, 1.13, 2017/11/15 10:45:03.405上午, 559.0, 13.42, 1.55, 14.71, 29.68
228, 1.135, 2017/11/15 10:45:03.41上午, 575.0, 13.42, 2.58, 14.45, 30.45
229, 1.14, 2017/11/15 10:45:03.415上午, 572.0, 13.16, 2.58, 14.19, 29.94
230, 1.145, 2017/11/15 10:45:03.42上午, 563.0, 12.90, 2.32, 13.68, 28.90
231, 1.15, 2017/11/15 10:45:03.425上午, 565.0, 13.16, 2.06, 13.68, 28.90
232, 1.155, 2017/11/15 10:45:03.43上午, 557.0, 13.16, 2.06, 13.68, 28.90
233, 1.16, 2017/11/15 10:45:03.435上午, 572.0, 13.16, 2.58, 14.19, 29.94
234, 1.165, 2017/11/15 10:45:03.44上午, 570.0, 13.16, 2.32, 13.94, 29.42
235, 1.17, 2017/11/15 10:45:03.445上午, 565.0, 12.90, 2.32, 14.19, 29.42
236, 1.175, 2017/11/15 10:45:03.45上午, 565.0, 13.16, 2.32, 13.68, 29.16
237, 1.18, 2017/11/15 10:45:03.455上午, 573.0, 13.16, 2.32, 14.19, 29.68
238, 1.185, 2017/11/15 10:45:03.46上午, 558.0, 13.16, 2.32, 13.68, 29.16
239, 1.19, 2017/11/15 10:45:03.465上午, 574.0, 13.16, 2.84, 13.68, 29.68
240, 1.195, 2017/11/15 10:45:03.47上午, 568.0, 13.16, 2.32, 13.94, 29.42
241, 1.2, 2017/11/15 10:45:03.475上午, 553.0, 13.16, 1.29, 13.68, 28.13
242, 1.205, 2017/11/15 10:45:03.48上午, 577.0, 13.16, 2.58, 14.19, 29.94
243, 1.21, 2017/11/15 10:45:03.485上午, 557.0, 13.16, 1.55, 13.94, 28.65
244, 1.215, 2017/11/15 10:45:03.49上午, 560.0, 13.16, 2.32, 13.94, 29.42
245, 1.22, 2017/11/15 10:45:03.495上午, 542.0, 13.16, 0.77, 13.94, 27.87
246, 1.225, 2017/11/15 10:45:03.5上午, 566.0, 12.90, 2.84, 13.42, 29.16
247, 1.23, 2017/11/15 10:45:03.505上午, 576.0, 13.16, 2.32, 14.19, 29.68
248, 1.235, 2017/11/15 10:45:03.51上午, 570.0, 12.90, 2.58, 13.68, 29.16
249, 1.24, 2017/11/15 10:45:03.515上午, 571.0, 13.16, 2.32, 13.68, 29.16
250, 1.245, 2017/11/15 10:45:03.52上午, 571.0, 13.16, 2.58, 13.94, 29.68
251, 1.25, 2017/11/15 10:45:03.525上午, 579.0, 13.16, 3.35, 13.68, 30.19
252, 1.255, 2017/11/15 10:45:03.53上午, 571.0, 13.16, 2.32, 13.94, 29.42
253, 1.26, 2017/11/15 10:45:03.535上午, 571.0, 13.16, 2.32, 13.94, 29.42
254, 1.265, 2017/11/15 10:45:03.54上午, 553.0, 13.42, 1.03, 13.68, 28.13
255, 1.27, 2017/11/15 10:45:03.545上午, 569.0, 13.42, 2.58, 14.45, 30.45
256, 1.275, 2017/11/15 10:45:03.55上午, 565.0, 13.16, 2.32, 14.19, 29.68
257, 1.28, 2017/11/15 10:45:03.555上午, 557.0, 12.90, 1.55, 14.45, 28.90
258, 1.285, 2017/11/15 10:45:03.56上午, 546.0, 12.90, 0.77, 14.19, 27.87
259, 1.29, 2017/11/15 10:45:03.565上午, 561.0, 12.65, 2.32, 13.94, 28.90
260, 1.295, 2017/11/15 10:45:03.57上午, 553.0, 12.65, 1.81, 13.68, 28.13
261, 1.3, 2017/11/15 10:45:03.575上午, 559.0, 12.90, 2.32, 13.42, 28.65
262, 1.305, 2017/11/15 10:45:03.58上午, 567.0, 13.16, 2.32, 13.68, 29.16
263, 1.31, 2017/11/15 10:45:03.585上午, 567.0, 12.90, 2.32, 13.94, 29.16
264, 1.315, 2017/11/15 10:45:03.59上午, 567.0, 13.16, 2.58, 14.19, 29.94
265, 1.32, 2017/11/15 10:45:03.595上午, 567.0, 13.16, 2.06, 14.45, 29.68
266, 1.325, 2017/11/15 10:45:03.6上午, 573.0, 13.42, 2.32, 14.45, 30.19
267, 1.33, 2017/11/15 10:45:03.605上午, 560.0, 13.42, 1.55, 13.94, 28.90
268, 1.335, 2017/11/15 10:45:03.61上午, 563.0, 12.65, 2.84, 13.42, 28.90
269, 1.34, 2017/11/15 10:45:03.615上午, 557.0, 12.65, 2.58, 13.42, 28.65
270, 1.345, 2017/11/15 10:45:03.62上午, 562.0, 12.90, 2.32, 13.68, 28.90
271, 1.35, 2017/11/15 10:45:03.625上午, 573.0, 13.16, 2.32, 14.19, 29.68
272, 1.355, 2017/11/15 10:45:03.63上午, 576.0, 13.16, 2.84, 14.19, 30.19
273, 1.36, 2017/11/15 10:45:03.635上午, 568.0, 13.16, 2.58, 13.94, 29.68
274, 1.365, 2017/11/15 10:45:03.64上午, 570.0, 13.16, 2.32, 14.45, 29.94
275, 1.37, 2017/11/15 10:45:03.645上午, 557.0, 12.90, 1.81, 14.19, 28.90
276, 1.375, 2017/11/15 10:45:03.65上午, 570.0, 13.16, 2.32, 13.94, 29.42
277, 1.38, 2017/11/15 10:45:03.655上午, 568.0, 13.16, 2.06, 14.71, 29.94
278, 1.385, 2017/11/15 10:45:03.66上午, 572.0, 13.16, 2.58, 14.19, 29.94
279, 1.39, 2017/11/15 10:45:03.665上午, 551.0, 13.16, 0.77, 14.45, 28.39
280, 1.395, 2017/11/15 10:45:03.67上午, 556.0, 13.16, 1.55, 13.94, 28.65
281, 1.4, 2017/11/15 10:45:03.675上午, 545.0, 13.42, 0.77, 13.68, 27.87
282, 1.405, 2017/11/15 10:45:03.68上午, 565.0, 13.42, 1.55, 14.45, 29.42
283, 1.41, 2017/11/15 10:45:03.685上午, 554.0, 13.16, 1.81, 13.68, 28.65
284, 1.415, 2017/11/15 10:45:03.69上午, 564.0, 13.42, 2.06, 13.94, 29.42
285, 1.42, 2017/11/15 10:45:03.695上午, 573.0, 13.16, 2.58, 13.68, 29.42
286, 1.425, 2017/11/15 10:45:03.7上午, 562.0, 13.16, 2.32, 12.90, 28.39
287, 1.43, 2017/11/15 10:45:03.705上午, 561.0, 12.90, 2.32, 13.68, 28.90
288, 1.435, 2017/11/15 10:45:03.71上午, 573.0, 13.16, 2.84, 13.94, 29.94
289, 1.44, 2017/11/15 10:45:03.715上午, 570.0, 13.16, 2.32, 14.45, 29.94
290, 1.445, 2017/11/15 10:45:03.72上午, 549.0, 13.68, 0.77, 14.19, 28.65
291, 1.45, 2017/11/15 10:45:03.725上午, 569.0, 13.42, 1.81, 13.68, 28.90
292, 1.455, 2017/11/15 10:45:03.73上午, 562.0, 12.65, 2.58, 13.68, 28.90
293, 1.46, 2017/11/15 10:45:03.735上午, 568.0, 13.16, 2.06, 13.68, 28.90
294, 1.465, 2017/11/15 10:45:03.74上午, 561.0, 12.65, 2.06, 13.68, 28.39
295, 1.47, 2017/11/15 10:45:03.745上午, 556.0, 12.90, 2.06, 13.42, 28.39
296, 1.475, 2017/11/15 10:45:03.75上午, 569.0, 12.90, 2.06, 14.19, 29.16
297, 1.48, 2017/11/15 10:45:03.755上午, 567.0, 12.90, 2.32, 13.68, 28.90
298, 1.485, 2017/11/15 10:45:03.76上午, 567.0, 13.16, 2.32, 13.68, 29.16
299, 1.49, 2017/11/15 10:45:03.765上午, 566.0, 12.90, 2.06, 14.19, 29.16
300, 1.495, 2017/11/15 10:45:03.77上午, 572.0, 13.42, 2.32, 14.19, 29.94
301, 1.5, 2017/11/15 10:45:03.775上午, 573.0, 13.16, 2.32, 14.45, 29.94
302, 1.505, 2017/11/15 10:45:03.78上午, 560.0, 12.90, 2.06, 13.94, 28.90
303, 1.51, 2017/11/15 10:45:03.785上午, 568.0, 13.16, 2.58, 13.68, 29.42
304, 1.515, 2017/11/15 10:45:03.79上午, 575.0, 13.16, 2.58, 14.45, 30.19
305, 1.52, 2017/11/15 10:45:03.795上午, 556.0, 13.42, 1.29, 14.19, 28.90
306, 1.525, 2017/11/15 10:45:03.8上午, 553.0, 13.16, 1.29, 13.94, 28.39
307, 1.53, 2017/11/15 10:45:03.805上午, 557.0, 12.90, 1.55, 14.19, 28.65
308, 1.535, 2017/11/15 10:45:03.81上午, 570.0, 13.16, 2.32, 14.19, 29.68
309, 1.54, 2017/11/15 10:45:03.815上午, 574.0, 13.42, 2.58, 13.42, 29.42
310, 1.545, 2017/11/15 10:45:03.82上午, 577.0, 12.90, 2.32, 13.94, 29.16
311, 1.55, 2017/11/15 10:45:03.825上午, 566.0, 13.16, 2.32, 13.94, 29.42
312, 1.555, 2017/11/15 10:45:03.83上午, 578.0, 13.16, 2.84, 14.19, 30.19
313, 1.56, 2017/11/15 10:45:03.835上午, 574.0, 13.16, 2.58, 14.45, 30.19
314, 1.565, 2017/11/15 10:45:03.84上午, 566.0, 13.16, 2.06, 14.19, 29.42
315, 1.57, 2017/11/15 10:45:03.845上午, 566.0, 13.42, 1.55, 14.45, 29.42
316, 1.575, 2017/11/15 10:45:03.85上午, 567.0, 12.90, 2.06, 14.45, 29.42
317, 1.58, 2017/11/15 10:45:03.855上午, 553.0, 13.42, 0.77, 14.19, 28.39
318, 1.585, 2017/11/15 10:45:03.86上午, 549.0, 12.90, 0.77, 14.19, 27.87
319, 1.59, 2017/11/15 10:45:03.865上午, 559.0, 13.42, 1.55, 13.94, 28.90
320, 1.595, 2017/11/15 10:45:03.87上午, 578.0, 12.90, 2.58, 14.71, 30.19
321, 1.6, 2017/11/15 10:45:03.875上午, 566.0, 13.68, 1.55, 13.94, 29.16
322, 1.605, 2017/11/15 10:45:03.88上午, 559.0, 12.90, 1.55, 14.45, 28.90
323, 1.61, 2017/11/15 10:45:03.885上午, 568.0, 12.65, 2.32, 14.19, 29.16
324, 1.615, 2017/11/15 10:45:03.89上午, 568.0, 13.42, 2.32, 13.42, 29.16
325, 1.62, 2017/11/15 10:45:03.895上午, 571.0, 13.16, 2.84, 13.68, 29.68
326, 1.625, 2017/11/15 10:45:03.9上午, 571.0, 13.16, 2.84, 13.68, 29.68
327, 1.63, 2017/11/15 10:45:03.905上午, 576.0, 13.16, 2.58, 14.19, 29.94
328, 1.635, 2017/11/15 10:45:03.91上午, 565.0, 13.16, 2.06, 13.94, 29.16
329, 1.64, 2017/11/15 10:45:03.915上午, 570.0, 13.16, 2.58, 14.19, 29.94
330, 1.645, 2017/11/15 10:45:03.92上午, 569.0, 13.16, 2.06, 14.19, 29.42
331, 1.65, 2017/11/15 10:45:03.925上午, 562.0, 13.68, 1.55, 13.68, 28.90
332, 1.655, 2017/11/15 10:45:03.93上午, 547.0, 13.42, 0.77, 13.42, 27.61
333, 1.66, 2017/11/15 10:45:03.935上午, 579.0, 13.42, 2.32, 13.68, 29.42
334, 1.665, 2017/11/15 10:45:03.94上午, 569.0, 12.90, 2.32, 13.42, 28.65
335, 1.67, 2017/11/15 10:45:03.945上午, 562.0, 12.90, 2.32, 13.42, 28.65
336, 1.675, 2017/11/15 10:45:03.95上午, 571.0, 13.68, 2.32, 13.42, 29.42
337, 1.68, 2017/11/15 10:45:03.955上午, 569.0, 13.16, 2.32, 13.68, 29.16
338, 1.685, 2017/11/15 10:45:03.96上午, 581.0, 13.16, 2.32, 14.71, 30.19
339, 1.69, 2017/11/15 10:45:03.965上午, 567.0, 13.16, 2.32, 13.68, 29.16
340, 1.695, 2017/11/15 10:45:03.97上午, 573.0, 13.16, 2.32, 13.68, 29.16
341, 1.7, 2017/11/15 10:45:03.975上午, 561.0, 13.16, 1.81, 13.94, 28.90
342, 1.705, 2017/11/15 10:45:03.98上午, 565.0, 13.16, 2.32, 13.42, 28.90
343, 1.71, 2017/11/15 10:45:03.985上午, 571.0, 13.16, 2.32, 13.94, 29.42
344, 1.715, 2017/11/15 10:45:03.99上午, 564.0, 13.16, 1.55, 13.94, 28.65
345, 1.72, 2017/11/15 10:45:03.995上午, 577.0, 13.16, 2.58, 14.19, 29.94
346, 1.725, 2017/11/15 10:45:04上午, 575.0, 13.42, 2.58, 13.94, 29.94
347, 1.73, 2017/11/15 10:45:04.005上午, 578.0, 13.42, 2.84, 13.68, 29.94
348, 1.735, 2017/11/15 10:45:04.01上午, 578.0, 13.42, 2.84, 13.94, 30.19
349, 1.74, 2017/11/15 10:45:04.015上午, 552.0, 13.68, 0.77, 13.94, 28.39
350, 1.745, 2017/11/15 10:45:04.02上午, 554.0, 13.16, 0.77, 14.45, 28.39
351, 1.75, 2017/11/15 10:45:04.025上午, 568.0, 13.16, 2.32, 14.19, 29.68
352, 1.755, 2017/11/15 10:45:04.03上午, 576.0, 12.90, 2.58, 14.45, 29.94
353, 1.76, 2017/11/15 10:45:04.035上午, 574.0, 13.68, 2.32, 13.42, 29.42
354, 1.765, 2017/11/15 10:45:04.04上午, 572.0, 13.42, 2.06, 13.42, 28.90
355, 1.77, 2017/11/15 10:45:04.045上午, 570.0, 13.42, 1.81, 13.42, 28.65
356, 1.775, 2017/11/15 10:45:04.05上午, 584.0, 13.68, 2.84, 13.68, 30.19
357, 1.78, 2017/11/15 10:45:04.055上午, 573.0, 13.16, 2.32, 13.68, 29.16
358, 1.785, 2017/11/15 10:45:04.06上午, 564.0, 12.90, 2.58, 13.16, 28.65
359, 1.79, 2017/11/15 10:45:04.065上午, 568.0, 12.90, 2.32, 13.42, 28.65
360, 1.795, 2017/11/15 10:45:04.07上午, 561.0, 12.65, 2.58, 13.68, 28.90
361, 1.8, 2017/11/15 10:45:04.075上午, 567.0, 13.16, 2.32, 13.42, 28.90
362, 1.805, 2017/11/15 10:45:04.08上午, 558.0, 12.90, 2.58, 12.65, 28.13
363, 1.81, 2017/11/15 10:45:04.085上午, 573.0, 12.90, 2.84, 13.68, 29.42
364, 1.815, 2017/11/15 10:45:04.09上午, 577.0, 13.42, 2.32, 14.19, 29.94
365, 1.82, 2017/11/15 10:45:04.095上午, 567.0, 12.90, 2.32, 13.68, 28.90
366, 1.825, 2017/11/15 10:45:04.1上午, 569.0, 13.16, 2.06, 13.94, 29.16
367, 1.83, 2017/11/15 10:45:04.105上午, 574.0, 13.42, 2.58, 13.68, 29.68
368, 1.835, 2017/11/15 10:45:04.11上午, 576.0, 13.42, 2.84, 14.19, 30.45
369, 1.84, 2017/11/15 10:45:04.115上午, 565.0, 14.19, 0.77, 14.19, 29.16
370, 1.845, 2017/11/15 10:45:04.12上午, 578.0, 13.42, 2.32, 13.42, 29.16
371, 1.85, 2017/11/15 10:45:04.125上午, 576.0, 13.42, 2.58, 13.42, 29.42
372, 1.855, 2017/11/15 10:45:04.13上午, 571.0, 13.16, 2.06, 13.68, 28.90
373, 1.86, 2017/11/15 10:45:04.135上午, 569.0, 13.42, 2.06, 13.68, 29.16
374, 1.865, 2017/11/15 10:45:04.14上午, 576.0, 13.16, 2.58, 13.94, 29.68
375, 1.87, 2017/11/15 10:45:04.145上午, 581.0, 13.68, 2.58, 13.68, 29.94
376, 1.875, 2017/11/15 10:45:04.15上午, 571.0, 13.42, 2.06, 13.68, 29.16
377, 1.88, 2017/11/15 10:45:04.155上午, 584.0, 13.68, 2.84, 13.68, 30.19
378, 1.885, 2017/11/15 10:45:04.16上午, 583.0, 13.42, 2.84, 13.68, 29.94
379, 1.89, 2017/11/15 10:45:04.165上午, 578.0, 13.68, 2.84, 13.94, 30.45
380, 1.895, 2017/11/15 10:45:04.17上午, 575.0, 13.42, 2.32, 13.94, 29.68
381, 1.9, 2017/11/15 10:45:04.175上午, 581.0, 13.42, 2.84, 13.68, 29.94
382, 1.905, 2017/11/15 10:45:04.18上午, 580.0, 13.42, 2.84, 14.19, 30.45
383, 1.91, 2017/11/15 10:45:04.185上午, 583.0, 13.42, 2.84, 14.45, 30.71
384, 1.915, 2017/11/15 10:45:04.19上午, 576.0, 13.42, 2.84, 13.42, 29.68
385, 1.92, 2017/11/15 10:45:04.195上午, 541.0, 13.42, 0.77, 12.65, 26.84
386, 1.925, 2017/11/15 10:45:04.2上午, 555.0, 13.94, 0.77, 13.16, 27.87
387, 1.93, 2017/11/15 10:45:04.205上午, 581.0, 13.42, 2.84, 13.68, 29.94
388, 1.935, 2017/11/15 10:45:04.21上午, 577.0, 13.42, 2.58, 13.68, 29.68
389, 1.94, 2017/11/15 10:45:04.215上午, 569.0, 12.90, 2.32, 13.94, 29.16
390, 1.945, 2017/11/15 10:45:04.22上午, 565.0, 13.16, 1.29, 14.19, 28.65
391, 1.95, 2017/11/15 10:45:04.225上午, 577.0, 13.42, 2.58, 13.94, 29.94
392, 1.955, 2017/11/15 10:45:04.23上午, 565.0, 13.42, 1.81, 13.94, 29.16
393, 1.96, 2017/11/15 10:45:04.235上午, 577.0, 13.42, 2.32, 13.94, 29.68
394, 1.965, 2017/11/15 10:45:04.24上午, 569.0, 13.42, 2.06, 14.45, 29.94
395, 1.97, 2017/11/15 10:45:04.245上午, 549.0, 13.42, 0.77, 14.19, 28.39
396, 1.975, 2017/11/15 10:45:04.25上午, 582.0, 13.94, 2.06, 14.45, 30.45
397, 1.98, 2017/11/15 10:45:04.255上午, 565.0, 13.42, 1.55, 13.94, 28.90
398, 1.985, 2017/11/15 10:45:04.26上午, 578.0, 13.42, 2.58, 14.19, 30.19
399, 1.99, 2017/11/15 10:45:04.265上午, 584.0, 13.94, 2.58, 13.94, 30.45
400, 1.995, 2017/11/15 10:45:04.27上午, 554.0, 13.68, 0.77, 14.19, 28.65
401, 2, 2017/11/15 10:45:04.275上午, 579.0, 13.42, 2.58, 13.42, 29.42
402, 2.005, 2017/11/15 10:45:04.28上午, 568.0, 13.94, 1.55, 13.68, 29.16
403, 2.01, 2017/11/15 10:45:04.285上午, 560.0, 13.42, 0.77, 14.45, 28.65
404, 2.015, 2017/11/15 10:45:04.29上午, 584.0, 13.68, 2.58, 13.94, 30.19
405, 2.02, 2017/11/15 10:45:04.295上午, 575.0, 13.16, 2.32, 14.19, 29.68
406, 2.025, 2017/11/15 10:45:04.3上午, 573.0, 13.16, 2.58, 13.16, 28.90
407, 2.03, 2017/11/15 10:45:04.305上午, 575.0, 13.68, 2.32, 13.42, 29.42
408, 2.035, 2017/11/15 10:45:04.31上午, 570.0, 13.42, 2.06, 13.68, 29.16
409, 2.04, 2017/11/15 10:45:04.315上午, 571.0, 13.16, 2.06, 13.68, 28.90
410, 2.045, 2017/11/15 10:45:04.32上午, 578.0, 13.16, 2.32, 13.94, 29.42
411, 2.05, 2017/11/15 10:45:04.325上午, 577.0, 13.42, 2.32, 13.94, 29.68
412, 2.055, 2017/11/15 10:45:04.33上午, 565.0, 13.42, 2.06, 13.68, 29.16
413, 2.06, 2017/11/15 10:45:04.335上午, 585.0, 13.42, 2.84, 14.19, 30.45
414, 2.065, 2017/11/15 10:45:04.34上午, 552.0, 13.68, 0.77, 13.42, 27.87
415, 2.07, 2017/11/15 10:45:04.345上午, 575.0, 13.68, 1.81, 14.19, 29.68
416, 2.075, 2017/11/15 10:45:04.35上午, 571.0, 13.42, 2.06, 14.19, 29.68
417, 2.08, 2017/11/15 10:45:04.355上午, 564.0, 13.94, 1.55, 13.42, 28.90
418, 2.085, 2017/11/15 10:45:04.36上午, 579.0, 13.42, 2.84, 14.19, 30.45
419, 2.09, 2017/11/15 10:45:04.365上午, 575.0, 13.42, 2.58, 13.68, 29.68
420, 2.095, 2017/11/15 10:45:04.37上午, 588.0, 13.94, 2.84, 13.68, 30.45
421, 2.1, 2017/11/15 10:45:04.375上午, 578.0, 13.42, 2.84, 13.68, 29.94
422, 2.105, 2017/11/15 10:45:04.38上午, 578.0, 13.68, 1.81, 14.19, 29.68
423, 2.11, 2017/11/15 10:45:04.385上午, 577.0, 13.94, 1.81, 14.19, 29.94
424, 2.115, 2017/11/15 10:45:04.39上午, 581.0, 13.94, 2.32, 14.45, 30.71
425, 2.12, 2017/11/15 10:45:04.395上午, 581.0, 13.42, 2.06, 13.94, 29.42
426, 2.125, 2017/11/15 10:45:04.4上午, 575.0, 13.16, 2.58, 13.68, 29.42
427, 2.13, 2017/11/15 10:45:04.405上午, 577.0, 13.68, 2.32, 13.16, 29.16
428, 2.135, 2017/11/15 10:45:04.41上午, 573.0, 13.42, 2.32, 13.42, 29.16
429, 2.14, 2017/11/15 10:45:04.415上午, 580.0, 13.42, 2.58, 13.42, 29.42
430, 2.145, 2017/11/15 10:45:04.42上午, 572.0, 13.94, 2.06, 13.42, 29.42
431, 2.15, 2017/11/15 10:45:04.425上午, 569.0, 13.16, 2.84, 13.16, 29.16
432, 2.155, 2017/11/15 10:45:04.43上午, 572.0, 13.16, 2.32, 13.94, 29.42
433, 2.16, 2017/11/15 10:45:04.435上午, 568.0, 13.16, 2.58, 13.94, 29.68
434, 2.165, 2017/11/15 10:45:04.44上午, 573.0, 13.16, 2.32, 13.94, 29.42
435, 2.17, 2017/11/15 10:45:04.445上午, 572.0, 13.42, 2.32, 13.94, 29.68
436, 2.175, 2017/11/15 10:45:04.45上午, 576.0, 13.68, 1.55, 14.45, 29.68
437, 2.18, 2017/11/15 10:45:04.455上午, 576.0, 13.94, 2.32, 13.68, 29.94
438, 2.185, 2017/11/15 10:45:04.46上午, 573.0, 13.68, 1.81, 13.94, 29.42
439, 2.19, 2017/11/15 10:45:04.465上午, 575.0, 13.68, 1.81, 14.45, 29.94
440, 2.195, 2017/11/15 10:45:04.47上午, 582.0, 13.94, 2.32, 14.19, 30.45
441, 2.2, 2017/11/15 10:45:04.475上午, 577.0, 13.94, 2.06, 14.19, 30.19
442, 2.205, 2017/11/15 10:45:04.48上午, 581.0, 13.42, 2.84, 13.94, 30.19
443, 2.21, 2017/11/15 10:45:04.485上午, 578.0, 13.68, 2.06, 13.68, 29.42
444, 2.215, 2017/11/15 10:45:04.49上午, 574.0, 13.94, 2.06, 13.42, 29.42
445, 2.22, 2017/11/15 10:45:04.495上午, 551.0, 13.42, 0.77, 13.42, 27.61
446, 2.225, 2017/11/15 10:45:04.5上午, 570.0, 13.16, 2.06, 13.68, 28.90
447, 2.23, 2017/11/15 10:45:04.505上午, 567.0, 13.16, 2.06, 13.94, 29.16
448, 2.235, 2017/11/15 10:45:04.51上午, 577.0, 13.16, 2.58, 13.42, 29.16
449, 2.24, 2017/11/15 10:45:04.515上午, 571.0, 13.16, 2.32, 13.68, 29.16
450, 2.245, 2017/11/15 10:45:04.52上午, 586.0, 13.42, 2.84, 13.94, 30.19
451, 2.25, 2017/11/15 10:45:04.525上午, 566.0, 13.68, 1.55, 13.42, 28.65
452, 2.255, 2017/11/15 10:45:04.53上午, 566.0, 13.16, 1.55, 13.94, 28.65
453, 2.26, 2017/11/15 10:45:04.535上午, 572.0, 13.68, 1.55, 13.94, 29.16
454, 2.265, 2017/11/15 10:45:04.54上午, 584.0, 13.68, 2.84, 13.68, 30.19
455, 2.27, 2017/11/15 10:45:04.545上午, 580.0, 13.16, 2.84, 13.68, 29.68
456, 2.275, 2017/11/15 10:45:04.55上午, 574.0, 13.42, 2.84, 13.68, 29.94
457, 2.28, 2017/11/15 10:45:04.555上午, 575.0, 13.16, 2.32, 14.19, 29.68
458, 2.285, 2017/11/15 10:45:04.56上午, 573.0, 13.16, 2.58, 13.68, 29.42
459, 2.29, 2017/11/15 10:45:04.565上午, 576.0, 13.16, 2.84, 13.42, 29.42
460, 2.295, 2017/11/15 10:45:04.57上午, 571.0, 13.16, 2.32, 13.94, 29.42
461, 2.3, 2017/11/15 10:45:04.575上午, 571.0, 13.16, 2.06, 14.19, 29.42
462, 2.305, 2017/11/15 10:45:04.58上午, 573.0, 13.16, 2.58, 13.42, 29.16
463, 2.31, 2017/11/15 10:45:04.585上午, 568.0, 12.90, 2.32, 13.94, 29.16
464, 2.315, 2017/11/15 10:45:04.59上午, 556.0, 13.16, 2.32, 13.42, 28.90
465, 2.32, 2017/11/15 10:45:04.595上午, 567.0, 13.16, 2.58, 13.68, 29.42
466, 2.325, 2017/11/15 10:45:04.6上午, 572.0, 13.16, 2.58, 13.94, 29.68
467, 2.33, 2017/11/15 10:45:04.605上午, 579.0, 13.16, 2.32, 14.45, 29.94
468, 2.335, 2017/11/15 10:45:04.61上午, 573.0, 13.42, 2.84, 14.19, 30.45
469, 2.34, 2017/11/15 10:45:04.615上午, 582.0, 13.42, 2.84, 14.19, 30.45
470, 2.345, 2017/11/15 10:45:04.62上午, 572.0, 13.16, 2.58, 13.68, 29.42
471, 2.35, 2017/11/15 10:45:04.625上午, 568.0, 13.94, 1.03, 13.68, 28.65
472, 2.355, 2017/11/15 10:45:04.63上午, 573.0, 13.16, 2.58, 13.42, 29.16
473, 2.36, 2017/11/15 10:45:04.635上午, 562.0, 12.90, 2.32, 13.16, 28.39
474, 2.365, 2017/11/15 10:45:04.64上午, 557.0, 13.68, 0.77, 13.42, 27.87
475, 2.37, 2017/11/15 10:45:04.645上午, 577.0, 13.42, 2.32, 14.19, 29.94
476, 2.375, 2017/11/15 10:45:04.65上午, 570.0, 13.94, 1.03, 13.68, 28.65
477, 2.38, 2017/11/15 10:45:04.655上午, 571.0, 13.42, 2.06, 14.19, 29.68
478, 2.385, 2017/11/15 10:45:04.66上午, 549.0, 13.16, 1.55, 13.94, 28.65
479, 2.39, 2017/11/15 10:45:04.665上午, 565.0, 13.94, 1.55, 13.94, 29.42
480, 2.395, 2017/11/15 10:45:04.67上午, 564.0, 12.90, 1.55, 14.45, 28.90
481, 2.4, 2017/11/15 10:45:04.675上午, 554.0, 13.68, 0.77, 13.94, 28.39
482, 2.405, 2017/11/15 10:45:04.68上午, 574.0, 13.42, 2.58, 14.19, 30.19
483, 2.41, 2017/11/15 10:45:04.685上午, 580.0, 13.16, 3.10, 14.19, 30.45
484, 2.415, 2017/11/15 10:45:04.69上午, 544.0, 13.16, 0.77, 13.68, 27.61
485, 2.42, 2017/11/15 10:45:04.695上午, 546.0, 12.90, 0.77, 14.45, 28.13
486, 2.425, 2017/11/15 10:45:04.7上午, 578.0, 13.42, 2.58, 14.45, 30.45
487, 2.43, 2017/11/15 10:45:04.705上午, 569.0, 12.90, 2.58, 13.94, 29.42
488, 2.435, 2017/11/15 10:45:04.71上午, 576.0, 13.16, 2.84, 13.68, 29.68
489, 2.44, 2017/11/15 10:45:04.715上午, 563.0, 13.16, 2.32, 12.90, 28.39
490, 2.445, 2017/11/15 10:45:04.72上午, 571.0, 12.90, 2.58, 13.68, 29.16
491, 2.45, 2017/11/15 10:45:04.725上午, 558.0, 12.65, 2.32, 13.68, 28.65
492, 2.455, 2017/11/15 10:45:04.73上午, 572.0, 13.42, 2.58, 13.68, 29.68
493, 2.46, 2017/11/15 10:45:04.735上午, 565.0, 12.65, 2.32, 13.94, 28.90
494, 2.465, 2017/11/15 10:45:04.74上午, 569.0, 13.16, 2.58, 13.42, 29.16
495, 2.47, 2017/11/15 10:45:04.745上午, 557.0, 12.39, 2.58, 13.68, 28.65
496, 2.475, 2017/11/15 10:45:04.75上午, 570.0, 12.65, 2.84, 13.68, 29.16
497, 2.48, 2017/11/15 10:45:04.755上午, 563.0, 13.16, 2.06, 13.68, 28.90
498, 2.485, 2017/11/15 10:45:04.76上午, 557.0, 12.39, 2.84, 13.42, 28.65
499, 2.49, 2017/11/15 10:45:04.765上午, 574.0, 12.65, 2.84, 14.19, 29.68
500, 2.495, 2017/11/15 10:45:04.77上午, 575.0, 13.16, 2.58, 13.94, 29.68
501, 2.5, 2017/11/15 10:45:04.775上午, 554.0, 13.16, 1.55, 13.68, 28.39
502, 2.505, 2017/11/15 10:45:04.78上午, 574.0, 13.42, 2.58, 13.68, 29.68
503, 2.51, 2017/11/15 10:45:04.785上午, 565.0, 13.16, 2.32, 13.42, 28.90
504, 2.515, 2017/11/15 10:45:04.79上午, 566.0, 13.16, 2.84, 13.68, 29.68
505, 2.52, 2017/11/15 10:45:04.795上午, 569.0, 13.16, 2.58, 13.68, 29.42
506, 2.525, 2017/11/15 10:45:04.8上午, 585.0, 13.16, 2.58, 14.45, 30.19
507, 2.53, 2017/11/15 10:45:04.805上午, 568.0, 13.16, 2.32, 14.19, 29.68
508, 2.535, 2017/11/15 10:45:04.81上午, 568.0, 13.42, 1.81, 13.94, 29.16
509, 2.54, 2017/11/15 10:45:04.815上午, 557.0, 13.16, 1.81, 13.68, 28.65
510, 2.545, 2017/11/15 10:45:04.82上午, 560.0, 13.42, 2.06, 14.19, 29.68
511, 2.55, 2017/11/15 10:45:04.825上午, 539.0, 12.65, 0.77, 14.45, 27.87
512, 2.555, 2017/11/15 10:45:04.83上午, 547.0, 13.42, 0.77, 14.19, 28.39
513, 2.56, 2017/11/15 10:45:04.835上午, 563.0, 13.42, 1.55, 14.45, 29.42
514, 2.565, 2017/11/15 10:45:04.84上午, 552.0, 12.90, 2.06, 13.68, 28.65
515, 2.57, 2017/11/15 10:45:04.845上午, 564.0, 12.90, 2.32, 14.45, 29.68
516, 2.575, 2017/11/15 10:45:04.85上午, 560.0, 12.90, 2.58, 13.94, 29.42
517, 2.58, 2017/11/15 10:45:04.855上午, 576.0, 13.42, 2.58, 14.19, 30.19
518, 2.585, 2017/11/15 10:45:04.86上午, 549.0, 13.16, 1.81, 13.94, 28.90
519, 2.59, 2017/11/15 10:45:04.865上午, 558.0, 12.65, 2.58, 14.19, 29.42
520, 2.595, 2017/11/15 10:45:04.87上午, 563.0, 12.90, 2.32, 14.71, 29.94
521, 2.6, 2017/11/15 10:45:04.875上午, 565.0, 13.16, 2.58, 14.19, 29.94
522, 2.605, 2017/11/15 10:45:04.88上午, 558.0, 12.90, 2.58, 13.68, 29.16
523, 2.61, 2017/11/15 10:45:04.885上午, 556.0, 13.16, 1.81, 13.94, 28.90
524, 2.615, 2017/11/15 10:45:04.89上午, 566.0, 13.16, 2.58, 14.45, 30.19
525, 2.62, 2017/11/15 10:45:04.895上午, 560.0, 12.90, 2.58, 14.19, 29.68
526, 2.625, 2017/11/15 10:45:04.9上午, 557.0, 12.65, 2.84, 14.19, 29.68
527, 2.63, 2017/11/15 10:45:04.905上午, 553.0, 13.42, 1.55, 13.42, 28.39
528, 2.635, 2017/11/15 10:45:04.91上午, 568.0, 13.42, 2.58, 13.68, 29.68
529, 2.64, 2017/11/15 10:45:04.915上午, 566.0, 13.42, 2.32, 13.94, 29.68
530, 2.645, 2017/11/15 10:45:04.92上午, 548.0, 13.16, 1.03, 14.19, 28.39
531, 2.65, 2017/11/15 10:45:04.925上午, 548.0, 12.65, 1.81, 13.68, 28.13
532, 2.655, 2017/11/15 10:45:04.93上午, 539.0, 12.65, 1.03, 13.94, 27.61
533, 2.66, 2017/11/15 10:45:04.935上午, 570.0, 13.16, 1.81, 14.45, 29.42
534, 2.665, 2017/11/15 10:45:04.94上午, 562.0, 12.90, 2.58, 14.19, 29.68
535, 2.67, 2017/11/15 10:45:04.945上午, 557.0, 12.65, 2.06, 14.19, 28.90
536, 2.675, 2017/11/15 10:45:04.95上午, 569.0, 13.42, 2.84, 14.19, 30.45
537, 2.68, 2017/11/15 10:45:04.955上午, 566.0, 13.16, 2.58, 14.45, 30.19
538, 2.685, 2017/11/15 10:45:04.96上午, 566.0, 13.16, 2.84, 14.19, 30.19
539, 2.69, 2017/11/15 10:45:04.965上午, 568.0, 13.16, 2.32, 14.19, 29.68
540, 2.695, 2017/11/15 10:45:04.97上午, 566.0, 12.90, 2.58, 14.19, 29.68
541, 2.7, 2017/11/15 10:45:04.975上午, 565.0, 13.16, 2.84, 13.94, 29.94
542, 2.705, 2017/11/15 10:45:04.98上午, 566.0, 12.90, 2.84, 14.19, 29.94
543, 2.71, 2017/11/15 10:45:04.985上午, 555.0, 13.16, 2.06, 13.68, 28.90
544, 2.715, 2017/11/15 10:45:04.99上午, 558.0, 13.16, 2.32, 13.68, 29.16
545, 2.72, 2017/11/15 10:45:04.995上午, 559.0, 13.16, 2.06, 14.19, 29.42
546, 2.725, 2017/11/15 10:45:05上午, 553.0, 13.16, 1.81, 14.19, 29.16
547, 2.73, 2017/11/15 10:45:05.005上午, 569.0, 13.16, 2.84, 14.45, 30.45
548, 2.735, 2017/11/15 10:45:05.01上午, 566.0, 13.16, 2.84, 14.19, 30.19
549, 2.74, 2017/11/15 10:45:05.015上午, 566.0, 12.90, 2.58, 14.71, 30.19
550, 2.745, 2017/11/15 10:45:05.02上午, 572.0, 13.16, 2.58, 14.19, 29.94
551, 2.75, 2017/11/15 10:45:05.025上午, 564.0, 13.42, 2.06, 13.94, 29.42
552, 2.755, 2017/11/15 10:45:05.03上午, 557.0, 13.42, 2.06, 13.68, 29.16
553, 2.76, 2017/11/15 10:45:05.035上午, 555.0, 12.65, 2.58, 13.42, 28.65
554, 2.765, 2017/11/15 10:45:05.04上午, 556.0, 13.16, 1.55, 14.19, 28.90
555, 2.77, 2017/11/15 10:45:05.045上午, 551.0, 13.16, 0.77, 14.71, 28.65
556, 2.775, 2017/11/15 10:45:05.05上午, 570.0, 13.42, 2.32, 13.94, 29.68
557, 2.78, 2017/11/15 10:45:05.055上午, 558.0, 13.16, 1.81, 14.45, 29.42
558, 2.785, 2017/11/15 10:45:05.06上午, 548.0, 12.65, 1.55, 14.19, 28.39
559, 2.79, 2017/11/15 10:45:05.065上午, 570.0, 13.16, 2.84, 14.71, 30.71
560, 2.795, 2017/11/15 10:45:05.07上午, 572.0, 13.16, 2.84, 14.45, 30.45
561, 2.8, 2017/11/15 10:45:05.075上午, 561.0, 12.90, 2.58, 14.19, 29.68
562, 2.805, 2017/11/15 10:45:05.08上午, 572.0, 13.16, 2.58, 14.71, 30.45
563, 2.81, 2017/11/15 10:45:05.085上午, 567.0, 13.16, 2.84, 13.94, 29.94
564, 2.815, 2017/11/15 10:45:05.09上午, 543.0, 12.90, 1.03, 14.45, 28.39
565, 2.82, 2017/11/15 10:45:05.095上午, 557.0, 12.90, 2.58, 13.94, 29.42
566, 2.825, 2017/11/15 10:45:05.1上午, 566.0, 13.16, 2.84, 14.19, 30.19
567, 2.83, 2017/11/15 10:45:05.105上午, 568.0, 13.16, 2.58, 14.19, 29.94
568, 2.835, 2017/11/15 10:45:05.11上午, 566.0, 12.90, 2.58, 14.45, 29.94
569, 2.84, 2017/11/15 10:45:05.115上午, 573.0, 13.16, 2.58, 14.97, 30.71
570, 2.845, 2017/11/15 10:45:05.12上午, 553.0, 13.16, 1.55, 14.45, 29.16
571, 2.85, 2017/11/15 10:45:05.125上午, 547.0, 12.65, 1.55, 13.68, 27.87
572, 2.855, 2017/11/15 10:45:05.13上午, 565.0, 12.90, 2.58, 14.19, 29.68
573, 2.86, 2017/11/15 10:45:05.135上午, 562.0, 12.90, 2.32, 14.45, 29.68
574, 2.865, 2017/11/15 10:45:05.14上午, 557.0, 12.65, 2.58, 13.94, 29.16
575, 2.87, 2017/11/15 10:45:05.145上午, 566.0, 13.68, 2.32, 13.68, 29.68
576, 2.875, 2017/11/15 10:45:05.15上午, 557.0, 13.16, 1.55, 13.94, 28.65
577, 2.88, 2017/11/15 10:45:05.155上午, 566.0, 12.90, 2.58, 13.94, 29.42
578, 2.885, 2017/11/15 10:45:05.16上午, 531.0, 12.65, 0.77, 13.42, 26.84
579, 2.89, 2017/11/15 10:45:05.165上午, 554.0, 12.65, 2.58, 13.68, 28.90
580, 2.895, 2017/11/15 10:45:05.17上午, 552.0, 12.65, 1.81, 14.19, 28.65
581, 2.9, 2017/11/15 10:45:05.175上午, 560.0, 13.16, 1.55, 14.19, 28.90
582, 2.905, 2017/11/15 10:45:05.18上午, 574.0, 12.90, 2.32, 15.23, 30.45
583, 2.91, 2017/11/15 10:45:05.185上午, 586.0, 13.42, 3.10, 14.71, 31.23
584, 2.915, 2017/11/15 10:45:05.19上午, 579.0, 13.42, 2.84, 14.45, 30.71
585, 2.92, 2017/11/15 10:45:05.195上午, 559.0, 12.39, 2.06, 14.45, 28.90
586, 2.925, 2017/11/15 10:45:05.2上午, 548.0, 12.65, 2.58, 13.68, 28.90
587, 2.93, 2017/11/15 10:45:05.205上午, 562.0, 12.90, 2.84, 13.94, 29.68
588, 2.935, 2017/11/15 10:45:05.21上午, 560.0, 12.90, 2.58, 13.42, 28.90
589, 2.94, 2017/11/15 10:45:05.215上午, 555.0, 12.90, 2.32, 13.94, 29.16
590, 2.945, 2017/11/15 10:45:05.22上午, 558.0, 12.90, 2.32, 13.68, 28.90
591, 2.95, 2017/11/15 10:45:05.225上午, 550.0, 13.16, 2.06, 13.42, 28.65
592, 2.955, 2017/11/15 10:45:05.23上午, 556.0, 13.16, 2.06, 13.94, 29.16
593, 2.96, 2017/11/15 10:45:05.235上午, 560.0, 12.90, 2.58, 13.68, 29.16
594, 2.965, 2017/11/15 10:45:05.24上午, 544.0, 12.90, 1.81, 13.68, 28.39
595, 2.97, 2017/11/15 10:45:05.245上午, 558.0, 12.90, 2.32, 13.94, 29.16
596, 2.975, 2017/11/15 10:45:05.25上午, 543.0, 12.90, 1.29, 13.68, 27.87
597, 2.98, 2017/11/15 10:45:05.255上午, 556.0, 12.90, 2.06, 14.19, 29.16
598, 2.985, 2017/11/15 10:45:05.26上午, 555.0, 13.16, 2.32, 13.42, 28.90
599, 2.99, 2017/11/15 10:45:05.265上午, 554.0, 12.90, 2.32, 13.68, 28.90
600, 2.995, 2017/11/15 10:45:05.27上午, 537.0, 12.65, 1.03, 13.94, 27.61
@@
