DATA_TYPE COF,,,,,,,,,,,,,
VERSION Tekscan Pressure Measurement System 6.70-03,,,,,,,,,,,,,
HARDWARE 00114-3447,,,,,,,,,,,,,
MAP_VERSION 6.5,,,,,,,,,,,,,
HW_TYPE 4,,,,,,,,,,,,,
VersaPogoFsx 0,,,,,,,,,,,,,
檔案名 C:\Users\asus\Desktop\工研院_計畫\收案資料\Subject02\Plantar Pressure\R65B_STAND_RIGHT_1.fsx,,,,,,,,,,,,,
SENSOR_TYPE FSCAN,,,,,,,,,,,,,
ROWS 60,,,,,,,,,,,,,
COLS 21,,,,,,,,,,,,,
ROW_SPACING 0.508 centimeters,,,,,,,,,,,,,
COL_SPACING 0.508 centimeters,,,,,,,,,,,,,
SENSEL_AREA 0.258064 cm2,,,,,,,,,,,,,
NOISE_THRESHOLD 3,,,,,,,,,,,,,
SECONDS_PER_FRAME 0.005,,,,,,,,,,,,,
SECONDS_PER_FRAME 0,,,,,,,,,,,,,
MICRO_SECOND 0,,,,,,,,,,,,,
TIME 2017/11/15 11:32:58.152上午,,,,,,,,,,,,,
SATURATION_PRESSURE 2347.96 KPa ,,,,,,,,,,,,,
CALIBRATION_POINT_1 48.0001 (Kilograms) 1981 (Raw Sum) 199 (Number of Loaded Cells),,,,,,,,,,,,,
CALIBRATION_MODE_1 步態,,,,,,,,,,,,,
CALIBRATION_INFO C:\Users\asus\Desktop\工研院_計畫\收案資料\Subject02\Plantar Pressure\R65B_STAND_RIGHT_1.fsx,,,,,,,,,,,,,
SENSITIVITY 自定義,,,,,,,,,,,,,
MAP_INDEX 0,,,,,,,,,,,,,
SUBMAP 0,,,,,,,,,,,,,
Patient ID: ,,,,,,,,,,,,,
,,,,,,,,,,,,,
Speed of Gait: ,,,,,,,,,,,,,
,,,,,,,,,,,,,
Weight: ,,,,,,,,,,,,,
,,,,,,,,,,,,,
Gender: ,,,,,,,,,,,,,
,,,,,,,,,,,,,
Physician: ,,,,,,,,,,,,,
,,,,,,,,,,,,,
Technician: ,,,,,,,,,,,,,
,,,,,,,,,,,,,
Shoe: ,,,,,,,,,,,,,
,,,,,,,,,,,,,
START_FRAME 1,,,,,,,,,,,,,
END_FRAME 600,,,,,,,,,,,,,
COMMENTS Frame, Time, (Absolute Time), Row (cm), Col (cm), Raw Sum,,,,,,,,
ASCII_DATA @@,,,,,,,,,,,,,
Frame, Time, Absolute Time, Main(Row,Col,Raw Sum), 淡絳紅(Row,Col), 粉藍色(Row,Col), 淡青(Row,Col), 天藍色(Row,Col)
1,0, 2017/11/15 11:32:58.152上午,19.28,3.79,339,48.17,8.33,41.77,3.77,21.83,6.62,37.95,7.46
2,0.005, 2017/11/15 11:32:58.157上午,19.75,3.75,345,47.92,8.26,41.92,4.75,21.89,6.32,38.88,7.39
3,0.01, 2017/11/15 11:32:58.162上午,19.19,3.72,346,48.07,8.22,41.73,3.73,21.41,6.32,37.78,7.31
4,0.015, 2017/11/15 11:32:58.167上午,19.42,3.93,342,48.06,8.35,41.5,3.5,21.66,7.15,38.22,7.73
5,0.02, 2017/11/15 11:32:58.172上午,19.69,3.9,357,47.8,8.29,41.92,4.75,21.74,7.1,38.76,7.68
6,0.025, 2017/11/15 11:32:58.177上午,19.13,3.88,365,48.19,8.38,39.62,7.85,21.66,6.5,37.66,7.64
7,0.03, 2017/11/15 11:32:58.182上午,19.13,3.95,367,48.06,8.35,39.93,7.68,21.49,6.9,37.65,7.77
8,0.035, 2017/11/15 11:32:58.187上午,19.59,3.76,360,47.94,8.22,41.92,4.75,21.76,6.49,38.56,7.41
9,0.04, 2017/11/15 11:32:58.192上午,19.67,3.8,325,48.23,8.41,41.71,3.71,21.77,6.44,38.71,7.48
10,0.045, 2017/11/15 11:32:58.197上午,19.05,3.94,367,48.05,8.35,39.93,7.68,21.53,6.89,37.51,7.75
11,0.05, 2017/11/15 11:32:58.202上午,19.94,3.82,348,47.9,8.21,41.93,4.78,21.64,6.67,39.25,7.51
12,0.055, 2017/11/15 11:32:58.207上午,19.36,3.78,356,47.95,8.26,41.72,3.72,21.81,6.59,38.11,7.45
13,0.06, 2017/11/15 11:32:58.212上午,19.01,3.85,345,48.18,8.32,41.74,3.74,21.53,6.91,37.41,7.57
14,0.065, 2017/11/15 11:32:58.217上午,19.71,3.94,365,48,8.17,40.06,7.76,21.7,7.03,38.79,7.77
15,0.07, 2017/11/15 11:32:58.222上午,19.66,3.77,343,47.93,8.26,41.93,4.78,21.89,6.45,38.71,7.43
16,0.075, 2017/11/15 11:32:58.227上午,19.54,3.74,349,47.97,8.27,41.77,3.77,21.58,6.33,38.47,7.37
17,0.08, 2017/11/15 11:32:58.232上午,19.29,3.86,349,48.08,8.36,41.72,3.72,21.44,6.88,37.96,7.6
18,0.085, 2017/11/15 11:32:58.237上午,19.3,3.92,384,47.92,8.17,39.75,8.16,21.55,6.89,37.99,7.72
19,0.09, 2017/11/15 11:32:58.242上午,19.55,3.76,347,47.95,8.28,41.72,3.72,21.73,6.35,38.48,7.39
20,0.095, 2017/11/15 11:32:58.247上午,18.75,3.74,369,48.21,8.38,41.72,3.72,21.54,6.4,36.91,7.36
21,0.1, 2017/11/15 11:32:58.252上午,19.11,3.82,361,48.07,8.39,41.74,3.74,21.51,6.6,37.61,7.51
22,0.105, 2017/11/15 11:32:58.257上午,19.66,3.88,356,47.85,8.28,41.89,4.58,21.68,7.03,38.71,7.65
23,0.11, 2017/11/15 11:32:58.262上午,19.73,3.87,352,47.97,8.25,41.92,4.77,21.58,7,38.84,7.62
24,0.115, 2017/11/15 11:32:58.267上午,19.37,3.78,335,48.31,8.37,41.77,3.77,21.63,6.5,38.13,7.44
25,0.12, 2017/11/15 11:32:58.272上午,19.14,3.83,359,48.09,8.29,41.72,3.72,21.55,6.88,37.68,7.55
26,0.125, 2017/11/15 11:32:58.277上午,19.79,3.88,352,47.8,8.33,41.92,4.77,21.6,6.86,38.96,7.63
27,0.13, 2017/11/15 11:32:58.282上午,19.28,3.85,374,48.02,8.32,39.74,8.19,21.44,6.24,37.95,7.58
28,0.135, 2017/11/15 11:32:58.287上午,19.19,3.97,370,48.12,8.28,39.3,8.94,21.49,6.82,37.77,7.81
29,0.14, 2017/11/15 11:32:58.292上午,19.33,3.91,378,47.96,8.22,40.18,7.91,21.7,6.8,38.06,7.7
30,0.145, 2017/11/15 11:32:58.297上午,19.4,3.76,336,48.27,8.39,41.77,3.77,21.91,6.37,38.18,7.4
31,0.15, 2017/11/15 11:32:58.302上午,19.15,3.83,358,48.08,8.37,41.73,3.73,21.48,6.75,37.69,7.55
32,0.155, 2017/11/15 11:32:58.307上午,19.69,3.89,363,47.9,8.26,41.9,4.81,21.67,7.06,38.76,7.66
33,0.16, 2017/11/15 11:32:58.312上午,19.95,3.78,341,47.96,8.27,41.9,4.6,21.88,6.35,39.28,7.44
34,0.165, 2017/11/15 11:32:58.317上午,19.6,3.85,339,48.17,8.42,41.74,3.74,21.8,6.62,38.59,7.58
35,0.17, 2017/11/15 11:32:58.322上午,19.07,3.82,351,48.26,8.26,41.73,3.73,21.51,6.88,37.54,7.52
36,0.175, 2017/11/15 11:32:58.327上午,19.21,3.93,370,48.18,8.26,39.62,7.66,21.53,6.93,37.82,7.73
37,0.18, 2017/11/15 11:32:58.332上午,19.55,3.7,334,48.25,8.37,41.72,3.72,21.86,5.96,38.48,7.28
38,0.185, 2017/11/15 11:32:58.337上午,19.15,3.82,350,48.16,8.33,41.72,3.72,21.79,6.75,37.69,7.51
39,0.19, 2017/11/15 11:32:58.342上午,19.07,3.82,353,48.14,8.32,41.72,3.72,21.48,6.77,37.54,7.52
40,0.195, 2017/11/15 11:32:58.347上午,19.4,3.79,357,47.99,8.23,41.9,4.8,21.68,6.66,38.2,7.47
41,0.2, 2017/11/15 11:32:58.352上午,19.93,3.84,346,47.98,8.22,41.93,4.79,21.59,6.83,39.22,7.56
42,0.205, 2017/11/15 11:32:58.357上午,20.02,3.83,311,48.33,8.33,41.74,3.74,21.91,6.57,39.4,7.53
43,0.21, 2017/11/15 11:32:58.362上午,18.91,3.84,358,48.29,8.32,41.74,3.74,21.37,6.89,37.22,7.56
44,0.215, 2017/11/15 11:32:58.367上午,19.69,3.86,364,47.98,8.19,41.88,4.73,21.66,7.06,38.75,7.6
45,0.22, 2017/11/15 11:32:58.372上午,19.8,3.72,347,47.97,8.29,41.77,3.77,21.93,6.05,38.98,7.32
46,0.225, 2017/11/15 11:32:58.377上午,19.52,3.8,336,48.26,8.28,41.74,3.74,21.81,6.65,38.42,7.49
47,0.23, 2017/11/15 11:32:58.382上午,19.4,3.88,364,47.94,8.22,41.9,4.8,21.52,7.13,38.2,7.64
48,0.235, 2017/11/15 11:32:58.387上午,19.45,3.77,373,47.93,8.27,40.2,6.92,21.7,6.09,38.28,7.41
49,0.24, 2017/11/15 11:32:58.392上午,19.72,3.77,326,48.28,8.31,41.74,3.74,21.78,6.33,38.81,7.42
50,0.245, 2017/11/15 11:32:58.397上午,19.28,3.84,360,48.24,8.29,41.5,3.5,21.45,6.79,37.96,7.56
51,0.25, 2017/11/15 11:32:58.402上午,19.79,3.79,355,48,8.28,41.94,4.81,21.68,6.44,38.95,7.46
52,0.255, 2017/11/15 11:32:58.407上午,19.72,3.81,322,48.29,8.33,41.75,3.75,21.8,6.53,38.82,7.5
53,0.26, 2017/11/15 11:32:58.412上午,19.42,3.86,381,47.87,8.28,41.88,4.76,21.5,6.93,38.23,7.6
54,0.265, 2017/11/15 11:32:58.417上午,19.65,3.9,341,48.22,8.38,41.78,3.78,21.71,7.01,38.68,7.68
55,0.27, 2017/11/15 11:32:58.422上午,19.91,3.83,334,48.22,8.43,41.75,3.75,21.67,6.36,39.18,7.54
56,0.275, 2017/11/15 11:32:58.427上午,19.53,3.84,335,48.35,8.26,41.75,3.75,21.84,6.88,38.45,7.57
57,0.28, 2017/11/15 11:32:58.432上午,19.31,3.83,364,48.04,8.19,41.73,3.73,21.5,6.92,38.02,7.53
58,0.285, 2017/11/15 11:32:58.437上午,20.05,3.85,341,48,8.27,41.9,4.61,21.81,6.77,39.46,7.58
59,0.29, 2017/11/15 11:32:58.442上午,19.86,3.86,350,47.9,8.31,41.78,3.78,21.64,6.81,39.1,7.6
60,0.295, 2017/11/15 11:32:58.447上午,19.45,3.79,342,48.13,8.34,41.73,3.73,21.83,6.53,38.29,7.47
61,0.3, 2017/11/15 11:32:58.452上午,19.39,3.82,346,48.16,8.34,41.73,3.73,21.61,6.68,38.17,7.52
62,0.305, 2017/11/15 11:32:58.457上午,19.57,3.88,369,48,8.18,41.9,4.82,21.49,7.13,38.52,7.63
63,0.31, 2017/11/15 11:32:58.462上午,19.77,3.76,357,47.93,8.29,41.9,4.82,21.89,6.19,38.91,7.39
64,0.315, 2017/11/15 11:32:58.467上午,20.27,3.84,343,48.01,8.27,41.9,4.6,22.06,6.62,39.9,7.56
65,0.32, 2017/11/15 11:32:58.472上午,19.56,3.81,344,48.1,8.35,41.73,3.73,21.85,6.57,38.5,7.51
66,0.325, 2017/11/15 11:32:58.477上午,20.17,3.97,342,47.97,8.21,41.9,4.6,21.87,7.58,39.7,7.81
67,0.33, 2017/11/15 11:32:58.482上午,19.84,3.72,335,48.23,8.35,41.73,3.73,22.02,5.97,39.06,7.32
68,0.335, 2017/11/15 11:32:58.487上午,19.73,3.87,352,48.13,8.44,41.74,3.74,21.86,6.6,38.84,7.61
69,0.34, 2017/11/15 11:32:58.492上午,19.8,3.88,368,47.93,8.22,41.88,4.74,21.64,7.08,38.97,7.65
70,0.345, 2017/11/15 11:32:58.497上午,19.71,3.78,354,47.99,8.26,41.9,4.6,21.7,6.44,38.8,7.44
71,0.35, 2017/11/15 11:32:58.502上午,20.13,3.86,332,48.18,8.33,41.75,3.75,21.91,6.68,39.63,7.61
72,0.355, 2017/11/15 11:32:58.507上午,19.3,3.84,374,47.9,8.22,41.91,4.84,21.48,6.89,38,7.56
73,0.36, 2017/11/15 11:32:58.512上午,19.47,3.81,362,48,8.28,41.88,4.63,21.81,6.64,38.32,7.5
74,0.365, 2017/11/15 11:32:58.517上午,19.51,3.81,345,48.15,8.34,41.75,3.75,21.85,6.55,38.41,7.5
75,0.37, 2017/11/15 11:32:58.522上午,19.79,3.89,366,47.99,8.19,41.91,4.83,21.66,7.12,38.96,7.65
76,0.375, 2017/11/15 11:32:58.527上午,19.65,3.85,363,47.95,8.22,41.89,4.77,21.61,6.93,38.69,7.58
77,0.38, 2017/11/15 11:32:58.532上午,19.57,3.88,358,48.27,8.42,39.37,8.44,21.95,6.11,38.53,7.65
78,0.385, 2017/11/15 11:32:58.537上午,19.44,4.02,353,48.26,8.4,39.63,8.73,21.63,6.95,38.26,7.92
79,0.39, 2017/11/15 11:32:58.542上午,19.35,3.84,356,48.15,8.4,41.73,3.73,21.56,6.69,38.08,7.57
80,0.395, 2017/11/15 11:32:58.547上午,19.61,3.77,349,47.96,8.28,41.78,3.78,21.76,6.4,38.61,7.42
81,0.4, 2017/11/15 11:32:58.552上午,19.85,3.81,360,47.92,8.32,41.94,4.81,21.95,6.46,39.07,7.51
82,0.405, 2017/11/15 11:32:58.557上午,19.62,3.84,351,48.12,8.39,41.75,3.75,21.84,6.56,38.62,7.55
83,0.41, 2017/11/15 11:32:58.562上午,19.56,3.91,356,48.11,8.29,39.7,8.53,21.53,6.49,38.49,7.7
84,0.415, 2017/11/15 11:32:58.567上午,19.82,3.85,359,48,8.17,41.94,4.81,21.6,6.97,39.02,7.58
85,0.42, 2017/11/15 11:32:58.572上午,19.8,3.84,336,48.26,8.44,41.8,3.8,21.87,6.52,38.97,7.57
86,0.425, 2017/11/15 11:32:58.577上午,19.62,3.81,365,47.92,8.24,41.91,4.83,21.63,6.63,38.63,7.51
87,0.43, 2017/11/15 11:32:58.582上午,19.71,3.76,350,47.97,8.25,41.78,3.78,21.7,6.4,38.81,7.41
88,0.435, 2017/11/15 11:32:58.587上午,20.1,3.86,332,48.15,8.42,41.75,3.75,22.01,6.49,39.57,7.6
89,0.44, 2017/11/15 11:32:58.592上午,19.53,3.83,368,47.97,8.21,41.91,4.83,21.49,6.8,38.45,7.54
90,0.445, 2017/11/15 11:32:58.597上午,20.02,3.84,330,48.22,8.35,41.78,3.78,21.53,6.6,39.41,7.56
91,0.45, 2017/11/15 11:32:58.602上午,19.68,3.81,334,48.3,8.3,41.75,3.75,21.85,6.59,38.74,7.5
92,0.455, 2017/11/15 11:32:58.607上午,19.82,3.87,347,48.19,8.27,41.73,3.73,21.6,6.93,39.02,7.62
93,0.46, 2017/11/15 11:32:58.612上午,19.56,3.85,363,47.99,8.38,41.94,4.83,21.86,6.7,38.5,7.59
94,0.465, 2017/11/15 11:32:58.617上午,20.18,3.83,339,47.95,8.26,41.75,3.75,21.93,6.5,39.73,7.53
95,0.47, 2017/11/15 11:32:58.622上午,19.73,3.82,362,48.01,8.22,41.73,3.73,21.64,6.71,38.84,7.52
96,0.475, 2017/11/15 11:32:58.627上午,20.37,3.96,340,47.99,8.21,41.91,4.85,21.72,7.43,40.1,7.79
97,0.48, 2017/11/15 11:32:58.632上午,19.96,3.87,344,47.96,8.28,41.88,4.64,21.62,6.81,39.29,7.61
98,0.485, 2017/11/15 11:32:58.637上午,19.49,3.87,355,48.14,8.38,41.5,3.5,21.61,6.71,38.37,7.62
99,0.49, 2017/11/15 11:32:58.642上午,19.14,3.97,368,48.22,8.3,39.56,8.99,21.41,6.79,37.68,7.81
100,0.495, 2017/11/15 11:32:58.647上午,19.78,3.79,354,48.01,8.29,41.78,3.78,21.71,6.44,38.93,7.46
101,0.5, 2017/11/15 11:32:58.652上午,20.13,3.94,335,48.27,8.4,39.85,6.79,21.91,6.69,39.63,7.76
102,0.505, 2017/11/15 11:32:58.657上午,19.5,3.95,361,48.09,8.37,39.85,7.89,21.59,6.73,38.38,7.77
103,0.51, 2017/11/15 11:32:58.662上午,19.91,3.88,356,47.98,8.21,39.79,7.96,21.86,6.41,39.19,7.63
104,0.515, 2017/11/15 11:32:58.667上午,20.09,3.79,341,48.04,8.31,41.73,3.73,22.15,6.32,39.55,7.47
105,0.52, 2017/11/15 11:32:58.672上午,19.63,3.94,343,48.1,8.4,41.5,3.5,21.56,7.01,38.65,7.75
106,0.525, 2017/11/15 11:32:58.677上午,20.36,3.96,335,47.98,8.27,41.94,4.82,21.71,7.42,40.08,7.8
107,0.53, 2017/11/15 11:32:58.682上午,20,3.83,339,48.23,8.41,41.78,3.78,21.84,6.42,39.38,7.54
108,0.535, 2017/11/15 11:32:58.687上午,19.52,3.85,350,48.12,8.37,41.73,3.73,21.58,6.71,38.42,7.57
109,0.54, 2017/11/15 11:32:58.692上午,19.86,3.91,357,47.89,8.24,41.94,4.82,21.6,7.21,39.09,7.7
110,0.545, 2017/11/15 11:32:58.697上午,20.01,3.83,343,47.99,8.27,41.75,3.75,21.75,6.6,39.38,7.55
111,0.55, 2017/11/15 11:32:58.702上午,19.52,3.84,355,48.18,8.26,41.5,3.5,21.61,6.73,38.42,7.55
112,0.555, 2017/11/15 11:32:58.707上午,19.65,3.79,353,47.96,8.26,41.92,4.64,21.6,6.54,38.68,7.47
113,0.56, 2017/11/15 11:32:58.712上午,19.93,3.82,329,48.29,8.41,41.74,3.74,22.09,6.39,39.23,7.51
114,0.565, 2017/11/15 11:32:58.717上午,19.31,3.82,354,48.22,8.3,41.74,3.74,21.46,6.74,38.02,7.52
115,0.57, 2017/11/15 11:32:58.722上午,20.11,4.01,343,47.98,8.26,41.95,4.84,21.88,7.76,39.59,7.89
116,0.575, 2017/11/15 11:32:58.727上午,20.34,3.85,349,47.84,8.29,41.95,4.84,22.24,6.56,40.04,7.58
117,0.58, 2017/11/15 11:32:58.732上午,20.17,3.82,336,48.02,8.29,41.74,3.74,21.96,6.48,39.7,7.52
118,0.585, 2017/11/15 11:32:58.737上午,19.66,3.98,370,47.91,8.24,39.57,7.78,21.66,7.1,38.71,7.83
119,0.59, 2017/11/15 11:32:58.742上午,19.83,3.86,363,47.99,8.18,41.79,3.79,21.61,7,39.03,7.6
120,0.595, 2017/11/15 11:32:58.747上午,20.11,3.93,347,48.26,8.38,39.44,8.15,22.2,6.33,39.58,7.74
121,0.6, 2017/11/15 11:32:58.752上午,19.23,3.83,358,48.21,8.44,41.75,3.75,21.54,6.55,37.86,7.54
122,0.605, 2017/11/15 11:32:58.757上午,19.24,3.85,364,48.11,8.37,41.74,3.74,21.52,6.78,37.87,7.58
123,0.61, 2017/11/15 11:32:58.762上午,19.74,3.9,363,47.93,8.3,39.78,7.98,21.72,6.44,38.86,7.67
124,0.615, 2017/11/15 11:32:58.767上午,20.21,3.78,348,47.93,8.27,41.79,3.79,22,6.24,39.79,7.44
125,0.62, 2017/11/15 11:32:58.772上午,19.16,3.77,351,48.19,8.37,41.75,3.75,21.52,6.38,37.72,7.42
126,0.625, 2017/11/15 11:32:58.777上午,19.37,3.87,367,48.19,8.32,41.91,4.85,21.51,6.9,38.13,7.62
127,0.63, 2017/11/15 11:32:58.782上午,20.38,3.86,336,47.93,8.28,41.94,4.83,22.2,6.65,40.11,7.59
128,0.635, 2017/11/15 11:32:58.787上午,19.93,3.85,334,48.25,8.42,41.81,3.81,21.79,6.5,39.22,7.57
129,0.64, 2017/11/15 11:32:58.792上午,19.59,3.86,349,48.22,8.29,41.73,3.73,21.45,6.91,38.56,7.61
130,0.645, 2017/11/15 11:32:58.797上午,20.34,3.95,336,47.94,8.19,41.88,4.64,21.71,7.48,40.03,7.78
131,0.65, 2017/11/15 11:32:58.802上午,19.75,3.82,349,47.97,8.28,41.74,3.74,21.89,6.61,38.89,7.52
132,0.655, 2017/11/15 11:32:58.807上午,20,3.92,338,48.12,8.4,41.76,3.76,22,6.92,39.36,7.72
133,0.66, 2017/11/15 11:32:58.812上午,20.58,3.98,337,47.93,8.22,41.92,4.87,22.13,7.51,40.52,7.83
134,0.665, 2017/11/15 11:32:58.817上午,20.37,3.84,336,47.97,8.27,41.79,3.79,22.15,6.6,40.09,7.56
135,0.67, 2017/11/15 11:32:58.822上午,19.81,3.8,340,48.18,8.34,41.76,3.76,21.74,6.34,39,7.47
136,0.675, 2017/11/15 11:32:58.827上午,20.48,3.95,335,48.07,8.19,41.74,3.74,21.72,7.45,40.31,7.77
137,0.68, 2017/11/15 11:32:58.832上午,20.02,3.88,352,47.91,8.29,40.59,7.65,21.82,6.31,39.4,7.64
138,0.685, 2017/11/15 11:32:58.837上午,19.72,3.86,349,48.11,8.38,41.76,3.76,21.79,6.65,38.81,7.6
139,0.69, 2017/11/15 11:32:58.842上午,19.46,3.86,354,48.18,8.35,41.74,3.74,21.66,6.84,38.32,7.61
140,0.695, 2017/11/15 11:32:58.847上午,20.3,3.98,340,47.94,8.22,41.95,4.85,21.87,7.62,39.96,7.84
141,0.7, 2017/11/15 11:32:58.852上午,19.67,3.77,344,48.18,8.34,41.79,3.79,21.6,6.32,38.71,7.43
142,0.705, 2017/11/15 11:32:58.857上午,19.86,3.82,346,47.96,8.29,41.74,3.74,21.87,6.57,39.1,7.52
143,0.71, 2017/11/15 11:32:58.862上午,19.4,3.84,359,48.24,8.29,41.74,3.74,21.47,6.8,38.18,7.55
144,0.715, 2017/11/15 11:32:58.867上午,20.43,3.84,342,48,8.22,41.95,4.84,21.84,6.65,40.22,7.57
145,0.72, 2017/11/15 11:32:58.872上午,20.01,3.84,351,47.93,8.21,41.95,4.84,21.98,6.77,39.39,7.55
146,0.725, 2017/11/15 11:32:58.877上午,19.93,3.86,341,48.01,8.29,41.76,3.76,22.03,6.73,39.24,7.59
147,0.73, 2017/11/15 11:32:58.882上午,19.29,3.87,364,48.22,8.34,41.74,3.74,21.49,6.94,37.97,7.62
148,0.735, 2017/11/15 11:32:58.887上午,20.18,3.76,350,47.97,8.25,41.95,4.84,21.97,6.15,39.72,7.4
149,0.74, 2017/11/15 11:32:58.892上午,20.18,3.89,327,48.31,8.41,41.74,3.74,22,6.7,39.73,7.65
150,0.745, 2017/11/15 11:32:58.897上午,19.38,3.85,351,48.17,8.34,41.75,3.75,21.61,6.79,38.15,7.58
151,0.75, 2017/11/15 11:32:58.902上午,20.51,3.95,341,47.95,8.2,41.73,3.73,21.72,7.47,40.37,7.78
152,0.755, 2017/11/15 11:32:58.907上午,20.11,3.78,347,47.88,8.3,41.95,4.86,21.95,6.18,39.58,7.44
153,0.76, 2017/11/15 11:32:58.912上午,20.16,3.87,324,48.25,8.36,41.76,3.76,21.91,6.62,39.68,7.61
154,0.765, 2017/11/15 11:32:58.917上午,19.41,3.83,346,48.16,8.32,41.5,3.5,21.61,6.62,38.21,7.54
155,0.77, 2017/11/15 11:32:58.922上午,19.83,3.9,361,47.91,8.26,41.95,4.86,21.68,7.03,39.04,7.67
156,0.775, 2017/11/15 11:32:58.927上午,19.68,3.84,354,48.23,8.37,39.82,6.85,21.88,6.29,38.74,7.56
157,0.78, 2017/11/15 11:32:58.932上午,20.27,3.97,333,48.29,8.42,40.1,7.41,21.99,6.62,39.9,7.81
158,0.785, 2017/11/15 11:32:58.937上午,19.44,3.85,352,48.16,8.33,41.5,3.5,21.6,6.72,38.27,7.59
159,0.79, 2017/11/15 11:32:58.942上午,19.68,3.92,353,48.2,8.3,41.5,3.5,21.63,7.09,38.74,7.72
160,0.795, 2017/11/15 11:32:58.947上午,20.16,3.95,348,47.97,8.21,41.92,4.65,21.92,7.47,39.69,7.78
161,0.8, 2017/11/15 11:32:58.952上午,19.95,3.9,353,48.04,8.33,39.76,6.99,21.79,6.52,39.27,7.67
162,0.805, 2017/11/15 11:32:58.957上午,19.97,3.86,332,48.22,8.36,41.74,3.74,21.84,6.68,39.3,7.6
163,0.81, 2017/11/15 11:32:58.962上午,19.52,3.85,348,48.18,8.36,41.5,3.5,21.61,6.64,38.42,7.58
164,0.815, 2017/11/15 11:32:58.967上午,20.02,3.91,352,48.07,8.4,41.74,3.74,21.49,6.79,39.41,7.69
165,0.82, 2017/11/15 11:32:58.972上午,20.23,3.89,353,47.98,8.22,41.95,4.85,21.66,6.97,39.82,7.65
166,0.825, 2017/11/15 11:32:58.977上午,20.38,3.86,338,48.05,8.29,41.79,3.79,22.18,6.69,40.12,7.6
167,0.83, 2017/11/15 11:32:58.982上午,19.76,3.86,345,48.26,8.44,41.76,3.76,22.11,6.59,38.89,7.6
168,0.835, 2017/11/15 11:32:58.987上午,19.77,3.96,351,48.13,8.41,41.74,3.74,21.63,7.2,38.92,7.8
169,0.84, 2017/11/15 11:32:58.992上午,20.72,3.96,343,48.03,8.22,41.92,4.65,21.73,7.42,40.78,7.8
170,0.845, 2017/11/15 11:32:58.997上午,20.39,3.79,338,47.99,8.26,41.79,3.79,22.14,6.27,40.14,7.46
171,0.85, 2017/11/15 11:32:59.002上午,19.83,3.82,349,47.99,8.28,41.76,3.76,22.13,6.53,39.03,7.51
172,0.855, 2017/11/15 11:32:59.007上午,19.66,3.92,350,48.17,8.35,41.74,3.74,21.61,7.1,38.7,7.72
173,0.86, 2017/11/15 11:32:59.012上午,20.71,3.95,339,48,8.19,41.92,4.89,21.73,7.38,40.76,7.78
174,0.865, 2017/11/15 11:32:59.017上午,20.66,3.86,336,47.96,8.31,41.74,3.74,22.27,6.46,40.68,7.6
175,0.87, 2017/11/15 11:32:59.022上午,20.25,3.88,336,48.29,8.44,41.76,3.76,21.95,6.51,39.86,7.65
176,0.875, 2017/11/15 11:32:59.027上午,19.44,3.86,362,48.14,8.42,41.74,3.74,21.45,6.65,38.27,7.59
177,0.88, 2017/11/15 11:32:59.032上午,19.38,3.94,349,48.16,8.35,41.5,3.5,21.46,7.16,38.14,7.76
178,0.885, 2017/11/15 11:32:59.037上午,20.12,3.83,355,47.97,8.22,41.92,4.66,22.1,6.66,39.61,7.54
179,0.89, 2017/11/15 11:32:59.042上午,20.15,3.87,350,47.94,8.3,41.89,4.67,21.81,6.69,39.66,7.61
180,0.895, 2017/11/15 11:32:59.047上午,20.16,3.88,330,48.28,8.41,41.74,3.74,22.06,6.66,39.68,7.64
181,0.9, 2017/11/15 11:32:59.052上午,19.62,3.89,357,48.18,8.33,39.75,8.17,21.38,6.33,38.62,7.65
182,0.905, 2017/11/15 11:32:59.057上午,19.5,3.87,358,48.11,8.39,41.76,3.76,21.54,6.71,38.4,7.61
183,0.91, 2017/11/15 11:32:59.062上午,20.41,4,348,47.93,8.21,41.92,4.88,21.82,7.71,40.17,7.88
184,0.915, 2017/11/15 11:32:59.067上午,20.64,3.81,342,47.98,8.23,41.95,4.86,22.29,6.31,40.63,7.5
185,0.92, 2017/11/15 11:32:59.072上午,19.69,3.75,364,47.99,8.26,41.92,4.66,21.77,6.25,38.77,7.38
186,0.925, 2017/11/15 11:32:59.077上午,19.41,3.88,355,48.23,8.46,41.76,3.76,21.56,6.71,38.22,7.63
187,0.93, 2017/11/15 11:32:59.082上午,19.76,3.88,354,48.17,8.27,41.74,3.74,21.61,6.97,38.9,7.64
188,0.935, 2017/11/15 11:32:59.087上午,20.03,3.89,371,47.97,8.24,40.13,8.1,21.85,6.3,39.44,7.65
189,0.94, 2017/11/15 11:32:59.092上午,20.12,3.84,354,47.96,8.32,41.92,4.66,21.77,6.49,39.61,7.56
190,0.945, 2017/11/15 11:32:59.097上午,19.72,3.91,341,48.22,8.4,41.76,3.76,21.83,6.9,38.82,7.69
191,0.95, 2017/11/15 11:32:59.102上午,20.08,3.87,363,47.91,8.24,41.91,4.83,21.49,6.82,39.54,7.61
192,0.955, 2017/11/15 11:32:59.107上午,20.43,3.95,346,47.97,8.24,41.96,4.87,21.84,7.29,40.22,7.77
193,0.96, 2017/11/15 11:32:59.112上午,19.92,3.89,331,48.27,8.41,41.74,3.74,21.83,6.78,39.22,7.66
194,0.965, 2017/11/15 11:32:59.117上午,19.27,3.88,361,48.17,8.37,41.74,3.74,21.49,6.95,37.94,7.65
195,0.97, 2017/11/15 11:32:59.122上午,19.71,3.92,376,47.91,8.23,41.93,4.89,21.48,7.19,38.8,7.71
196,0.975, 2017/11/15 11:32:59.127上午,19.72,3.85,345,48.2,8.35,41.8,3.8,21.77,6.71,38.83,7.57
197,0.98, 2017/11/15 11:32:59.132上午,20.05,3.8,347,47.96,8.27,41.8,3.8,22.09,6.46,39.46,7.49
198,0.985, 2017/11/15 11:32:59.137上午,20.1,3.87,332,48.25,8.41,41.8,3.8,22.06,6.61,39.57,7.61
199,0.99, 2017/11/15 11:32:59.142上午,19.54,3.88,353,48.11,8.37,41.5,3.5,21.61,6.72,38.47,7.63
200,0.995, 2017/11/15 11:32:59.147上午,19.65,4.02,358,48.15,8.34,39.65,8.69,21.56,6.96,38.67,7.91
201,1, 2017/11/15 11:32:59.152上午,20.39,3.95,348,47.91,8.25,41.96,4.87,21.81,7.29,40.13,7.77
202,1.005, 2017/11/15 11:32:59.157上午,20.57,3.98,360,47.91,8.29,40.12,8.12,22.3,6.57,40.48,7.83
203,1.01, 2017/11/15 11:32:59.162上午,20.08,3.83,332,48.28,8.39,41.74,3.74,22.13,6.38,39.53,7.53
204,1.015, 2017/11/15 11:32:59.167上午,19.82,3.84,353,48.12,8.38,41.74,3.74,21.79,6.52,39.02,7.56
205,1.02, 2017/11/15 11:32:59.172上午,20.03,4.05,340,48.18,8.36,41.74,3.74,21.63,7.77,39.44,7.97
206,1.025, 2017/11/15 11:32:59.177上午,20.91,3.94,340,47.91,8.21,41.93,4.89,22.26,7.18,41.15,7.76
207,1.03, 2017/11/15 11:32:59.182上午,20.26,3.86,348,47.93,8.33,41.89,4.67,21.98,6.55,39.88,7.6
208,1.035, 2017/11/15 11:32:59.187上午,19.16,3.86,363,48.21,8.38,41.76,3.76,21.4,6.8,37.71,7.6
209,1.04, 2017/11/15 11:32:59.192上午,20.34,4.1,335,48.18,8.35,39.81,8,21.75,7.44,40.04,8.07
210,1.045, 2017/11/15 11:32:59.197上午,20.72,3.84,340,47.89,8.26,41.96,4.87,22.26,6.4,40.79,7.56
211,1.05, 2017/11/15 11:32:59.202上午,20.2,3.84,333,48.24,8.34,41.75,3.75,21.94,6.49,39.76,7.56
212,1.055, 2017/11/15 11:32:59.207上午,19.43,3.85,356,48.22,8.35,41.76,3.76,21.57,6.71,38.25,7.57
213,1.06, 2017/11/15 11:32:59.212上午,20.51,4.06,357,47.92,8.22,39.98,7.99,21.72,7.44,40.37,8
214,1.065, 2017/11/15 11:32:59.217上午,20.5,3.84,345,47.97,8.23,41.93,4.68,22.33,6.59,40.36,7.56
215,1.07, 2017/11/15 11:32:59.222上午,19.86,3.88,350,48.23,8.37,41.8,3.8,21.8,6.79,39.09,7.63
216,1.075, 2017/11/15 11:32:59.227上午,20.25,3.9,336,48.11,8.36,41.76,3.76,21.88,6.71,39.85,7.67
217,1.08, 2017/11/15 11:32:59.232上午,19.34,3.87,363,48.11,8.38,41.75,3.75,21.46,6.85,38.07,7.63
218,1.085, 2017/11/15 11:32:59.237上午,19.93,3.88,369,47.91,8.23,41.91,4.83,21.63,6.97,39.24,7.64
219,1.09, 2017/11/15 11:32:59.242上午,20.06,3.86,356,48.01,8.3,39.8,6.9,22.18,6.34,39.49,7.59
220,1.095, 2017/11/15 11:32:59.247上午,20.54,4.07,345,48.02,8.33,39.71,8.27,22.15,7.08,40.43,8
221,1.1, 2017/11/15 11:32:59.252上午,19.49,3.85,354,48.18,8.34,41.76,3.76,21.57,6.71,38.37,7.58
222,1.105, 2017/11/15 11:32:59.257上午,19.65,3.97,365,48.11,8.3,40.03,7.84,21.61,6.94,38.67,7.81
223,1.11, 2017/11/15 11:32:59.262上午,20.49,3.98,344,47.87,8.26,41.96,4.88,21.72,7.43,40.34,7.83
224,1.115, 2017/11/15 11:32:59.267上午,19.92,3.85,336,48.22,8.36,41.75,3.75,21.75,6.6,39.2,7.58
225,1.12, 2017/11/15 11:32:59.272上午,19.49,3.85,361,48,8.3,41.76,3.76,21.59,6.75,38.37,7.57
226,1.125, 2017/11/15 11:32:59.277上午,19.75,3.96,362,48.24,8.24,39.6,7.71,21.6,6.98,38.88,7.79
227,1.13, 2017/11/15 11:32:59.282上午,20.19,3.82,350,47.91,8.31,41.93,4.67,22.08,6.37,39.75,7.52
228,1.135, 2017/11/15 11:32:59.287上午,19.11,3.85,368,48.18,8.41,41.75,3.75,21.32,6.71,37.62,7.57
229,1.14, 2017/11/15 11:32:59.292上午,20.11,3.87,361,47.97,8.2,41.93,4.9,21.76,6.87,39.59,7.61
230,1.145, 2017/11/15 11:32:59.297上午,19.66,3.78,347,48.23,8.35,41.8,3.8,21.9,6.33,38.69,7.43
231,1.15, 2017/11/15 11:32:59.302上午,19.59,3.87,355,48.2,8.43,41.75,3.75,21.61,6.69,38.57,7.62
232,1.155, 2017/11/15 11:32:59.307上午,20.41,4.03,348,47.93,8.23,40.06,7.88,21.82,7.23,40.17,7.93
233,1.16, 2017/11/15 11:32:59.312上午,20.25,3.85,340,48.02,8.3,41.9,4.69,21.96,6.53,39.86,7.57
234,1.165, 2017/11/15 11:32:59.317上午,19.12,3.85,360,48.17,8.31,41.75,3.75,21.51,6.88,37.63,7.57
235,1.17, 2017/11/15 11:32:59.322上午,20.34,4.08,352,47.93,8.29,39.98,8,21.73,7.43,40.04,8.03
236,1.175, 2017/11/15 11:32:59.327上午,20.31,3.96,336,47.98,8.31,41.96,4.89,21.83,7.29,39.99,7.8
237,1.18, 2017/11/15 11:32:59.332上午,20.11,3.88,327,48.23,8.39,41.77,3.77,21.86,6.67,39.58,7.65
238,1.185, 2017/11/15 11:32:59.337上午,19.24,3.82,352,48.23,8.37,41.77,3.77,21.81,6.62,37.86,7.52
239,1.19, 2017/11/15 11:32:59.342上午,19.6,3.91,366,47.96,8.29,41.93,4.91,21.42,7.08,38.59,7.7
240,1.195, 2017/11/15 11:32:59.347上午,20.32,3.86,339,47.97,8.26,41.96,4.88,22.13,6.71,39.99,7.6
241,1.2, 2017/11/15 11:32:59.352上午,20.03,3.92,363,48,8.27,40.09,7.17,21.98,6.79,39.43,7.72
242,1.205, 2017/11/15 11:32:59.357上午,20.18,3.87,328,48.19,8.43,41.77,3.77,21.94,6.46,39.73,7.62
243,1.21, 2017/11/15 11:32:59.362上午,19.97,3.91,334,48.24,8.39,41.77,3.77,22.03,6.89,39.31,7.7
244,1.215, 2017/11/15 11:32:59.367上午,19.41,3.92,356,48.17,8.32,39.51,7.9,21.56,6.67,38.2,7.71
245,1.22, 2017/11/15 11:32:59.372上午,19.77,3.92,357,47.98,8.26,41.96,4.88,22.02,7.2,38.93,7.71
246,1.225, 2017/11/15 11:32:59.377上午,20.1,3.79,342,47.95,8.27,41.8,3.8,22.17,6.35,39.57,7.46
247,1.23, 2017/11/15 11:32:59.382上午,19.64,3.92,344,48.19,8.34,41.77,3.77,21.79,7.09,38.67,7.71
248,1.235, 2017/11/15 11:32:59.387上午,19.38,3.83,375,48.03,8.16,41.93,4.9,21.52,6.9,38.15,7.54
249,1.24, 2017/11/15 11:32:59.392上午,20.22,3.95,351,48.02,8.19,41.96,4.88,21.92,7.47,39.81,7.78
250,1.245, 2017/11/15 11:32:59.397上午,20.07,3.85,341,47.99,8.31,41.82,3.82,21.73,6.62,39.5,7.58
251,1.25, 2017/11/15 11:32:59.402上午,19.36,3.83,357,48.13,8.35,41.75,3.75,21.53,6.64,38.11,7.54
252,1.255, 2017/11/15 11:32:59.407上午,19.58,4,367,47.97,8.28,39.97,8.01,21.65,7.11,38.53,7.87
253,1.26, 2017/11/15 11:32:59.412上午,20.09,3.77,348,47.91,8.29,41.9,4.7,21.99,6.09,39.55,7.42
254,1.265, 2017/11/15 11:32:59.417上午,20.17,3.86,327,48.2,8.4,41.77,3.77,21.94,6.47,39.71,7.6
255,1.27, 2017/11/15 11:32:59.422上午,19.33,3.81,350,48.19,8.29,41.75,3.75,21.59,6.7,38.04,7.51
256,1.275, 2017/11/15 11:32:59.427上午,19.4,3.85,357,48.11,8.36,41.75,3.75,21.53,6.72,38.18,7.58
257,1.28, 2017/11/15 11:32:59.432上午,20.12,4.1,357,47.95,8.22,40.03,8.15,21.89,7.74,39.6,8.07
258,1.285, 2017/11/15 11:32:59.437上午,19.97,3.8,353,47.99,8.29,41.96,4.89,21.93,6.39,39.3,7.48
259,1.29, 2017/11/15 11:32:59.442上午,20.07,3.82,333,48.23,8.37,41.8,3.8,21.98,6.4,39.5,7.52
260,1.295, 2017/11/15 11:32:59.447上午,19.06,3.88,355,48.18,8.34,41.5,3.5,21.48,6.91,37.52,7.63
261,1.3, 2017/11/15 11:32:59.452上午,19.07,4.02,369,48.15,8.32,38.76,9.86,21.49,6.89,37.55,7.91
262,1.305, 2017/11/15 11:32:59.457上午,19.76,3.92,354,47.91,8.33,41.93,4.68,21.68,7.06,38.9,7.71
263,1.31, 2017/11/15 11:32:59.462上午,19.94,3.81,349,47.93,8.36,41.93,4.68,22.14,6.33,39.25,7.5
264,1.315, 2017/11/15 11:32:59.467上午,19.91,3.87,328,48.2,8.38,41.77,3.77,21.73,6.64,39.19,7.61
265,1.32, 2017/11/15 11:32:59.472上午,19.5,3.91,373,47.95,8.24,39.93,7.84,21.62,6.71,38.39,7.69
266,1.325, 2017/11/15 11:32:59.477上午,20.16,3.98,341,47.98,8.28,41.93,4.68,21.93,7.48,39.69,7.83
267,1.33, 2017/11/15 11:32:59.482上午,20.12,3.8,324,48.28,8.44,41.75,3.75,22.21,6.12,39.6,7.48
268,1.335, 2017/11/15 11:32:59.487上午,20,3.81,318,48.27,8.3,41.77,3.77,21.94,6.49,39.36,7.51
269,1.34, 2017/11/15 11:32:59.492上午,19.19,3.91,358,48.17,8.32,39.01,8.48,21.56,6.61,37.77,7.69
270,1.345, 2017/11/15 11:32:59.497上午,19.78,3.98,352,47.87,8.27,41.96,4.89,21.72,7.56,38.93,7.84
271,1.35, 2017/11/15 11:32:59.502上午,19.65,3.89,355,47.91,8.28,41.9,4.7,22.05,7.01,38.69,7.66
272,1.355, 2017/11/15 11:32:59.507上午,19.67,3.79,347,47.94,8.34,41.77,3.77,21.89,6.3,38.73,7.46
273,1.36, 2017/11/15 11:32:59.512上午,19.22,3.93,363,48.17,8.26,38.99,8.51,21.45,6.77,37.83,7.73
274,1.365, 2017/11/15 11:32:59.517上午,19.62,3.92,361,47.79,8.32,41.97,4.9,21.65,7.07,38.63,7.71
275,1.37, 2017/11/15 11:32:59.522上午,19.32,3.81,360,47.93,8.28,41.94,4.69,21.78,6.69,38.03,7.51
276,1.375, 2017/11/15 11:32:59.527上午,19.8,3.93,361,47.93,8.28,39.67,9.19,21.91,6.2,38.98,7.74
277,1.38, 2017/11/15 11:32:59.532上午,19.69,3.78,342,47.96,8.31,41.77,3.77,21.74,6.33,38.76,7.45
278,1.385, 2017/11/15 11:32:59.537上午,19.22,3.83,355,48.17,8.4,41.77,3.77,21.58,6.62,37.83,7.54
279,1.39, 2017/11/15 11:32:59.542上午,19,3.85,363,48.07,8.39,41.77,3.77,21.32,6.77,37.41,7.58
280,1.395, 2017/11/15 11:32:59.547上午,20.06,4.11,358,47.88,8.25,40.1,8.17,21.89,7.73,39.49,8.09
281,1.4, 2017/11/15 11:32:59.552上午,19.59,3.83,356,47.78,8.23,41.93,4.92,21.69,6.74,38.57,7.54
282,1.405, 2017/11/15 11:32:59.557上午,19.27,3.82,348,48.15,8.37,41.8,3.8,21.84,6.67,37.93,7.52
283,1.41, 2017/11/15 11:32:59.562上午,19.18,3.94,355,48.21,8.38,39.72,7.07,21.68,6.95,37.76,7.76
284,1.415, 2017/11/15 11:32:59.567上午,19.62,3.86,341,48.2,8.42,41.77,3.77,22.09,6.63,38.62,7.59
285,1.42, 2017/11/15 11:32:59.572上午,19.54,3.86,362,47.83,8.27,41.8,5.01,21.6,6.73,38.47,7.59
286,1.425, 2017/11/15 11:32:59.577上午,19.66,3.9,353,47.95,8.28,41.93,4.69,21.7,7.09,38.7,7.68
287,1.43, 2017/11/15 11:32:59.582上午,19.43,3.79,345,48.17,8.36,41.75,3.75,21.7,6.42,38.25,7.46
288,1.435, 2017/11/15 11:32:59.587上午,19.29,3.82,349,48.05,8.35,41.77,3.77,21.7,6.63,37.97,7.53
289,1.44, 2017/11/15 11:32:59.592上午,19.09,3.95,368,48.13,8.32,39.5,7.93,21.51,6.91,37.57,7.77
290,1.445, 2017/11/15 11:32:59.597上午,19.6,3.9,351,47.9,8.27,41.93,4.69,21.64,7.12,38.58,7.68
291,1.45, 2017/11/15 11:32:59.602上午,20.11,3.88,322,48.2,8.4,41.77,3.77,21.88,6.61,39.58,7.64
292,1.455, 2017/11/15 11:32:59.607上午,19.2,3.91,360,48.13,8.33,39.49,7.95,21.54,6.66,37.79,7.69
293,1.46, 2017/11/15 11:32:59.612上午,20.09,4,347,47.95,8.23,41.94,4.7,21.89,7.74,39.56,7.88
294,1.465, 2017/11/15 11:32:59.617上午,19.53,3.73,352,47.98,8.33,41.9,4.71,21.74,6.03,38.45,7.33
295,1.47, 2017/11/15 11:32:59.622上午,19.75,3.92,329,48.15,8.4,41.77,3.77,21.98,6.99,38.87,7.72
296,1.475, 2017/11/15 11:32:59.627上午,19.2,3.84,354,48.13,8.39,41.77,3.77,21.42,6.68,37.8,7.57
297,1.48, 2017/11/15 11:32:59.632上午,19.3,3.86,366,47.84,8.19,41.92,4.86,21.46,7.07,38,7.6
298,1.485, 2017/11/15 11:32:59.637上午,19.47,3.79,355,47.95,8.29,41.97,4.9,21.73,6.52,38.33,7.47
299,1.49, 2017/11/15 11:32:59.642上午,19.67,3.88,356,47.92,8.29,40.21,8.01,21.88,6.4,38.73,7.65
300,1.495, 2017/11/15 11:32:59.647上午,19.49,3.82,336,48.09,8.31,41.77,3.77,21.86,6.62,38.36,7.52
301,1.5, 2017/11/15 11:32:59.652上午,19.08,3.87,356,48.06,8.35,41.77,3.77,21.5,6.93,37.56,7.63
302,1.505, 2017/11/15 11:32:59.657上午,19.68,3.92,351,47.92,8.24,41.94,4.92,21.65,7.23,38.75,7.72
303,1.51, 2017/11/15 11:32:59.662上午,19.62,3.7,346,47.89,8.22,41.94,4.69,21.94,6.05,38.63,7.28
304,1.515, 2017/11/15 11:32:59.667上午,19.39,3.77,351,47.89,8.28,41.8,3.8,21.75,6.46,38.18,7.42
305,1.52, 2017/11/15 11:32:59.672上午,18.92,3.72,344,48.3,8.36,41.75,3.75,21.45,6.28,37.24,7.33
306,1.525, 2017/11/15 11:32:59.677上午,19.07,3.96,358,48.18,8.34,39.62,8.52,21.47,6.85,37.53,7.79
307,1.53, 2017/11/15 11:32:59.682上午,19.47,3.78,349,47.92,8.26,41.94,4.69,21.56,6.48,38.32,7.44
308,1.535, 2017/11/15 11:32:59.687上午,19.72,3.74,348,47.93,8.27,41.75,3.75,21.99,6.18,38.82,7.37
309,1.54, 2017/11/15 11:32:59.692上午,19.19,3.95,356,48.05,8.37,39.78,8.08,21.52,6.79,37.77,7.77
310,1.545, 2017/11/15 11:32:59.697上午,19.3,3.88,365,47.85,8.25,41.94,4.92,21.47,7.03,37.99,7.64
311,1.55, 2017/11/15 11:32:59.702上午,18.94,3.88,369,48.16,8.33,39.29,8.63,21.81,6.44,37.29,7.64
312,1.555, 2017/11/15 11:32:59.707上午,19.42,3.77,325,48.27,8.32,41.77,3.77,21.82,6.41,38.22,7.43
313,1.56, 2017/11/15 11:32:59.712上午,19.39,3.83,358,47.89,8.24,41.92,4.86,21.65,6.82,38.16,7.54
314,1.565, 2017/11/15 11:32:59.717上午,19.53,3.82,342,47.96,8.28,41.94,4.7,21.76,6.65,38.45,7.51
315,1.57, 2017/11/15 11:32:59.722上午,19.26,3.83,328,48.16,8.24,39.32,7.14,21.87,6.57,37.91,7.55
316,1.575, 2017/11/15 11:32:59.727上午,18.93,3.83,342,48.24,8.38,41.77,3.77,21.45,6.71,37.26,7.53
317,1.58, 2017/11/15 11:32:59.732上午,18.97,3.94,363,48.08,8.29,38.98,8.54,21.46,6.86,37.35,7.76
318,1.585, 2017/11/15 11:32:59.737上午,19.37,3.89,363,47.89,8.28,40.1,8.19,21.73,6.51,38.13,7.66
319,1.59, 2017/11/15 11:32:59.742上午,19.45,3.72,344,47.91,8.25,41.94,4.7,21.83,6.23,38.28,7.33
320,1.595, 2017/11/15 11:32:59.747上午,19.22,3.79,332,48.11,8.32,41.77,3.77,21.85,6.55,37.83,7.46
321,1.6, 2017/11/15 11:32:59.752上午,19.11,3.85,342,48.09,8.34,41.75,3.75,21.63,6.87,37.62,7.58
322,1.605, 2017/11/15 11:32:59.757上午,19.47,3.87,348,47.87,8.28,41.94,4.93,21.6,6.92,38.32,7.62
323,1.61, 2017/11/15 11:32:59.762上午,19.11,3.67,336,48.15,8.33,41.81,3.81,21.42,6.01,37.63,7.23
324,1.615, 2017/11/15 11:32:59.767上午,19.62,3.82,327,48.14,8.34,41.77,3.77,21.81,6.56,38.62,7.53
325,1.62, 2017/11/15 11:32:59.772上午,19,3.93,356,48.1,8.34,39.49,7.96,21.55,6.82,37.4,7.73
326,1.625, 2017/11/15 11:32:59.777上午,19.41,3.97,359,47.91,8.27,40.02,8.18,21.58,6.96,38.21,7.81
327,1.63, 2017/11/15 11:32:59.782上午,19,3.81,376,47.92,8.24,39.66,8.5,21.71,6.17,37.41,7.51
328,1.635, 2017/11/15 11:32:59.787上午,18.91,3.9,363,48.07,8.39,39.49,7.95,21.47,6.62,37.22,7.68
329,1.64, 2017/11/15 11:32:59.792上午,19.16,3.93,371,47.92,8.27,40.1,8.19,21.68,6.82,37.73,7.74
330,1.645, 2017/11/15 11:32:59.797上午,19.24,3.73,351,47.94,8.27,41.75,3.75,21.66,6.31,37.88,7.35
331,1.65, 2017/11/15 11:32:59.802上午,18.88,3.9,356,48.09,8.33,39.48,7.98,21.43,6.7,37.17,7.67
332,1.655, 2017/11/15 11:32:59.807上午,19.01,3.84,360,47.93,8.27,41.91,4.72,21.52,6.88,37.42,7.56
333,1.66, 2017/11/15 11:32:59.812上午,19.72,3.78,346,47.96,8.3,40.2,7.06,22.01,5.98,38.81,7.43
334,1.665, 2017/11/15 11:32:59.817上午,19.4,3.86,322,48.2,8.31,41.77,3.77,22.07,6.89,38.19,7.59
335,1.67, 2017/11/15 11:32:59.822上午,18.92,3.86,351,48.14,8.32,41.75,3.75,21.49,7,37.25,7.61
336,1.675, 2017/11/15 11:32:59.827上午,19.17,3.72,339,47.78,8.11,41.94,4.7,21.7,6.53,37.73,7.33
337,1.68, 2017/11/15 11:32:59.832上午,19.15,3.71,351,47.89,8.27,41.81,3.81,21.71,6.23,37.71,7.3
338,1.685, 2017/11/15 11:32:59.837上午,18.55,3.77,356,48.11,8.35,41.77,3.77,21.41,6.58,36.51,7.43
339,1.69, 2017/11/15 11:32:59.842上午,18.64,3.84,354,48.06,8.33,41.77,3.77,21.34,6.87,36.69,7.55
340,1.695, 2017/11/15 11:32:59.847上午,18.92,3.78,346,47.77,8.1,41.94,4.7,21.64,6.88,37.24,7.44
341,1.7, 2017/11/15 11:32:59.852上午,18.92,3.67,361,47.88,8.24,41.94,4.7,21.36,6.09,37.25,7.22
342,1.705, 2017/11/15 11:32:59.857上午,18.79,3.79,362,48.22,8.35,39.23,7.53,21.48,6.26,36.98,7.47
343,1.71, 2017/11/15 11:32:59.862上午,18.8,3.84,346,48.11,8.34,41.5,3.5,21.39,6.78,37.01,7.56
344,1.715, 2017/11/15 11:32:59.867上午,18.9,3.94,357,48.12,8.28,38.97,8.55,21.47,6.89,37.21,7.76
345,1.72, 2017/11/15 11:32:59.872上午,19.08,3.77,355,47.91,8.27,41.94,4.7,21.64,6.55,37.55,7.42
346,1.725, 2017/11/15 11:32:59.877上午,19.17,3.78,343,48.18,8.35,41.81,3.81,21.67,6.53,37.74,7.44
347,1.73, 2017/11/15 11:32:59.882上午,18.93,3.81,347,48.08,8.33,41.75,3.75,21.45,6.69,37.27,7.49
348,1.735, 2017/11/15 11:32:59.887上午,19.1,3.87,354,47.78,8.12,39.93,8.31,21.59,6.7,37.6,7.63
349,1.74, 2017/11/15 11:32:59.892上午,19.27,3.87,362,47.89,8.26,39.77,8.12,21.73,6.49,37.94,7.63
350,1.745, 2017/11/15 11:32:59.897上午,19.41,3.85,322,48.22,8.31,41.77,3.77,22.03,6.87,38.21,7.58
351,1.75, 2017/11/15 11:32:59.902上午,19.22,3.86,350,47.87,8.25,41.92,4.87,21.65,6.99,37.83,7.59
352,1.755, 2017/11/15 11:32:59.907上午,19.3,3.77,346,47.87,8.25,41.91,4.72,21.73,6.46,37.99,7.41
353,1.76, 2017/11/15 11:32:59.912上午,19,3.7,320,48.11,8.33,41.77,3.77,21.49,6.16,37.4,7.29
354,1.765, 2017/11/15 11:32:59.917上午,18.81,3.91,351,48.07,8.34,38.96,8.58,21.45,6.67,37.03,7.7
355,1.77, 2017/11/15 11:32:59.922上午,19.07,3.93,353,47.74,8.09,40.01,8.33,21.61,7.04,37.54,7.73
356,1.775, 2017/11/15 11:32:59.927上午,19.17,3.73,341,47.74,8.14,41.94,4.71,21.74,6.5,37.73,7.34
357,1.78, 2017/11/15 11:32:59.932上午,18.95,3.8,354,48.19,8.37,39.47,8.2,21.58,6.06,37.29,7.48
358,1.785, 2017/11/15 11:32:59.937上午,18.91,3.84,347,48,8.38,41.76,3.76,21.43,6.8,37.22,7.56
359,1.79, 2017/11/15 11:32:59.942上午,18.73,3.78,338,48.18,8.33,41.77,3.77,21.5,6.64,36.88,7.45
360,1.795, 2017/11/15 11:32:59.947上午,19.27,3.89,346,47.87,8.27,41.94,4.71,21.7,7.15,37.93,7.66
361,1.8, 2017/11/15 11:32:59.952上午,19.08,3.71,338,47.77,8.11,41.94,4.71,21.74,6.5,37.55,7.31
362,1.805, 2017/11/15 11:32:59.957上午,19.14,3.71,333,48.17,8.35,41.76,3.76,21.73,6.16,37.68,7.31
363,1.81, 2017/11/15 11:32:59.962上午,18.7,3.83,350,48,8.36,41.5,3.5,21.44,6.72,36.82,7.54
364,1.815, 2017/11/15 11:32:59.967上午,18.78,3.83,344,48.12,8.3,41.76,3.76,21.47,6.91,36.96,7.54
365,1.82, 2017/11/15 11:32:59.972上午,19.28,3.89,342,47.9,8.27,41.94,4.94,21.64,7.11,37.96,7.66
366,1.825, 2017/11/15 11:32:59.977上午,18.87,3.71,339,48.2,8.39,41.81,3.81,21.71,6.23,37.15,7.31
367,1.83, 2017/11/15 11:32:59.982上午,18.52,3.75,347,48.21,8.33,41.77,3.77,21.33,6.55,36.45,7.39
368,1.835, 2017/11/15 11:32:59.987上午,18.84,3.86,346,48.14,8.36,41.76,3.76,21.42,6.94,37.08,7.6
369,1.84, 2017/11/15 11:32:59.992上午,19.3,3.87,344,47.91,8.29,41.81,3.81,21.69,7.01,38,7.62
370,1.845, 2017/11/15 11:32:59.997上午,18.81,3.7,347,48.17,8.38,41.75,3.75,21.62,6.15,37.03,7.27
371,1.85, 2017/11/15 11:33:00.002上午,19.3,3.96,331,48.23,8.34,39.69,8.33,22.08,6.87,37.99,7.8
372,1.855, 2017/11/15 11:33:00.007上午,18.82,3.83,347,48.08,8.28,41.76,3.76,21.45,6.93,37.05,7.55
373,1.86, 2017/11/15 11:33:00.012上午,19.04,3.76,339,47.76,8.12,41.94,4.71,21.64,6.74,37.49,7.4
374,1.865, 2017/11/15 11:33:00.017上午,18.9,3.76,363,47.95,8.31,39.76,6.98,21.66,6.19,37.2,7.4
375,1.87, 2017/11/15 11:33:00.022上午,18.92,3.75,330,48.25,8.33,41.78,3.78,21.42,6.4,37.25,7.38
376,1.875, 2017/11/15 11:33:00.027上午,18.59,3.81,340,48.25,8.33,41.76,3.76,21.53,6.82,36.59,7.5
377,1.88, 2017/11/15 11:33:00.032上午,18.66,3.84,355,48.04,8.39,41.76,3.76,21.35,6.82,36.74,7.55
378,1.885, 2017/11/15 11:33:00.037上午,18.86,3.83,361,47.76,8.13,40.09,8.22,21.65,6.54,37.12,7.54
379,1.89, 2017/11/15 11:33:00.042上午,18.99,3.78,354,47.75,8.12,40.01,8.21,21.65,6.29,37.39,7.45
380,1.895, 2017/11/15 11:33:00.047上午,19.04,3.77,335,48.17,8.36,41.76,3.76,21.74,6.47,37.48,7.42
381,1.9, 2017/11/15 11:33:00.052上午,18.52,3.85,358,48.22,8.41,39.39,7.12,21.34,6.63,36.45,7.58
382,1.905, 2017/11/15 11:33:00.057上午,18.99,3.83,332,48.22,8.33,41.78,3.78,21.61,6.81,37.37,7.54
383,1.91, 2017/11/15 11:33:00.062上午,18.71,3.89,358,47.74,8.1,39.95,8.07,21.5,6.95,36.83,7.65
384,1.915, 2017/11/15 11:33:00.067上午,19.17,3.96,349,48.07,8.3,39.47,7.99,21.43,6.95,37.73,7.79
385,1.92, 2017/11/15 11:33:00.072上午,19.27,3.83,331,47.76,8.13,41.94,4.94,21.6,7.02,37.93,7.54
386,1.925, 2017/11/15 11:33:00.077上午,19.47,3.85,341,47.89,8.27,41.94,4.71,21.63,6.86,38.32,7.57
387,1.93, 2017/11/15 11:33:00.082上午,18.29,3.71,341,48.17,8.25,41.77,3.77,21.55,6.54,36.01,7.31
388,1.935, 2017/11/15 11:33:00.087上午,18.79,3.85,347,48.1,8.35,41.76,3.76,21.43,6.9,37,7.57
389,1.94, 2017/11/15 11:33:00.092上午,19.3,3.91,341,48.11,8.36,41.94,4.94,21.61,7.05,37.99,7.69
390,1.945, 2017/11/15 11:33:00.097上午,18.94,3.7,352,47.95,8.32,41.94,4.71,21.62,6.16,37.29,7.28
391,1.95, 2017/11/15 11:33:00.102上午,19.28,3.87,332,48.15,8.33,41.76,3.76,21.8,6.94,37.94,7.61
392,1.955, 2017/11/15 11:33:00.107上午,18.99,3.81,334,48.15,8.27,41.76,3.76,21.61,6.79,37.38,7.5
393,1.96, 2017/11/15 11:33:00.112上午,19.21,3.78,349,47.92,8.3,41.94,4.72,21.72,6.53,37.81,7.45
394,1.965, 2017/11/15 11:33:00.117上午,18.53,3.82,347,48.19,8.42,41.78,3.78,21.36,6.71,36.48,7.51
395,1.97, 2017/11/15 11:33:00.122上午,18.76,3.78,343,48.21,8.32,41.76,3.76,21.62,6.67,36.94,7.45
396,1.975, 2017/11/15 11:33:00.127上午,19.09,3.84,335,47.77,8.14,41.94,4.72,21.63,7.12,37.58,7.56
397,1.98, 2017/11/15 11:33:00.132上午,19.07,3.72,349,47.92,8.26,41.81,3.81,21.69,6.32,37.54,7.32
398,1.985, 2017/11/15 11:33:00.137上午,18.64,3.67,341,47.91,8.18,41.78,3.78,21.46,6.28,36.7,7.22
399,1.99, 2017/11/15 11:33:00.142上午,18.87,3.84,356,47.89,8.24,41.76,3.76,21.54,6.97,37.14,7.56
400,1.995, 2017/11/15 11:33:00.147上午,19.25,3.88,350,47.91,8.3,41.94,4.95,21.59,6.99,37.89,7.64
401,2, 2017/11/15 11:33:00.152上午,19.05,3.77,335,48.16,8.36,41.81,3.81,21.73,6.5,37.5,7.43
402,2.005, 2017/11/15 11:33:00.157上午,18.36,3.77,359,48.19,8.34,41.81,3.81,21.46,6.67,36.14,7.41
403,2.01, 2017/11/15 11:33:00.162上午,19.02,3.86,324,48.27,8.33,41.78,3.78,21.82,6.99,37.44,7.61
404,2.015, 2017/11/15 11:33:00.167上午,19.07,3.78,353,47.92,8.29,41.94,4.72,21.66,6.58,37.54,7.44
405,2.02, 2017/11/15 11:33:00.172上午,19,3.72,344,47.76,8.12,41.97,4.92,21.74,6.51,37.4,7.31
406,2.025, 2017/11/15 11:33:00.177上午,18.81,3.86,338,48.32,8.34,39.39,7.12,21.45,6.7,37.02,7.6
407,2.03, 2017/11/15 11:33:00.182上午,19.02,3.81,328,48.12,8.3,41.5,3.5,21.61,6.69,37.43,7.51
408,2.035, 2017/11/15 11:33:00.187上午,19.18,3.66,334,47.77,8.16,41.94,4.71,21.87,6.14,37.75,7.21
409,2.04, 2017/11/15 11:33:00.192上午,18.55,3.8,344,48.21,8.4,41.78,3.78,21.47,6.66,36.52,7.48
410,2.045, 2017/11/15 11:33:00.197上午,18.82,3.84,332,48.19,8.26,41.5,3.5,21.63,6.94,37.05,7.57
411,2.05, 2017/11/15 11:33:00.202上午,19.09,3.71,339,47.73,8.11,41.95,4.72,21.73,6.47,37.58,7.3
412,2.055, 2017/11/15 11:33:00.207上午,18.77,3.8,331,48.29,8.31,41.76,3.76,21.72,6.77,36.94,7.48
413,2.06, 2017/11/15 11:33:00.212上午,19.03,3.9,349,48.08,8.3,38.94,8.62,21.59,6.62,37.46,7.68
414,2.065, 2017/11/15 11:33:00.217上午,19.12,3.76,338,48.14,8.34,41.81,3.81,21.62,6.43,37.64,7.4
415,2.07, 2017/11/15 11:33:00.222上午,18.43,3.67,360,47.95,8.18,41.78,3.78,21.64,6.34,36.27,7.22
416,2.075, 2017/11/15 11:33:00.227上午,18.92,3.91,350,48.11,8.36,39.46,8.02,21.42,6.72,37.25,7.71
417,2.08, 2017/11/15 11:33:00.232上午,19.03,3.77,351,47.91,8.23,41.98,4.93,21.64,6.6,37.47,7.42
418,2.085, 2017/11/15 11:33:00.237上午,18.74,3.77,342,47.87,8.18,41.81,3.81,21.83,6.82,36.89,7.43
419,2.09, 2017/11/15 11:33:00.242上午,18.75,3.81,339,48.27,8.39,41.78,3.78,21.5,6.68,36.91,7.5
420,2.095, 2017/11/15 11:33:00.247上午,18.79,3.81,342,48.08,8.34,41.76,3.76,21.47,6.74,36.98,7.5
421,2.1, 2017/11/15 11:33:00.252上午,18.99,3.82,353,47.88,8.28,41.98,4.93,21.67,6.82,37.39,7.53
422,2.105, 2017/11/15 11:33:00.257上午,19.04,3.74,341,47.74,8.12,41.98,4.93,21.62,6.6,37.47,7.35
423,2.11, 2017/11/15 11:33:00.262上午,19.01,3.82,349,47.99,8.18,39.36,8.35,21.78,6.38,37.42,7.52
424,2.115, 2017/11/15 11:33:00.267上午,18.85,3.77,338,48.21,8.26,41.76,3.76,21.43,6.66,37.1,7.42
425,2.12, 2017/11/15 11:33:00.272上午,18.91,3.8,333,48.2,8.27,41.76,3.76,21.62,6.78,37.23,7.48
426,2.125, 2017/11/15 11:33:00.277上午,19.05,3.72,338,47.76,8.13,41.98,4.93,21.75,6.52,37.5,7.33
427,2.13, 2017/11/15 11:33:00.282上午,18.55,3.72,350,48,8.2,41.76,3.76,21.51,6.53,36.52,7.32
428,2.135, 2017/11/15 11:33:00.287上午,18.57,3.83,335,48.22,8.34,41.76,3.76,21.44,6.94,36.56,7.55
429,2.14, 2017/11/15 11:33:00.292上午,19.31,3.82,342,47.86,8.26,41.94,4.95,21.49,6.74,38.02,7.53
430,2.145, 2017/11/15 11:33:00.297上午,18.59,3.74,347,48.17,8.37,41.81,3.81,21.59,6.45,36.6,7.35
431,2.15, 2017/11/15 11:33:00.302上午,18.46,3.81,345,48.2,8.33,41.78,3.78,21.46,6.82,36.34,7.5
432,2.155, 2017/11/15 11:33:00.307上午,18.75,3.78,332,47.96,8.22,41.74,3.74,21.61,6.81,36.92,7.44
433,2.16, 2017/11/15 11:33:00.312上午,19.33,3.68,330,47.99,8.19,41.81,3.81,22,6.19,38.05,7.24
434,2.165, 2017/11/15 11:33:00.317上午,18.53,3.84,342,48.22,8.34,41.78,3.78,21.35,6.91,36.47,7.55
435,2.17, 2017/11/15 11:33:00.322上午,18.76,3.78,348,47.72,8.06,41.91,4.74,21.5,6.92,36.94,7.43
436,2.175, 2017/11/15 11:33:00.327上午,18.47,3.82,341,48.31,8.32,39.68,8.36,21.41,6.41,36.36,7.52
437,2.18, 2017/11/15 11:33:00.332上午,18.56,3.73,329,48.17,8.28,41.78,3.78,21.6,6.53,36.53,7.35
438,2.185, 2017/11/15 11:33:00.337上午,18.42,3.77,343,48.19,8.33,41.78,3.78,21.37,6.64,36.26,7.42
439,2.19, 2017/11/15 11:33:00.342上午,18.53,3.8,352,47.78,8.05,39.46,8.03,21.68,6.65,36.48,7.47
440,2.195, 2017/11/15 11:33:00.347上午,18.84,3.74,334,47.74,8.14,41.95,4.72,21.66,6.68,37.09,7.37
441,2.2, 2017/11/15 11:33:00.352上午,18.6,3.69,344,48.01,8.22,41.81,3.81,21.45,6.4,36.61,7.26
442,2.205, 2017/11/15 11:33:00.357上午,18.71,3.73,332,48.26,8.25,41.78,3.78,21.59,6.51,36.82,7.34
443,2.21, 2017/11/15 11:33:00.362上午,18.55,3.9,351,48.08,8.35,38.94,8.63,21.56,6.68,36.52,7.67
444,2.215, 2017/11/15 11:33:00.367上午,18.94,3.79,341,47.73,8.13,41.98,4.93,21.69,6.91,37.29,7.47
445,2.22, 2017/11/15 11:33:00.372上午,18.64,3.61,344,47.71,8.14,41.98,4.93,21.61,6.05,36.69,7.1
446,2.225, 2017/11/15 11:33:00.377上午,18.46,3.77,337,48.26,8.3,41.78,3.78,21.48,6.7,36.34,7.43
447,2.23, 2017/11/15 11:33:00.382上午,19.19,3.88,327,48.02,8.3,41.5,3.5,21.61,6.94,37.77,7.63
448,2.235, 2017/11/15 11:33:00.387上午,18.88,3.71,338,47.79,8.18,41.95,4.96,21.8,6.42,37.16,7.3
449,2.24, 2017/11/15 11:33:00.392上午,18.24,3.75,335,48.15,8.24,41.78,3.78,21.36,6.69,35.91,7.37
450,2.245, 2017/11/15 11:33:00.397上午,18.81,3.89,340,48.12,8.38,41.76,3.76,21.45,7.09,37.03,7.67
451,2.25, 2017/11/15 11:33:00.402上午,18.8,3.64,341,47.75,8.11,41.82,3.82,21.71,6.26,37.01,7.17
452,2.255, 2017/11/15 11:33:00.407上午,18.63,3.79,339,48.01,8.22,41.78,3.78,21.47,6.81,36.68,7.46
453,2.26, 2017/11/15 11:33:00.412上午,18.94,3.85,331,48.08,8.32,41.5,3.5,21.65,6.82,37.28,7.57
454,2.265, 2017/11/15 11:33:00.417上午,19,3.69,339,48.04,8.25,41.95,4.73,21.71,6.2,37.41,7.26
455,2.27, 2017/11/15 11:33:00.422上午,19.4,3.71,325,48.02,8.17,41.76,3.76,21.88,6.3,38.18,7.3
456,2.275, 2017/11/15 11:33:00.427上午,18.32,3.74,355,48.14,8.31,41.76,3.76,21.46,6.59,36.07,7.37
457,2.28, 2017/11/15 11:33:00.432上午,18.78,3.85,330,48.13,8.41,41.5,3.5,21.59,6.76,36.96,7.57
458,2.285, 2017/11/15 11:33:00.437上午,18.81,3.76,344,47.72,8.11,41.95,4.96,21.6,6.75,37.04,7.4
459,2.29, 2017/11/15 11:33:00.442上午,18.79,3.76,331,48.31,8.31,39.68,7.15,21.59,6.25,36.98,7.4
460,2.295, 2017/11/15 11:33:00.447上午,18.45,3.73,343,48.29,8.32,41.76,3.76,21.58,6.52,36.31,7.34
461,2.3, 2017/11/15 11:33:00.452上午,18.57,3.92,354,48.14,8.35,38.93,8.64,21.33,6.78,36.56,7.72
462,2.305, 2017/11/15 11:33:00.457上午,19.12,3.93,348,47.93,8.26,41.98,4.94,21.66,7.4,37.64,7.74
463,2.31, 2017/11/15 11:33:00.462上午,18.77,3.83,350,47.91,8.27,41.76,3.76,21.77,6.95,36.96,7.55
464,2.315, 2017/11/15 11:33:00.467上午,18.62,3.76,346,48.16,8.24,41.76,3.76,21.55,6.67,36.66,7.4
465,2.32, 2017/11/15 11:33:00.472上午,18.63,3.84,347,48.12,8.4,41.76,3.76,21.49,6.87,36.67,7.57
466,2.325, 2017/11/15 11:33:00.477上午,18.55,3.7,346,48.02,8.24,41.81,3.81,21.39,6.42,36.51,7.28
467,2.33, 2017/11/15 11:33:00.482上午,18.49,3.82,344,48.27,8.32,41.78,3.78,21.57,6.87,36.4,7.52
468,2.335, 2017/11/15 11:33:00.487上午,18.9,3.89,366,47.89,8.28,40.03,7.98,21.67,6.71,37.21,7.65
469,2.34, 2017/11/15 11:33:00.492上午,18.81,3.72,341,47.97,8.31,41.78,3.78,21.42,6.28,37.02,7.32
470,2.345, 2017/11/15 11:33:00.497上午,18.43,3.83,342,48.17,8.27,41.5,3.5,21.37,6.92,36.29,7.54
471,2.35, 2017/11/15 11:33:00.502上午,18.91,3.87,376,47.84,8.22,39.94,8.12,21.67,6.66,37.23,7.62
472,2.355, 2017/11/15 11:33:00.507上午,18.69,3.63,345,47.77,8.12,41.95,4.73,21.73,6.18,36.79,7.14
473,2.36, 2017/11/15 11:33:00.512上午,18.34,3.77,329,48.14,8.25,41.78,3.78,21.3,6.77,36.11,7.42
474,2.365, 2017/11/15 11:33:00.517上午,18.93,3.86,366,47.92,8.21,39.98,7.98,21.62,6.64,37.27,7.6
475,2.37, 2017/11/15 11:33:00.522上午,18.66,3.84,336,47.8,8.05,41.95,4.73,21.69,7.31,36.73,7.56
476,2.375, 2017/11/15 11:33:00.527上午,18.77,3.83,346,48.28,8.39,39.2,7.35,21.56,6.45,36.96,7.54
477,2.38, 2017/11/15 11:33:00.532上午,18.85,3.8,337,48.25,8.27,41.76,3.76,21.58,6.78,37.11,7.47
478,2.385, 2017/11/15 11:33:00.537上午,18.76,3.88,356,47.68,8.1,39.94,8.12,21.49,6.91,36.93,7.64
479,2.39, 2017/11/15 11:33:00.542上午,18.54,3.78,346,48.29,8.31,39.74,7.02,21.42,6.43,36.5,7.44
480,2.395, 2017/11/15 11:33:00.547上午,18.64,3.74,329,48.32,8.33,41.78,3.78,21.62,6.46,36.69,7.35
481,2.4, 2017/11/15 11:33:00.552上午,18.8,3.83,347,48,8.27,41.76,3.76,21.46,6.89,37.02,7.53
482,2.405, 2017/11/15 11:33:00.557上午,18.82,3.67,341,47.79,8.18,41.95,4.73,21.7,6.25,37.05,7.22
483,2.41, 2017/11/15 11:33:00.562上午,18.55,3.61,339,47.91,8.17,41.82,3.82,21.72,6.13,36.52,7.11
484,2.415, 2017/11/15 11:33:00.567上午,18.9,3.94,368,47.85,8.3,39.99,7.97,21.49,6.95,37.21,7.76
485,2.42, 2017/11/15 11:33:00.572上午,18.65,3.8,364,47.89,8.3,41.95,4.73,21.73,6.77,36.7,7.48
486,2.425, 2017/11/15 11:33:00.577上午,18.63,3.73,336,48.23,8.24,41.76,3.76,21.53,6.56,36.67,7.34
487,2.43, 2017/11/15 11:33:00.582上午,18.74,3.82,339,48.2,8.27,41.76,3.76,21.48,6.9,36.88,7.52
488,2.435, 2017/11/15 11:33:00.587上午,18.77,3.68,343,47.8,8.19,41.98,4.94,21.69,6.33,36.95,7.25
489,2.44, 2017/11/15 11:33:00.592上午,19.01,3.92,341,48.25,8.38,39.74,7.01,21.9,6.91,37.42,7.71
490,2.445, 2017/11/15 11:33:00.597上午,18.78,3.84,344,48.23,8.32,41.76,3.76,21.44,6.95,36.98,7.57
491,2.45, 2017/11/15 11:33:00.602上午,18.77,3.89,372,47.92,8.24,39.93,8.13,21.69,6.78,36.95,7.66
492,2.455, 2017/11/15 11:33:00.607上午,18.76,3.72,357,47.94,8.34,41.98,4.95,21.47,6.26,36.93,7.31
493,2.46, 2017/11/15 11:33:00.612上午,18.51,3.82,338,48.27,8.33,41.78,3.78,21.35,6.84,36.44,7.51
494,2.465, 2017/11/15 11:33:00.617上午,18.81,3.82,340,48.14,8.39,41.76,3.76,21.45,6.74,37.02,7.53
495,2.47, 2017/11/15 11:33:00.622上午,19.08,3.83,333,47.76,8.16,41.98,4.94,21.68,7.02,37.56,7.53
496,2.475, 2017/11/15 11:33:00.627上午,18.62,3.7,337,48.27,8.34,41.84,3.84,21.47,6.31,36.66,7.29
497,2.48, 2017/11/15 11:33:00.632上午,18.68,3.82,341,48.21,8.28,41.76,3.76,21.47,6.89,36.78,7.51
498,2.485, 2017/11/15 11:33:00.637上午,18.83,3.85,352,47.98,8.28,41.76,3.76,21.47,6.97,37.07,7.57
499,2.49, 2017/11/15 11:33:00.642上午,18.85,3.78,350,48.19,8.34,39.74,7.02,21.69,6.3,37.1,7.44
500,2.495, 2017/11/15 11:33:00.647上午,18.88,3.75,341,48.05,8.25,41.92,4.75,21.72,6.54,37.17,7.38
501,2.5, 2017/11/15 11:33:00.652上午,18.83,3.88,356,48.08,8.34,39.44,8.05,21.48,6.59,37.07,7.64
502,2.505, 2017/11/15 11:33:00.657上午,18.81,3.86,354,47.71,8.08,40.03,7.99,21.66,6.84,37.03,7.6
503,2.51, 2017/11/15 11:33:00.662上午,18.82,3.76,339,47.83,8.18,41.95,4.73,21.81,6.72,37.05,7.4
504,2.515, 2017/11/15 11:33:00.667上午,19.04,3.75,328,48.28,8.33,41.78,3.78,21.8,6.43,37.49,7.39
505,2.52, 2017/11/15 11:33:00.672上午,18.77,3.84,346,48.18,8.34,41.76,3.76,21.48,6.88,36.94,7.55
506,2.525, 2017/11/15 11:33:00.677上午,18.53,3.79,350,47.78,8.12,41.95,4.73,21.76,6.96,36.48,7.45
507,2.53, 2017/11/15 11:33:00.682上午,18.64,3.84,347,48.22,8.39,39.67,7.16,21.53,6.54,36.69,7.55
508,2.535, 2017/11/15 11:33:00.687上午,18.66,3.81,341,48.19,8.28,41.76,3.76,21.46,6.86,36.74,7.5
509,2.54, 2017/11/15 11:33:00.692上午,18.71,3.71,351,47.78,8.13,41.95,4.73,21.78,6.53,36.83,7.3
510,2.545, 2017/11/15 11:33:00.697上午,19.38,3.84,313,48.3,8.31,41.78,3.78,22.04,6.81,38.14,7.56
511,2.55, 2017/11/15 11:33:00.702上午,18.75,3.83,340,48.11,8.32,41.76,3.76,21.48,6.87,36.9,7.54
512,2.555, 2017/11/15 11:33:00.707上午,19.11,3.93,353,47.81,8.31,41.98,4.95,21.68,7.3,37.61,7.74
513,2.56, 2017/11/15 11:33:00.712上午,18.55,3.77,350,47.84,8.25,41.78,3.78,21.46,6.69,36.52,7.43
514,2.565, 2017/11/15 11:33:00.717上午,18.95,3.83,352,48.07,8.28,41.76,3.76,21.62,6.86,37.31,7.54
515,2.57, 2017/11/15 11:33:00.722上午,18.77,3.73,339,47.78,8.12,41.82,3.82,21.84,6.68,36.96,7.35
516,2.575, 2017/11/15 11:33:00.727上午,18.78,3.74,336,48.28,8.33,41.78,3.78,21.59,6.44,36.96,7.37
517,2.58, 2017/11/15 11:33:00.732上午,18.97,3.94,372,47.92,8.2,39.55,9.29,21.46,6.71,37.34,7.76
518,2.585, 2017/11/15 11:33:00.737上午,18.74,3.73,351,47.75,8.12,41.95,4.74,21.72,6.63,36.89,7.34
519,2.59, 2017/11/15 11:33:00.742上午,19.03,3.74,332,48.29,8.4,41.78,3.78,21.47,6.21,37.46,7.35
520,2.595, 2017/11/15 11:33:00.747上午,18.98,3.83,345,48.03,8.37,41.5,3.5,21.45,6.61,37.35,7.53
521,2.6, 2017/11/15 11:33:00.752上午,18.61,3.74,358,47.78,8.09,41.98,4.95,21.68,6.74,36.63,7.36
522,2.605, 2017/11/15 11:33:00.757上午,18.78,3.8,337,48.28,8.39,41.78,3.78,21.49,6.63,36.97,7.48
523,2.61, 2017/11/15 11:33:00.762上午,18.72,3.85,352,48.04,8.38,41.76,3.76,21.35,6.88,36.86,7.58
524,2.615, 2017/11/15 11:33:00.767上午,18.83,3.74,347,48.19,8.34,41.82,3.82,21.81,6.45,37.07,7.37
525,2.62, 2017/11/15 11:33:00.772上午,18.91,3.82,343,48.24,8.34,41.76,3.76,21.44,6.78,37.23,7.53
526,2.625, 2017/11/15 11:33:00.777上午,18.76,3.88,364,47.79,8.14,40,8.26,21.83,6.84,36.93,7.64
527,2.63, 2017/11/15 11:33:00.782上午,19.19,3.77,329,47.88,8.17,41.94,4.82,21.88,6.63,37.77,7.42
528,2.635, 2017/11/15 11:33:00.787上午,19.18,3.91,369,47.84,8.26,39.98,7.99,21.62,6.77,37.75,7.7
529,2.64, 2017/11/15 11:33:00.792上午,18.55,3.64,368,47.94,8.26,41.92,4.75,21.43,6.03,36.51,7.16
530,2.645, 2017/11/15 11:33:00.797上午,18.84,3.78,338,48.27,8.27,41.76,3.76,21.43,6.67,37.08,7.43
531,2.65, 2017/11/15 11:33:00.802上午,19.03,3.91,371,47.93,8.29,39.99,8.27,21.67,6.69,37.47,7.69
532,2.655, 2017/11/15 11:33:00.807上午,18.83,3.71,348,48,8.24,41.78,3.78,21.47,6.3,37.06,7.29
533,2.66, 2017/11/15 11:33:00.812上午,18.82,3.85,348,48.14,8.32,41.76,3.76,21.45,6.93,37.04,7.58
534,2.665, 2017/11/15 11:33:00.817上午,18.86,3.75,360,47.93,8.28,41.92,4.75,21.81,6.46,37.13,7.37
535,2.67, 2017/11/15 11:33:00.822上午,18.49,3.74,355,48.01,8.25,41.78,3.78,21.39,6.56,36.4,7.37
536,2.675, 2017/11/15 11:33:00.827上午,18.85,3.94,350,48.12,8.34,39.44,8.07,21.47,6.9,37.1,7.76
537,2.68, 2017/11/15 11:33:00.832上午,18.88,3.8,361,47.92,8.25,41.95,4.74,21.91,6.76,37.16,7.47
538,2.685, 2017/11/15 11:33:00.837上午,19.1,3.84,349,47.91,8.25,41.76,3.76,21.68,6.89,37.6,7.55
539,2.69, 2017/11/15 11:33:00.842上午,18.92,3.88,353,48.1,8.34,39.44,8.07,21.48,6.56,37.24,7.64
540,2.695, 2017/11/15 11:33:00.847上午,18.74,3.73,354,48.02,8.23,41.95,4.74,21.76,6.51,36.88,7.34
541,2.7, 2017/11/15 11:33:00.852上午,18.9,3.71,352,48.04,8.17,41.95,4.74,21.54,6.45,37.21,7.31
542,2.705, 2017/11/15 11:33:00.857上午,19.01,3.91,361,48.09,8.29,39.57,8.65,21.43,6.67,37.42,7.7
543,2.71, 2017/11/15 11:33:00.862上午,19.31,4.01,356,47.93,8.27,39.93,8.14,21.62,7.22,38,7.89
544,2.715, 2017/11/15 11:33:00.867上午,19.17,3.74,355,47.95,8.27,41.92,4.75,21.97,6.34,37.74,7.36
545,2.72, 2017/11/15 11:33:00.872上午,18.92,3.91,355,48.11,8.34,39.44,8.07,21.47,6.71,37.25,7.7
546,2.725, 2017/11/15 11:33:00.877上午,19.27,3.92,348,47.92,8.26,41.95,4.74,21.69,7.3,37.93,7.72
547,2.73, 2017/11/15 11:33:00.882上午,18.94,3.75,333,48.26,8.34,41.78,3.78,21.58,6.39,37.28,7.38
548,2.735, 2017/11/15 11:33:00.887上午,19.01,3.85,358,47.94,8.26,41.93,4.9,21.49,6.95,37.43,7.58
549,2.74, 2017/11/15 11:33:00.892上午,19.15,3.74,338,48.09,8.23,41.92,4.75,21.75,6.44,37.7,7.37
550,2.745, 2017/11/15 11:33:00.897上午,18.83,3.78,349,48.15,8.33,41.76,3.76,21.47,6.58,37.06,7.44
551,2.75, 2017/11/15 11:33:00.902上午,18.88,3.83,363,47.94,8.26,41.95,4.74,21.85,6.91,37.16,7.54
552,2.755, 2017/11/15 11:33:00.907上午,19.24,3.84,323,48.16,8.36,41.78,3.78,21.84,6.74,37.87,7.56
553,2.76, 2017/11/15 11:33:00.912上午,19.08,3.83,340,47.78,8.1,41.95,4.74,21.69,7.13,37.55,7.55
554,2.765, 2017/11/15 11:33:00.917上午,19.31,3.88,327,48.23,8.28,41.78,3.78,21.8,7.07,38.01,7.64
555,2.77, 2017/11/15 11:33:00.922上午,19.02,3.73,363,47.93,8.26,41.95,4.74,21.71,6.36,37.43,7.34
556,2.775, 2017/11/15 11:33:00.927上午,19.17,3.71,348,47.92,8.23,41.78,3.78,21.48,6.22,37.75,7.31
557,2.78, 2017/11/15 11:33:00.932上午,18.76,3.92,351,48.22,8.3,39.66,8.41,21.45,6.81,36.93,7.71
558,2.785, 2017/11/15 11:33:00.937上午,19.1,3.85,365,47.93,8.26,41.95,4.98,21.78,6.93,37.6,7.58
559,2.79, 2017/11/15 11:33:00.942上午,18.7,3.72,355,47.97,8.17,41.78,3.78,21.58,6.52,36.81,7.33
560,2.795, 2017/11/15 11:33:00.947上午,19.03,3.86,360,47.92,8.29,41.92,4.76,21.52,6.92,37.45,7.59
561,2.8, 2017/11/15 11:33:00.952上午,19.16,3.72,360,47.9,8.27,41.95,4.74,21.72,6.23,37.71,7.31
562,2.805, 2017/11/15 11:33:00.957上午,19.38,3.8,342,48.03,8.29,41.78,3.78,21.89,6.58,38.15,7.49
563,2.81, 2017/11/15 11:33:00.962上午,19.01,3.83,362,47.91,8.3,41.98,4.95,21.52,6.78,37.43,7.53
564,2.815, 2017/11/15 11:33:00.967上午,19.63,3.77,345,47.93,8.26,41.98,4.95,21.91,6.38,38.64,7.42
565,2.82, 2017/11/15 11:33:00.972上午,18.85,3.8,344,48.2,8.3,41.78,3.78,21.46,6.7,37.1,7.48
566,2.825, 2017/11/15 11:33:00.977上午,19.31,3.77,353,47.93,8.26,41.82,3.82,21.68,6.48,38.02,7.42
567,2.83, 2017/11/15 11:33:00.982上午,19.66,3.89,319,48.14,8.35,41.78,3.78,22,6.91,38.7,7.66
568,2.835, 2017/11/15 11:33:00.987上午,19.53,3.88,346,47.92,8.29,41.95,4.98,21.59,6.92,38.45,7.64
569,2.84, 2017/11/15 11:33:00.992上午,18.66,3.74,348,48.31,8.31,41.78,3.78,21.55,6.5,36.72,7.37
570,2.845, 2017/11/15 11:33:00.997上午,19.33,3.91,368,47.88,8.26,39.93,8.14,21.6,6.65,38.06,7.69
571,2.85, 2017/11/15 11:33:01.002上午,19.34,3.72,346,48.05,8.22,41.95,4.75,21.78,6.31,38.06,7.33
572,2.855, 2017/11/15 11:33:01.007上午,18.76,3.92,360,48.22,8.24,39.66,8.42,21.35,6.89,36.93,7.71
573,2.86, 2017/11/15 11:33:01.012上午,19.25,3.78,343,48.14,8.29,41.77,3.77,21.74,6.51,37.89,7.43
574,2.865, 2017/11/15 11:33:01.017上午,19.43,3.82,334,48.26,8.35,41.79,3.79,21.9,6.6,38.25,7.53
575,2.87, 2017/11/15 11:33:01.022上午,19.23,3.86,366,47.8,8.26,41.95,4.98,21.48,6.91,37.86,7.6
576,2.875, 2017/11/15 11:33:01.027上午,19.32,3.71,351,47.97,8.32,41.95,4.74,21.79,6.07,38.04,7.3
577,2.88, 2017/11/15 11:33:01.032上午,19.2,3.85,348,48.03,8.23,41.94,4.83,21.67,6.93,37.8,7.58
578,2.885, 2017/11/15 11:33:01.037上午,19.34,3.89,360,47.86,8.23,41.93,4.91,21.48,7.14,38.06,7.66
579,2.89, 2017/11/15 11:33:01.042上午,18.89,3.67,370,47.91,8.27,41.99,4.96,21.6,6.09,37.18,7.23
580,2.895, 2017/11/15 11:33:01.047上午,19.46,3.77,343,48.09,8.31,41.78,3.78,21.69,6.35,38.31,7.43
581,2.9, 2017/11/15 11:33:01.052上午,19.3,3.8,358,47.93,8.25,41.99,4.96,21.6,6.65,37.99,7.49
582,2.905, 2017/11/15 11:33:01.057上午,19.66,3.81,357,47.92,8.21,41.95,4.74,21.76,6.66,38.7,7.5
583,2.91, 2017/11/15 11:33:01.062上午,19.48,3.83,341,48.08,8.41,41.78,3.78,21.84,6.51,38.35,7.54
584,2.915, 2017/11/15 11:33:01.067上午,19.3,3.98,366,47.87,8.28,39.93,8.15,21.61,7.05,38,7.84
585,2.92, 2017/11/15 11:33:01.072上午,19.16,3.68,353,47.97,8.18,41.92,4.76,21.7,6.16,37.72,7.24
586,2.925, 2017/11/15 11:33:01.077上午,18.62,3.81,350,48.22,8.28,41.78,3.78,21.35,6.85,36.66,7.51
587,2.93, 2017/11/15 11:33:01.082上午,19.74,3.88,345,47.91,8.3,41.98,4.95,21.54,6.87,38.86,7.63
588,2.935, 2017/11/15 11:33:01.087上午,19.19,3.83,335,48.25,8.24,41.78,3.78,21.65,6.86,37.78,7.54
589,2.94, 2017/11/15 11:33:01.092上午,19.28,3.8,358,47.91,8.23,41.92,4.76,21.57,6.65,37.95,7.48
590,2.945, 2017/11/15 11:33:01.097上午,18.81,3.76,342,48.3,8.3,41.78,3.78,21.51,6.52,37.02,7.4
591,2.95, 2017/11/15 11:33:01.102上午,19.42,3.82,359,47.91,8.24,41.96,4.99,21.62,6.67,38.23,7.51
592,2.955, 2017/11/15 11:33:01.107上午,18.99,3.68,348,48.08,8.24,41.92,4.76,21.54,6.13,37.38,7.24
593,2.96, 2017/11/15 11:33:01.112上午,18.72,3.8,354,48.25,8.26,41.79,3.79,21.37,6.77,36.86,7.48
594,2.965, 2017/11/15 11:33:01.117上午,19.36,3.77,336,48.16,8.31,41.82,3.82,21.73,6.45,38.12,7.43
595,2.97, 2017/11/15 11:33:01.122上午,19.16,3.78,340,48.22,8.37,41.79,3.79,22.01,6.45,37.71,7.44
596,2.975, 2017/11/15 11:33:01.127上午,19.26,3.87,340,47.73,8.12,41.96,4.75,21.63,7.23,37.92,7.61
597,2.98, 2017/11/15 11:33:01.132上午,19.24,3.74,345,48.02,8.15,41.77,3.77,21.68,6.53,37.88,7.37
598,2.985, 2017/11/15 11:33:01.137上午,19.11,3.82,352,48.19,8.36,41.77,3.77,21.44,6.67,37.62,7.52
599,2.99, 2017/11/15 11:33:01.142上午,19.49,3.98,359,47.89,8.3,40.02,8.03,21.67,7.01,38.37,7.84
600,2.995, 2017/11/15 11:33:01.147上午,19.12,3.68,356,47.98,8.18,41.96,4.75,21.76,6.21,37.64,7.25
@@,,,,,,,,,,,,,
