DATA_TYPE Graph,,,,,,,
VERSION Tekscan Pressure Measurement System 6.70-03,,,,,,,
HARDWARE 00114-3443,,,,,,,
MAP_VERSION 6.5,,,,,,,
HW_TYPE 4dds,,,,,,,
VersaPogoFsx 0,,,,,,,
čÄ¬__W C:\Users\Toby\Desktop\Data\S01\Arch\01_0930_socks_L_3.fsx,,,,,,,
SENSOR_TYPE FSCAN,,,,,,,
ROWS 60,,,,,,,
COLS 21,,,,,,,
ROW_SPACING 0.508 centimeters,,,,,,,
COL_SPACING 0.508 centimeters,,,,,,,
SENSEL_AREA 0.258064 cm2,,,,,,,
NOISE_THRESHOLD 3,,,,,,,
SECONDS_PER_FRAME 0.005,,,,,,,
SECONDS_PER_FRAME 0,,,,,,,
MICRO_SECOND 0,,,,,,,
TIME 2017/9/29 06:41:46.113_U_,,,,,,,
SATURATION_PRESSURE 3322.35 KPa ,,,,,,,
CALIBRATION_POINT_1 132.277 (Pounds) 1750 (Raw Sum) 237 (Number of Loaded Cells),,,,,,,
CALIBRATION_MODE_1 ĀB_A,,,,,,,
CALIBRATION_INFO C:\Users\Toby\Desktop\Data\S01\Arch\01_0930_socks_L_3.fsx,,,,,,,
SENSITIVITY _©wq,,,,,,,
MAP_INDEX 1,,,,,,,
SUBMAP 1,,,,,,,
Patient ID: ,,,,,,,
,,,,,,,
Speed of Gait: ,,,,,,,
,,,,,,,
Weight: ,,,,,,,
,,,,,,,
Gender: ,,,,,,,
,,,,,,,
Physician: ,,,,,,,
,,,,,,,
Technician: ,,,,,,,
,,,,,,,
Shoe: ,,,,,,,
,,,,,,,
START_FRAME 1,,,,,,,
END_FRAME 1000,,,,,,,
UNITS KPa,,,,,,,
ASCII_DATA @@,,,,,,,
µe_±(X), ¬Ä_ē(X), µĒ_„¬Ä_ē(X), Raw Sum, č£_O(Y:_ä), č£_O(Y), č£_O(Y), č£_O(Y)
1,0, 2017/9/29 06:41:46.113_U_,1119,57,0,46,52
2,0.005, 2017/9/29 06:41:46.118_U_,1122,57,0,46,51
3,0.01, 2017/9/29 06:41:46.123_U_,1164,56,44,47,51
4,0.015, 2017/9/29 06:41:46.128_U_,1095,55,0,45,50
5,0.02, 2017/9/29 06:41:46.133_U_,1149,57,44,46,51
6,0.025, 2017/9/29 06:41:46.138_U_,1183,57,44,47,51
7,0.03, 2017/9/29 06:41:46.143_U_,1144,55,45,46,51
8,0.035, 2017/9/29 06:41:46.148_U_,1130,56,39,46,51
9,0.04, 2017/9/29 06:41:46.153_U_,1147,55,0,46,50
10,0.045, 2017/9/29 06:41:46.158_U_,1163,56,39,46,51
11,0.05, 2017/9/29 06:41:46.163_U_,1120,55,0,46,51
12,0.055, 2017/9/29 06:41:46.168_U_,1132,55,44,47,51
13,0.06, 2017/9/29 06:41:46.173_U_,1155,56,39,47,51
14,0.065, 2017/9/29 06:41:46.178_U_,1143,56,39,46,51
15,0.07, 2017/9/29 06:41:46.183_U_,1128,56,0,46,51
16,0.075, 2017/9/29 06:41:46.188_U_,1158,57,0,47,52
17,0.08, 2017/9/29 06:41:46.193_U_,1130,57,0,46,51
18,0.085, 2017/9/29 06:41:46.198_U_,1123,56,0,46,51
19,0.09, 2017/9/29 06:41:46.203_U_,1145,56,0,47,52
20,0.095, 2017/9/29 06:41:46.208_U_,1167,56,0,47,51
21,0.1, 2017/9/29 06:41:46.213_U_,1144,56,39,46,51
22,0.105, 2017/9/29 06:41:46.218_U_,1156,57,44,46,52
23,0.11, 2017/9/29 06:41:46.223_U_,1140,57,44,47,52
24,0.115, 2017/9/29 06:41:46.228_U_,1145,57,45,46,51
25,0.12, 2017/9/29 06:41:46.233_U_,1147,56,39,45,51
26,0.125, 2017/9/29 06:41:46.238_U_,1163,57,39,45,51
27,0.13, 2017/9/29 06:41:46.243_U_,1159,57,44,47,52
28,0.135, 2017/9/29 06:41:46.248_U_,1152,57,0,47,52
29,0.14, 2017/9/29 06:41:46.253_U_,1146,56,44,45,50
30,0.145, 2017/9/29 06:41:46.258_U_,1148,57,0,46,52
31,0.15, 2017/9/29 06:41:46.263_U_,1135,57,0,46,51
32,0.155, 2017/9/29 06:41:46.268_U_,1156,57,0,46,52
33,0.16, 2017/9/29 06:41:46.273_U_,1177,58,44,47,52
34,0.165, 2017/9/29 06:41:46.278_U_,1144,57,44,47,52
35,0.17, 2017/9/29 06:41:46.283_U_,1174,57,45,46,52
36,0.175, 2017/9/29 06:41:46.288_U_,1184,57,0,47,52
37,0.18, 2017/9/29 06:41:46.293_U_,1148,58,0,46,52
38,0.185, 2017/9/29 06:41:46.298_U_,1150,58,0,46,52
39,0.19, 2017/9/29 06:41:46.303_U_,1194,58,44,47,52
40,0.195, 2017/9/29 06:41:46.308_U_,1168,58,44,46,52
41,0.2, 2017/9/29 06:41:46.313_U_,1147,59,45,46,52
42,0.205, 2017/9/29 06:41:46.318_U_,1173,58,45,46,52
43,0.21, 2017/9/29 06:41:46.323_U_,1177,59,45,46,52
44,0.215, 2017/9/29 06:41:46.328_U_,1172,59,45,47,53
45,0.22, 2017/9/29 06:41:46.333_U_,1156,58,45,46,52
46,0.225, 2017/9/29 06:41:46.338_U_,1182,59,45,47,53
47,0.23, 2017/9/29 06:41:46.343_U_,1164,59,0,46,53
48,0.235, 2017/9/29 06:41:46.348_U_,1176,59,0,46,52
49,0.24, 2017/9/29 06:41:46.353_U_,1186,59,0,47,53
50,0.245, 2017/9/29 06:41:46.358_U_,1187,60,0,46,52
51,0.25, 2017/9/29 06:41:46.363_U_,1142,59,0,46,53
52,0.255, 2017/9/29 06:41:46.368_U_,1174,59,44,47,53
53,0.26, 2017/9/29 06:41:46.373_U_,1182,60,44,47,54
54,0.265, 2017/9/29 06:41:46.378_U_,1160,59,45,46,53
55,0.27, 2017/9/29 06:41:46.383_U_,1206,61,43,47,54
56,0.275, 2017/9/29 06:41:46.388_U_,1192,60,0,47,54
57,0.28, 2017/9/29 06:41:46.393_U_,1211,61,44,47,54
58,0.285, 2017/9/29 06:41:46.398_U_,1180,61,0,46,53
59,0.29, 2017/9/29 06:41:46.403_U_,1193,62,0,46,54
60,0.295, 2017/9/29 06:41:46.408_U_,1206,61,0,46,54
61,0.3, 2017/9/29 06:41:46.413_U_,1185,61,44,46,53
62,0.305, 2017/9/29 06:41:46.418_U_,1195,62,44,46,54
63,0.31, 2017/9/29 06:41:46.423_U_,1209,62,45,46,54
64,0.315, 2017/9/29 06:41:46.428_U_,1202,63,45,47,55
65,0.32, 2017/9/29 06:41:46.433_U_,1194,64,45,46,55
66,0.325, 2017/9/29 06:41:46.438_U_,1234,64,45,48,56
67,0.33, 2017/9/29 06:41:46.443_U_,1227,64,45,47,55
68,0.335, 2017/9/29 06:41:46.448_U_,1193,63,45,47,55
69,0.34, 2017/9/29 06:41:46.453_U_,1237,64,45,47,56
70,0.345, 2017/9/29 06:41:46.458_U_,1222,63,0,47,55
71,0.35, 2017/9/29 06:41:46.463_U_,1177,65,0,46,55
72,0.355, 2017/9/29 06:41:46.468_U_,1234,65,44,47,56
73,0.36, 2017/9/29 06:41:46.473_U_,1228,64,44,47,55
74,0.365, 2017/9/29 06:41:46.478_U_,1205,66,45,46,55
75,0.37, 2017/9/29 06:41:46.483_U_,1190,65,45,46,55
76,0.375, 2017/9/29 06:41:46.488_U_,1230,64,45,47,55
77,0.38, 2017/9/29 06:41:46.493_U_,1218,65,45,46,55
78,0.385, 2017/9/29 06:41:46.498_U_,1204,66,45,46,56
79,0.39, 2017/9/29 06:41:46.503_U_,1165,65,0,46,56
80,0.395, 2017/9/29 06:41:46.508_U_,1208,65,44,47,56
81,0.4, 2017/9/29 06:41:46.513_U_,1186,64,44,46,55
82,0.405, 2017/9/29 06:41:46.518_U_,1192,65,45,46,56
83,0.41, 2017/9/29 06:41:46.523_U_,1200,64,45,47,55
84,0.415, 2017/9/29 06:41:46.528_U_,1189,64,45,47,56
85,0.42, 2017/9/29 06:41:46.533_U_,1196,64,45,47,55
86,0.425, 2017/9/29 06:41:46.538_U_,1226,65,45,47,55
87,0.43, 2017/9/29 06:41:46.543_U_,1213,64,45,46,54
88,0.435, 2017/9/29 06:41:46.548_U_,1136,63,0,46,55
89,0.44, 2017/9/29 06:41:46.553_U_,1209,63,44,48,55
90,0.445, 2017/9/29 06:41:46.558_U_,1189,63,44,46,54
91,0.45, 2017/9/29 06:41:46.563_U_,1156,62,45,46,54
92,0.455, 2017/9/29 06:41:46.568_U_,1174,62,45,46,54
93,0.46, 2017/9/29 06:41:46.573_U_,1192,62,45,47,54
94,0.465, 2017/9/29 06:41:46.578_U_,1142,61,45,46,53
95,0.47, 2017/9/29 06:41:46.583_U_,1120,61,45,46,54
96,0.475, 2017/9/29 06:41:46.588_U_,1168,62,45,46,54
97,0.48, 2017/9/29 06:41:46.593_U_,1148,60,0,46,53
98,0.485, 2017/9/29 06:41:46.598_U_,1146,59,44,47,53
99,0.49, 2017/9/29 06:41:46.603_U_,1140,60,44,46,53
100,0.495, 2017/9/29 06:41:46.608_U_,1132,58,45,46,52
101,0.5, 2017/9/29 06:41:46.613_U_,1073,58,0,45,52
102,0.505, 2017/9/29 06:41:46.618_U_,1131,59,44,46,52
103,0.51, 2017/9/29 06:41:46.623_U_,1096,59,0,45,52
104,0.515, 2017/9/29 06:41:46.628_U_,1106,58,44,46,52
105,0.52, 2017/9/29 06:41:46.633_U_,1091,57,0,46,52
106,0.525, 2017/9/29 06:41:46.638_U_,1128,59,44,47,52
107,0.53, 2017/9/29 06:41:46.643_U_,1113,58,44,45,51
108,0.535, 2017/9/29 06:41:46.648_U_,1079,58,0,45,52
109,0.54, 2017/9/29 06:41:46.653_U_,1105,57,44,46,52
110,0.545, 2017/9/29 06:41:46.658_U_,1106,58,0,46,52
111,0.55, 2017/9/29 06:41:46.663_U_,1100,57,44,46,52
112,0.555, 2017/9/29 06:41:46.668_U_,1091,57,44,46,51
113,0.56, 2017/9/29 06:41:46.673_U_,1111,57,45,46,52
114,0.565, 2017/9/29 06:41:46.678_U_,1089,57,0,45,51
115,0.57, 2017/9/29 06:41:46.683_U_,1068,59,0,45,52
116,0.575, 2017/9/29 06:41:46.688_U_,1119,57,44,47,52
117,0.58, 2017/9/29 06:41:46.693_U_,1097,56,0,47,52
118,0.585, 2017/9/29 06:41:46.698_U_,1076,57,44,45,51
119,0.59, 2017/9/29 06:41:46.703_U_,1122,57,44,46,51
120,0.595, 2017/9/29 06:41:46.708_U_,1114,56,0,46,51
121,0.6, 2017/9/29 06:41:46.713_U_,1075,57,0,46,52
122,0.605, 2017/9/29 06:41:46.718_U_,1091,58,0,46,51
123,0.61, 2017/9/29 06:41:46.723_U_,1102,57,44,46,51
124,0.615, 2017/9/29 06:41:46.728_U_,1140,58,44,46,52
125,0.62, 2017/9/29 06:41:46.733_U_,1104,57,45,46,51
126,0.625, 2017/9/29 06:41:46.738_U_,1110,59,0,46,52
127,0.63, 2017/9/29 06:41:46.743_U_,1123,58,44,46,52
128,0.635, 2017/9/29 06:41:46.748_U_,1090,58,0,46,52
129,0.64, 2017/9/29 06:41:46.753_U_,1112,59,0,47,53
130,0.645, 2017/9/29 06:41:46.758_U_,1117,57,44,45,51
131,0.65, 2017/9/29 06:41:46.763_U_,1093,58,44,45,52
132,0.655, 2017/9/29 06:41:46.768_U_,1112,58,45,46,52
133,0.66, 2017/9/29 06:41:46.773_U_,1118,58,45,46,52
134,0.665, 2017/9/29 06:41:46.778_U_,1107,59,0,45,52
135,0.67, 2017/9/29 06:41:46.783_U_,1103,59,0,46,52
136,0.675, 2017/9/29 06:41:46.788_U_,1133,58,0,47,53
137,0.68, 2017/9/29 06:41:46.793_U_,1105,58,0,45,52
138,0.685, 2017/9/29 06:41:46.798_U_,1116,58,44,45,52
139,0.69, 2017/9/29 06:41:46.803_U_,1086,58,0,45,52
140,0.695, 2017/9/29 06:41:46.808_U_,1145,59,44,46,52
141,0.7, 2017/9/29 06:41:46.813_U_,1128,58,44,46,52
142,0.705, 2017/9/29 06:41:46.818_U_,1134,59,45,46,52
143,0.71, 2017/9/29 06:41:46.823_U_,1131,59,0,47,53
144,0.715, 2017/9/29 06:41:46.828_U_,1141,59,0,46,52
145,0.72, 2017/9/29 06:41:46.833_U_,1108,59,0,46,53
146,0.725, 2017/9/29 06:41:46.838_U_,1169,59,39,46,53
147,0.73, 2017/9/29 06:41:46.843_U_,1150,59,0,47,53
148,0.735, 2017/9/29 06:41:46.848_U_,1132,57,44,46,51
149,0.74, 2017/9/29 06:41:46.853_U_,1149,59,44,46,52
150,0.745, 2017/9/29 06:41:46.858_U_,1121,58,0,46,52
151,0.75, 2017/9/29 06:41:46.863_U_,1127,59,44,46,53
152,0.755, 2017/9/29 06:41:46.868_U_,1161,59,44,47,52
153,0.76, 2017/9/29 06:41:46.873_U_,1150,59,39,46,52
154,0.765, 2017/9/29 06:41:46.878_U_,1155,59,44,47,53
155,0.77, 2017/9/29 06:41:46.883_U_,1134,58,44,46,52
156,0.775, 2017/9/29 06:41:46.888_U_,1137,59,0,46,53
157,0.78, 2017/9/29 06:41:46.893_U_,1147,59,44,46,53
158,0.785, 2017/9/29 06:41:46.898_U_,1168,59,44,47,52
159,0.79, 2017/9/29 06:41:46.903_U_,1115,59,0,46,53
160,0.795, 2017/9/29 06:41:46.908_U_,1155,58,0,47,52
161,0.8, 2017/9/29 06:41:46.913_U_,1108,59,0,45,52
162,0.805, 2017/9/29 06:41:46.918_U_,1123,58,0,46,52
163,0.81, 2017/9/29 06:41:46.923_U_,1162,58,44,47,53
164,0.815, 2017/9/29 06:41:46.928_U_,1112,59,0,45,52
165,0.82, 2017/9/29 06:41:46.933_U_,1131,58,0,47,53
166,0.825, 2017/9/29 06:41:46.938_U_,1133,58,44,46,52
167,0.83, 2017/9/29 06:41:46.943_U_,1114,59,0,46,52
168,0.835, 2017/9/29 06:41:46.948_U_,1129,58,0,46,52
169,0.84, 2017/9/29 06:41:46.953_U_,1156,59,0,46,53
170,0.845, 2017/9/29 06:41:46.958_U_,1141,59,0,46,53
171,0.85, 2017/9/29 06:41:46.963_U_,1109,58,0,46,52
172,0.855, 2017/9/29 06:41:46.968_U_,1151,59,44,46,52
173,0.86, 2017/9/29 06:41:46.973_U_,1135,58,0,46,52
174,0.865, 2017/9/29 06:41:46.978_U_,1125,58,44,46,52
175,0.87, 2017/9/29 06:41:46.983_U_,1133,58,0,46,52
176,0.875, 2017/9/29 06:41:46.988_U_,1147,59,0,46,52
177,0.88, 2017/9/29 06:41:46.993_U_,1147,58,44,46,52
178,0.885, 2017/9/29 06:41:46.998_U_,1130,58,0,46,52
179,0.89, 2017/9/29 06:41:47.003_U_,1144,58,0,47,52
180,0.895, 2017/9/29 06:41:47.008_U_,1130,58,0,46,52
181,0.9, 2017/9/29 06:41:47.013_U_,1159,59,0,46,52
182,0.905, 2017/9/29 06:41:47.018_U_,1153,58,0,46,52
183,0.91, 2017/9/29 06:41:47.023_U_,1179,59,44,46,52
184,0.915, 2017/9/29 06:41:47.028_U_,1169,58,44,47,52
185,0.92, 2017/9/29 06:41:47.033_U_,1153,58,45,46,52
186,0.925, 2017/9/29 06:41:47.038_U_,1170,59,45,47,52
187,0.93, 2017/9/29 06:41:47.043_U_,1157,58,45,47,52
188,0.935, 2017/9/29 06:41:47.048_U_,1124,59,45,46,52
189,0.94, 2017/9/29 06:41:47.053_U_,1169,59,45,48,53
190,0.945, 2017/9/29 06:41:47.058_U_,1154,58,45,46,52
191,0.95, 2017/9/29 06:41:47.063_U_,1136,57,45,46,52
192,0.955, 2017/9/29 06:41:47.068_U_,1135,58,45,47,52
193,0.96, 2017/9/29 06:41:47.073_U_,1170,59,45,47,53
194,0.965, 2017/9/29 06:41:47.078_U_,1145,58,0,46,52
195,0.97, 2017/9/29 06:41:47.083_U_,1168,59,44,47,53
196,0.975, 2017/9/29 06:41:47.088_U_,1178,59,44,47,53
197,0.98, 2017/9/29 06:41:47.093_U_,1145,58,0,47,52
198,0.985, 2017/9/29 06:41:47.098_U_,1168,59,44,47,52
199,0.99, 2017/9/29 06:41:47.103_U_,1153,58,0,45,52
200,0.995, 2017/9/29 06:41:47.108_U_,1170,58,44,48,53
201,1, 2017/9/29 06:41:47.113_U_,1163,59,44,48,53
202,1.005, 2017/9/29 06:41:47.118_U_,1163,59,45,46,52
203,1.01, 2017/9/29 06:41:47.123_U_,1188,58,45,48,52
204,1.015, 2017/9/29 06:41:47.128_U_,1176,59,45,47,52
205,1.02, 2017/9/29 06:41:47.133_U_,1135,58,45,47,52
206,1.025, 2017/9/29 06:41:47.138_U_,1176,59,45,48,53
207,1.03, 2017/9/29 06:41:47.143_U_,1175,60,45,46,53
208,1.035, 2017/9/29 06:41:47.148_U_,1175,58,45,47,52
209,1.04, 2017/9/29 06:41:47.153_U_,1180,59,45,48,53
210,1.045, 2017/9/29 06:41:47.158_U_,1159,57,0,47,52
211,1.05, 2017/9/29 06:41:47.163_U_,1152,58,0,48,53
212,1.055, 2017/9/29 06:41:47.168_U_,1180,59,44,47,52
213,1.06, 2017/9/29 06:41:47.173_U_,1148,57,44,47,52
214,1.065, 2017/9/29 06:41:47.178_U_,1160,58,45,47,52
215,1.07, 2017/9/29 06:41:47.183_U_,1175,58,45,46,52
216,1.075, 2017/9/29 06:41:47.188_U_,1147,59,0,47,53
217,1.08, 2017/9/29 06:41:47.193_U_,1148,58,44,47,52
218,1.085, 2017/9/29 06:41:47.198_U_,1141,56,0,47,51
219,1.09, 2017/9/29 06:41:47.203_U_,1171,58,0,46,52
220,1.095, 2017/9/29 06:41:47.208_U_,1159,57,44,47,52
221,1.1, 2017/9/29 06:41:47.213_U_,1156,58,0,46,52
222,1.105, 2017/9/29 06:41:47.218_U_,1160,58,39,46,52
223,1.11, 2017/9/29 06:41:47.223_U_,1184,58,44,47,52
224,1.115, 2017/9/29 06:41:47.228_U_,1164,59,0,46,52
225,1.12, 2017/9/29 06:41:47.233_U_,1149,57,44,47,52
226,1.125, 2017/9/29 06:41:47.238_U_,1187,58,44,47,53
227,1.13, 2017/9/29 06:41:47.243_U_,1156,58,0,47,52
228,1.135, 2017/9/29 06:41:47.248_U_,1132,57,44,47,52
229,1.14, 2017/9/29 06:41:47.253_U_,1164,58,44,46,52
230,1.145, 2017/9/29 06:41:47.258_U_,1170,58,45,46,52
231,1.15, 2017/9/29 06:41:47.263_U_,1150,57,45,47,52
232,1.155, 2017/9/29 06:41:47.268_U_,1157,58,45,46,52
233,1.16, 2017/9/29 06:41:47.273_U_,1152,57,0,47,52
234,1.165, 2017/9/29 06:41:47.278_U_,1172,57,44,47,52
235,1.17, 2017/9/29 06:41:47.283_U_,1141,58,0,47,52
236,1.175, 2017/9/29 06:41:47.288_U_,1164,58,44,46,52
237,1.18, 2017/9/29 06:41:47.293_U_,1158,57,44,46,52
238,1.185, 2017/9/29 06:41:47.298_U_,1112,57,0,46,51
239,1.19, 2017/9/29 06:41:47.303_U_,1190,58,44,46,52
240,1.195, 2017/9/29 06:41:47.308_U_,1168,58,44,47,52
241,1.2, 2017/9/29 06:41:47.313_U_,1145,57,45,47,52
242,1.205, 2017/9/29 06:41:47.318_U_,1141,57,0,47,52
243,1.21, 2017/9/29 06:41:47.323_U_,1160,57,44,47,52
244,1.215, 2017/9/29 06:41:47.328_U_,1150,57,39,46,51
245,1.22, 2017/9/29 06:41:47.333_U_,1154,58,44,47,52
246,1.225, 2017/9/29 06:41:47.338_U_,1164,58,44,46,52
247,1.23, 2017/9/29 06:41:47.343_U_,1146,57,0,46,52
248,1.235, 2017/9/29 06:41:47.348_U_,1148,57,0,46,51
249,1.24, 2017/9/29 06:41:47.353_U_,1169,57,0,46,51
250,1.245, 2017/9/29 06:41:47.358_U_,1163,57,0,47,52
251,1.25, 2017/9/29 06:41:47.363_U_,1141,57,39,46,51
252,1.255, 2017/9/29 06:41:47.368_U_,1172,57,0,46,51
253,1.26, 2017/9/29 06:41:47.373_U_,1182,58,39,47,52
254,1.265, 2017/9/29 06:41:47.378_U_,1160,58,0,46,51
255,1.27, 2017/9/29 06:41:47.383_U_,1153,57,0,46,51
256,1.275, 2017/9/29 06:41:47.388_U_,1190,58,39,47,52
257,1.28, 2017/9/29 06:41:47.393_U_,1156,58,44,47,52
258,1.285, 2017/9/29 06:41:47.398_U_,1139,57,44,46,52
259,1.29, 2017/9/29 06:41:47.403_U_,1144,57,45,45,51
260,1.295, 2017/9/29 06:41:47.408_U_,1168,58,45,46,52
261,1.3, 2017/9/29 06:41:47.413_U_,1160,57,45,46,52
262,1.305, 2017/9/29 06:41:47.418_U_,1170,57,45,46,52
263,1.31, 2017/9/29 06:41:47.423_U_,1156,57,0,47,52
264,1.315, 2017/9/29 06:41:47.428_U_,1150,57,0,45,51
265,1.32, 2017/9/29 06:41:47.433_U_,1132,56,0,46,51
266,1.325, 2017/9/29 06:41:47.438_U_,1173,57,44,46,52
267,1.33, 2017/9/29 06:41:47.443_U_,1187,57,44,48,52
268,1.335, 2017/9/29 06:41:47.448_U_,1147,57,45,46,51
269,1.34, 2017/9/29 06:41:47.453_U_,1143,57,0,46,51
270,1.345, 2017/9/29 06:41:47.458_U_,1162,56,0,47,51
271,1.35, 2017/9/29 06:41:47.463_U_,1164,57,0,46,51
272,1.355, 2017/9/29 06:41:47.468_U_,1157,57,44,47,52
273,1.36, 2017/9/29 06:41:47.473_U_,1172,57,44,46,51
274,1.365, 2017/9/29 06:41:47.478_U_,1125,56,0,46,51
275,1.37, 2017/9/29 06:41:47.483_U_,1134,56,44,46,51
276,1.375, 2017/9/29 06:41:47.488_U_,1172,57,44,47,51
277,1.38, 2017/9/29 06:41:47.493_U_,1152,57,45,46,51
278,1.385, 2017/9/29 06:41:47.498_U_,1143,56,0,46,51
279,1.39, 2017/9/29 06:41:47.503_U_,1165,56,44,46,51
280,1.395, 2017/9/29 06:41:47.508_U_,1137,56,44,46,51
281,1.4, 2017/9/29 06:41:47.513_U_,1146,57,45,47,52
282,1.405, 2017/9/29 06:41:47.518_U_,1145,56,0,46,51
283,1.41, 2017/9/29 06:41:47.523_U_,1181,57,44,47,51
284,1.415, 2017/9/29 06:41:47.528_U_,1158,57,0,47,52
285,1.42, 2017/9/29 06:41:47.533_U_,1129,56,0,46,51
286,1.425, 2017/9/29 06:41:47.538_U_,1154,56,44,46,51
287,1.43, 2017/9/29 06:41:47.543_U_,1157,56,44,46,51
288,1.435, 2017/9/29 06:41:47.548_U_,1123,56,0,46,51
289,1.44, 2017/9/29 06:41:47.553_U_,1155,56,44,46,51
290,1.445, 2017/9/29 06:41:47.558_U_,1156,56,0,47,51
291,1.45, 2017/9/29 06:41:47.563_U_,1151,56,44,47,51
292,1.455, 2017/9/29 06:41:47.568_U_,1154,56,0,46,51
293,1.46, 2017/9/29 06:41:47.573_U_,1159,56,44,46,50
294,1.465, 2017/9/29 06:41:47.578_U_,1117,56,44,46,51
295,1.47, 2017/9/29 06:41:47.583_U_,1137,55,45,46,50
296,1.475, 2017/9/29 06:41:47.588_U_,1156,56,45,46,51
297,1.48, 2017/9/29 06:41:47.593_U_,1171,56,0,47,51
298,1.485, 2017/9/29 06:41:47.598_U_,1138,55,0,45,50
299,1.49, 2017/9/29 06:41:47.603_U_,1144,55,0,47,51
300,1.495, 2017/9/29 06:41:47.608_U_,1160,55,39,47,51
301,1.5, 2017/9/29 06:41:47.613_U_,1132,55,44,46,50
302,1.505, 2017/9/29 06:41:47.618_U_,1160,55,0,46,50
303,1.51, 2017/9/29 06:41:47.623_U_,1174,56,44,46,50
304,1.515, 2017/9/29 06:41:47.628_U_,1140,55,44,46,50
305,1.52, 2017/9/29 06:41:47.633_U_,1141,55,45,46,51
306,1.525, 2017/9/29 06:41:47.638_U_,1155,55,0,46,50
307,1.53, 2017/9/29 06:41:47.643_U_,1117,55,44,46,50
308,1.535, 2017/9/29 06:41:47.648_U_,1110,55,44,46,50
309,1.54, 2017/9/29 06:41:47.653_U_,1136,55,45,46,50
310,1.545, 2017/9/29 06:41:47.658_U_,1147,56,45,46,51
311,1.55, 2017/9/29 06:41:47.663_U_,1123,54,0,45,50
312,1.555, 2017/9/29 06:41:47.668_U_,1166,56,44,46,51
313,1.56, 2017/9/29 06:41:47.673_U_,1174,56,44,46,51
314,1.565, 2017/9/29 06:41:47.678_U_,1152,56,0,47,51
315,1.57, 2017/9/29 06:41:47.683_U_,1149,55,0,47,51
316,1.575, 2017/9/29 06:41:47.688_U_,1166,55,0,46,50
317,1.58, 2017/9/29 06:41:47.693_U_,1142,56,44,47,51
318,1.585, 2017/9/29 06:41:47.698_U_,1129,55,44,46,50
319,1.59, 2017/9/29 06:41:47.703_U_,1177,56,45,48,51
320,1.595, 2017/9/29 06:41:47.708_U_,1171,55,45,47,51
321,1.6, 2017/9/29 06:41:47.713_U_,1188,56,45,47,51
322,1.605, 2017/9/29 06:41:47.718_U_,1178,55,0,47,51
323,1.61, 2017/9/29 06:41:47.723_U_,1167,55,44,47,51
324,1.615, 2017/9/29 06:41:47.728_U_,1165,55,44,47,51
325,1.62, 2017/9/29 06:41:47.733_U_,1167,55,45,47,51
326,1.625, 2017/9/29 06:41:47.738_U_,1185,55,45,47,51
327,1.63, 2017/9/29 06:41:47.743_U_,1211,57,45,48,52
328,1.635, 2017/9/29 06:41:47.748_U_,1156,55,45,47,50
329,1.64, 2017/9/29 06:41:47.753_U_,1182,55,45,47,51
330,1.645, 2017/9/29 06:41:47.758_U_,1174,56,0,47,51
331,1.65, 2017/9/29 06:41:47.763_U_,1199,55,0,47,51
332,1.655, 2017/9/29 06:41:47.768_U_,1164,56,44,47,51
333,1.66, 2017/9/29 06:41:47.773_U_,1187,55,44,47,51
334,1.665, 2017/9/29 06:41:47.778_U_,1152,56,0,47,51
335,1.67, 2017/9/29 06:41:47.783_U_,1175,55,44,48,51
336,1.675, 2017/9/29 06:41:47.788_U_,1178,55,44,48,51
337,1.68, 2017/9/29 06:41:47.793_U_,1181,55,0,47,51
338,1.685, 2017/9/29 06:41:47.798_U_,1173,55,44,47,51
339,1.69, 2017/9/29 06:41:47.803_U_,1173,54,0,47,50
340,1.695, 2017/9/29 06:41:47.808_U_,1212,56,44,48,51
341,1.7, 2017/9/29 06:41:47.813_U_,1187,55,39,47,51
342,1.705, 2017/9/29 06:41:47.818_U_,1165,55,0,48,51
343,1.71, 2017/9/29 06:41:47.823_U_,1208,55,44,48,51
344,1.715, 2017/9/29 06:41:47.828_U_,1175,55,0,47,51
345,1.72, 2017/9/29 06:41:47.833_U_,1175,55,44,48,51
346,1.725, 2017/9/29 06:41:47.838_U_,1191,55,44,48,51
347,1.73, 2017/9/29 06:41:47.843_U_,1190,56,0,47,51
348,1.735, 2017/9/29 06:41:47.848_U_,1187,56,44,47,51
349,1.74, 2017/9/29 06:41:47.853_U_,1163,55,44,48,51
350,1.745, 2017/9/29 06:41:47.858_U_,1193,56,45,48,52
351,1.75, 2017/9/29 06:41:47.863_U_,1197,55,45,48,51
352,1.755, 2017/9/29 06:41:47.868_U_,1227,55,45,47,51
353,1.76, 2017/9/29 06:41:47.873_U_,1215,56,0,48,51
354,1.765, 2017/9/29 06:41:47.878_U_,1204,55,0,48,51
355,1.77, 2017/9/29 06:41:47.883_U_,1199,56,44,47,51
356,1.775, 2017/9/29 06:41:47.888_U_,1226,56,44,48,52
357,1.78, 2017/9/29 06:41:47.893_U_,1181,55,45,48,51
358,1.785, 2017/9/29 06:41:47.898_U_,1201,55,45,48,51
359,1.79, 2017/9/29 06:41:47.903_U_,1193,56,0,47,51
360,1.795, 2017/9/29 06:41:47.908_U_,1214,56,44,47,51
361,1.8, 2017/9/29 06:41:47.913_U_,1211,56,44,48,51
362,1.805, 2017/9/29 06:41:47.918_U_,1182,54,0,47,50
363,1.81, 2017/9/29 06:41:47.923_U_,1219,56,0,48,52
364,1.815, 2017/9/29 06:41:47.928_U_,1226,56,44,48,51
365,1.82, 2017/9/29 06:41:47.933_U_,1204,56,44,47,51
366,1.825, 2017/9/29 06:41:47.938_U_,1222,55,45,48,51
367,1.83, 2017/9/29 06:41:47.943_U_,1212,56,45,48,52
368,1.835, 2017/9/29 06:41:47.948_U_,1187,55,45,47,51
369,1.84, 2017/9/29 06:41:47.953_U_,1213,56,45,48,52
370,1.845, 2017/9/29 06:41:47.958_U_,1198,55,45,48,51
371,1.85, 2017/9/29 06:41:47.963_U_,1202,56,45,48,52
372,1.855, 2017/9/29 06:41:47.968_U_,1213,56,0,47,51
373,1.86, 2017/9/29 06:41:47.973_U_,1211,56,44,48,51
374,1.865, 2017/9/29 06:41:47.978_U_,1214,56,44,49,52
375,1.87, 2017/9/29 06:41:47.983_U_,1203,54,45,48,51
376,1.875, 2017/9/29 06:41:47.988_U_,1210,55,0,48,51
377,1.88, 2017/9/29 06:41:47.993_U_,1202,55,44,48,51
378,1.885, 2017/9/29 06:41:47.998_U_,1183,55,44,47,50
379,1.89, 2017/9/29 06:41:48.003_U_,1224,56,45,48,51
380,1.895, 2017/9/29 06:41:48.008_U_,1214,55,45,49,52
381,1.9, 2017/9/29 06:41:48.013_U_,1206,55,0,47,50
382,1.905, 2017/9/29 06:41:48.018_U_,1216,56,44,48,51
383,1.91, 2017/9/29 06:41:48.023_U_,1237,54,44,49,51
384,1.915, 2017/9/29 06:41:48.028_U_,1197,55,45,48,51
385,1.92, 2017/9/29 06:41:48.033_U_,1214,55,0,47,51
386,1.925, 2017/9/29 06:41:48.038_U_,1229,55,44,48,51
387,1.93, 2017/9/29 06:41:48.043_U_,1206,56,44,48,52
388,1.935, 2017/9/29 06:41:48.048_U_,1200,54,45,48,51
389,1.94, 2017/9/29 06:41:48.053_U_,1212,55,45,48,51
390,1.945, 2017/9/29 06:41:48.058_U_,1203,56,45,47,51
391,1.95, 2017/9/29 06:41:48.063_U_,1222,54,45,48,51
392,1.955, 2017/9/29 06:41:48.068_U_,1204,54,0,47,51
393,1.96, 2017/9/29 06:41:48.073_U_,1232,54,44,49,51
394,1.965, 2017/9/29 06:41:48.078_U_,1218,54,0,48,51
395,1.97, 2017/9/29 06:41:48.083_U_,1216,55,44,47,51
396,1.975, 2017/9/29 06:41:48.088_U_,1220,56,44,48,52
397,1.98, 2017/9/29 06:41:48.093_U_,1200,54,0,48,51
398,1.985, 2017/9/29 06:41:48.098_U_,1184,54,44,48,51
399,1.99, 2017/9/29 06:41:48.103_U_,1222,55,44,48,51
400,1.995, 2017/9/29 06:41:48.108_U_,1210,55,45,48,51
401,2, 2017/9/29 06:41:48.113_U_,1208,55,45,48,51
402,2.005, 2017/9/29 06:41:48.118_U_,1201,53,0,47,50
403,2.01, 2017/9/29 06:41:48.123_U_,1224,55,44,49,52
404,2.015, 2017/9/29 06:41:48.128_U_,1212,54,44,49,51
405,2.02, 2017/9/29 06:41:48.133_U_,1212,54,45,48,51
406,2.025, 2017/9/29 06:41:48.138_U_,1207,55,45,48,51
407,2.03, 2017/9/29 06:41:48.143_U_,1206,54,45,48,51
408,2.035, 2017/9/29 06:41:48.148_U_,1179,55,0,47,51
409,2.04, 2017/9/29 06:41:48.153_U_,1245,55,44,49,52
410,2.045, 2017/9/29 06:41:48.158_U_,1201,54,44,49,51
411,2.05, 2017/9/29 06:41:48.163_U_,1208,54,45,48,51
412,2.055, 2017/9/29 06:41:48.168_U_,1203,54,0,48,51
413,2.06, 2017/9/29 06:41:48.173_U_,1197,54,0,48,51
414,2.065, 2017/9/29 06:41:48.178_U_,1210,54,44,48,51
415,2.07, 2017/9/29 06:41:48.183_U_,1187,53,44,49,51
416,2.075, 2017/9/29 06:41:48.188_U_,1220,55,45,48,51
417,2.08, 2017/9/29 06:41:48.193_U_,1220,54,45,48,51
418,2.085, 2017/9/29 06:41:48.198_U_,1193,54,45,48,50
419,2.09, 2017/9/29 06:41:48.203_U_,1209,55,45,48,51
420,2.095, 2017/9/29 06:41:48.208_U_,1213,54,45,48,51
421,2.1, 2017/9/29 06:41:48.213_U_,1190,53,0,48,50
422,2.105, 2017/9/29 06:41:48.218_U_,1212,54,44,48,50
423,2.11, 2017/9/29 06:41:48.223_U_,1196,54,44,48,50
424,2.115, 2017/9/29 06:41:48.228_U_,1209,54,45,48,51
425,2.12, 2017/9/29 06:41:48.233_U_,1200,54,45,48,51
426,2.125, 2017/9/29 06:41:48.238_U_,1213,54,45,48,51
427,2.13, 2017/9/29 06:41:48.243_U_,1213,54,0,49,51
428,2.135, 2017/9/29 06:41:48.248_U_,1192,53,0,47,50
429,2.14, 2017/9/29 06:41:48.253_U_,1226,55,44,49,51
430,2.145, 2017/9/29 06:41:48.258_U_,1223,53,44,49,51
431,2.15, 2017/9/29 06:41:48.263_U_,1194,54,45,48,50
432,2.155, 2017/9/29 06:41:48.268_U_,1219,53,45,48,50
433,2.16, 2017/9/29 06:41:48.273_U_,1215,54,45,48,51
434,2.165, 2017/9/29 06:41:48.278_U_,1220,54,45,48,51
435,2.17, 2017/9/29 06:41:48.283_U_,1194,54,45,49,51
436,2.175, 2017/9/29 06:41:48.288_U_,1213,53,0,48,50
437,2.18, 2017/9/29 06:41:48.293_U_,1202,54,44,49,51
438,2.185, 2017/9/29 06:41:48.298_U_,1171,54,0,47,50
439,2.19, 2017/9/29 06:41:48.303_U_,1206,54,0,48,51
440,2.195, 2017/9/29 06:41:48.308_U_,1218,54,0,49,51
441,2.2, 2017/9/29 06:41:48.313_U_,1181,54,0,48,50
442,2.205, 2017/9/29 06:41:48.318_U_,1201,52,44,48,50
443,2.21, 2017/9/29 06:41:48.323_U_,1206,53,0,48,51
444,2.215, 2017/9/29 06:41:48.328_U_,1205,53,44,49,51
445,2.22, 2017/9/29 06:41:48.333_U_,1169,52,0,48,50
446,2.225, 2017/9/29 06:41:48.338_U_,1181,53,0,49,51
447,2.23, 2017/9/29 06:41:48.343_U_,1207,52,0,48,50
448,2.235, 2017/9/29 06:41:48.348_U_,1180,53,0,48,50
449,2.24, 2017/9/29 06:41:48.353_U_,1200,54,0,48,50
450,2.245, 2017/9/29 06:41:48.358_U_,1208,54,44,48,51
451,2.25, 2017/9/29 06:41:48.363_U_,1188,52,44,49,50
452,2.255, 2017/9/29 06:41:48.368_U_,1218,53,45,49,51
453,2.26, 2017/9/29 06:41:48.373_U_,1218,52,45,49,50
454,2.265, 2017/9/29 06:41:48.378_U_,1196,53,45,48,50
455,2.27, 2017/9/29 06:41:48.383_U_,1183,53,45,49,50
456,2.275, 2017/9/29 06:41:48.388_U_,1201,54,0,48,51
457,2.28, 2017/9/29 06:41:48.393_U_,1214,53,44,49,51
458,2.285, 2017/9/29 06:41:48.398_U_,1180,52,0,48,50
459,2.29, 2017/9/29 06:41:48.403_U_,1206,53,0,47,50
460,2.295, 2017/9/29 06:41:48.408_U_,1214,53,44,48,50
461,2.3, 2017/9/29 06:41:48.413_U_,1206,53,44,49,50
462,2.305, 2017/9/29 06:41:48.418_U_,1204,53,0,48,50
463,2.31, 2017/9/29 06:41:48.423_U_,1214,53,44,49,51
464,2.315, 2017/9/29 06:41:48.428_U_,1206,53,0,47,50
465,2.32, 2017/9/29 06:41:48.433_U_,1178,53,0,47,50
466,2.325, 2017/9/29 06:41:48.438_U_,1190,53,0,48,50
467,2.33, 2017/9/29 06:41:48.443_U_,1187,53,44,48,50
468,2.335, 2017/9/29 06:41:48.448_U_,1172,52,0,48,50
469,2.34, 2017/9/29 06:41:48.453_U_,1204,53,44,48,50
470,2.345, 2017/9/29 06:41:48.458_U_,1188,53,0,47,50
471,2.35, 2017/9/29 06:41:48.463_U_,1190,52,44,49,50
472,2.355, 2017/9/29 06:41:48.468_U_,1201,53,44,48,50
473,2.36, 2017/9/29 06:41:48.473_U_,1222,53,45,48,51
474,2.365, 2017/9/29 06:41:48.478_U_,1179,52,0,48,50
475,2.37, 2017/9/29 06:41:48.483_U_,1171,52,0,48,50
476,2.375, 2017/9/29 06:41:48.488_U_,1202,54,0,48,51
477,2.38, 2017/9/29 06:41:48.493_U_,1195,53,0,48,50
478,2.385, 2017/9/29 06:41:48.498_U_,1173,53,0,47,50
479,2.39, 2017/9/29 06:41:48.503_U_,1204,53,0,48,50
480,2.395, 2017/9/29 06:41:48.508_U_,1204,53,44,48,50
481,2.4, 2017/9/29 06:41:48.513_U_,1163,52,44,47,49
482,2.405, 2017/9/29 06:41:48.518_U_,1184,52,45,48,50
483,2.41, 2017/9/29 06:41:48.523_U_,1205,53,0,48,50
484,2.415, 2017/9/29 06:41:48.528_U_,1182,52,0,47,50
485,2.42, 2017/9/29 06:41:48.533_U_,1191,51,44,48,49
486,2.425, 2017/9/29 06:41:48.538_U_,1181,52,44,47,49
487,2.43, 2017/9/29 06:41:48.543_U_,1185,52,0,48,50
488,2.435, 2017/9/29 06:41:48.548_U_,1165,52,0,47,49
489,2.44, 2017/9/29 06:41:48.553_U_,1190,53,0,47,50
490,2.445, 2017/9/29 06:41:48.558_U_,1184,53,0,48,50
491,2.45, 2017/9/29 06:41:48.563_U_,1187,52,44,48,49
492,2.455, 2017/9/29 06:41:48.568_U_,1180,53,44,47,50
493,2.46, 2017/9/29 06:41:48.573_U_,1214,53,45,48,50
494,2.465, 2017/9/29 06:41:48.578_U_,1179,53,45,47,49
495,2.47, 2017/9/29 06:41:48.583_U_,1184,52,39,47,50
496,2.475, 2017/9/29 06:41:48.588_U_,1183,52,44,47,49
497,2.48, 2017/9/29 06:41:48.593_U_,1166,52,44,47,49
498,2.485, 2017/9/29 06:41:48.598_U_,1156,51,0,46,48
499,2.49, 2017/9/29 06:41:48.603_U_,1180,52,44,47,49
500,2.495, 2017/9/29 06:41:48.608_U_,1189,53,0,48,50
501,2.5, 2017/9/29 06:41:48.613_U_,1148,53,0,46,49
502,2.505, 2017/9/29 06:41:48.618_U_,1178,52,44,47,50
503,2.51, 2017/9/29 06:41:48.623_U_,1187,52,44,47,49
504,2.515, 2017/9/29 06:41:48.628_U_,1171,52,0,47,49
505,2.52, 2017/9/29 06:41:48.633_U_,1161,52,0,47,49
506,2.525, 2017/9/29 06:41:48.638_U_,1192,54,44,47,50
507,2.53, 2017/9/29 06:41:48.643_U_,1175,52,0,47,49
508,2.535, 2017/9/29 06:41:48.648_U_,1157,52,44,46,49
509,2.54, 2017/9/29 06:41:48.653_U_,1200,54,0,47,50
510,2.545, 2017/9/29 06:41:48.658_U_,1182,53,44,47,50
511,2.55, 2017/9/29 06:41:48.663_U_,1187,54,0,47,50
512,2.555, 2017/9/29 06:41:48.668_U_,1155,52,0,47,49
513,2.56, 2017/9/29 06:41:48.673_U_,1184,54,0,45,49
514,2.565, 2017/9/29 06:41:48.678_U_,1188,53,0,47,49
515,2.57, 2017/9/29 06:41:48.683_U_,1150,53,0,47,50
516,2.575, 2017/9/29 06:41:48.688_U_,1194,53,44,48,50
517,2.58, 2017/9/29 06:41:48.693_U_,1164,52,0,47,49
518,2.585, 2017/9/29 06:41:48.698_U_,1171,53,0,47,50
519,2.59, 2017/9/29 06:41:48.703_U_,1162,53,0,47,50
520,2.595, 2017/9/29 06:41:48.708_U_,1191,53,39,47,49
521,2.6, 2017/9/29 06:41:48.713_U_,1171,52,44,47,49
522,2.605, 2017/9/29 06:41:48.718_U_,1167,53,0,46,49
523,2.61, 2017/9/29 06:41:48.723_U_,1191,53,0,48,50
524,2.615, 2017/9/29 06:41:48.728_U_,1171,52,0,47,49
525,2.62, 2017/9/29 06:41:48.733_U_,1160,52,44,46,49
526,2.625, 2017/9/29 06:41:48.738_U_,1178,53,44,47,50
527,2.63, 2017/9/29 06:41:48.743_U_,1187,53,0,47,49
528,2.635, 2017/9/29 06:41:48.748_U_,1175,53,44,47,49
529,2.64, 2017/9/29 06:41:48.753_U_,1170,53,0,47,50
530,2.645, 2017/9/29 06:41:48.758_U_,1173,52,0,47,49
531,2.65, 2017/9/29 06:41:48.763_U_,1174,53,0,46,49
532,2.655, 2017/9/29 06:41:48.768_U_,1178,53,0,46,49
533,2.66, 2017/9/29 06:41:48.773_U_,1206,53,44,47,50
534,2.665, 2017/9/29 06:41:48.778_U_,1150,52,44,47,49
535,2.67, 2017/9/29 06:41:48.783_U_,1156,53,0,46,49
536,2.675, 2017/9/29 06:41:48.788_U_,1182,53,0,46,49
537,2.68, 2017/9/29 06:41:48.793_U_,1181,53,44,47,50
538,2.685, 2017/9/29 06:41:48.798_U_,1162,52,39,47,49
539,2.69, 2017/9/29 06:41:48.803_U_,1186,52,44,46,49
540,2.695, 2017/9/29 06:41:48.808_U_,1186,54,0,46,49
541,2.7, 2017/9/29 06:41:48.813_U_,1174,52,44,46,49
542,2.705, 2017/9/29 06:41:48.818_U_,1187,54,0,46,50
543,2.71, 2017/9/29 06:41:48.823_U_,1200,53,0,47,50
544,2.715, 2017/9/29 06:41:48.828_U_,1171,52,0,47,49
545,2.72, 2017/9/29 06:41:48.833_U_,1175,54,44,46,50
546,2.725, 2017/9/29 06:41:48.838_U_,1169,53,39,47,49
547,2.73, 2017/9/29 06:41:48.843_U_,1195,54,39,46,50
548,2.735, 2017/9/29 06:41:48.848_U_,1157,52,0,46,49
549,2.74, 2017/9/29 06:41:48.853_U_,1188,53,44,47,50
550,2.745, 2017/9/29 06:41:48.858_U_,1184,54,0,46,50
551,2.75, 2017/9/29 06:41:48.863_U_,1169,52,44,47,49
552,2.755, 2017/9/29 06:41:48.868_U_,1173,53,0,46,50
553,2.76, 2017/9/29 06:41:48.873_U_,1199,53,44,48,50
554,2.765, 2017/9/29 06:41:48.878_U_,1177,53,44,47,49
555,2.77, 2017/9/29 06:41:48.883_U_,1170,53,45,46,49
556,2.775, 2017/9/29 06:41:48.888_U_,1191,53,45,46,49
557,2.78, 2017/9/29 06:41:48.893_U_,1197,53,0,47,50
558,2.785, 2017/9/29 06:41:48.898_U_,1157,53,0,46,49
559,2.79, 2017/9/29 06:41:48.903_U_,1171,53,0,46,49
560,2.795, 2017/9/29 06:41:48.908_U_,1172,53,0,47,50
561,2.8, 2017/9/29 06:41:48.913_U_,1158,53,44,46,49
562,2.805, 2017/9/29 06:41:48.918_U_,1153,53,0,46,49
563,2.81, 2017/9/29 06:41:48.923_U_,1194,54,44,47,50
564,2.815, 2017/9/29 06:41:48.928_U_,1192,53,44,47,50
565,2.82, 2017/9/29 06:41:48.933_U_,1174,53,0,47,50
566,2.825, 2017/9/29 06:41:48.938_U_,1197,54,39,47,50
567,2.83, 2017/9/29 06:41:48.943_U_,1205,53,44,47,50
568,2.835, 2017/9/29 06:41:48.948_U_,1185,53,0,46,49
569,2.84, 2017/9/29 06:41:48.953_U_,1186,53,44,47,50
570,2.845, 2017/9/29 06:41:48.958_U_,1187,54,39,47,50
571,2.85, 2017/9/29 06:41:48.963_U_,1158,53,44,46,49
572,2.855, 2017/9/29 06:41:48.968_U_,1175,54,0,45,49
573,2.86, 2017/9/29 06:41:48.973_U_,1167,53,0,46,49
574,2.865, 2017/9/29 06:41:48.978_U_,1201,54,44,47,50
575,2.87, 2017/9/29 06:41:48.983_U_,1143,53,0,46,49
576,2.875, 2017/9/29 06:41:48.988_U_,1172,53,0,45,49
577,2.88, 2017/9/29 06:41:48.993_U_,1188,53,44,47,49
578,2.885, 2017/9/29 06:41:48.998_U_,1176,53,39,46,49
579,2.89, 2017/9/29 06:41:49.003_U_,1199,53,39,47,50
580,2.895, 2017/9/29 06:41:49.008_U_,1195,54,0,46,50
581,2.9, 2017/9/29 06:41:49.013_U_,1154,52,44,45,48
582,2.905, 2017/9/29 06:41:49.018_U_,1164,53,0,46,49
583,2.91, 2017/9/29 06:41:49.023_U_,1171,54,0,47,50
584,2.915, 2017/9/29 06:41:49.028_U_,1183,53,44,46,49
585,2.92, 2017/9/29 06:41:49.033_U_,1154,53,44,45,49
586,2.925, 2017/9/29 06:41:49.038_U_,1171,53,0,46,49
587,2.93, 2017/9/29 06:41:49.043_U_,1153,54,0,46,50
588,2.935, 2017/9/29 06:41:49.048_U_,1162,53,0,46,49
589,2.94, 2017/9/29 06:41:49.053_U_,1206,53,44,47,50
590,2.945, 2017/9/29 06:41:49.058_U_,1195,54,0,47,50
591,2.95, 2017/9/29 06:41:49.063_U_,1167,53,0,45,49
592,2.955, 2017/9/29 06:41:49.068_U_,1194,54,0,46,49
593,2.96, 2017/9/29 06:41:49.073_U_,1188,54,0,47,50
594,2.965, 2017/9/29 06:41:49.078_U_,1180,53,44,47,50
595,2.97, 2017/9/29 06:41:49.083_U_,1144,53,0,46,49
596,2.975, 2017/9/29 06:41:49.088_U_,1180,54,0,46,49
597,2.98, 2017/9/29 06:41:49.093_U_,1167,53,0,46,49
598,2.985, 2017/9/29 06:41:49.098_U_,1180,53,0,46,49
599,2.99, 2017/9/29 06:41:49.103_U_,1198,53,44,47,50
600,2.995, 2017/9/29 06:41:49.108_U_,1186,53,44,47,50
601,3, 2017/9/29 06:41:49.113_U_,1174,53,0,46,49
602,3.005, 2017/9/29 06:41:49.118_U_,1180,53,44,46,49
603,3.01, 2017/9/29 06:41:49.123_U_,1172,53,0,46,50
604,3.015, 2017/9/29 06:41:49.128_U_,1207,53,44,47,50
605,3.02, 2017/9/29 06:41:49.133_U_,1160,54,0,46,50
606,3.025, 2017/9/29 06:41:49.138_U_,1168,53,0,45,49
607,3.03, 2017/9/29 06:41:49.143_U_,1171,53,0,46,49
608,3.035, 2017/9/29 06:41:49.148_U_,1174,53,0,46,49
609,3.04, 2017/9/29 06:41:49.153_U_,1191,53,44,47,50
610,3.045, 2017/9/29 06:41:49.158_U_,1194,54,0,47,50
611,3.05, 2017/9/29 06:41:49.163_U_,1193,52,0,46,49
612,3.055, 2017/9/29 06:41:49.168_U_,1171,53,0,45,49
613,3.06, 2017/9/29 06:41:49.173_U_,1174,54,44,46,50
614,3.065, 2017/9/29 06:41:49.178_U_,1156,53,0,46,49
615,3.07, 2017/9/29 06:41:49.183_U_,1145,53,0,46,49
616,3.075, 2017/9/29 06:41:49.188_U_,1180,53,0,47,50
617,3.08, 2017/9/29 06:41:49.193_U_,1192,53,44,47,49
618,3.085, 2017/9/29 06:41:49.198_U_,1173,53,0,46,49
619,3.09, 2017/9/29 06:41:49.203_U_,1175,53,44,46,49
620,3.095, 2017/9/29 06:41:49.208_U_,1204,54,44,47,50
621,3.1, 2017/9/29 06:41:49.213_U_,1170,52,45,46,49
622,3.105, 2017/9/29 06:41:49.218_U_,1172,53,0,46,49
623,3.11, 2017/9/29 06:41:49.223_U_,1181,53,44,46,49
624,3.115, 2017/9/29 06:41:49.228_U_,1179,53,44,46,49
625,3.12, 2017/9/29 06:41:49.233_U_,1175,53,0,47,50
626,3.125, 2017/9/29 06:41:49.238_U_,1190,53,0,47,49
627,3.13, 2017/9/29 06:41:49.243_U_,1200,53,44,47,50
628,3.135, 2017/9/29 06:41:49.248_U_,1171,53,0,45,49
629,3.14, 2017/9/29 06:41:49.253_U_,1161,53,0,46,49
630,3.145, 2017/9/29 06:41:49.258_U_,1181,53,0,46,49
631,3.15, 2017/9/29 06:41:49.263_U_,1188,53,44,47,49
632,3.155, 2017/9/29 06:41:49.268_U_,1192,54,44,46,49
633,3.16, 2017/9/29 06:41:49.273_U_,1163,53,0,46,49
634,3.165, 2017/9/29 06:41:49.278_U_,1156,53,0,46,49
635,3.17, 2017/9/29 06:41:49.283_U_,1174,53,44,46,49
636,3.175, 2017/9/29 06:41:49.288_U_,1192,53,44,47,50
637,3.18, 2017/9/29 06:41:49.293_U_,1209,53,45,48,50
638,3.185, 2017/9/29 06:41:49.298_U_,1151,53,0,45,49
639,3.19, 2017/9/29 06:41:49.303_U_,1189,52,39,47,49
640,3.195, 2017/9/29 06:41:49.308_U_,1199,54,44,46,50
641,3.2, 2017/9/29 06:41:49.313_U_,1167,53,0,46,49
642,3.205, 2017/9/29 06:41:49.318_U_,1190,53,44,46,49
643,3.21, 2017/9/29 06:41:49.323_U_,1161,53,0,45,49
644,3.215, 2017/9/29 06:41:49.328_U_,1180,53,0,46,49
645,3.22, 2017/9/29 06:41:49.333_U_,1163,53,44,46,49
646,3.225, 2017/9/29 06:41:49.338_U_,1206,54,44,45,49
647,3.23, 2017/9/29 06:41:49.343_U_,1186,54,45,46,49
648,3.235, 2017/9/29 06:41:49.348_U_,1146,53,0,45,49
649,3.24, 2017/9/29 06:41:49.353_U_,1192,54,0,46,49
650,3.245, 2017/9/29 06:41:49.358_U_,1197,54,0,47,50
651,3.25, 2017/9/29 06:41:49.363_U_,1213,54,0,46,50
652,3.255, 2017/9/29 06:41:49.368_U_,1193,53,44,46,50
653,3.26, 2017/9/29 06:41:49.373_U_,1184,53,0,46,49
654,3.265, 2017/9/29 06:41:49.378_U_,1184,53,0,47,50
655,3.27, 2017/9/29 06:41:49.383_U_,1166,54,0,46,49
656,3.275, 2017/9/29 06:41:49.388_U_,1202,54,0,46,50
657,3.28, 2017/9/29 06:41:49.393_U_,1203,54,44,46,50
658,3.285, 2017/9/29 06:41:49.398_U_,1178,53,44,46,49
659,3.29, 2017/9/29 06:41:49.403_U_,1197,53,0,46,50
660,3.295, 2017/9/29 06:41:49.408_U_,1233,54,44,47,50
661,3.3, 2017/9/29 06:41:49.413_U_,1192,54,44,46,50
662,3.305, 2017/9/29 06:41:49.418_U_,1186,54,45,46,50
663,3.31, 2017/9/29 06:41:49.423_U_,1188,54,0,46,50
664,3.315, 2017/9/29 06:41:49.428_U_,1157,53,0,47,50
665,3.32, 2017/9/29 06:41:49.433_U_,1168,54,0,46,50
666,3.325, 2017/9/29 06:41:49.438_U_,1215,55,0,47,51
667,3.33, 2017/9/29 06:41:49.443_U_,1205,54,39,46,50
668,3.335, 2017/9/29 06:41:49.448_U_,1176,53,39,46,50
669,3.34, 2017/9/29 06:41:49.453_U_,1194,54,44,47,50
670,3.345, 2017/9/29 06:41:49.458_U_,1183,54,0,46,50
671,3.35, 2017/9/29 06:41:49.463_U_,1193,54,44,47,50
672,3.355, 2017/9/29 06:41:49.468_U_,1198,54,0,45,49
673,3.36, 2017/9/29 06:41:49.473_U_,1205,54,44,46,50
674,3.365, 2017/9/29 06:41:49.478_U_,1203,53,39,47,50
675,3.37, 2017/9/29 06:41:49.483_U_,1195,54,44,47,50
676,3.375, 2017/9/29 06:41:49.488_U_,1234,55,44,48,51
677,3.38, 2017/9/29 06:41:49.493_U_,1197,54,0,45,50
678,3.385, 2017/9/29 06:41:49.498_U_,1203,55,39,46,50
679,3.39, 2017/9/29 06:41:49.503_U_,1213,54,0,47,50
680,3.395, 2017/9/29 06:41:49.508_U_,1234,54,0,47,50
681,3.4, 2017/9/29 06:41:49.513_U_,1219,54,44,47,50
682,3.405, 2017/9/29 06:41:49.518_U_,1220,54,0,46,50
683,3.41, 2017/9/29 06:41:49.523_U_,1236,56,44,46,50
684,3.415, 2017/9/29 06:41:49.528_U_,1210,55,44,46,50
685,3.42, 2017/9/29 06:41:49.533_U_,1195,55,45,46,50
686,3.425, 2017/9/29 06:41:49.538_U_,1231,54,45,47,50
687,3.43, 2017/9/29 06:41:49.543_U_,1205,56,0,46,50
688,3.435, 2017/9/29 06:41:49.548_U_,1214,56,44,46,51
689,3.44, 2017/9/29 06:41:49.553_U_,1226,55,44,47,51
690,3.445, 2017/9/29 06:41:49.558_U_,1229,55,0,47,51
691,3.45, 2017/9/29 06:41:49.563_U_,1233,55,44,47,50
692,3.455, 2017/9/29 06:41:49.568_U_,1191,55,0,46,50
693,3.46, 2017/9/29 06:41:49.573_U_,1234,56,44,47,51
694,3.465, 2017/9/29 06:41:49.578_U_,1222,55,44,46,51
695,3.47, 2017/9/29 06:41:49.583_U_,1207,56,45,47,51
696,3.475, 2017/9/29 06:41:49.588_U_,1243,55,45,47,51
697,3.48, 2017/9/29 06:41:49.593_U_,1212,56,45,46,51
698,3.485, 2017/9/29 06:41:49.598_U_,1216,56,0,46,50
699,3.49, 2017/9/29 06:41:49.603_U_,1216,55,44,46,50
700,3.495, 2017/9/29 06:41:49.608_U_,1222,55,44,46,50
701,3.5, 2017/9/29 06:41:49.613_U_,1219,56,45,46,51
702,3.505, 2017/9/29 06:41:49.618_U_,1185,55,0,46,50
703,3.51, 2017/9/29 06:41:49.623_U_,1216,56,44,46,51
704,3.515, 2017/9/29 06:41:49.628_U_,1217,55,44,47,51
705,3.52, 2017/9/29 06:41:49.633_U_,1208,56,45,46,50
706,3.525, 2017/9/29 06:41:49.638_U_,1238,55,45,47,51
707,3.53, 2017/9/29 06:41:49.643_U_,1236,55,45,47,51
708,3.535, 2017/9/29 06:41:49.648_U_,1206,56,45,46,50
709,3.54, 2017/9/29 06:41:49.653_U_,1223,55,45,46,50
710,3.545, 2017/9/29 06:41:49.658_U_,1222,55,45,46,50
711,3.55, 2017/9/29 06:41:49.663_U_,1223,55,45,47,51
712,3.555, 2017/9/29 06:41:49.668_U_,1192,55,45,47,51
713,3.56, 2017/9/29 06:41:49.673_U_,1216,56,0,46,51
714,3.565, 2017/9/29 06:41:49.678_U_,1217,55,44,46,50
715,3.57, 2017/9/29 06:41:49.683_U_,1193,55,39,45,50
716,3.575, 2017/9/29 06:41:49.688_U_,1238,55,44,46,50
717,3.58, 2017/9/29 06:41:49.693_U_,1222,55,39,46,50
718,3.585, 2017/9/29 06:41:49.698_U_,1204,56,44,46,50
719,3.59, 2017/9/29 06:41:49.703_U_,1213,56,44,46,50
720,3.595, 2017/9/29 06:41:49.708_U_,1229,56,0,46,51
721,3.6, 2017/9/29 06:41:49.713_U_,1231,56,44,46,50
722,3.605, 2017/9/29 06:41:49.718_U_,1211,56,44,47,51
723,3.61, 2017/9/29 06:41:49.723_U_,1217,55,45,46,50
724,3.615, 2017/9/29 06:41:49.728_U_,1218,56,45,45,50
725,3.62, 2017/9/29 06:41:49.733_U_,1175,55,45,45,50
726,3.625, 2017/9/29 06:41:49.738_U_,1220,56,45,46,51
727,3.63, 2017/9/29 06:41:49.743_U_,1199,55,45,45,50
728,3.635, 2017/9/29 06:41:49.748_U_,1205,55,45,46,50
729,3.64, 2017/9/29 06:41:49.753_U_,1215,56,45,46,51
730,3.645, 2017/9/29 06:41:49.758_U_,1209,56,45,46,51
731,3.65, 2017/9/29 06:41:49.763_U_,1209,55,45,46,51
732,3.655, 2017/9/29 06:41:49.768_U_,1213,55,45,45,50
733,3.66, 2017/9/29 06:41:49.773_U_,1214,56,45,46,51
734,3.665, 2017/9/29 06:41:49.778_U_,1172,55,45,45,50
735,3.67, 2017/9/29 06:41:49.783_U_,1176,56,0,44,50
736,3.675, 2017/9/29 06:41:49.788_U_,1207,56,44,46,50
737,3.68, 2017/9/29 06:41:49.793_U_,1215,55,0,45,50
738,3.685, 2017/9/29 06:41:49.798_U_,1210,56,44,45,50
739,3.69, 2017/9/29 06:41:49.803_U_,1196,55,44,45,50
740,3.695, 2017/9/29 06:41:49.808_U_,1199,55,0,46,51
741,3.7, 2017/9/29 06:41:49.813_U_,1221,56,44,46,50
742,3.705, 2017/9/29 06:41:49.818_U_,1172,56,44,44,50
743,3.71, 2017/9/29 06:41:49.823_U_,1197,56,45,45,50
744,3.715, 2017/9/29 06:41:49.828_U_,1185,56,0,45,50
745,3.72, 2017/9/29 06:41:49.833_U_,1164,55,0,45,50
746,3.725, 2017/9/29 06:41:49.838_U_,1197,56,44,46,50
747,3.73, 2017/9/29 06:41:49.843_U_,1236,56,44,46,51
748,3.735, 2017/9/29 06:41:49.848_U_,1182,55,0,44,49
749,3.74, 2017/9/29 06:41:49.853_U_,1203,56,44,45,50
750,3.745, 2017/9/29 06:41:49.858_U_,1188,56,0,45,50
751,3.75, 2017/9/29 06:41:49.863_U_,1209,56,44,46,50
752,3.755, 2017/9/29 06:41:49.868_U_,1183,55,44,45,50
753,3.76, 2017/9/29 06:41:49.873_U_,1184,55,39,45,49
754,3.765, 2017/9/29 06:41:49.878_U_,1200,55,39,45,50
755,3.77, 2017/9/29 06:41:49.883_U_,1178,55,0,45,50
756,3.775, 2017/9/29 06:41:49.888_U_,1199,55,44,46,51
757,3.78, 2017/9/29 06:41:49.893_U_,1188,56,0,45,50
758,3.785, 2017/9/29 06:41:49.898_U_,1186,56,0,44,50
759,3.79, 2017/9/29 06:41:49.903_U_,1213,56,0,45,50
760,3.795, 2017/9/29 06:41:49.908_U_,1228,55,39,46,50
761,3.8, 2017/9/29 06:41:49.913_U_,1209,56,44,45,50
762,3.805, 2017/9/29 06:41:49.918_U_,1195,56,0,44,50
763,3.81, 2017/9/29 06:41:49.923_U_,1217,56,0,45,51
764,3.815, 2017/9/29 06:41:49.928_U_,1201,55,44,44,50
765,3.82, 2017/9/29 06:41:49.933_U_,1177,55,0,45,50
766,3.825, 2017/9/29 06:41:49.938_U_,1199,56,44,45,50
767,3.83, 2017/9/29 06:41:49.943_U_,1192,56,44,45,50
768,3.835, 2017/9/29 06:41:49.948_U_,1206,56,0,45,50
769,3.84, 2017/9/29 06:41:49.953_U_,1216,56,0,45,50
770,3.845, 2017/9/29 06:41:49.958_U_,1215,56,44,45,50
771,3.85, 2017/9/29 06:41:49.963_U_,1195,56,44,44,50
772,3.855, 2017/9/29 06:41:49.968_U_,1177,56,0,45,50
773,3.86, 2017/9/29 06:41:49.973_U_,1219,56,44,45,50
774,3.865, 2017/9/29 06:41:49.978_U_,1205,56,44,45,50
775,3.87, 2017/9/29 06:41:49.983_U_,1194,55,0,45,50
776,3.875, 2017/9/29 06:41:49.988_U_,1204,57,0,45,50
777,3.88, 2017/9/29 06:41:49.993_U_,1183,55,0,45,50
778,3.885, 2017/9/29 06:41:49.998_U_,1228,57,44,45,51
779,3.89, 2017/9/29 06:41:50.003_U_,1187,56,44,45,50
780,3.895, 2017/9/29 06:41:50.008_U_,1219,56,45,45,50
781,3.9, 2017/9/29 06:41:50.013_U_,1208,56,45,44,50
782,3.905, 2017/9/29 06:41:50.018_U_,1172,55,45,44,49
783,3.91, 2017/9/29 06:41:50.023_U_,1235,56,39,45,50
784,3.915, 2017/9/29 06:41:50.028_U_,1215,57,44,45,51
785,3.92, 2017/9/29 06:41:50.033_U_,1190,55,39,45,50
786,3.925, 2017/9/29 06:41:50.038_U_,1197,55,0,45,50
787,3.93, 2017/9/29 06:41:50.043_U_,1216,56,44,45,50
788,3.935, 2017/9/29 06:41:50.048_U_,1215,55,44,45,50
789,3.94, 2017/9/29 06:41:50.053_U_,1188,56,45,44,50
790,3.945, 2017/9/29 06:41:50.058_U_,1199,55,39,46,50
791,3.95, 2017/9/29 06:41:50.063_U_,1187,55,0,45,50
792,3.955, 2017/9/29 06:41:50.068_U_,1205,56,44,45,50
793,3.96, 2017/9/29 06:41:50.073_U_,1217,56,44,45,50
794,3.965, 2017/9/29 06:41:50.078_U_,1222,55,45,45,50
795,3.97, 2017/9/29 06:41:50.083_U_,1180,56,45,45,50
796,3.975, 2017/9/29 06:41:50.088_U_,1189,56,45,45,50
797,3.98, 2017/9/29 06:41:50.093_U_,1200,55,45,45,50
798,3.985, 2017/9/29 06:41:50.098_U_,1214,55,45,46,50
799,3.99, 2017/9/29 06:41:50.103_U_,1188,56,0,45,50
800,3.995, 2017/9/29 06:41:50.108_U_,1218,57,39,45,51
801,4, 2017/9/29 06:41:50.113_U_,1211,55,44,45,50
802,4.005, 2017/9/29 06:41:50.118_U_,1192,55,0,44,49
803,4.01, 2017/9/29 06:41:50.123_U_,1227,56,39,46,50
804,4.015, 2017/9/29 06:41:50.128_U_,1215,55,44,45,50
805,4.02, 2017/9/29 06:41:50.133_U_,1179,56,44,44,50
806,4.025, 2017/9/29 06:41:50.138_U_,1216,55,0,46,50
807,4.03, 2017/9/29 06:41:50.143_U_,1200,55,0,45,50
808,4.035, 2017/9/29 06:41:50.148_U_,1200,56,39,45,50
809,4.04, 2017/9/29 06:41:50.153_U_,1199,56,0,44,50
810,4.045, 2017/9/29 06:41:50.158_U_,1205,56,44,46,51
811,4.05, 2017/9/29 06:41:50.163_U_,1177,56,44,45,50
812,4.055, 2017/9/29 06:41:50.168_U_,1186,55,0,44,49
813,4.06, 2017/9/29 06:41:50.173_U_,1211,56,44,45,50
814,4.065, 2017/9/29 06:41:50.178_U_,1183,55,0,45,50
815,4.07, 2017/9/29 06:41:50.183_U_,1193,55,39,45,49
816,4.075, 2017/9/29 06:41:50.188_U_,1204,55,44,45,50
817,4.08, 2017/9/29 06:41:50.193_U_,1203,55,44,45,50
818,4.085, 2017/9/29 06:41:50.198_U_,1216,56,45,46,50
819,4.09, 2017/9/29 06:41:50.203_U_,1201,56,0,44,50
820,4.095, 2017/9/29 06:41:50.208_U_,1233,56,44,45,50
821,4.1, 2017/9/29 06:41:50.213_U_,1192,55,44,45,50
822,4.105, 2017/9/29 06:41:50.218_U_,1166,55,0,44,49
823,4.11, 2017/9/29 06:41:50.223_U_,1232,56,44,46,51
824,4.115, 2017/9/29 06:41:50.228_U_,1188,55,44,45,50
825,4.12, 2017/9/29 06:41:50.233_U_,1188,56,45,44,50
826,4.125, 2017/9/29 06:41:50.238_U_,1210,56,45,45,50
827,4.13, 2017/9/29 06:41:50.243_U_,1203,55,0,46,50
828,4.135, 2017/9/29 06:41:50.248_U_,1199,56,44,45,50
829,4.14, 2017/9/29 06:41:50.253_U_,1185,56,44,45,50
830,4.145, 2017/9/29 06:41:50.258_U_,1237,57,45,45,51
831,4.15, 2017/9/29 06:41:50.263_U_,1220,56,45,45,50
832,4.155, 2017/9/29 06:41:50.268_U_,1186,55,0,45,50
833,4.16, 2017/9/29 06:41:50.273_U_,1228,55,44,45,50
834,4.165, 2017/9/29 06:41:50.278_U_,1207,56,44,45,50
835,4.17, 2017/9/29 06:41:50.283_U_,1184,56,45,44,50
836,4.175, 2017/9/29 06:41:50.288_U_,1205,55,45,44,49
837,4.18, 2017/9/29 06:41:50.293_U_,1206,56,45,45,50
838,4.185, 2017/9/29 06:41:50.298_U_,1207,55,45,45,50
839,4.19, 2017/9/29 06:41:50.303_U_,1200,55,45,45,50
840,4.195, 2017/9/29 06:41:50.308_U_,1255,56,39,45,50
841,4.2, 2017/9/29 06:41:50.313_U_,1193,55,39,45,50
842,4.205, 2017/9/29 06:41:50.318_U_,1200,55,39,44,49
843,4.21, 2017/9/29 06:41:50.323_U_,1197,56,0,44,50
844,4.215, 2017/9/29 06:41:50.328_U_,1189,57,0,44,50
845,4.22, 2017/9/29 06:41:50.333_U_,1205,56,0,45,50
846,4.225, 2017/9/29 06:41:50.338_U_,1211,55,44,45,50
847,4.23, 2017/9/29 06:41:50.343_U_,1214,56,0,46,51
848,4.235, 2017/9/29 06:41:50.348_U_,1210,56,44,45,50
849,4.24, 2017/9/29 06:41:50.353_U_,1195,56,0,44,50
850,4.245, 2017/9/29 06:41:50.358_U_,1227,56,44,45,50
851,4.25, 2017/9/29 06:41:50.363_U_,1218,56,44,45,50
852,4.255, 2017/9/29 06:41:50.368_U_,1183,56,0,44,50
853,4.26, 2017/9/29 06:41:50.373_U_,1228,56,44,45,50
854,4.265, 2017/9/29 06:41:50.378_U_,1210,57,0,45,50
855,4.27, 2017/9/29 06:41:50.383_U_,1194,55,44,45,50
856,4.275, 2017/9/29 06:41:50.388_U_,1223,55,44,46,50
857,4.28, 2017/9/29 06:41:50.393_U_,1208,56,0,45,50
858,4.285, 2017/9/29 06:41:50.398_U_,1210,56,44,45,50
859,4.29, 2017/9/29 06:41:50.403_U_,1206,56,0,45,50
860,4.295, 2017/9/29 06:41:50.408_U_,1235,56,44,46,50
861,4.3, 2017/9/29 06:41:50.413_U_,1213,55,0,46,50
862,4.305, 2017/9/29 06:41:50.418_U_,1180,55,0,44,50
863,4.31, 2017/9/29 06:41:50.423_U_,1215,55,44,46,50
864,4.315, 2017/9/29 06:41:50.428_U_,1211,57,0,45,50
865,4.32, 2017/9/29 06:41:50.433_U_,1215,55,44,45,50
866,4.325, 2017/9/29 06:41:50.438_U_,1222,55,0,45,50
867,4.33, 2017/9/29 06:41:50.443_U_,1202,56,0,45,50
868,4.335, 2017/9/29 06:41:50.448_U_,1215,55,44,45,50
869,4.34, 2017/9/29 06:41:50.453_U_,1195,56,0,44,50
870,4.345, 2017/9/29 06:41:50.458_U_,1231,56,0,46,51
871,4.35, 2017/9/29 06:41:50.463_U_,1218,56,0,45,50
872,4.355, 2017/9/29 06:41:50.468_U_,1201,56,0,45,50
873,4.36, 2017/9/29 06:41:50.473_U_,1197,54,44,45,49
874,4.365, 2017/9/29 06:41:50.478_U_,1219,56,44,45,50
875,4.37, 2017/9/29 06:41:50.483_U_,1202,56,0,45,50
876,4.375, 2017/9/29 06:41:50.488_U_,1228,56,0,45,50
877,4.38, 2017/9/29 06:41:50.493_U_,1205,56,44,45,50
878,4.385, 2017/9/29 06:41:50.498_U_,1201,54,44,45,49
879,4.39, 2017/9/29 06:41:50.503_U_,1220,56,39,45,50
880,4.395, 2017/9/29 06:41:50.508_U_,1235,55,44,46,50
881,4.4, 2017/9/29 06:41:50.513_U_,1209,55,39,45,50
882,4.405, 2017/9/29 06:41:50.518_U_,1198,56,0,44,50
883,4.41, 2017/9/29 06:41:50.523_U_,1228,55,44,45,50
884,4.415, 2017/9/29 06:41:50.528_U_,1198,55,44,45,50
885,4.42, 2017/9/29 06:41:50.533_U_,1216,55,45,45,50
886,4.425, 2017/9/29 06:41:50.538_U_,1212,56,0,45,50
887,4.43, 2017/9/29 06:41:50.543_U_,1241,55,44,45,50
888,4.435, 2017/9/29 06:41:50.548_U_,1216,55,44,45,50
889,4.44, 2017/9/29 06:41:50.553_U_,1213,55,45,45,50
890,4.445, 2017/9/29 06:41:50.558_U_,1219,55,45,46,51
891,4.45, 2017/9/29 06:41:50.563_U_,1218,55,45,45,50
892,4.455, 2017/9/29 06:41:50.568_U_,1208,55,45,45,50
893,4.46, 2017/9/29 06:41:50.573_U_,1249,55,0,46,50
894,4.465, 2017/9/29 06:41:50.578_U_,1208,56,44,45,50
895,4.47, 2017/9/29 06:41:50.583_U_,1198,55,0,45,50
896,4.475, 2017/9/29 06:41:50.588_U_,1212,55,44,45,50
897,4.48, 2017/9/29 06:41:50.593_U_,1217,55,44,46,50
898,4.485, 2017/9/29 06:41:50.598_U_,1227,55,0,46,50
899,4.49, 2017/9/29 06:41:50.603_U_,1212,55,44,45,50
900,4.495, 2017/9/29 06:41:50.608_U_,1235,56,44,46,51
901,4.5, 2017/9/29 06:41:50.613_U_,1222,55,0,46,50
902,4.505, 2017/9/29 06:41:50.618_U_,1199,54,44,45,50
903,4.51, 2017/9/29 06:41:50.623_U_,1247,56,44,46,51
904,4.515, 2017/9/29 06:41:50.628_U_,1216,55,45,45,50
905,4.52, 2017/9/29 06:41:50.633_U_,1203,56,45,45,50
906,4.525, 2017/9/29 06:41:50.638_U_,1224,56,45,45,50
907,4.53, 2017/9/29 06:41:50.643_U_,1229,56,0,47,51
908,4.535, 2017/9/29 06:41:50.648_U_,1233,55,0,45,50
909,4.54, 2017/9/29 06:41:50.653_U_,1218,55,0,45,50
910,4.545, 2017/9/29 06:41:50.658_U_,1223,55,44,45,50
911,4.55, 2017/9/29 06:41:50.663_U_,1242,56,44,46,50
912,4.555, 2017/9/29 06:41:50.668_U_,1218,56,45,46,51
913,4.56, 2017/9/29 06:41:50.673_U_,1237,56,0,46,50
914,4.565, 2017/9/29 06:41:50.678_U_,1228,56,44,46,50
915,4.57, 2017/9/29 06:41:50.683_U_,1205,54,44,44,49
916,4.575, 2017/9/29 06:41:50.688_U_,1193,55,0,46,50
917,4.58, 2017/9/29 06:41:50.693_U_,1226,56,44,45,50
918,4.585, 2017/9/29 06:41:50.698_U_,1218,56,0,45,50
919,4.59, 2017/9/29 06:41:50.703_U_,1220,56,44,46,50
920,4.595, 2017/9/29 06:41:50.708_U_,1215,56,44,45,50
921,4.6, 2017/9/29 06:41:50.713_U_,1205,55,0,45,50
922,4.605, 2017/9/29 06:41:50.718_U_,1225,56,0,46,50
923,4.61, 2017/9/29 06:41:50.723_U_,1244,56,44,46,50
924,4.615, 2017/9/29 06:41:50.728_U_,1225,56,44,46,50
925,4.62, 2017/9/29 06:41:50.733_U_,1192,55,45,45,49
926,4.625, 2017/9/29 06:41:50.738_U_,1214,55,0,45,50
927,4.63, 2017/9/29 06:41:50.743_U_,1224,55,44,45,50
928,4.635, 2017/9/29 06:41:50.748_U_,1203,55,44,46,50
929,4.64, 2017/9/29 06:41:50.753_U_,1229,55,45,46,50
930,4.645, 2017/9/29 06:41:50.758_U_,1226,54,45,45,49
931,4.65, 2017/9/29 06:41:50.763_U_,1201,54,0,45,50
932,4.655, 2017/9/29 06:41:50.768_U_,1206,54,44,45,49
933,4.66, 2017/9/29 06:41:50.773_U_,1238,55,44,46,50
934,4.665, 2017/9/29 06:41:50.778_U_,1213,55,45,45,49
935,4.67, 2017/9/29 06:41:50.783_U_,1179,54,45,44,49
936,4.675, 2017/9/29 06:41:50.788_U_,1211,55,0,45,50
937,4.68, 2017/9/29 06:41:50.793_U_,1211,55,44,45,50
938,4.685, 2017/9/29 06:41:50.798_U_,1196,54,44,45,49
939,4.69, 2017/9/29 06:41:50.803_U_,1235,54,39,45,49
940,4.695, 2017/9/29 06:41:50.808_U_,1199,54,0,45,49
941,4.7, 2017/9/29 06:41:50.813_U_,1184,55,44,45,50
942,4.705, 2017/9/29 06:41:50.818_U_,1182,55,44,45,50
943,4.71, 2017/9/29 06:41:50.823_U_,1211,55,45,45,50
944,4.715, 2017/9/29 06:41:50.828_U_,1196,54,0,46,50
945,4.72, 2017/9/29 06:41:50.833_U_,1172,54,0,45,49
946,4.725, 2017/9/29 06:41:50.838_U_,1208,54,39,45,50
947,4.73, 2017/9/29 06:41:50.843_U_,1233,55,0,45,50
948,4.735, 2017/9/29 06:41:50.848_U_,1216,54,39,45,49
949,4.74, 2017/9/29 06:41:50.853_U_,1197,54,0,45,49
950,4.745, 2017/9/29 06:41:50.858_U_,1194,55,0,45,49
951,4.75, 2017/9/29 06:41:50.863_U_,1184,53,0,45,49
952,4.755, 2017/9/29 06:41:50.868_U_,1200,54,39,45,49
953,4.76, 2017/9/29 06:41:50.873_U_,1223,55,44,46,50
954,4.765, 2017/9/29 06:41:50.878_U_,1210,53,0,45,49
955,4.77, 2017/9/29 06:41:50.883_U_,1182,54,0,44,49
956,4.775, 2017/9/29 06:41:50.888_U_,1196,54,44,45,49
957,4.78, 2017/9/29 06:41:50.893_U_,1201,54,0,45,49
958,4.785, 2017/9/29 06:41:50.898_U_,1216,55,39,45,50
959,4.79, 2017/9/29 06:41:50.903_U_,1202,55,44,45,50
960,4.795, 2017/9/29 06:41:50.908_U_,1187,54,0,45,49
961,4.8, 2017/9/29 06:41:50.913_U_,1212,54,0,44,49
962,4.805, 2017/9/29 06:41:50.918_U_,1181,55,0,45,50
963,4.81, 2017/9/29 06:41:50.923_U_,1205,55,0,44,49
964,4.815, 2017/9/29 06:41:50.928_U_,1214,54,0,45,49
965,4.82, 2017/9/29 06:41:50.933_U_,1187,55,0,44,49
966,4.825, 2017/9/29 06:41:50.938_U_,1213,54,39,45,49
967,4.83, 2017/9/29 06:41:50.943_U_,1182,54,0,45,50
968,4.835, 2017/9/29 06:41:50.948_U_,1198,54,39,44,49
969,4.84, 2017/9/29 06:41:50.953_U_,1188,54,0,44,49
970,4.845, 2017/9/29 06:41:50.958_U_,1195,54,44,44,49
971,4.85, 2017/9/29 06:41:50.963_U_,1207,54,44,45,49
972,4.855, 2017/9/29 06:41:50.968_U_,1172,54,0,44,49
973,4.86, 2017/9/29 06:41:50.973_U_,1201,55,44,44,49
974,4.865, 2017/9/29 06:41:50.978_U_,1197,56,0,44,49
975,4.87, 2017/9/29 06:41:50.983_U_,1188,53,0,45,49
976,4.875, 2017/9/29 06:41:50.988_U_,1223,54,44,46,50
977,4.88, 2017/9/29 06:41:50.993_U_,1180,55,0,44,49
978,4.885, 2017/9/29 06:41:50.998_U_,1189,55,0,43,49
979,4.89, 2017/9/29 06:41:51.003_U_,1183,54,0,45,49
980,4.895, 2017/9/29 06:41:51.008_U_,1199,53,44,45,49
981,4.9, 2017/9/29 06:41:51.013_U_,1201,55,44,45,49
982,4.905, 2017/9/29 06:41:51.018_U_,1186,54,45,44,49
983,4.91, 2017/9/29 06:41:51.023_U_,1186,54,45,44,49
984,4.915, 2017/9/29 06:41:51.028_U_,1211,54,45,45,49
985,4.92, 2017/9/29 06:41:51.033_U_,1208,55,45,44,49
986,4.925, 2017/9/29 06:41:51.038_U_,1193,55,45,46,50
987,4.93, 2017/9/29 06:41:51.043_U_,1204,54,45,45,50
988,4.935, 2017/9/29 06:41:51.048_U_,1193,55,0,45,50
989,4.94, 2017/9/29 06:41:51.053_U_,1187,54,0,44,49
990,4.945, 2017/9/29 06:41:51.058_U_,1216,54,0,45,49
991,4.95, 2017/9/29 06:41:51.063_U_,1195,54,44,45,50
992,4.955, 2017/9/29 06:41:51.068_U_,1162,54,0,45,49
993,4.96, 2017/9/29 06:41:51.073_U_,1190,54,0,45,49
994,4.965, 2017/9/29 06:41:51.078_U_,1205,54,44,45,50
995,4.97, 2017/9/29 06:41:51.083_U_,1213,54,44,45,49
996,4.975, 2017/9/29 06:41:51.088_U_,1190,54,0,45,49
997,4.98, 2017/9/29 06:41:51.093_U_,1214,53,0,45,49
998,4.985, 2017/9/29 06:41:51.098_U_,1170,55,0,44,49
999,4.99, 2017/9/29 06:41:51.103_U_,1194,54,0,45,49
1000,4.995, 2017/9/29 06:41:51.108_U_,1219,55,0,45,50
@@,,,,,,,