DATA_TYPE COF,,,,,,,,,,,,,
VERSION Tekscan Pressure Measurement System 6.70-03,,,,,,,,,,,,,
HARDWARE 00114-3447,,,,,,,,,,,,,
MAP_VERSION 6.5,,,,,,,,,,,,,
HW_TYPE 4,,,,,,,,,,,,,
VersaPogoFsx 0,,,,,,,,,,,,,
檔案名 C:\Users\asus\Desktop\工研院_計畫\收案資料\Subject02\Plantar Pressure\R65S_STAND_RIGHT_1.fsx,,,,,,,,,,,,,
SENSOR_TYPE FSCAN,,,,,,,,,,,,,
ROWS 60,,,,,,,,,,,,,
COLS 21,,,,,,,,,,,,,
ROW_SPACING 0.508 centimeters,,,,,,,,,,,,,
COL_SPACING 0.508 centimeters,,,,,,,,,,,,,
SENSEL_AREA 0.258064 cm2,,,,,,,,,,,,,
NOISE_THRESHOLD 3,,,,,,,,,,,,,
SECONDS_PER_FRAME 0.005,,,,,,,,,,,,,
SECONDS_PER_FRAME 0,,,,,,,,,,,,,
MICRO_SECOND 0,,,,,,,,,,,,,
TIME 2017/11/15 11:06:37.709上午,,,,,,,,,,,,,
SATURATION_PRESSURE 2347.96 KPa ,,,,,,,,,,,,,
CALIBRATION_POINT_1 48.0001 (Kilograms) 1981 (Raw Sum) 199 (Number of Loaded Cells),,,,,,,,,,,,,
CALIBRATION_MODE_1 步態,,,,,,,,,,,,,
CALIBRATION_INFO C:\Users\asus\Desktop\工研院_計畫\收案資料\Subject02\Plantar Pressure\R65S_STAND_RIGHT_1.fsx,,,,,,,,,,,,,
SENSITIVITY 自定義,,,,,,,,,,,,,
MAP_INDEX 0,,,,,,,,,,,,,
SUBMAP 0,,,,,,,,,,,,,
Patient ID: ,,,,,,,,,,,,,
,,,,,,,,,,,,,
Speed of Gait: ,,,,,,,,,,,,,
,,,,,,,,,,,,,
Weight: ,,,,,,,,,,,,,
,,,,,,,,,,,,,
Gender: ,,,,,,,,,,,,,
,,,,,,,,,,,,,
Physician: ,,,,,,,,,,,,,
,,,,,,,,,,,,,
Technician: ,,,,,,,,,,,,,
,,,,,,,,,,,,,
Shoe: ,,,,,,,,,,,,,
,,,,,,,,,,,,,
START_FRAME 1,,,,,,,,,,,,,
END_FRAME 600,,,,,,,,,,,,,
COMMENTS Frame, Time, (Absolute Time), Row (cm), Col (cm), Raw Sum,,,,,,,,
ASCII_DATA @@,,,,,,,,,,,,,
Frame, Time, Absolute Time, Main(Row,Col,Raw Sum), 青色(Row,Col), 絳紅(Row,Col), 黃色(Row,Col), 藍色(Row,Col)
1,0, 2017/11/15 11:06:37.709上午,18.12,4.32,463,47.56,8.55,-1,-1,21,8.43,35.66,8.5
2,0.005, 2017/11/15 11:06:37.714上午,18.15,4.72,495,47.67,8.54,37.17,12.57,21.23,9.46,35.73,9.3
3,0.01, 2017/11/15 11:06:37.719上午,18.23,4.61,507,47.69,8.57,37.87,12.71,21.17,8.96,35.89,9.07
4,0.015, 2017/11/15 11:06:37.724上午,18.55,4.52,478,47.63,8.52,38.06,13.05,21.18,8.69,36.52,8.9
5,0.02, 2017/11/15 11:06:37.729上午,18.19,4.55,518,47.65,8.6,37.35,12.55,21.07,8.58,35.81,8.96
6,0.025, 2017/11/15 11:06:37.734上午,18.38,4.74,498,47.77,8.52,37.75,12.78,21.21,9.58,36.18,9.33
7,0.03, 2017/11/15 11:06:37.739上午,18.39,4.61,504,47.56,8.63,38.31,12.89,21.16,8.96,36.19,9.08
8,0.035, 2017/11/15 11:06:37.744上午,18.04,4.35,470,47.7,8.55,-1,-1,21.06,8.57,35.51,8.56
9,0.04, 2017/11/15 11:06:37.749上午,18.3,4.66,520,47.85,8.54,37.35,12.55,21.27,9.18,36.02,9.17
10,0.045, 2017/11/15 11:06:37.754上午,18.33,4.66,495,47.74,8.51,37.84,12.31,21.24,9.49,36.07,9.17
11,0.05, 2017/11/15 11:06:37.759上午,18.5,4.62,504,47.63,8.63,38.13,13.25,21.11,9.11,36.41,9.09
12,0.055, 2017/11/15 11:06:37.764上午,18.57,4.54,490,47.61,8.64,38.4,13.05,21.06,8.64,36.56,8.94
13,0.06, 2017/11/15 11:06:37.769上午,18.46,4.48,475,47.62,8.59,37.21,12.54,21.06,8.61,36.33,8.82
14,0.065, 2017/11/15 11:06:37.774上午,18.24,4.62,506,47.76,8.52,37.87,12.71,21.21,9.08,35.91,9.09
15,0.07, 2017/11/15 11:06:37.779上午,18.55,4.75,507,47.63,8.87,38,12.86,21.15,9.19,36.52,9.35
16,0.075, 2017/11/15 11:06:37.784上午,18.64,4.54,504,47.52,8.61,38.31,12.89,21.02,8.66,36.69,8.94
17,0.08, 2017/11/15 11:06:37.789上午,18.57,4.51,487,47.51,8.72,37.27,12.5,21.12,8.6,36.55,8.88
18,0.085, 2017/11/15 11:06:37.794上午,18.36,4.6,486,47.74,8.51,37.63,12.28,21.19,9.3,36.14,9.06
19,0.09, 2017/11/15 11:06:37.799上午,18.64,4.66,502,47.64,8.62,38.31,12.89,21.1,9.23,36.69,9.17
20,0.095, 2017/11/15 11:06:37.804上午,18.68,4.6,504,47.48,8.74,36.92,12.99,21.06,8.63,36.78,9.06
21,0.1, 2017/11/15 11:06:37.809上午,18.19,4.63,507,47.58,8.51,37.4,12.66,21.21,9.24,35.81,9.12
22,0.105, 2017/11/15 11:06:37.814上午,18.57,4.66,514,47.68,8.63,38.14,12.86,21.13,9.17,36.55,9.18
23,0.11, 2017/11/15 11:06:37.819上午,18.35,4.5,496,47.51,8.72,37.21,12.54,21,8.59,36.11,8.87
24,0.115, 2017/11/15 11:06:37.824上午,18.49,4.66,492,47.66,8.56,37,12.23,21.16,9.42,36.39,9.18
25,0.12, 2017/11/15 11:06:37.829上午,18.28,4.65,504,47.87,8.56,37.38,12.38,21.16,9.4,35.99,9.16
26,0.125, 2017/11/15 11:06:37.834上午,18.39,4.67,512,47.76,8.46,37.74,12.82,21.23,9.32,36.19,9.19
27,0.13, 2017/11/15 11:06:37.839上午,18.5,4.41,454,47.64,8.5,-1,-1,20.99,8.94,36.41,8.68
28,0.135, 2017/11/15 11:06:37.844上午,18.48,4.53,518,47.69,8.62,37.35,12.55,21.02,8.46,36.37,8.92
29,0.14, 2017/11/15 11:06:37.849上午,18.39,4.69,509,47.67,8.53,37.23,12.67,21.31,9.43,36.19,9.23
30,0.145, 2017/11/15 11:06:37.854上午,18.66,4.65,491,47.69,8.54,37.86,12.76,21.02,9.18,36.73,9.14
31,0.15, 2017/11/15 11:06:37.859上午,18.6,4.63,504,47.63,8.61,38.4,13.05,21.09,9.17,36.61,9.12
32,0.155, 2017/11/15 11:06:37.864上午,18.31,4.45,500,47.61,8.55,37,12.23,21.03,8.4,36.03,8.76
33,0.16, 2017/11/15 11:06:37.869上午,18.34,4.67,533,47.64,8.66,37.88,12.04,21.31,9.06,36.11,9.19
34,0.165, 2017/11/15 11:06:37.874上午,18.5,4.7,514,47.76,8.57,37.87,12.71,21.19,9.44,36.43,9.24
35,0.17, 2017/11/15 11:06:37.879上午,18.48,4.58,492,47.67,8.54,38.42,12.28,21.07,9.18,36.38,9.02
36,0.175, 2017/11/15 11:06:37.884上午,18.53,4.51,508,47.77,8.61,37.33,12.36,21.05,8.48,36.47,8.89
37,0.18, 2017/11/15 11:06:37.889上午,18.4,4.66,515,47.72,8.5,37.23,12.65,21.21,9.37,36.21,9.18
38,0.185, 2017/11/15 11:06:37.894上午,18.77,4.69,494,47.61,8.64,37.75,12.78,21,9.2,36.95,9.22
39,0.19, 2017/11/15 11:06:37.899上午,18.48,4.46,483,47.63,8.54,38.21,12.55,21.11,8.7,36.38,8.79
40,0.195, 2017/11/15 11:06:37.904上午,18.4,4.51,505,47.7,8.54,37.5,12.46,21.09,8.68,36.22,8.88
41,0.2, 2017/11/15 11:06:37.909上午,18.71,4.7,511,47.67,8.73,38.08,12.07,21.24,9.52,36.84,9.24
42,0.205, 2017/11/15 11:06:37.914上午,18.34,4.56,506,47.5,8.72,37.27,12.5,21.18,8.87,36.11,8.98
43,0.21, 2017/11/15 11:06:37.919上午,18.69,4.65,489,47.79,8.53,37.19,12.67,21.02,9.21,36.79,9.15
44,0.215, 2017/11/15 11:06:37.924上午,18.75,4.62,501,47.67,8.72,37.95,13.27,20.96,8.9,36.91,9.09
45,0.22, 2017/11/15 11:06:37.929上午,18.46,4.57,522,47.59,8.75,37.36,12.87,21.02,8.42,36.34,8.99
46,0.225, 2017/11/15 11:06:37.934上午,18.46,4.67,511,47.57,8.61,38.25,11.94,21.2,9.34,36.34,9.19
47,0.23, 2017/11/15 11:06:37.939上午,18.63,4.68,505,47.72,8.47,37.86,12.76,21.2,9.46,36.68,9.21
48,0.235, 2017/11/15 11:06:37.944上午,18.76,4.68,518,47.72,8.71,38.23,12.68,21.13,9.21,36.92,9.21
49,0.24, 2017/11/15 11:06:37.949上午,18.49,4.49,494,47.69,8.61,37.71,12.19,21.05,8.52,36.4,8.83
50,0.245, 2017/11/15 11:06:37.954上午,18.42,4.64,507,47.72,8.5,37.63,12.28,21.24,9.49,36.26,9.13
51,0.25, 2017/11/15 11:06:37.959上午,18.65,4.66,510,47.8,8.52,37.75,12.82,21.13,9.25,36.72,9.18
52,0.255, 2017/11/15 11:06:37.964上午,18.58,4.58,501,47.5,8.7,37.21,12.54,21.29,8.98,36.58,9.01
53,0.26, 2017/11/15 11:06:37.969上午,18.46,4.67,505,47.56,8.68,37.21,12.54,21.16,9.45,36.33,9.19
54,0.265, 2017/11/15 11:06:37.974上午,18.51,4.68,513,47.73,8.5,37.37,12.65,21.24,9.34,36.44,9.21
55,0.27, 2017/11/15 11:06:37.979上午,18.7,4.55,507,47.55,8.61,37.92,12.37,21.31,8.94,36.81,8.96
56,0.275, 2017/11/15 11:06:37.984上午,18.55,4.58,541,47.61,8.67,37.88,12.04,21.09,8.62,36.52,9.02
57,0.28, 2017/11/15 11:06:37.989上午,18.6,4.71,520,47.72,8.6,37.75,12.82,21.22,9.39,36.62,9.27
58,0.285, 2017/11/15 11:06:37.994上午,18.8,4.57,521,47.54,8.69,38.09,12.74,21.07,8.58,37.01,8.99
59,0.29, 2017/11/15 11:06:37.999上午,18.08,4.53,517,47.53,8.58,37.66,12.14,21.23,8.89,35.6,8.93
60,0.295, 2017/11/15 11:06:38.004上午,18.44,4.68,499,47.83,8.53,37.61,12.6,21.18,9.51,36.3,9.21
61,0.3, 2017/11/15 11:06:38.009上午,18.78,4.73,536,47.69,8.69,37.63,12.76,21.09,9.21,36.98,9.3
62,0.305, 2017/11/15 11:06:38.014上午,18.78,4.58,495,47.69,8.58,37.68,13.03,21.17,8.73,36.97,9.02
63,0.31, 2017/11/15 11:06:38.019上午,18.68,4.69,501,47.72,8.49,37.7,12.79,21.14,9.57,36.76,9.23
64,0.315, 2017/11/15 11:06:38.024上午,18.82,4.65,520,47.65,8.67,38,12.8,21.11,9.18,37.04,9.15
65,0.32, 2017/11/15 11:06:38.029上午,18.9,4.52,486,47.52,8.77,37.55,12.34,21.17,8.64,37.2,8.9
66,0.325, 2017/11/15 11:06:38.034上午,18.27,4.62,489,47.66,8.62,37.21,12.55,21.1,9.27,35.96,9.1
67,0.33, 2017/11/15 11:06:38.039上午,18.56,4.74,513,47.65,8.55,37.16,12.55,21.14,9.66,36.54,9.33
68,0.335, 2017/11/15 11:06:38.044上午,18.71,4.74,530,47.73,8.7,37.75,12.82,21.26,9.45,36.83,9.34
69,0.34, 2017/11/15 11:06:38.049上午,18.65,4.49,486,47.7,8.56,37.55,12.34,21.21,8.83,36.71,8.85
70,0.345, 2017/11/15 11:06:38.054上午,18.65,4.47,511,47.67,8.61,37.73,11.67,20.92,8.35,36.72,8.8
71,0.35, 2017/11/15 11:06:38.059上午,18.43,4.51,510,47.59,8.71,37.26,12.5,21.12,8.64,36.29,8.88
72,0.355, 2017/11/15 11:06:38.064上午,18.61,4.71,513,47.75,8.54,37.59,12.85,21.15,9.52,36.63,9.27
73,0.36, 2017/11/15 11:06:38.069上午,18.71,4.65,505,47.74,8.5,37.75,12.82,21.14,9.22,36.84,9.16
74,0.365, 2017/11/15 11:06:38.074上午,18.83,4.58,523,47.73,8.71,38.31,12.9,21.07,8.73,37.07,9.02
75,0.37, 2017/11/15 11:06:38.079上午,18.9,4.52,490,47.62,8.71,37.21,12.55,21.16,8.66,37.2,8.89
76,0.375, 2017/11/15 11:06:38.084上午,18.48,4.59,512,47.71,8.52,37.63,12.29,21.26,9.24,36.37,9.03
77,0.38, 2017/11/15 11:06:38.089上午,18.81,4.65,520,47.66,8.64,38.09,12.75,21.22,9.07,37.02,9.15
78,0.385, 2017/11/15 11:06:38.094上午,18.92,4.5,501,47.58,8.65,38.42,12.28,21.21,8.67,37.25,8.86
79,0.39, 2017/11/15 11:06:38.099上午,18.35,4.56,531,47.73,8.66,36.92,12.99,21.08,8.58,36.11,8.98
80,0.395, 2017/11/15 11:06:38.104上午,18.61,4.64,539,47.68,8.65,37.93,11.9,21.16,9.12,36.63,9.14
81,0.4, 2017/11/15 11:06:38.109上午,18.51,4.66,519,47.71,8.56,37.86,12.76,21.36,9.27,36.45,9.18
82,0.405, 2017/11/15 11:06:38.114上午,18.93,4.73,524,47.67,8.79,38.07,12.66,21.11,9.33,37.27,9.32
83,0.41, 2017/11/15 11:06:38.119上午,18.79,4.48,505,47.53,8.67,37.55,12.34,21.09,8.63,36.99,8.82
84,0.415, 2017/11/15 11:06:38.124上午,18.65,4.54,518,47.87,8.57,37.34,12.55,21.05,8.56,36.71,8.94
85,0.42, 2017/11/15 11:06:38.129上午,18.6,4.65,501,47.76,8.53,37.63,12.28,21.09,9.53,36.62,9.15
86,0.425, 2017/11/15 11:06:38.134上午,18.82,4.77,540,47.72,8.81,37.5,13.03,21.1,9.15,37.04,9.38
87,0.43, 2017/11/15 11:06:38.139上午,18.82,4.58,516,47.69,8.72,37.91,13.1,21.1,8.68,37.05,9.02
88,0.435, 2017/11/15 11:06:38.144上午,18.85,4.46,486,47.66,8.53,38.57,12.39,21.18,8.68,37.1,8.79
89,0.44, 2017/11/15 11:06:38.149上午,18.5,4.55,535,47.83,8.64,37.34,12.55,21.08,8.57,36.42,8.96
90,0.445, 2017/11/15 11:06:38.154上午,18.66,4.75,523,47.71,8.62,37.53,12.64,21.11,9.55,36.74,9.36
91,0.45, 2017/11/15 11:06:38.159上午,18.75,4.69,522,47.78,8.61,37.5,12.71,21.1,9.2,36.92,9.24
92,0.455, 2017/11/15 11:06:38.164上午,18.76,4.74,538,47.71,8.77,38.09,12.75,21.18,9.41,36.93,9.34
93,0.46, 2017/11/15 11:06:38.169上午,18.87,4.57,509,47.6,8.79,37.26,12.5,21.2,8.83,37.15,9
94,0.465, 2017/11/15 11:06:38.174上午,18.58,4.57,515,47.67,8.72,37.64,12.5,21.02,8.79,36.57,9
95,0.47, 2017/11/15 11:06:38.179上午,18.49,4.61,511,47.82,8.55,36.99,12.23,21.3,9.17,36.39,9.07
96,0.475, 2017/11/15 11:06:38.184上午,18.64,4.63,506,47.79,8.53,37.63,12.29,21.21,9.47,36.7,9.12
97,0.48, 2017/11/15 11:06:38.189上午,18.8,4.77,552,47.67,8.78,37.63,12.76,21.21,9.34,37.01,9.39
98,0.485, 2017/11/15 11:06:38.194上午,19.06,4.61,507,47.65,8.79,38.01,12.8,21.16,8.78,37.52,9.08
99,0.49, 2017/11/15 11:06:38.199上午,19.06,4.5,490,47.71,8.52,38.06,13.06,21.04,8.61,37.52,8.86
100,0.495, 2017/11/15 11:06:38.204上午,18.53,4.57,539,47.54,8.71,36.92,12.99,21.08,8.55,36.47,8.99
101,0.5, 2017/11/15 11:06:38.209上午,18.5,4.63,512,47.56,8.71,37.21,12.55,21.26,9.23,36.42,9.11
102,0.505, 2017/11/15 11:06:38.214上午,18.62,4.65,515,47.7,8.54,37.15,12.43,21.26,9.37,36.65,9.15
103,0.51, 2017/11/15 11:06:38.219上午,18.88,4.76,538,47.65,8.82,37.63,12.76,21.14,9.19,37.17,9.36
104,0.515, 2017/11/15 11:06:38.224上午,19.05,4.62,510,47.72,8.61,38.24,12.68,20.98,9.04,37.5,9.09
105,0.52, 2017/11/15 11:06:38.229上午,18.85,4.59,505,47.74,8.61,37.37,12.55,21.16,8.68,37.1,9.03
106,0.525, 2017/11/15 11:06:38.234上午,18.61,4.63,511,47.75,8.51,37.84,12.31,21.16,9.43,36.64,9.12
107,0.53, 2017/11/15 11:06:38.239上午,18.69,4.66,518,47.75,8.48,37.18,12.64,21.24,9.42,36.78,9.17
108,0.535, 2017/11/15 11:06:38.244上午,18.94,4.74,532,47.71,8.75,37.43,12.85,21.12,9.24,37.28,9.32
109,0.54, 2017/11/15 11:06:38.249上午,18.64,4.55,515,47.4,8.82,37.94,11.96,21.1,8.79,36.7,8.96
110,0.545, 2017/11/15 11:06:38.254上午,18.76,4.53,497,47.69,8.6,36.99,12.23,21.22,8.74,36.94,8.92
111,0.55, 2017/11/15 11:06:38.259上午,18.67,4.69,528,47.73,8.58,37.33,12.36,21.17,9.45,36.76,9.23
112,0.555, 2017/11/15 11:06:38.264上午,18.58,4.63,504,47.86,8.52,37.5,12.19,21.12,9.42,36.57,9.12
113,0.56, 2017/11/15 11:06:38.269上午,18.9,4.77,539,47.71,8.77,37.79,12.64,21.27,9.49,37.21,9.4
114,0.565, 2017/11/15 11:06:38.274上午,18.76,4.66,537,47.68,8.82,38.13,12.94,21.19,8.93,36.94,9.18
115,0.57, 2017/11/15 11:06:38.279上午,19,4.55,511,47.69,8.61,38.31,12.9,21.19,8.73,37.4,8.96
116,0.575, 2017/11/15 11:06:38.284上午,18.97,4.53,504,47.56,8.76,37.55,12.34,21.18,8.75,37.34,8.92
117,0.58, 2017/11/15 11:06:38.289上午,18.62,4.56,551,47.67,8.62,37.88,12.03,21.08,8.61,36.66,8.98
118,0.585, 2017/11/15 11:06:38.294上午,18.62,4.62,508,47.77,8.51,37.63,12.28,21.18,9.43,36.66,9.09
119,0.59, 2017/11/15 11:06:38.299上午,19.07,4.74,540,47.72,8.75,37.73,12.72,21.17,9.24,37.55,9.33
120,0.595, 2017/11/15 11:06:38.304上午,18.72,4.68,553,47.74,8.69,37.5,13.02,21.18,8.93,36.86,9.22
121,0.6, 2017/11/15 11:06:38.309上午,18.96,4.6,512,47.61,8.68,38.09,12.75,21.2,8.71,37.32,9.05
122,0.605, 2017/11/15 11:06:38.314上午,18.8,4.58,488,47.71,8.57,37.21,12.55,21.04,9.21,37.01,9.02
123,0.61, 2017/11/15 11:06:38.319上午,18.53,4.66,529,47.8,8.53,37.34,12.55,21.25,9.25,36.48,9.18
124,0.615, 2017/11/15 11:06:38.324上午,18.64,4.61,510,47.75,8.49,37.63,12.28,21.19,9.39,36.69,9.07
125,0.62, 2017/11/15 11:06:38.329上午,18.91,4.7,523,47.71,8.63,37.96,12.72,21.16,9.27,37.21,9.25
126,0.625, 2017/11/15 11:06:38.334上午,18.79,4.5,505,47.69,8.67,38.11,12.39,21.1,8.71,36.99,8.87
127,0.63, 2017/11/15 11:06:38.339上午,18.88,4.62,501,47.71,8.59,37.43,12.71,21.14,8.77,37.16,9.1
128,0.635, 2017/11/15 11:06:38.344上午,18.66,4.69,521,47.76,8.51,37.34,12.55,21.12,9.43,36.73,9.23
129,0.64, 2017/11/15 11:06:38.349上午,18.69,4.71,497,47.7,8.58,37.18,12.65,21.25,9.51,36.79,9.28
130,0.645, 2017/11/15 11:06:38.354上午,18.77,4.7,525,47.71,8.6,37.75,12.78,21.27,9.38,36.95,9.25
131,0.65, 2017/11/15 11:06:38.359上午,18.73,4.55,511,47.58,8.69,38.22,12.27,21.06,8.77,36.86,8.96
132,0.655, 2017/11/15 11:06:38.364上午,18.73,4.37,503,47.48,8.73,-1,-1,21.06,8.42,36.88,8.61
133,0.66, 2017/11/15 11:06:38.369上午,18.66,4.6,529,47.83,8.62,37.35,12.57,21.01,8.79,36.72,9.05
134,0.665, 2017/11/15 11:06:38.374上午,18.63,4.73,541,47.8,8.59,37.5,12.7,21.25,9.43,36.67,9.31
135,0.67, 2017/11/15 11:06:38.379上午,19.09,4.66,526,47.69,8.76,38.09,12.74,20.98,8.97,37.57,9.18
136,0.675, 2017/11/15 11:06:38.384上午,18.95,4.57,503,47.66,8.65,37.93,13.32,21.21,8.7,37.29,9
137,0.68, 2017/11/15 11:06:38.389上午,18.2,4.56,524,47.57,8.77,37.27,12.5,21.19,8.79,35.83,8.97
138,0.685, 2017/11/15 11:06:38.394上午,18.78,4.72,503,47.75,8.53,37.18,12.64,21.21,9.65,36.97,9.29
139,0.69, 2017/11/15 11:06:38.399上午,18.77,4.75,534,47.74,8.75,38.09,12.74,21.26,9.44,36.95,9.35
140,0.695, 2017/11/15 11:06:38.404上午,18.64,4.51,508,47.52,8.71,37.76,12.3,21.11,8.79,36.7,8.88
141,0.7, 2017/11/15 11:06:38.409上午,18.44,4.51,514,47.73,8.57,37.68,13.03,21.03,8.41,36.29,8.88
142,0.705, 2017/11/15 11:06:38.414上午,18.62,4.64,516,47.77,8.49,37.36,12.44,21.21,9.3,36.65,9.13
143,0.71, 2017/11/15 11:06:38.419上午,18.51,4.74,526,47.73,8.63,37.74,12.82,21.22,9.46,36.44,9.32
144,0.715, 2017/11/15 11:06:38.424上午,18.58,4.62,535,47.68,8.62,37.42,12.57,21.19,8.9,36.58,9.09
145,0.72, 2017/11/15 11:06:38.429上午,18.74,4.48,507,47.68,8.65,37.72,12.35,21.11,8.78,36.88,8.83
146,0.725, 2017/11/15 11:06:38.434上午,18.5,4.44,494,47.65,8.48,36.9,12.97,21.13,8.72,36.41,8.75
147,0.73, 2017/11/15 11:06:38.439上午,18.62,4.56,514,47.88,8.54,37.17,12.55,21.16,8.77,36.66,8.98
148,0.735, 2017/11/15 11:06:38.444上午,18.55,4.67,517,47.73,8.52,37.86,12.76,21.2,9.34,36.52,9.19
149,0.74, 2017/11/15 11:06:38.449上午,18.68,4.64,499,47.75,8.5,37.85,12.76,21.11,9.21,36.77,9.13
150,0.745, 2017/11/15 11:06:38.454上午,18.75,4.74,538,47.68,8.78,37.63,12.76,21.15,9.14,36.92,9.33
151,0.75, 2017/11/15 11:06:38.459上午,18.64,4.66,508,47.71,8.61,38.32,12.86,21.11,9.19,36.7,9.18
152,0.755, 2017/11/15 11:06:38.464上午,18.43,4.49,518,47.44,8.76,37.55,12.34,21.07,8.56,36.28,8.84
153,0.76, 2017/11/15 11:06:38.469上午,18.16,4.47,496,47.67,8.62,37.21,12.54,21.06,8.56,35.75,8.8
154,0.765, 2017/11/15 11:06:38.474上午,18.49,4.66,514,47.77,8.49,37.7,12.79,21.17,9.41,36.39,9.17
155,0.77, 2017/11/15 11:06:38.479上午,18.57,4.64,507,47.63,8.64,38.01,12.8,21.12,9.14,36.56,9.14
156,0.775, 2017/11/15 11:06:38.484上午,18.65,4.52,499,47.51,8.75,37.54,12.94,21.12,8.52,36.71,8.9
157,0.78, 2017/11/15 11:06:38.489上午,18.51,4.64,505,47.53,8.72,37.26,12.5,21.2,9.23,36.44,9.13
158,0.785, 2017/11/15 11:06:38.494上午,18.37,4.65,520,47.71,8.61,37.35,12.57,21.3,9.01,36.15,9.15
159,0.79, 2017/11/15 11:06:38.499上午,18.41,4.72,516,47.68,8.5,37.46,12.7,21.2,9.39,36.25,9.29
160,0.795, 2017/11/15 11:06:38.504上午,18.56,4.7,498,47.66,8.76,38.12,12.85,21.21,9.13,36.54,9.25
161,0.8, 2017/11/15 11:06:38.509上午,18.39,4.55,498,47.55,8.49,37.84,12.2,21.17,9.02,36.19,8.95
162,0.805, 2017/11/15 11:06:38.514上午,18.46,4.49,484,47.58,8.58,37.21,12.55,21.11,8.68,36.34,8.83
163,0.81, 2017/11/15 11:06:38.519上午,18.4,4.5,502,47.78,8.54,37.16,12.55,21.05,8.45,36.22,8.87
164,0.815, 2017/11/15 11:06:38.524上午,18.38,4.65,506,47.68,8.51,37.15,12.43,21.18,9.35,36.17,9.15
165,0.82, 2017/11/15 11:06:38.529上午,18.59,4.61,489,47.71,8.56,37.63,12.29,21.18,9.27,36.59,9.07
166,0.825, 2017/11/15 11:06:38.534上午,18.75,4.72,520,47.68,8.77,37.95,12.72,21.12,9.19,36.91,9.3
167,0.83, 2017/11/15 11:06:38.539上午,18.36,4.44,485,47.47,8.61,-1,-1,21.18,8.89,36.13,8.73
168,0.835, 2017/11/15 11:06:38.544上午,18.59,4.49,498,47.5,8.68,36.89,12.97,21.06,8.7,36.6,8.85
169,0.84, 2017/11/15 11:06:38.549上午,18.45,4.67,497,47.76,8.53,37.18,12.64,21.17,9.33,36.32,9.2
170,0.845, 2017/11/15 11:06:38.554上午,18.44,4.71,509,47.71,8.6,37.59,12.65,21.23,9.46,36.3,9.27
171,0.85, 2017/11/15 11:06:38.559上午,18.29,4.59,515,47.72,8.53,37.15,12.43,21.31,9.06,36.01,9.04
172,0.855, 2017/11/15 11:06:38.564上午,18.26,4.78,517,47.61,8.73,37.63,12.77,21.26,9.27,35.95,9.4
173,0.86, 2017/11/15 11:06:38.569上午,18.32,4.73,503,47.66,8.52,37.53,12.79,21.21,9.42,36.06,9.31
174,0.865, 2017/11/15 11:06:38.574上午,18.67,4.59,490,47.61,8.63,38.11,13.3,20.99,8.9,36.76,9.03
175,0.87, 2017/11/15 11:06:38.579上午,18.26,4.56,508,47.58,8.61,37.37,12.52,21.02,8.55,35.94,8.97
176,0.875, 2017/11/15 11:06:38.584上午,18.32,4.68,502,47.74,8.61,37.17,12.55,21.21,9.22,36.07,9.2
177,0.88, 2017/11/15 11:06:38.589上午,18.22,4.68,502,47.63,8.58,37.2,12.43,21.24,9.39,35.86,9.2
178,0.885, 2017/11/15 11:06:38.594上午,18.6,4.66,499,47.7,8.47,37.74,12.82,21.15,9.27,36.62,9.18
179,0.89, 2017/11/15 11:06:38.599上午,18.4,4.66,495,47.59,8.78,38,12.79,21.09,9,36.22,9.17
180,0.895, 2017/11/15 11:06:38.604上午,18.18,4.5,478,47.71,8.58,37.27,12.5,21.12,8.72,35.79,8.87
181,0.9, 2017/11/15 11:06:38.609上午,18.14,4.46,494,47.74,8.58,37.63,12.24,21.05,8.54,35.7,8.78
182,0.905, 2017/11/15 11:06:38.614上午,18.33,4.7,513,47.69,8.59,37.75,12.78,21.23,9.31,36.08,9.24
183,0.91, 2017/11/15 11:06:38.619上午,18.63,4.64,496,47.6,8.62,38.06,13.05,21.19,9.18,36.68,9.14
184,0.915, 2017/11/15 11:06:38.624上午,18.18,4.5,492,47.54,8.51,38.1,12.55,21.21,8.84,35.8,8.85
185,0.92, 2017/11/15 11:06:38.629上午,18.05,4.43,479,47.53,8.55,37.72,12.35,21.06,8.62,35.54,8.72
186,0.925, 2017/11/15 11:06:38.634上午,18.07,4.5,499,47.52,8.66,38.1,11.73,21.05,8.57,35.57,8.85
187,0.93, 2017/11/15 11:06:38.639上午,18.25,4.61,501,47.62,8.57,37.63,12.29,21.2,9.23,35.93,9.07
188,0.935, 2017/11/15 11:06:38.644上午,18.09,4.8,506,47.68,8.65,37.5,12.87,21.22,9.37,35.6,9.45
189,0.94, 2017/11/15 11:06:38.649上午,18.58,4.57,507,47.58,8.61,38.12,12.85,21.08,8.72,36.57,9
190,0.945, 2017/11/15 11:06:38.654上午,18.31,4.63,512,47.74,8.56,37.64,12.92,21.16,8.82,36.04,9.12
191,0.95, 2017/11/15 11:06:38.659上午,18.33,4.43,470,47.71,8.54,37.77,12.3,21.06,8.6,36.07,8.71
192,0.955, 2017/11/15 11:06:38.664上午,18.19,4.53,504,47.72,8.61,37.35,12.57,21.01,8.42,35.8,8.92
193,0.96, 2017/11/15 11:06:38.669上午,17.79,4.56,479,47.55,8.51,37.21,12.55,21.18,9.06,35.01,8.98
194,0.965, 2017/11/15 11:06:38.674上午,18.2,4.62,516,47.69,8.52,37.16,12.55,21.35,9.07,35.83,9.09
195,0.97, 2017/11/15 11:06:38.679上午,18.26,4.71,500,47.71,8.52,37.75,12.78,21.26,9.43,35.95,9.27
196,0.975, 2017/11/15 11:06:38.684上午,18.07,4.43,466,47.54,8.5,-1,-1,21.14,8.97,35.57,8.71
197,0.98, 2017/11/15 11:06:38.689上午,18.1,4.43,480,47.65,8.57,37.55,12.34,21.03,8.48,35.63,8.72
198,0.985, 2017/11/15 11:06:38.694上午,17.87,4.55,504,47.39,8.68,37.27,12.5,21.22,8.83,35.18,8.95
199,0.99, 2017/11/15 11:06:38.699上午,18.25,4.66,506,47.68,8.53,37.16,12.55,21.22,9.24,35.93,9.18
200,0.995, 2017/11/15 11:06:38.704上午,17.99,4.68,511,47.52,8.57,37.75,12.78,21.28,9.2,35.41,9.2
201,1, 2017/11/15 11:06:38.709上午,18.32,4.75,497,47.61,8.81,37.87,12.77,21.26,9.31,36.06,9.34
202,1.005, 2017/11/15 11:06:38.714上午,18.33,4.48,477,47.68,8.51,37.21,12.54,21.13,8.73,36.08,8.82
203,1.01, 2017/11/15 11:06:38.719上午,18.34,4.52,502,47.62,8.57,37.35,12.55,21.04,8.43,36.1,8.9
204,1.015, 2017/11/15 11:06:38.724上午,17.95,4.62,525,47.68,8.51,37.58,12.8,21.14,8.93,35.33,9.09
205,1.02, 2017/11/15 11:06:38.729上午,18.23,4.68,505,47.48,8.8,37.96,12.7,21.18,8.91,35.88,9.22
206,1.025, 2017/11/15 11:06:38.734上午,18.45,4.52,494,47.46,8.64,38.06,13.05,21.15,8.54,36.31,8.9
207,1.03, 2017/11/15 11:06:38.739上午,18.31,4.43,464,47.64,8.53,37.21,12.54,21.14,8.43,36.05,8.72
208,1.035, 2017/11/15 11:06:38.744上午,18.23,4.6,489,47.8,8.52,37.63,12.29,21.24,9.26,35.88,9.06
209,1.04, 2017/11/15 11:06:38.749上午,18.24,4.8,518,47.58,8.8,37.63,12.76,21.24,9.33,35.9,9.45
210,1.045, 2017/11/15 11:06:38.754上午,18.11,4.54,487,47.54,8.57,38.1,12.4,21.23,8.96,35.65,8.93
211,1.05, 2017/11/15 11:06:38.759上午,18.55,4.55,490,47.46,8.7,37.95,13.27,21.09,8.58,36.52,8.96
212,1.055, 2017/11/15 11:06:38.764上午,18.23,4.64,503,47.73,8.51,37.14,12.35,21.27,9.25,35.88,9.13
213,1.06, 2017/11/15 11:06:38.769上午,18.41,4.61,490,47.69,8.49,37.15,12.43,21.19,9.17,36.23,9.08
214,1.065, 2017/11/15 11:06:38.774上午,18.35,4.68,479,47.68,8.66,38.14,12.95,20.95,9.11,36.12,9.21
215,1.07, 2017/11/15 11:06:38.779上午,18.14,4.52,489,47.2,8.68,37.27,12.5,21.16,8.71,35.7,8.91
216,1.075, 2017/11/15 11:06:38.784上午,18.51,4.56,484,47.69,8.48,37.24,12.2,21.06,8.99,36.43,8.97
217,1.08, 2017/11/15 11:06:38.789上午,18.17,4.61,496,47.67,8.52,37.63,12.28,21.28,9.28,35.77,9.07
218,1.085, 2017/11/15 11:06:38.794上午,18.15,4.61,479,47.69,8.67,37.63,12.29,21.14,9.11,35.73,9.08
219,1.09, 2017/11/15 11:06:38.799上午,18.39,4.7,481,47.66,8.67,37.43,12.85,21.05,9,36.2,9.25
220,1.095, 2017/11/15 11:06:38.804上午,18.34,4.46,475,47.54,8.51,38.23,12.5,21.06,8.72,36.1,8.78
221,1.1, 2017/11/15 11:06:38.809上午,18.27,4.54,518,47.44,8.64,37.88,12.03,21.04,8.39,35.97,8.93
222,1.105, 2017/11/15 11:06:38.814上午,18.2,4.71,513,47.72,8.48,37.53,12.8,21.2,9.4,35.82,9.27
223,1.11, 2017/11/15 11:06:38.819上午,18.35,4.72,521,47.54,8.59,37.63,12.76,21.2,9.25,36.12,9.29
224,1.115, 2017/11/15 11:06:38.824上午,18.05,4.43,469,47.54,8.51,-1,-1,21.15,8.98,35.53,8.72
225,1.12, 2017/11/15 11:06:38.829上午,18.15,4.51,503,47.51,8.62,37.33,12.33,21.06,8.48,35.74,8.88
226,1.125, 2017/11/15 11:06:38.834上午,18.3,4.72,518,47.73,8.6,37.35,12.55,21.18,9.39,36.03,9.29
227,1.13, 2017/11/15 11:06:38.839上午,18.38,4.66,484,47.66,8.56,37.61,12.6,21.18,9.36,36.18,9.18
228,1.135, 2017/11/15 11:06:38.844上午,18.22,4.7,472,47.6,8.68,37.77,13.03,21.04,9.12,35.86,9.25
229,1.14, 2017/11/15 11:06:38.849上午,18.34,4.5,467,47.7,8.55,37.72,12.35,20.97,8.96,36.1,8.86
230,1.145, 2017/11/15 11:06:38.854上午,18.34,4.48,476,47.51,8.56,37.63,12.16,21.09,8.67,36.09,8.83
231,1.15, 2017/11/15 11:06:38.859上午,18.09,4.55,490,47.33,8.68,37.2,12.55,21.11,8.89,35.61,8.97
232,1.155, 2017/11/15 11:06:38.864上午,18.27,4.59,502,47.83,8.56,37.5,12.46,21.29,9,35.97,9.04
233,1.16, 2017/11/15 11:06:38.869上午,18.24,4.64,491,47.69,8.53,37.63,12.29,21.26,9.4,35.9,9.13
234,1.165, 2017/11/15 11:06:38.874上午,18.37,4.66,490,47.73,8.51,37.77,13.03,21.11,9.17,36.15,9.17
235,1.17, 2017/11/15 11:06:38.879上午,18.52,4.61,501,47.69,8.63,37.45,13.07,21.03,8.73,36.46,9.07
236,1.175, 2017/11/15 11:06:38.884上午,18.33,4.56,495,47.46,8.75,37.27,12.5,21.08,8.77,36.09,8.97
237,1.18, 2017/11/15 11:06:38.889上午,18.31,4.48,477,47.66,8.51,37.65,12.5,21.16,8.76,36.04,8.83
238,1.185, 2017/11/15 11:06:38.894上午,18.24,4.7,504,47.72,8.51,37.77,13.02,21.2,9.38,35.91,9.24
239,1.19, 2017/11/15 11:06:38.899上午,18.15,4.64,470,47.6,8.69,37.83,12.31,21.11,9.13,35.72,9.14
240,1.195, 2017/11/15 11:06:38.904上午,18.35,4.61,484,47.51,8.78,38.31,12.89,21.05,8.7,36.13,9.07
241,1.2, 2017/11/15 11:06:38.909上午,17.85,4.44,494,47.4,8.46,37.66,12.14,21.03,8.58,35.15,8.74
242,1.205, 2017/11/15 11:06:38.914上午,18.34,4.64,503,47.68,8.53,37.29,12.19,21.23,9.36,36.1,9.13
243,1.21, 2017/11/15 11:06:38.919上午,18.22,4.72,493,47.57,8.56,37.85,12.76,21.24,9.47,35.86,9.29
244,1.215, 2017/11/15 11:06:38.924上午,18.32,4.58,466,47.53,8.8,37.68,12.02,21.07,8.99,36.06,9.02
245,1.22, 2017/11/15 11:06:38.929上午,18.22,4.51,478,47.61,8.62,37.21,12.54,21.12,8.71,35.86,8.88
246,1.225, 2017/11/15 11:06:38.934上午,18.36,4.61,492,47.7,8.54,37.61,12.57,21.21,9.19,36.15,9.08
247,1.23, 2017/11/15 11:06:38.939上午,18.32,4.77,509,47.7,8.52,36.9,13.08,21.26,9.47,36.07,9.39
248,1.235, 2017/11/15 11:06:38.944上午,18.35,4.64,493,47.7,8.51,37.86,12.76,21.12,9.18,36.12,9.14
249,1.24, 2017/11/15 11:06:38.949上午,18.27,4.59,501,47.6,8.49,38.09,12.75,21.16,8.92,35.96,9.04
250,1.245, 2017/11/15 11:06:38.954上午,18.35,4.5,473,47.52,8.6,37.21,12.54,21.07,8.67,36.12,8.85
251,1.25, 2017/11/15 11:06:38.959上午,18.44,4.71,501,47.68,8.49,37.17,12.57,21.07,9.53,36.3,9.27
252,1.255, 2017/11/15 11:06:38.964上午,18.08,4.61,508,47.62,8.57,37.63,12.29,21.28,9.21,35.58,9.07
253,1.26, 2017/11/15 11:06:38.969上午,18.41,4.8,507,47.61,8.77,37.64,12.93,21.27,9.39,36.24,9.44
254,1.265, 2017/11/15 11:06:38.974上午,18.27,4.64,506,47.5,8.69,38.11,13,21.22,8.98,35.97,9.13
255,1.27, 2017/11/15 11:06:38.979上午,18.19,4.49,496,47.48,8.73,37.55,12.34,21.06,8.56,35.82,8.83
256,1.275, 2017/11/15 11:06:38.984上午,17.92,4.56,531,47.75,8.54,37.35,12.55,21.17,8.72,35.27,8.98
257,1.28, 2017/11/15 11:06:38.989上午,18.26,4.71,503,47.72,8.54,37.75,12.78,21.26,9.39,35.94,9.27
258,1.285, 2017/11/15 11:06:38.994上午,18.2,4.58,494,47.54,8.56,37.84,12.83,21.14,8.93,35.83,9.01
259,1.29, 2017/11/15 11:06:38.999上午,18.45,4.54,472,47.53,8.61,37.5,12.38,21.11,8.96,36.33,8.93
260,1.295, 2017/11/15 11:06:39.004上午,18.16,4.68,513,47.74,8.54,37.16,12.55,21.25,9.31,35.75,9.21
261,1.3, 2017/11/15 11:06:39.009上午,18.48,4.65,491,47.75,8.53,37.87,12.71,21.13,9.24,36.38,9.16
262,1.305, 2017/11/15 11:06:39.014上午,18.71,4.54,500,47.58,8.63,38.23,12.67,21.25,8.59,36.83,8.94
263,1.31, 2017/11/15 11:06:39.019上午,17.93,4.56,512,47.55,8.61,37.61,12.65,21.24,8.84,35.3,8.97
264,1.315, 2017/11/15 11:06:39.024上午,18.21,4.61,513,47.66,8.53,37.7,12.79,21.3,9.07,35.84,9.07
265,1.32, 2017/11/15 11:06:39.029上午,18.32,4.7,499,47.65,8.8,38.14,12.86,21.17,9.09,36.07,9.25
266,1.325, 2017/11/15 11:06:39.034上午,17.9,4.54,491,47.37,8.49,37.66,12.13,21.31,8.98,35.24,8.93
267,1.33, 2017/11/15 11:06:39.039上午,18.08,4.56,489,47.64,8.55,37.21,12.55,21.32,9.05,35.6,8.98
268,1.335, 2017/11/15 11:06:39.044上午,18.2,4.67,514,47.66,8.55,37.16,12.55,21.23,9.26,35.83,9.19
269,1.34, 2017/11/15 11:06:39.049上午,18.06,4.75,499,47.6,8.68,37.97,12.73,21.24,9.34,35.54,9.35
270,1.345, 2017/11/15 11:06:39.054上午,18.45,4.61,511,47.43,8.68,37.8,12.59,21.14,8.96,36.32,9.07
271,1.35, 2017/11/15 11:06:39.059上午,18.31,4.52,506,47.65,8.64,38.06,13.05,21.07,8.56,36.03,8.9
272,1.355, 2017/11/15 11:06:39.064上午,18.24,4.57,504,47.63,8.63,37.34,12.55,21.08,8.59,35.9,8.99
273,1.36, 2017/11/15 11:06:39.069上午,18.07,4.7,489,47.68,8.68,37.84,12.31,21.22,9.44,35.57,9.26
274,1.365, 2017/11/15 11:06:39.074上午,18.12,4.69,491,47.69,8.67,37.75,12.82,21.08,9.1,35.66,9.24
275,1.37, 2017/11/15 11:06:39.079上午,18.62,4.57,506,47.51,8.62,38.34,12.58,21.07,8.7,36.65,9
276,1.375, 2017/11/15 11:06:39.084上午,18.19,4.54,499,47.57,8.51,37.66,12.13,21.21,9.01,35.8,8.94
277,1.38, 2017/11/15 11:06:39.089上午,18.18,4.47,502,47.76,8.57,37.5,12.15,21.06,8.55,35.79,8.79
278,1.385, 2017/11/15 11:06:39.094上午,18.35,4.69,513,47.75,8.46,37.75,12.82,21.26,9.41,36.12,9.23
279,1.39, 2017/11/15 11:06:39.099上午,18,4.66,493,47.6,8.67,37.75,12.82,21.14,8.95,35.43,9.18
280,1.395, 2017/11/15 11:06:39.104上午,18.57,4.67,485,47.55,8.79,38.09,12.66,20.96,8.92,36.56,9.2
281,1.4, 2017/11/15 11:06:39.109上午,18.2,4.47,472,47.39,8.57,37.26,12.5,21.1,8.55,35.82,8.79
282,1.405, 2017/11/15 11:06:39.114上午,18.35,4.76,504,47.71,8.63,37.34,12.55,21.1,9.55,36.13,9.37
283,1.41, 2017/11/15 11:06:39.119上午,18.23,4.61,505,47.63,8.56,37.24,12.24,21.29,9.13,35.88,9.08
284,1.415, 2017/11/15 11:06:39.124上午,18.44,4.76,515,47.62,8.66,37.63,12.76,21.27,9.34,36.3,9.37
285,1.42, 2017/11/15 11:06:39.129上午,18.35,4.57,508,47.38,8.68,37.26,12.5,21.14,8.96,36.12,9
286,1.425, 2017/11/15 11:06:39.134上午,18.4,4.57,510,47.48,8.63,37.9,11.85,21.09,8.68,36.21,9
287,1.43, 2017/11/15 11:06:39.139上午,18.27,4.64,501,47.63,8.55,36.98,12.19,21.15,9.34,35.97,9.13
288,1.435, 2017/11/15 11:06:39.144上午,18.4,4.66,499,47.73,8.53,37.61,12.57,21.22,9.44,36.23,9.17
289,1.44, 2017/11/15 11:06:39.149上午,18.43,4.69,497,47.75,8.52,37.75,12.78,21.25,9.37,36.28,9.24
290,1.445, 2017/11/15 11:06:39.154上午,18.61,4.64,503,47.59,8.62,37.95,13.28,21.09,9.17,36.63,9.14
291,1.45, 2017/11/15 11:06:39.159上午,18.73,4.58,492,47.55,8.7,38.01,12.8,21.2,8.71,36.86,9.01
292,1.455, 2017/11/15 11:06:39.164上午,18.18,4.59,504,47.52,8.72,37.26,12.5,21.2,8.98,35.79,9.03
293,1.46, 2017/11/15 11:06:39.169上午,18.27,4.52,520,47.77,8.6,37.16,12.55,21.08,8.53,35.96,8.91
294,1.465, 2017/11/15 11:06:39.174上午,18.37,4.68,514,47.61,8.54,37.17,12.57,21.17,9.34,36.15,9.22
295,1.47, 2017/11/15 11:06:39.179上午,18.39,4.68,500,47.75,8.56,37.5,12.46,21.22,9.46,36.2,9.22
296,1.475, 2017/11/15 11:06:39.184上午,18.3,4.69,501,47.6,8.5,37.37,12.81,21.25,9.33,36.02,9.24
297,1.48, 2017/11/15 11:06:39.189上午,18.59,4.56,493,47.5,8.63,37.72,12.35,21.14,9.18,36.59,8.98
298,1.485, 2017/11/15 11:06:39.194上午,18.18,4.51,488,47.68,8.58,37.55,12.34,21.2,8.86,35.79,8.88
299,1.49, 2017/11/15 11:06:39.199上午,18.29,4.46,499,47.48,8.75,37.84,12.5,21.06,8.55,36,8.78
300,1.495, 2017/11/15 11:06:39.204上午,17.81,4.48,509,47.67,8.55,37.26,12.5,21.14,8.7,35.05,8.83
301,1.5, 2017/11/15 11:06:39.209上午,18.32,4.68,521,47.71,8.48,37.3,12.55,21.16,9.37,36.06,9.22
302,1.505, 2017/11/15 11:06:39.214上午,18.48,4.64,492,47.69,8.54,37.61,12.6,21.06,9.31,36.37,9.13
303,1.51, 2017/11/15 11:06:39.219上午,18.81,4.73,502,47.6,8.88,38.35,12.56,20.96,8.99,37.02,9.31
304,1.515, 2017/11/15 11:06:39.224上午,18.42,4.52,493,47.61,8.55,37.91,12.38,21.08,8.81,36.25,8.9
305,1.52, 2017/11/15 11:06:39.229上午,18.38,4.54,521,47.45,8.64,37.87,12.06,21.05,8.41,36.18,8.94
306,1.525, 2017/11/15 11:06:39.234上午,18.41,4.6,497,47.65,8.48,37.61,12.6,21.22,9.19,36.23,9.05
307,1.53, 2017/11/15 11:06:39.239上午,18.39,4.63,499,47.69,8.52,37.61,12.57,21.22,9.33,36.19,9.12
308,1.535, 2017/11/15 11:06:39.244上午,18.47,4.65,497,47.67,8.56,37.7,12.79,21.14,9.25,36.35,9.16
309,1.54, 2017/11/15 11:06:39.249上午,18.78,4.68,509,47.57,8.75,38.08,12.66,21.04,9.05,36.97,9.21
310,1.545, 2017/11/15 11:06:39.254上午,18.3,4.51,491,47.53,8.52,38.11,12.39,21.15,8.92,36.03,8.88
311,1.55, 2017/11/15 11:06:39.259上午,18.07,4.47,489,47.66,8.62,37.21,12.54,21,8.56,35.57,8.8
312,1.555, 2017/11/15 11:06:39.264上午,18.15,4.56,512,47.57,8.62,37.35,12.57,21.07,8.55,35.73,8.97
313,1.56, 2017/11/15 11:06:39.269上午,18.36,4.58,503,47.71,8.48,37.63,12.28,21.2,9.23,36.14,9.01
314,1.565, 2017/11/15 11:06:39.274上午,18.46,4.64,492,47.71,8.52,37.8,12.59,21.19,9.28,36.35,9.14
315,1.57, 2017/11/15 11:06:39.279上午,18.54,4.59,519,47.52,8.63,38.08,12.66,21.08,8.78,36.49,9.04
316,1.575, 2017/11/15 11:06:39.284上午,18.32,4.38,467,47.56,8.53,-1,-1,21.09,8.75,36.06,8.62
317,1.58, 2017/11/15 11:06:39.289上午,18.32,4.52,498,47.61,8.55,37.35,12.57,21.05,8.42,36.06,8.9
318,1.585, 2017/11/15 11:06:39.294上午,18.36,4.68,496,47.7,8.52,37.7,12.78,21.16,9.41,36.14,9.21
319,1.59, 2017/11/15 11:06:39.299上午,18.52,4.8,508,47.6,8.79,37.63,12.76,21.24,9.36,36.45,9.45
320,1.595, 2017/11/15 11:06:39.304上午,18.51,4.67,506,47.61,8.8,37.63,12.76,21.03,8.64,36.43,9.19
321,1.6, 2017/11/15 11:06:39.309上午,18.15,4.43,495,47.62,8.58,37.56,12.5,21.06,8.54,35.73,8.72
322,1.605, 2017/11/15 11:06:39.314上午,18.26,4.73,524,47.61,8.71,37.9,11.85,21.18,9.38,35.94,9.31
323,1.61, 2017/11/15 11:06:39.319上午,18.36,4.62,502,47.69,8.54,37.63,12.29,21.14,9.35,36.13,9.09
324,1.615, 2017/11/15 11:06:39.324上午,18.48,4.71,508,47.73,8.53,37.64,12.92,21.09,9.23,36.38,9.27
325,1.62, 2017/11/15 11:06:39.329上午,18.31,4.51,491,47.71,8.51,38.21,12.56,21.17,8.94,36.04,8.87
326,1.625, 2017/11/15 11:06:39.334上午,18.14,4.55,516,47.56,8.61,37.35,12.57,21.05,8.51,35.71,8.95
327,1.63, 2017/11/15 11:06:39.339上午,18.3,4.65,522,47.74,8.55,37.37,12.65,21.26,9.11,36.02,9.15
328,1.635, 2017/11/15 11:06:39.344上午,18.49,4.61,486,47.76,8.5,37.38,12.38,21.11,9.27,36.4,9.07
329,1.64, 2017/11/15 11:06:39.349上午,18.19,4.74,500,47.59,8.67,37.63,12.76,21.1,9.16,35.82,9.33
330,1.645, 2017/11/15 11:06:39.354上午,18.51,4.57,514,47.46,8.73,37.27,12.5,21.19,8.89,36.44,8.99
331,1.65, 2017/11/15 11:06:39.359上午,18.15,4.5,500,47.52,8.67,38.1,11.73,21.06,8.55,35.73,8.85
332,1.655, 2017/11/15 11:06:39.364上午,18.07,4.58,517,47.69,8.63,37.6,12.88,21.21,8.81,35.57,9.02
333,1.66, 2017/11/15 11:06:39.369上午,18.36,4.69,510,47.66,8.54,37.74,12.82,21.2,9.31,36.14,9.24
334,1.665, 2017/11/15 11:06:39.374上午,18.55,4.74,516,47.66,8.65,37.95,12.72,21.24,9.4,36.52,9.33
335,1.67, 2017/11/15 11:06:39.379上午,18.39,4.61,513,47.63,8.66,37.87,12.86,21.21,8.85,36.19,9.07
336,1.675, 2017/11/15 11:06:39.384上午,18.72,4.45,474,47.64,8.52,38.1,12.4,21.17,8.62,36.86,8.77
337,1.68, 2017/11/15 11:06:39.389上午,18.27,4.46,494,47.55,8.75,37.21,12.55,20.98,8.36,35.96,8.79
338,1.685, 2017/11/15 11:06:39.394上午,18.66,4.56,490,47.66,8.51,37.61,12.6,21.09,8.95,36.74,8.97
339,1.69, 2017/11/15 11:06:39.399上午,18.34,4.8,510,47.68,8.75,37.64,12.92,21.25,9.41,36.1,9.45
340,1.695, 2017/11/15 11:06:39.404上午,18.43,4.63,517,47.64,8.65,38.26,12.83,21.17,8.9,36.29,9.11
341,1.7, 2017/11/15 11:06:39.409上午,17.9,4.44,481,47.5,8.48,37.26,12.5,21.05,8.54,35.24,8.73
342,1.705, 2017/11/15 11:06:39.414上午,18.33,4.6,505,47.71,8.45,37.63,12.29,21.2,9.38,36.09,9.06
343,1.71, 2017/11/15 11:06:39.419上午,18.36,4.73,493,47.62,8.74,37.95,12.72,21.19,9.15,36.14,9.31
344,1.715, 2017/11/15 11:06:39.424上午,18.47,4.69,512,47.52,8.81,37.63,12.76,21.11,8.76,36.36,9.23
345,1.72, 2017/11/15 11:06:39.429上午,18.52,4.57,500,47.52,8.62,37.9,13.1,21.12,8.75,36.46,9
346,1.725, 2017/11/15 11:06:39.434上午,18.27,4.5,501,47.56,8.61,37.63,12.82,21.02,8.44,35.96,8.86
347,1.73, 2017/11/15 11:06:39.439上午,18.11,4.54,503,47.79,8.54,37.63,12.29,21.08,8.93,35.66,8.93
348,1.735, 2017/11/15 11:06:39.444上午,18.55,4.67,514,47.63,8.64,37.75,12.82,21.22,9.08,36.52,9.18
349,1.74, 2017/11/15 11:06:39.449上午,18.5,4.62,526,47.59,8.62,37.64,12.92,21.11,8.72,36.41,9.09
350,1.745, 2017/11/15 11:06:39.454上午,18.25,4.5,486,47.57,8.57,37.26,12.5,21.11,8.72,35.92,8.85
351,1.75, 2017/11/15 11:06:39.459上午,18.5,4.64,514,47.66,8.54,37.06,13.04,21.17,8.75,36.41,9.14
352,1.755, 2017/11/15 11:06:39.464上午,18.18,4.72,508,47.68,8.56,37.35,12.55,21.2,9.4,35.79,9.29
353,1.76, 2017/11/15 11:06:39.469上午,18.33,4.62,500,47.72,8.54,37.63,12.29,21.15,9.36,36.08,9.1
354,1.765, 2017/11/15 11:06:39.474上午,18.36,4.66,509,47.59,8.63,38.06,13.05,21.21,9.26,36.15,9.18
355,1.77, 2017/11/15 11:06:39.479上午,18.44,4.55,494,47.55,8.56,38.51,12.55,21.11,8.61,36.29,8.95
356,1.775, 2017/11/15 11:06:39.484上午,18.06,4.49,506,47.64,8.55,37.21,12.54,21.18,8.77,35.54,8.85
357,1.78, 2017/11/15 11:06:39.489上午,18.17,4.46,492,47.53,8.58,37.21,12.54,21.08,8.57,35.77,8.78
358,1.785, 2017/11/15 11:06:39.494上午,18.36,4.51,505,47.69,8.5,37.13,12.34,21.11,8.66,36.13,8.88
359,1.79, 2017/11/15 11:06:39.499上午,18.2,4.7,510,47.64,8.53,38.07,12.66,21.22,9.4,35.82,9.26
360,1.795, 2017/11/15 11:06:39.504上午,18.5,4.63,526,47.59,8.62,37.63,12.76,21.05,8.72,36.42,9.1
361,1.8, 2017/11/15 11:06:39.509上午,18.41,4.55,500,47.62,8.52,37.91,13.1,21.1,8.79,36.24,8.97
362,1.805, 2017/11/15 11:06:39.514上午,18.14,4.47,487,47.67,8.57,37.26,12.5,21.03,8.59,35.7,8.8
363,1.81, 2017/11/15 11:06:39.519上午,18.37,4.5,490,47.57,8.6,37.04,12.21,21.13,8.54,36.16,8.86
364,1.815, 2017/11/15 11:06:39.524上午,18.12,4.46,485,47.65,8.54,37.26,12.5,21.08,8.57,35.67,8.78
365,1.82, 2017/11/15 11:06:39.529上午,17.99,4.57,510,47.25,8.73,37.26,12.5,21.25,8.86,35.41,8.99
366,1.825, 2017/11/15 11:06:39.534上午,18.23,4.5,502,47.66,8.5,37.6,12.89,21.09,8.55,35.89,8.86
367,1.83, 2017/11/15 11:06:39.539上午,18.28,4.56,499,47.69,8.54,37.84,12.31,21.29,8.99,35.98,8.98
368,1.835, 2017/11/15 11:06:39.544上午,18.31,4.69,508,47.66,8.54,37.75,12.78,21.17,9.35,36.05,9.24
369,1.84, 2017/11/15 11:06:39.549上午,18.45,4.69,519,47.65,8.63,37.94,12.74,21.21,9.14,36.32,9.23
370,1.845, 2017/11/15 11:06:39.554上午,18.35,4.62,497,47.63,8.53,37.75,12.82,20.98,8.93,36.13,9.09
371,1.85, 2017/11/15 11:06:39.559上午,18.28,4.82,520,47.6,8.8,37.63,12.76,21.25,9.42,35.98,9.48
372,1.855, 2017/11/15 11:06:39.564上午,18.34,4.56,498,47.53,8.5,38.15,13.19,21.16,8.94,36.09,8.97
373,1.86, 2017/11/15 11:06:39.569上午,18.58,4.69,523,47.53,8.85,37.63,12.76,21.05,8.71,36.57,9.23
374,1.865, 2017/11/15 11:06:39.574上午,18.51,4.59,501,47.56,8.66,38.01,12.79,21.06,8.81,36.44,9.03
375,1.87, 2017/11/15 11:06:39.579上午,18.17,4.5,482,47.67,8.56,37.26,12.5,21.08,8.73,35.77,8.86
376,1.875, 2017/11/15 11:06:39.584上午,18.37,4.52,516,47.6,8.61,37.35,12.57,21.01,8.39,36.16,8.9
377,1.88, 2017/11/15 11:06:39.589上午,18.22,4.62,504,47.6,8.55,36.98,12.39,21.18,9.24,35.87,9.1
378,1.885, 2017/11/15 11:06:39.594上午,17.88,4.57,526,47.57,8.66,37.04,12.2,21.17,8.85,35.21,9
379,1.89, 2017/11/15 11:06:39.599上午,18.27,4.59,494,47.8,8.52,37.63,12.28,21.22,9.2,35.97,9.03
380,1.895, 2017/11/15 11:06:39.604上午,18.24,4.66,512,47.74,8.52,37.27,12.67,21.22,9.26,35.91,9.17
381,1.9, 2017/11/15 11:06:39.609上午,18.2,4.66,524,47.64,8.51,37.75,12.82,21.29,9.2,35.82,9.17
382,1.905, 2017/11/15 11:06:39.614上午,18.45,4.71,517,47.68,8.65,38.22,12.67,21.25,9.4,36.32,9.27
383,1.91, 2017/11/15 11:06:39.619上午,18.39,4.67,507,47.5,8.76,38.31,12.9,21.17,9.1,36.19,9.2
384,1.915, 2017/11/15 11:06:39.624上午,18.22,4.58,504,47.53,8.51,37.53,12.5,21.16,8.94,35.88,9.02
385,1.92, 2017/11/15 11:06:39.629上午,18.43,4.43,477,47.71,8.56,37.77,12.29,21.11,8.6,36.28,8.73
386,1.925, 2017/11/15 11:06:39.634上午,18.37,4.46,510,47.45,8.74,37.77,12.29,21.06,8.54,36.16,8.78
387,1.93, 2017/11/15 11:06:39.639上午,17.95,4.5,499,47.65,8.54,37.21,12.54,21.19,8.79,35.34,8.86
388,1.935, 2017/11/15 11:06:39.644上午,18.16,4.56,525,47.64,8.65,37.35,12.57,21,8.58,35.74,8.99
389,1.94, 2017/11/15 11:06:39.649上午,18.26,4.6,518,47.71,8.47,37.86,12.76,21.27,9.02,35.95,9.05
390,1.945, 2017/11/15 11:06:39.654上午,18.07,4.68,490,47.61,8.68,37.63,12.28,21.21,9.41,35.57,9.21
391,1.95, 2017/11/15 11:06:39.659上午,18.29,4.7,503,47.55,8.51,37.86,12.76,21.26,9.43,36.01,9.24
392,1.955, 2017/11/15 11:06:39.664上午,18.25,4.7,502,47.47,8.74,38.07,13.05,21.29,9.28,35.93,9.25
393,1.96, 2017/11/15 11:06:39.669上午,18.44,4.6,510,47.62,8.63,37.87,12.71,21.19,8.88,36.31,9.05
394,1.965, 2017/11/15 11:06:39.674上午,18.36,4.62,515,47.57,8.62,38.07,13.05,21.24,9.08,36.13,9.09
395,1.97, 2017/11/15 11:06:39.679上午,17.96,4.5,503,47.54,8.55,37.66,12.12,21.21,8.74,35.35,8.85
396,1.975, 2017/11/15 11:06:39.684上午,18.46,4.55,506,47.76,8.51,37.17,12.57,21.19,8.74,36.35,8.96
397,1.98, 2017/11/15 11:06:39.689上午,18.2,4.62,504,47.76,8.46,37.63,12.27,21.21,9.42,35.83,9.09
398,1.985, 2017/11/15 11:06:39.694上午,18.43,4.63,502,47.68,8.5,37.36,12.43,21.14,9.2,36.28,9.1
399,1.99, 2017/11/15 11:06:39.699上午,18.3,4.67,501,47.63,8.53,37.53,12.77,21.09,9.14,36.03,9.2
400,1.995, 2017/11/15 11:06:39.704上午,18.33,4.59,512,47.63,8.65,38.07,13.05,21.17,8.9,36.08,9.03
401,2, 2017/11/15 11:06:39.709上午,18.65,4.52,507,47.38,8.74,38.29,11.51,21.05,8.57,36.71,8.89
402,2.005, 2017/11/15 11:06:39.714上午,18.26,4.55,513,47.81,8.62,37.34,12.55,21.08,8.54,35.94,8.96
403,2.01, 2017/11/15 11:06:39.719上午,18.15,4.6,520,47.68,8.49,37.7,12.79,21.29,9.09,35.73,9.06
404,2.015, 2017/11/15 11:06:39.724上午,18.29,4.8,517,47.56,8.78,37.63,12.76,21.27,9.38,36.01,9.46
405,2.02, 2017/11/15 11:06:39.729上午,18.49,4.57,498,47.54,8.67,38.01,12.8,21.07,8.7,36.39,8.99
406,2.025, 2017/11/15 11:06:39.734上午,18.32,4.6,516,47.53,8.66,37.42,13.03,21.09,8.59,36.05,9.05
407,2.03, 2017/11/15 11:06:39.739上午,18.58,4.43,481,47.67,8.5,38.19,12.55,21.09,8.57,36.57,8.71
408,2.035, 2017/11/15 11:06:39.744上午,18.23,4.52,495,47.6,8.62,37.62,12.85,21.08,8.47,35.89,8.9
409,2.04, 2017/11/15 11:06:39.749上午,18.56,4.53,483,47.8,8.53,37.63,12.28,21.09,8.94,36.53,8.92
410,2.045, 2017/11/15 11:06:39.754上午,18.17,4.58,509,47.64,8.54,37.63,12.28,21.27,9.15,35.77,9.02
411,2.05, 2017/11/15 11:06:39.759上午,18.36,4.64,515,47.7,8.51,37.7,12.79,21.25,9.27,36.13,9.14
412,2.055, 2017/11/15 11:06:39.764上午,18.28,4.74,519,47.71,8.53,37.63,12.76,21.21,9.4,35.98,9.34
413,2.06, 2017/11/15 11:06:39.769上午,18.32,4.65,500,47.56,8.54,37.75,12.78,21.07,9.11,36.07,9.15
414,2.065, 2017/11/15 11:06:39.774上午,18.23,4.76,496,47.66,8.68,37.59,12.75,21.1,9.2,35.89,9.37
415,2.07, 2017/11/15 11:06:39.779上午,18.36,4.6,514,47.5,8.64,37.99,12.79,21.17,8.91,36.15,9.06
416,2.075, 2017/11/15 11:06:39.784上午,18.15,4.51,486,47.65,8.5,37.26,12.5,21.19,8.84,35.73,8.87
417,2.08, 2017/11/15 11:06:39.789上午,18.23,4.64,524,47.67,8.55,36.96,13.25,20.93,8.61,35.88,9.13
418,2.085, 2017/11/15 11:06:39.794上午,18.17,4.75,529,47.65,8.55,37.06,13.05,21.26,9.27,35.76,9.34
419,2.09, 2017/11/15 11:06:39.799上午,18.2,4.6,514,47.81,8.55,37.6,12.43,21.32,9.07,35.82,9.05
420,2.095, 2017/11/15 11:06:39.804上午,18.1,4.59,509,47.64,8.56,37.84,12.31,21.29,9.11,35.64,9.04
421,2.1, 2017/11/15 11:06:39.809上午,18.41,4.79,507,47.51,8.8,37.95,12.62,21.09,9.26,36.25,9.44
422,2.105, 2017/11/15 11:06:39.814上午,18.42,4.48,494,47.59,8.5,37.91,12.38,21.1,8.71,36.26,8.83
423,2.11, 2017/11/15 11:06:39.819上午,18.24,4.41,484,47.7,8.51,37.26,12.5,21.01,8.39,35.9,8.68
424,2.115, 2017/11/15 11:06:39.824上午,18.16,4.54,508,47.5,8.6,37.34,12.55,21.07,8.51,35.75,8.94
425,2.12, 2017/11/15 11:06:39.829上午,18.61,4.57,488,47.78,8.54,37.5,12.49,21.09,8.92,36.63,9
426,2.125, 2017/11/15 11:06:39.834上午,18.19,4.64,502,47.71,8.53,37.61,12.6,21.21,9.3,35.8,9.14
427,2.13, 2017/11/15 11:06:39.839上午,18.52,4.59,487,47.74,8.48,37.63,12.28,21.1,9.28,36.45,9.03
428,2.135, 2017/11/15 11:06:39.844上午,18.16,4.67,503,47.66,8.56,37.68,12.67,21.32,9.23,35.74,9.18
429,2.14, 2017/11/15 11:06:39.849上午,18.27,4.81,501,47.53,8.81,37.6,12.91,21.23,9.35,35.96,9.47
430,2.145, 2017/11/15 11:06:39.854上午,18.5,4.65,504,47.61,8.65,38.01,12.8,21.14,9.16,36.42,9.15
431,2.15, 2017/11/15 11:06:39.859上午,18.17,4.7,505,47.65,8.66,37.3,12.96,21.17,8.91,35.77,9.25
432,2.155, 2017/11/15 11:06:39.864上午,18.36,4.56,507,47.48,8.6,38.07,13.06,21.09,8.82,36.15,8.98
433,2.16, 2017/11/15 11:06:39.869上午,18.21,4.58,489,47.28,8.69,37.55,12.34,21.35,9.05,35.85,9.02
434,2.165, 2017/11/15 11:06:39.874上午,18.24,4.39,475,47.56,8.51,37.72,12.35,21.04,8.47,35.9,8.63
435,2.17, 2017/11/15 11:06:39.879上午,18.05,4.44,489,47.62,8.5,37.26,12.5,21.1,8.54,35.52,8.74
436,2.175, 2017/11/15 11:06:39.884上午,18.31,4.58,498,47.59,8.64,37.35,12.57,21.12,8.58,36.03,9.01
437,2.18, 2017/11/15 11:06:39.889上午,18.46,4.56,477,47.64,8.52,37.38,12.38,21.06,8.98,36.35,8.97
438,2.185, 2017/11/15 11:06:39.894上午,18.07,4.56,498,47.65,8.51,37.63,12.28,21.26,9.04,35.56,8.97
439,2.19, 2017/11/15 11:06:39.899上午,18.21,4.78,503,47.62,8.52,37.07,13.63,21.26,9.41,35.85,9.41
440,2.195, 2017/11/15 11:06:39.904上午,18.07,4.66,504,47.64,8.46,37.27,12.49,21.2,9.35,35.56,9.18
441,2.2, 2017/11/15 11:06:39.909上午,18.2,4.6,521,47.65,8.47,37.86,12.76,21.07,9.06,35.83,9.06
442,2.205, 2017/11/15 11:06:39.914上午,18.08,4.74,505,47.63,8.65,37.63,12.76,21.13,9.16,35.6,9.32
443,2.21, 2017/11/15 11:06:39.919上午,18.53,4.62,501,47.64,8.64,37.86,12.76,20.99,8.93,36.48,9.09
444,2.215, 2017/11/15 11:06:39.924上午,18.09,4.46,485,47.58,8.5,37.87,11.84,21.16,8.94,35.61,8.78
445,2.22, 2017/11/15 11:06:39.929上午,18.3,4.49,485,47.54,8.56,37.2,12.54,21.08,8.74,36.02,8.85
446,2.225, 2017/11/15 11:06:39.934上午,18.08,4.51,495,47.64,8.62,36.99,12.22,21.11,8.59,35.6,8.88
447,2.23, 2017/11/15 11:06:39.939上午,18.01,4.62,508,47.51,8.59,37.39,13.04,21.13,9.05,35.46,9.09
448,2.235, 2017/11/15 11:06:39.944上午,17.94,4.62,514,47.59,8.61,37.35,12.52,21.23,8.86,35.32,9.09
449,2.24, 2017/11/15 11:06:39.949上午,18.07,4.65,493,47.62,8.56,37.7,12.79,21.19,9.21,35.57,9.16
450,2.245, 2017/11/15 11:06:39.954上午,17.97,4.83,503,47.6,8.66,37.46,12.87,21.22,9.44,35.37,9.51
451,2.25, 2017/11/15 11:06:39.959上午,18.29,4.63,490,47.65,8.52,37.63,12.28,21.18,9.42,36,9.12
452,2.255, 2017/11/15 11:06:39.964上午,18.12,4.78,497,47.65,8.66,37.36,12.71,21.24,9.44,35.66,9.42
453,2.26, 2017/11/15 11:06:39.969上午,18.15,4.7,495,47.65,8.68,37.96,12.72,21.13,9.08,35.73,9.25
454,2.265, 2017/11/15 11:06:39.974上午,18.04,4.68,481,47.51,8.63,37.77,13.03,21.1,9.08,35.51,9.21
455,2.27, 2017/11/15 11:06:39.979上午,18.41,4.69,494,47.49,8.76,38.32,12.9,21.07,9.17,36.23,9.23
456,2.275, 2017/11/15 11:06:39.984上午,18.24,4.55,498,47.54,8.72,37.21,12.67,21.16,8.88,35.9,8.96
457,2.28, 2017/11/15 11:06:39.989上午,18.14,4.54,496,47.51,8.56,37.91,12.33,21.2,8.8,35.7,8.94
458,2.285, 2017/11/15 11:06:39.994上午,18.05,4.47,498,47.54,8.6,36.99,12.23,20.95,8.41,35.52,8.79
459,2.29, 2017/11/15 11:06:39.999上午,17.82,4.51,490,47.49,8.49,37.03,12.2,21.17,8.7,35.09,8.87
460,2.295, 2017/11/15 11:06:40.004上午,17.88,4.56,500,47.51,8.58,37.03,12.2,21.19,8.83,35.2,8.97
461,2.3, 2017/11/15 11:06:40.009上午,17.87,4.62,520,47.58,8.62,37.35,12.57,21.27,8.86,35.18,9.09
462,2.305, 2017/11/15 11:06:40.014上午,17.97,4.61,498,47.63,8.49,37.7,12.79,21.34,9.1,35.37,9.08
463,2.31, 2017/11/15 11:06:40.019上午,18.16,4.65,495,47.69,8.49,37.36,12.44,21.25,9.28,35.74,9.16
464,2.315, 2017/11/15 11:06:40.024上午,18.34,4.68,487,47.7,8.5,37.75,12.78,21.16,9.32,36.1,9.22
465,2.32, 2017/11/15 11:06:40.029上午,18.31,4.63,500,47.47,8.64,38.07,13.06,21.16,9.06,36.04,9.11
466,2.325, 2017/11/15 11:06:40.034上午,18.17,4.52,492,47.5,8.52,38.44,12.25,21.17,8.87,35.76,8.89
467,2.33, 2017/11/15 11:06:40.039上午,18.23,4.54,488,47.6,8.51,37.91,13,21.07,8.73,35.88,8.94
468,2.335, 2017/11/15 11:06:40.044上午,18.24,4.44,470,47.63,8.52,37.77,12.29,21.1,8.69,35.91,8.74
469,2.34, 2017/11/15 11:06:40.049上午,18.03,4.45,481,47.55,8.63,37.2,12.54,21.03,8.43,35.5,8.75
470,2.345, 2017/11/15 11:06:40.054上午,18.17,4.52,508,47.69,8.57,37.16,12.55,21.07,8.5,35.78,8.89
471,2.35, 2017/11/15 11:06:40.059上午,18.11,4.62,486,47.54,8.61,37.2,12.54,21.2,9.26,35.66,9.1
472,2.355, 2017/11/15 11:06:40.064上午,18.02,4.55,496,47.71,8.47,37.63,12.28,21.26,9.05,35.48,8.95
473,2.36, 2017/11/15 11:06:40.069上午,18.07,4.81,497,47.65,8.67,37.46,12.98,21.3,9.39,35.58,9.46
474,2.365, 2017/11/15 11:06:40.074上午,18.18,4.61,507,47.58,8.55,37.75,12.82,21.16,8.89,35.79,9.07
475,2.37, 2017/11/15 11:06:40.079上午,18.1,4.71,496,47.66,8.64,37.65,12.89,21.12,9.09,35.63,9.26
476,2.375, 2017/11/15 11:06:40.084上午,18.2,4.56,505,47.6,8.51,38.01,12.8,21.18,8.88,35.84,8.97
477,2.38, 2017/11/15 11:06:40.089上午,17.89,4.52,483,47.38,8.49,37.66,12.13,21.19,8.88,35.21,8.89
478,2.385, 2017/11/15 11:06:40.094上午,18.06,4.41,481,47.63,8.52,37.2,12.55,21.02,8.37,35.55,8.67
479,2.39, 2017/11/15 11:06:40.099上午,17.99,4.45,480,47.66,8.55,37.2,12.55,21.1,8.56,35.41,8.77
480,2.395, 2017/11/15 11:06:40.104上午,17.86,4.57,513,47.5,8.63,37.6,12.89,21.15,8.73,35.15,8.99
481,2.4, 2017/11/15 11:06:40.109上午,17.99,4.61,506,47.72,8.51,37.14,12.43,21.26,9.12,35.42,9.07
482,2.405, 2017/11/15 11:06:40.114上午,18.27,4.67,489,47.62,8.51,37.76,12.78,21.13,9.24,35.96,9.19
483,2.41, 2017/11/15 11:06:40.119上午,18.13,4.74,480,47.57,8.66,37.42,13.04,21.07,9.22,35.68,9.34
484,2.415, 2017/11/15 11:06:40.124上午,18.27,4.6,496,47.48,8.75,38.32,12.9,21.13,8.74,35.96,9.06
485,2.42, 2017/11/15 11:06:40.129上午,18.13,4.52,493,47.58,8.52,37.25,12.5,21.17,8.9,35.68,8.89
486,2.425, 2017/11/15 11:06:40.134上午,18.11,4.45,489,47.54,8.61,37.2,12.55,21.02,8.49,35.65,8.77
487,2.43, 2017/11/15 11:06:40.139上午,18.26,4.57,483,47.71,8.5,37.2,12.55,21.22,9.19,35.95,9.01
488,2.435, 2017/11/15 11:06:40.144上午,18.05,4.66,504,47.49,8.61,36.99,12.23,21.23,9.28,35.54,9.16
489,2.44, 2017/11/15 11:06:40.149上午,18.16,4.59,485,47.73,8.49,37.63,12.29,21.21,9.21,35.75,9.03
490,2.445, 2017/11/15 11:06:40.154上午,18.12,4.7,493,47.61,8.5,37.76,12.78,21.23,9.37,35.68,9.25
491,2.45, 2017/11/15 11:06:40.159上午,18.06,4.62,474,47.56,8.66,37.84,12.3,21.14,9.09,35.55,9.1
492,2.455, 2017/11/15 11:06:40.164上午,18.2,4.65,512,47.64,8.52,37.86,12.76,21.31,9.19,35.82,9.15
493,2.46, 2017/11/15 11:06:40.169上午,18.05,4.79,500,47.53,8.66,37.63,12.76,21.24,9.41,35.53,9.44
494,2.465, 2017/11/15 11:06:40.174上午,18.26,4.64,502,47.69,8.52,38,12.91,21.15,9.03,35.94,9.13
495,2.47, 2017/11/15 11:06:40.179上午,18.22,4.62,493,47.7,8.49,37.79,13.01,21.1,9.05,35.87,9.09
496,2.475, 2017/11/15 11:06:40.184上午,18.05,4.76,515,47.48,8.8,37.63,12.76,21.12,9.14,35.52,9.37
497,2.48, 2017/11/15 11:06:40.189上午,18.34,4.54,487,47.53,8.51,38.32,12.9,21.04,8.72,36.11,8.93
498,2.485, 2017/11/15 11:06:40.194上午,18.17,4.64,510,47.49,8.6,37.35,12.57,21.19,8.97,35.77,9.13
499,2.49, 2017/11/15 11:06:40.199上午,18.17,4.56,508,47.5,8.6,37.35,12.57,21.1,8.59,35.77,8.98
500,2.495, 2017/11/15 11:06:40.204上午,17.82,4.52,495,47.61,8.53,37.26,12.5,21.2,8.85,35.09,8.89
501,2.5, 2017/11/15 11:06:40.209上午,17.94,4.59,498,47.65,8.61,37.2,12.54,21.29,9.09,35.32,9.03
502,2.505, 2017/11/15 11:06:40.214上午,17.99,4.6,536,47.58,8.57,37.35,12.57,21.2,8.88,35.41,9.06
503,2.51, 2017/11/15 11:06:40.219上午,18.06,4.63,509,47.56,8.46,37.16,12.55,21.32,9.15,35.56,9.11
504,2.515, 2017/11/15 11:06:40.224上午,18.19,4.61,494,47.74,8.45,37.63,12.28,21.19,9.38,35.81,9.07
505,2.52, 2017/11/15 11:06:40.229上午,18.01,4.76,484,47.58,8.65,38.01,12.92,21.28,9.42,35.46,9.37
506,2.525, 2017/11/15 11:06:40.234上午,18.14,4.57,487,47.53,8.51,37.5,12.93,21.29,9.09,35.7,9
507,2.53, 2017/11/15 11:06:40.239上午,18.35,4.66,526,47.57,8.62,37.65,12.93,21.15,8.92,36.13,9.16
508,2.535, 2017/11/15 11:06:40.244上午,18.36,4.63,488,47.58,8.78,37.76,12.79,21.12,8.74,36.13,9.12
509,2.54, 2017/11/15 11:06:40.249上午,18.12,4.58,497,47.52,8.54,38.01,12.8,21.15,8.9,35.67,9.01
510,2.545, 2017/11/15 11:06:40.254上午,18.22,4.46,465,47.63,8.54,37.72,12.35,21.04,8.74,35.87,8.77
511,2.55, 2017/11/15 11:06:40.259上午,18.07,4.44,493,47.63,8.52,36.99,12.22,21,8.39,35.57,8.74
512,2.555, 2017/11/15 11:06:40.264上午,18.28,4.49,483,47.53,8.63,37.5,12.37,21.08,8.74,35.98,8.84
513,2.56, 2017/11/15 11:06:40.269上午,18.09,4.54,482,47.65,8.54,37.26,12.5,21.24,8.95,35.6,8.94
514,2.565, 2017/11/15 11:06:40.274上午,18.15,4.46,491,47.55,8.6,37.2,12.55,21.07,8.52,35.73,8.77
515,2.57, 2017/11/15 11:06:40.279上午,18,4.54,479,47.46,8.48,37.26,12.5,21.3,8.98,35.44,8.93
516,2.575, 2017/11/15 11:06:40.284上午,17.99,4.45,485,47.73,8.57,37.2,12.55,21.07,8.53,35.41,8.76
517,2.58, 2017/11/15 11:06:40.289上午,18.14,4.54,496,47.68,8.57,37.34,12.55,21.08,8.54,35.71,8.94
518,2.585, 2017/11/15 11:06:40.294上午,18.16,4.57,500,47.69,8.51,37.14,12.43,21.3,8.96,35.75,9
519,2.59, 2017/11/15 11:06:40.299上午,18.21,4.59,496,47.69,8.5,37.84,12.31,21.22,9.17,35.84,9.04
520,2.595, 2017/11/15 11:06:40.304上午,18.19,4.67,495,47.67,8.58,37.5,12.46,21.25,9.35,35.81,9.19
521,2.6, 2017/11/15 11:06:40.309上午,18.36,4.62,479,47.75,8.5,37.63,12.28,21.27,9.36,36.14,9.09
522,2.605, 2017/11/15 11:06:40.314上午,18.28,4.63,498,47.72,8.5,37.69,12.62,21.17,9.17,35.98,9.11
523,2.61, 2017/11/15 11:06:40.319上午,17.97,4.65,495,47.71,8.66,37.75,12.83,21.17,8.93,35.37,9.16
524,2.615, 2017/11/15 11:06:40.324上午,18.19,4.75,495,47.56,8.67,37.63,12.76,21.08,9.19,35.82,9.35
525,2.62, 2017/11/15 11:06:40.329上午,18.5,4.65,488,47.57,8.76,37.91,13.01,20.96,8.94,36.43,9.15
526,2.625, 2017/11/15 11:06:40.334上午,18.2,4.54,489,47.52,8.55,37.66,12.13,21.16,8.91,35.83,8.93
527,2.63, 2017/11/15 11:06:40.339上午,18.1,4.46,487,47.57,8.6,37.2,12.55,21.02,8.54,35.64,8.78
528,2.635, 2017/11/15 11:06:40.344上午,17.97,4.44,481,47.74,8.56,37.5,12.38,20.98,8.56,35.37,8.73
529,2.64, 2017/11/15 11:06:40.349上午,18.15,4.45,488,47.54,8.6,37.2,12.55,21.07,8.51,35.72,8.77
530,2.645, 2017/11/15 11:06:40.354上午,18.26,4.53,504,47.53,8.59,37.35,12.57,20.97,8.43,35.94,8.92
531,2.65, 2017/11/15 11:06:40.359上午,18.29,4.55,520,47.6,8.58,37.34,12.55,21,8.6,36.01,8.95
532,2.655, 2017/11/15 11:06:40.364上午,18.01,4.44,488,47.63,8.54,37.2,12.54,21.06,8.54,35.46,8.75
533,2.66, 2017/11/15 11:06:40.369上午,18.17,4.44,492,47.68,8.52,37.63,12.23,21.06,8.54,35.78,8.74
534,2.665, 2017/11/15 11:06:40.374上午,18.42,4.62,491,47.72,8.46,37.63,12.28,21.28,9.46,36.26,9.1
535,2.67, 2017/11/15 11:06:40.379上午,18.39,4.65,507,47.7,8.49,37.14,12.43,21.26,9.41,36.21,9.16
536,2.675, 2017/11/15 11:06:40.384上午,18.31,4.7,480,47.66,8.64,37.86,12.76,21.12,9.27,36.03,9.25
537,2.68, 2017/11/15 11:06:40.389上午,18.44,4.7,504,47.74,8.52,38.1,12.75,21.27,9.42,36.29,9.25
538,2.685, 2017/11/15 11:06:40.394上午,18.47,4.66,506,47.51,8.6,38.32,12.9,21.16,9.27,36.36,9.18
539,2.69, 2017/11/15 11:06:40.399上午,18.18,4.47,480,47.64,8.53,37.73,12.34,21.2,8.85,35.78,8.8
540,2.695, 2017/11/15 11:06:40.404上午,18.33,4.44,493,47.52,8.62,37.5,12.37,21.02,8.51,36.09,8.73
541,2.7, 2017/11/15 11:06:40.409上午,18.27,4.45,495,47.55,8.56,37.83,12.89,21.04,8.33,35.96,8.77
542,2.705, 2017/11/15 11:06:40.414上午,18.12,4.62,481,47.62,8.53,37.26,12.5,21.14,9.34,35.67,9.1
543,2.71, 2017/11/15 11:06:40.419上午,18.31,4.67,499,47.77,8.54,37.6,12.89,21.17,9.33,36.04,9.2
544,2.715, 2017/11/15 11:06:40.424上午,18.29,4.7,507,47.52,8.62,37.35,12.57,21.26,9.23,36,9.25
545,2.72, 2017/11/15 11:06:40.429上午,18.13,4.59,512,47.8,8.52,37.08,12.35,21.05,9,35.69,9.04
546,2.725, 2017/11/15 11:06:40.434上午,18.05,4.66,509,47.66,8.5,37.76,12.79,21.3,9.2,35.52,9.17
547,2.73, 2017/11/15 11:06:40.439上午,18.18,4.77,509,47.55,8.81,37.53,12.79,21.29,9.25,35.79,9.39
548,2.735, 2017/11/15 11:06:40.444上午,18.09,4.65,492,47.59,8.66,38.01,12.92,21.16,8.92,35.62,9.16
549,2.74, 2017/11/15 11:06:40.449上午,18.3,4.74,500,47.65,8.67,37.64,12.77,21.08,9.17,36.03,9.33
550,2.745, 2017/11/15 11:06:40.454上午,18.61,4.63,505,47.63,8.63,38.1,12.67,21.06,8.97,36.63,9.12
551,2.75, 2017/11/15 11:06:40.459上午,18.33,4.57,496,47.64,8.52,38.33,12.86,21.2,8.88,36.09,9
552,2.755, 2017/11/15 11:06:40.464上午,18.41,4.59,492,47.61,8.77,38.32,12.9,21.05,8.67,36.24,9.04
553,2.76, 2017/11/15 11:06:40.469上午,18.3,4.53,499,47.56,8.54,37.26,12.5,21.16,8.92,36.03,8.91
554,2.765, 2017/11/15 11:06:40.474上午,18.01,4.48,495,47.57,8.52,37.26,12.5,21.12,8.72,35.45,8.82
555,2.77, 2017/11/15 11:06:40.479上午,18.11,4.46,484,47.63,8.54,37.26,12.5,21.07,8.57,35.64,8.77
556,2.775, 2017/11/15 11:06:40.484上午,18.04,4.45,493,47.56,8.55,37.26,12.5,21.01,8.56,35.51,8.77
557,2.78, 2017/11/15 11:06:40.489上午,18.26,4.52,500,47.62,8.62,37.35,12.57,21.03,8.34,35.95,8.9
558,2.785, 2017/11/15 11:06:40.494上午,18.37,4.52,513,47.72,8.51,37.16,12.55,21.1,8.6,36.16,8.89
559,2.79, 2017/11/15 11:06:40.499上午,18.21,4.56,501,47.71,8.48,37.63,12.28,21.26,9.13,35.84,8.98
560,2.795, 2017/11/15 11:06:40.504上午,18.32,4.69,510,47.68,8.55,37.18,12.67,21.25,9.39,36.07,9.24
561,2.8, 2017/11/15 11:06:40.509上午,18.55,4.6,488,47.67,8.52,37.85,12.3,21.18,9.21,36.51,9.05
562,2.805, 2017/11/15 11:06:40.514上午,18.12,4.63,491,47.56,8.64,37.87,12.87,21.15,8.93,35.67,9.12
563,2.81, 2017/11/15 11:06:40.519上午,18.55,4.62,519,47.54,8.62,37.43,12.85,21.11,8.75,36.52,9.1
564,2.815, 2017/11/15 11:06:40.524上午,18.45,4.56,496,47.65,8.5,38.06,12.77,21.06,8.79,36.31,8.97
565,2.82, 2017/11/15 11:06:40.529上午,18.51,4.5,486,47.46,8.72,37.26,12.5,21.06,8.56,36.43,8.87
566,2.825, 2017/11/15 11:06:40.534上午,18.12,4.51,511,47.78,8.53,37.16,12.55,21.03,8.5,35.67,8.87
567,2.83, 2017/11/15 11:06:40.539上午,18.24,4.67,496,47.57,8.68,37.61,12.6,21.16,9.26,35.9,9.19
568,2.835, 2017/11/15 11:06:40.544上午,18.19,4.6,510,47.82,8.53,37.38,12.38,21.27,9.21,35.81,9.06
569,2.84, 2017/11/15 11:06:40.549上午,18.31,4.59,499,47.74,8.52,37.85,12.3,21.26,9.18,36.04,9.04
570,2.845, 2017/11/15 11:06:40.554上午,18.4,4.68,514,47.67,8.48,37.76,12.78,21.25,9.37,36.21,9.2
571,2.85, 2017/11/15 11:06:40.559上午,18.46,4.58,495,47.53,8.63,37.5,12.08,21.15,9.13,36.34,9.01
572,2.855, 2017/11/15 11:06:40.564上午,18.72,4.61,505,47.52,8.61,38.1,12.66,20.97,8.89,36.86,9.07
573,2.86, 2017/11/15 11:06:40.569上午,18.28,4.46,480,47.62,8.51,37.55,12.33,21.04,8.7,35.99,8.77
574,2.865, 2017/11/15 11:06:40.574上午,18.15,4.44,485,47.62,8.61,37.2,12.55,20.96,8.44,35.72,8.74
575,2.87, 2017/11/15 11:06:40.579上午,18.26,4.65,516,47.44,8.63,37.74,11.66,21.18,9.23,35.94,9.16
576,2.875, 2017/11/15 11:06:40.584上午,18.35,4.69,516,47.81,8.54,37.35,12.57,21.24,9.29,36.13,9.22
577,2.88, 2017/11/15 11:06:40.589上午,18.42,4.64,508,47.73,8.47,37.7,12.79,21.22,9.33,36.25,9.14
578,2.885, 2017/11/15 11:06:40.594上午,18.5,4.66,513,47.65,8.62,38.07,13.07,21.29,9.29,36.41,9.18
579,2.89, 2017/11/15 11:06:40.599上午,18.25,4.48,505,47.47,8.68,37.55,12.33,21.16,8.64,35.93,8.82
580,2.895, 2017/11/15 11:06:40.604上午,18.36,4.47,495,47.66,8.51,37.91,13.11,21.05,8.37,36.14,8.8
581,2.9, 2017/11/15 11:06:40.609上午,18.42,4.55,477,47.58,8.6,37.2,12.55,21.04,8.96,36.26,8.96
582,2.905, 2017/11/15 11:06:40.614上午,18.32,4.65,518,47.66,8.45,37.34,12.55,21.33,9.25,36.07,9.15
583,2.91, 2017/11/15 11:06:40.619上午,18.52,4.65,492,47.67,8.51,37.86,12.77,21.13,9.23,36.45,9.16
584,2.915, 2017/11/15 11:06:40.624上午,18.47,4.65,503,47.74,8.45,37.76,12.83,21.11,9.24,36.36,9.15
585,2.92, 2017/11/15 11:06:40.629上午,18.57,4.7,514,47.68,8.65,38.1,12.66,21.14,9.28,36.55,9.24
586,2.925, 2017/11/15 11:06:40.634上午,18.52,4.51,495,47.45,8.69,38.24,12.56,21.1,8.75,36.46,8.87
587,2.93, 2017/11/15 11:06:40.639上午,18.21,4.55,510,47.55,8.59,37.35,12.57,21.01,8.55,35.85,8.96
588,2.935, 2017/11/15 11:06:40.644上午,18.68,4.62,500,47.62,8.55,37.35,12.57,21.09,8.96,36.77,9.1
589,2.94, 2017/11/15 11:06:40.649上午,18.33,4.78,532,47.76,8.55,36.94,13.25,21.33,9.26,36.07,9.4
590,2.945, 2017/11/15 11:06:40.654上午,18.23,4.6,522,47.67,8.47,37.35,12.44,21.31,9.09,35.88,9.05
591,2.95, 2017/11/15 11:06:40.659上午,18.59,4.68,514,47.55,8.63,38.01,12.8,21.19,9.35,36.6,9.21
592,2.955, 2017/11/15 11:06:40.664上午,18.49,4.6,513,47.65,8.65,38.15,12.87,21.18,8.86,36.39,9.06
593,2.96, 2017/11/15 11:06:40.669上午,18.36,4.55,492,47.63,8.5,37.91,13.01,21.1,8.77,36.14,8.95
594,2.965, 2017/11/15 11:06:40.674上午,18.11,4.64,529,47.51,8.61,36.97,13.26,20.99,8.53,35.65,9.14
595,2.97, 2017/11/15 11:06:40.679上午,18.2,4.54,513,47.71,8.49,37.63,12.28,21.25,9.03,35.83,8.94
596,2.975, 2017/11/15 11:06:40.684上午,18.52,4.64,472,47.68,8.66,37.8,12.59,21.09,9.05,36.46,9.13
597,2.98, 2017/11/15 11:06:40.689上午,18.21,4.64,498,47.55,8.67,38.1,12.75,21.16,8.92,35.85,9.14
598,2.985, 2017/11/15 11:06:40.694上午,18.59,4.55,493,47.55,8.65,37.96,13.18,21.09,8.67,36.6,8.97
599,2.99, 2017/11/15 11:06:40.699上午,18.22,4.5,480,47.67,8.56,37.26,12.5,21.05,8.75,35.87,8.86
600,2.995, 2017/11/15 11:06:40.704上午,18.22,4.49,495,47.75,8.56,37.63,12.28,20.94,8.71,35.87,8.85
@@,,,,,,,,,,,,,
