DATA_TYPE Graph,,,,,,,
VERSION Tekscan Pressure Measurement System 6.70-03,,,,,,,
HARDWARE 00114-3447,,,,,,,
MAP_VERSION 6.5,,,,,,,
HW_TYPE 4,,,,,,,
VersaPogoFsx 0,,,,,,,
檔案名 C:\Users\asus\Desktop\工研院_計畫\收案資料\Subject02\Plantar Pressure\R65S_STAND_RIGHT_2.fsx,,,,,,,
SENSOR_TYPE FSCAN,,,,,,,
ROWS 60,,,,,,,
COLS 21,,,,,,,
ROW_SPACING 0.508 centimeters,,,,,,,
COL_SPACING 0.508 centimeters,,,,,,,
SENSEL_AREA 0.258064 cm2,,,,,,,
NOISE_THRESHOLD 3,,,,,,,
SECONDS_PER_FRAME 0.005,,,,,,,
SECONDS_PER_FRAME 0,,,,,,,
MICRO_SECOND 0,,,,,,,
TIME 2017/11/15 11:14:41.646上午,,,,,,,
SATURATION_PRESSURE 2347.96 KPa ,,,,,,,
CALIBRATION_POINT_1 48.0001 (Kilograms) 1981 (Raw Sum) 199 (Number of Loaded Cells),,,,,,,
CALIBRATION_MODE_1 步態,,,,,,,
CALIBRATION_INFO C:\Users\asus\Desktop\工研院_計畫\收案資料\Subject02\Plantar Pressure\R65S_STAND_RIGHT_2.fsx,,,,,,,
SENSITIVITY 自定義,,,,,,,
MAP_INDEX 0,,,,,,,
SUBMAP 0,,,,,,,
Patient ID: ,,,,,,,
,,,,,,,
Speed of Gait: ,,,,,,,
,,,,,,,
Weight: ,,,,,,,
,,,,,,,
Gender: ,,,,,,,
,,,,,,,
Physician: ,,,,,,,
,,,,,,,
Technician: ,,,,,,,
,,,,,,,
Shoe: ,,,,,,,
,,,,,,,
START_FRAME 1,,,,,,,
END_FRAME 600,,,,,,,
UNITS KPa,,,,,,,
ASCII_DATA @@,,,,,,,
畫面(X), 時間(X), 絕對時間(X), Raw Sum, 峰值壓力(Y:深藍色), 峰值壓力(Y), 峰值壓力(Y), 峰值壓力(Y)
1,0, 2017/11/15 11:14:41.646上午,604,50,39,46,50
2,0.005, 2017/11/15 11:14:41.651上午,603,50,41,48,50
3,0.01, 2017/11/15 11:14:41.656上午,622,49,39,50,50
4,0.015, 2017/11/15 11:14:41.661上午,610,50,39,45,50
5,0.02, 2017/11/15 11:14:41.666上午,610,49,38,49,49
6,0.025, 2017/11/15 11:14:41.671上午,583,49,38,48,49
7,0.03, 2017/11/15 11:14:41.676上午,610,50,38,46,50
8,0.035, 2017/11/15 11:14:41.681上午,598,50,38,48,50
9,0.04, 2017/11/15 11:14:41.686上午,607,50,41,46,50
10,0.045, 2017/11/15 11:14:41.691上午,620,49,38,47,49
11,0.05, 2017/11/15 11:14:41.696上午,606,49,41,47,49
12,0.055, 2017/11/15 11:14:41.701上午,610,49,39,48,49
13,0.06, 2017/11/15 11:14:41.706上午,595,47,41,49,49
14,0.065, 2017/11/15 11:14:41.711上午,595,49,39,48,49
15,0.07, 2017/11/15 11:14:41.716上午,591,50,40,46,50
16,0.075, 2017/11/15 11:14:41.721上午,592,50,38,48,50
17,0.08, 2017/11/15 11:14:41.726上午,591,50,38,48,50
18,0.085, 2017/11/15 11:14:41.731上午,601,50,38,46,50
19,0.09, 2017/11/15 11:14:41.736上午,631,50,38,47,50
20,0.095, 2017/11/15 11:14:41.741上午,593,50,40,47,50
21,0.1, 2017/11/15 11:14:41.746上午,618,50,38,47,50
22,0.105, 2017/11/15 11:14:41.751上午,624,52,38,49,52
23,0.11, 2017/11/15 11:14:41.756上午,609,49,38,47,49
24,0.115, 2017/11/15 11:14:41.761上午,585,48,38,47,48
25,0.12, 2017/11/15 11:14:41.766上午,605,49,38,48,49
26,0.125, 2017/11/15 11:14:41.771上午,587,50,38,46,50
27,0.13, 2017/11/15 11:14:41.776上午,592,50,38,47,50
28,0.135, 2017/11/15 11:14:41.781上午,622,50,40,49,50
29,0.14, 2017/11/15 11:14:41.786上午,628,52,40,45,52
30,0.145, 2017/11/15 11:14:41.791上午,593,50,38,46,50
31,0.15, 2017/11/15 11:14:41.796上午,588,50,38,46,50
32,0.155, 2017/11/15 11:14:41.801上午,594,49,38,48,49
33,0.16, 2017/11/15 11:14:41.806上午,603,49,38,46,49
34,0.165, 2017/11/15 11:14:41.811上午,598,52,38,46,52
35,0.17, 2017/11/15 11:14:41.816上午,600,50,40,47,50
36,0.175, 2017/11/15 11:14:41.821上午,628,50,38,46,50
37,0.18, 2017/11/15 11:14:41.826上午,609,52,40,47,52
38,0.185, 2017/11/15 11:14:41.831上午,609,50,38,47,50
39,0.19, 2017/11/15 11:14:41.836上午,602,49,38,49,49
40,0.195, 2017/11/15 11:14:41.841上午,602,52,38,47,52
41,0.2, 2017/11/15 11:14:41.846上午,611,50,40,47,50
42,0.205, 2017/11/15 11:14:41.851上午,613,50,38,46,50
43,0.21, 2017/11/15 11:14:41.856上午,620,50,38,49,50
44,0.215, 2017/11/15 11:14:41.861上午,597,49,38,49,49
45,0.22, 2017/11/15 11:14:41.866上午,591,49,38,45,49
46,0.225, 2017/11/15 11:14:41.871上午,574,49,36,46,49
47,0.23, 2017/11/15 11:14:41.876上午,595,49,38,46,49
48,0.235, 2017/11/15 11:14:41.881上午,607,50,38,46,50
49,0.24, 2017/11/15 11:14:41.886上午,618,49,38,45,49
50,0.245, 2017/11/15 11:14:41.891上午,614,50,37,47,50
51,0.25, 2017/11/15 11:14:41.896上午,590,47,37,47,47
52,0.255, 2017/11/15 11:14:41.901上午,582,47,40,45,47
53,0.26, 2017/11/15 11:14:41.906上午,599,49,40,45,49
54,0.265, 2017/11/15 11:14:41.911上午,591,49,38,45,49
55,0.27, 2017/11/15 11:14:41.916上午,585,50,38,47,50
56,0.275, 2017/11/15 11:14:41.921上午,608,50,38,45,50
57,0.28, 2017/11/15 11:14:41.926上午,606,50,38,45,50
58,0.285, 2017/11/15 11:14:41.931上午,597,50,38,47,50
59,0.29, 2017/11/15 11:14:41.936上午,608,52,37,47,52
60,0.295, 2017/11/15 11:14:41.941上午,629,49,39,47,49
61,0.3, 2017/11/15 11:14:41.946上午,605,50,37,45,50
62,0.305, 2017/11/15 11:14:41.951上午,616,49,36,47,49
63,0.31, 2017/11/15 11:14:41.956上午,596,49,37,48,49
64,0.315, 2017/11/15 11:14:41.961上午,593,48,38,46,48
65,0.32, 2017/11/15 11:14:41.966上午,595,47,37,46,47
66,0.325, 2017/11/15 11:14:41.971上午,605,47,37,46,47
67,0.33, 2017/11/15 11:14:41.976上午,600,50,37,45,50
68,0.335, 2017/11/15 11:14:41.981上午,607,50,37,47,50
69,0.34, 2017/11/15 11:14:41.986上午,598,50,37,45,50
70,0.345, 2017/11/15 11:14:41.991上午,632,49,35,47,49
71,0.35, 2017/11/15 11:14:41.996上午,595,47,37,48,48
72,0.355, 2017/11/15 11:14:42.001上午,598,49,38,45,49
73,0.36, 2017/11/15 11:14:42.006上午,602,49,38,44,49
74,0.365, 2017/11/15 11:14:42.011上午,611,50,38,47,50
75,0.37, 2017/11/15 11:14:42.016上午,603,49,38,45,49
76,0.375, 2017/11/15 11:14:42.021上午,620,49,39,47,49
77,0.38, 2017/11/15 11:14:42.026上午,593,49,39,47,49
78,0.385, 2017/11/15 11:14:42.031上午,606,50,38,46,50
79,0.39, 2017/11/15 11:14:42.036上午,607,50,37,47,50
80,0.395, 2017/11/15 11:14:42.041上午,610,47,37,47,47
81,0.4, 2017/11/15 11:14:42.046上午,602,50,37,45,50
82,0.405, 2017/11/15 11:14:42.051上午,593,48,37,47,48
83,0.41, 2017/11/15 11:14:42.056上午,584,49,38,44,49
84,0.415, 2017/11/15 11:14:42.061上午,591,50,38,45,50
85,0.42, 2017/11/15 11:14:42.066上午,616,50,37,47,50
86,0.425, 2017/11/15 11:14:42.071上午,593,47,37,47,47
87,0.43, 2017/11/15 11:14:42.076上午,587,50,37,45,50
88,0.435, 2017/11/15 11:14:42.081上午,615,50,37,48,50
89,0.44, 2017/11/15 11:14:42.086上午,579,49,35,45,49
90,0.445, 2017/11/15 11:14:42.091上午,605,49,37,46,49
91,0.45, 2017/11/15 11:14:42.096上午,589,47,37,47,47
92,0.455, 2017/11/15 11:14:42.101上午,620,50,37,47,50
93,0.46, 2017/11/15 11:14:42.106上午,614,49,37,49,49
94,0.465, 2017/11/15 11:14:42.111上午,614,47,37,47,47
95,0.47, 2017/11/15 11:14:42.116上午,591,47,37,45,47
96,0.475, 2017/11/15 11:14:42.121上午,584,47,37,47,47
97,0.48, 2017/11/15 11:14:42.126上午,600,47,35,45,47
98,0.485, 2017/11/15 11:14:42.131上午,585,47,39,47,47
99,0.49, 2017/11/15 11:14:42.136上午,574,47,37,45,47
100,0.495, 2017/11/15 11:14:42.141上午,580,47,35,49,49
101,0.5, 2017/11/15 11:14:42.146上午,604,50,35,47,50
102,0.505, 2017/11/15 11:14:42.151上午,599,49,37,47,49
103,0.51, 2017/11/15 11:14:42.156上午,596,50,37,45,50
104,0.515, 2017/11/15 11:14:42.161上午,613,49,37,47,49
105,0.52, 2017/11/15 11:14:42.166上午,619,47,37,48,48
106,0.525, 2017/11/15 11:14:42.171上午,592,48,34,45,48
107,0.53, 2017/11/15 11:14:42.176上午,578,47,37,47,47
108,0.535, 2017/11/15 11:14:42.181上午,610,47,37,47,47
109,0.54, 2017/11/15 11:14:42.186上午,608,49,37,48,49
110,0.545, 2017/11/15 11:14:42.191上午,597,49,35,46,49
111,0.55, 2017/11/15 11:14:42.196上午,616,49,36,48,49
112,0.555, 2017/11/15 11:14:42.201上午,593,47,36,47,47
113,0.56, 2017/11/15 11:14:42.206上午,582,47,35,45,47
114,0.565, 2017/11/15 11:14:42.211上午,600,50,39,43,50
115,0.57, 2017/11/15 11:14:42.216上午,598,49,37,45,49
116,0.575, 2017/11/15 11:14:42.221上午,597,50,36,47,50
117,0.58, 2017/11/15 11:14:42.226上午,604,47,38,48,48
118,0.585, 2017/11/15 11:14:42.231上午,592,47,38,47,47
119,0.59, 2017/11/15 11:14:42.236上午,585,47,36,45,47
120,0.595, 2017/11/15 11:14:42.241上午,599,47,36,45,47
121,0.6, 2017/11/15 11:14:42.246上午,583,47,35,45,47
122,0.605, 2017/11/15 11:14:42.251上午,581,49,37,45,49
123,0.61, 2017/11/15 11:14:42.256上午,595,50,37,47,50
124,0.615, 2017/11/15 11:14:42.261上午,604,50,35,48,50
125,0.62, 2017/11/15 11:14:42.266上午,616,49,36,47,49
126,0.625, 2017/11/15 11:14:42.271上午,601,47,36,47,47
127,0.63, 2017/11/15 11:14:42.276上午,591,47,37,47,47
128,0.635, 2017/11/15 11:14:42.281上午,600,49,37,46,49
129,0.64, 2017/11/15 11:14:42.286上午,589,50,37,45,50
130,0.645, 2017/11/15 11:14:42.291上午,585,50,36,45,50
131,0.65, 2017/11/15 11:14:42.296上午,616,50,35,46,50
132,0.655, 2017/11/15 11:14:42.301上午,586,47,36,45,47
133,0.66, 2017/11/15 11:14:42.306上午,585,47,34,45,47
134,0.665, 2017/11/15 11:14:42.311上午,590,47,35,45,47
135,0.67, 2017/11/15 11:14:42.316上午,582,47,35,47,47
136,0.675, 2017/11/15 11:14:42.321上午,582,49,39,45,49
137,0.68, 2017/11/15 11:14:42.326上午,589,49,37,45,49
138,0.685, 2017/11/15 11:14:42.331上午,608,47,35,46,47
139,0.69, 2017/11/15 11:14:42.336上午,608,50,36,46,50
140,0.695, 2017/11/15 11:14:42.341上午,608,49,36,46,49
141,0.7, 2017/11/15 11:14:42.346上午,626,49,36,46,49
142,0.705, 2017/11/15 11:14:42.351上午,616,46,36,46,46
143,0.71, 2017/11/15 11:14:42.356上午,590,47,35,45,47
144,0.715, 2017/11/15 11:14:42.361上午,601,47,36,47,47
145,0.72, 2017/11/15 11:14:42.366上午,581,47,36,45,47
146,0.725, 2017/11/15 11:14:42.371上午,576,47,35,45,47
147,0.73, 2017/11/15 11:14:42.376上午,587,49,37,47,49
148,0.735, 2017/11/15 11:14:42.381上午,583,49,37,45,49
149,0.74, 2017/11/15 11:14:42.386上午,594,50,37,46,50
150,0.745, 2017/11/15 11:14:42.391上午,594,50,36,46,50
151,0.75, 2017/11/15 11:14:42.396上午,589,50,38,46,50
152,0.755, 2017/11/15 11:14:42.401上午,613,50,36,46,50
153,0.76, 2017/11/15 11:14:42.406上午,607,47,36,46,47
154,0.765, 2017/11/15 11:14:42.411上午,574,47,39,48,48
155,0.77, 2017/11/15 11:14:42.416上午,595,47,34,45,47
156,0.775, 2017/11/15 11:14:42.421上午,586,47,37,47,47
157,0.78, 2017/11/15 11:14:42.426上午,575,47,35,45,47
158,0.785, 2017/11/15 11:14:42.431上午,581,49,37,47,49
159,0.79, 2017/11/15 11:14:42.436上午,595,47,35,45,47
160,0.795, 2017/11/15 11:14:42.441上午,569,49,37,45,49
161,0.8, 2017/11/15 11:14:42.446上午,570,49,37,45,49
162,0.805, 2017/11/15 11:14:42.451上午,604,50,35,46,50
163,0.81, 2017/11/15 11:14:42.456上午,599,50,37,45,50
164,0.815, 2017/11/15 11:14:42.461上午,590,50,36,46,50
165,0.82, 2017/11/15 11:14:42.466上午,612,50,35,47,50
166,0.825, 2017/11/15 11:14:42.471上午,589,49,35,46,49
167,0.83, 2017/11/15 11:14:42.476上午,612,50,35,45,50
168,0.835, 2017/11/15 11:14:42.481上午,584,47,34,47,47
169,0.84, 2017/11/15 11:14:42.486上午,591,49,35,46,49
170,0.845, 2017/11/15 11:14:42.491上午,610,49,35,46,49
171,0.85, 2017/11/15 11:14:42.496上午,618,50,37,46,50
172,0.855, 2017/11/15 11:14:42.501上午,601,50,36,47,50
173,0.86, 2017/11/15 11:14:42.506上午,608,50,36,48,50
174,0.865, 2017/11/15 11:14:42.511上午,629,52,35,46,52
175,0.87, 2017/11/15 11:14:42.516上午,581,47,35,48,48
176,0.875, 2017/11/15 11:14:42.521上午,611,50,37,45,50
177,0.88, 2017/11/15 11:14:42.526上午,590,49,37,45,49
178,0.885, 2017/11/15 11:14:42.531上午,579,47,35,45,47
179,0.89, 2017/11/15 11:14:42.536上午,597,49,37,45,49
180,0.895, 2017/11/15 11:14:42.541上午,575,47,35,45,47
181,0.9, 2017/11/15 11:14:42.546上午,589,49,37,45,49
182,0.905, 2017/11/15 11:14:42.551上午,618,50,39,46,50
183,0.91, 2017/11/15 11:14:42.556上午,631,50,37,46,50
184,0.915, 2017/11/15 11:14:42.561上午,620,50,35,48,50
185,0.92, 2017/11/15 11:14:42.566上午,623,50,37,45,50
186,0.925, 2017/11/15 11:14:42.571上午,644,52,35,48,52
187,0.93, 2017/11/15 11:14:42.576上午,610,49,33,46,49
188,0.935, 2017/11/15 11:14:42.581上午,589,47,37,45,47
189,0.94, 2017/11/15 11:14:42.586上午,600,50,37,45,50
190,0.945, 2017/11/15 11:14:42.591上午,609,49,39,45,49
191,0.95, 2017/11/15 11:14:42.596上午,610,49,37,45,49
192,0.955, 2017/11/15 11:14:42.601上午,592,50,37,46,50
193,0.96, 2017/11/15 11:14:42.606上午,613,49,35,45,49
194,0.965, 2017/11/15 11:14:42.611上午,611,50,37,48,50
195,0.97, 2017/11/15 11:14:42.616上午,626,50,37,48,50
196,0.975, 2017/11/15 11:14:42.621上午,625,50,35,48,50
197,0.98, 2017/11/15 11:14:42.626上午,622,49,35,46,49
198,0.985, 2017/11/15 11:14:42.631上午,605,49,35,45,49
199,0.99, 2017/11/15 11:14:42.636上午,580,49,35,45,49
200,0.995, 2017/11/15 11:14:42.641上午,600,50,37,43,50
201,1, 2017/11/15 11:14:42.646上午,601,49,37,45,49
202,1.005, 2017/11/15 11:14:42.651上午,595,52,37,45,52
203,1.01, 2017/11/15 11:14:42.656上午,625,50,35,46,50
204,1.015, 2017/11/15 11:14:42.661上午,614,50,37,45,50
205,1.02, 2017/11/15 11:14:42.666上午,608,50,35,46,50
206,1.025, 2017/11/15 11:14:42.671上午,590,52,35,45,52
207,1.03, 2017/11/15 11:14:42.676上午,604,49,37,48,49
208,1.035, 2017/11/15 11:14:42.681上午,608,52,35,46,52
209,1.04, 2017/11/15 11:14:42.686上午,578,49,36,45,49
210,1.045, 2017/11/15 11:14:42.691上午,588,49,36,46,49
211,1.05, 2017/11/15 11:14:42.696上午,597,52,36,45,52
212,1.055, 2017/11/15 11:14:42.701上午,593,50,36,46,50
213,1.06, 2017/11/15 11:14:42.706上午,601,50,35,45,50
214,1.065, 2017/11/15 11:14:42.711上午,614,52,35,45,52
215,1.07, 2017/11/15 11:14:42.716上午,609,52,35,48,52
216,1.075, 2017/11/15 11:14:42.721上午,598,50,35,47,50
217,1.08, 2017/11/15 11:14:42.726上午,632,52,35,46,52
218,1.085, 2017/11/15 11:14:42.731上午,586,47,34,48,48
219,1.09, 2017/11/15 11:14:42.736上午,586,49,35,45,49
220,1.095, 2017/11/15 11:14:42.741上午,599,49,34,45,49
221,1.1, 2017/11/15 11:14:42.746上午,579,49,37,46,49
222,1.105, 2017/11/15 11:14:42.751上午,592,49,37,46,49
223,1.11, 2017/11/15 11:14:42.756上午,607,49,37,45,49
224,1.115, 2017/11/15 11:14:42.761上午,607,50,37,45,50
225,1.12, 2017/11/15 11:14:42.766上午,606,49,35,46,49
226,1.125, 2017/11/15 11:14:42.771上午,586,47,35,45,47
227,1.13, 2017/11/15 11:14:42.776上午,607,49,36,47,49
228,1.135, 2017/11/15 11:14:42.781上午,596,49,36,46,49
229,1.14, 2017/11/15 11:14:42.786上午,625,50,36,47,50
230,1.145, 2017/11/15 11:14:42.791上午,603,50,35,46,50
231,1.15, 2017/11/15 11:14:42.796上午,602,52,35,44,52
232,1.155, 2017/11/15 11:14:42.801上午,598,47,34,46,47
233,1.16, 2017/11/15 11:14:42.806上午,611,49,36,46,49
234,1.165, 2017/11/15 11:14:42.811上午,598,52,38,45,52
235,1.17, 2017/11/15 11:14:42.816上午,602,52,36,44,52
236,1.175, 2017/11/15 11:14:42.821上午,635,50,35,45,50
237,1.18, 2017/11/15 11:14:42.826上午,610,50,35,44,50
238,1.185, 2017/11/15 11:14:42.831上午,613,50,35,48,50
239,1.19, 2017/11/15 11:14:42.836上午,606,49,35,46,49
240,1.195, 2017/11/15 11:14:42.841上午,589,50,36,45,50
241,1.2, 2017/11/15 11:14:42.846上午,617,49,35,46,49
242,1.205, 2017/11/15 11:14:42.851上午,595,52,36,46,52
243,1.21, 2017/11/15 11:14:42.856上午,626,52,38,46,52
244,1.215, 2017/11/15 11:14:42.861上午,599,50,36,45,50
245,1.22, 2017/11/15 11:14:42.866上午,601,52,35,45,52
246,1.225, 2017/11/15 11:14:42.871上午,631,52,35,45,52
247,1.23, 2017/11/15 11:14:42.876上午,592,49,35,46,49
248,1.235, 2017/11/15 11:14:42.881上午,586,50,36,46,50
249,1.24, 2017/11/15 11:14:42.886上午,602,52,36,44,52
250,1.245, 2017/11/15 11:14:42.891上午,623,50,36,46,50
251,1.25, 2017/11/15 11:14:42.896上午,619,50,35,43,50
252,1.255, 2017/11/15 11:14:42.901上午,602,49,36,44,49
253,1.26, 2017/11/15 11:14:42.906上午,583,49,36,44,49
254,1.265, 2017/11/15 11:14:42.911上午,588,50,35,44,50
255,1.27, 2017/11/15 11:14:42.916上午,598,50,36,44,50
256,1.275, 2017/11/15 11:14:42.921上午,606,52,36,46,52
257,1.28, 2017/11/15 11:14:42.926上午,608,50,36,44,50
258,1.285, 2017/11/15 11:14:42.931上午,583,50,35,45,50
259,1.29, 2017/11/15 11:14:42.936上午,626,52,35,46,52
260,1.295, 2017/11/15 11:14:42.941上午,618,49,35,44,49
261,1.3, 2017/11/15 11:14:42.946上午,613,50,35,44,50
262,1.305, 2017/11/15 11:14:42.951上午,594,47,35,46,47
263,1.31, 2017/11/15 11:14:42.956上午,586,50,36,45,50
264,1.315, 2017/11/15 11:14:42.961上午,599,50,36,46,50
265,1.32, 2017/11/15 11:14:42.966上午,611,52,36,46,52
266,1.325, 2017/11/15 11:14:42.971上午,597,50,35,47,50
267,1.33, 2017/11/15 11:14:42.976上午,621,50,35,46,50
268,1.335, 2017/11/15 11:14:42.981上午,589,49,36,44,49
269,1.34, 2017/11/15 11:14:42.986上午,604,49,36,43,49
270,1.345, 2017/11/15 11:14:42.991上午,592,52,38,44,52
271,1.35, 2017/11/15 11:14:42.996上午,599,52,35,44,52
272,1.355, 2017/11/15 11:14:43.001上午,635,52,35,44,52
273,1.36, 2017/11/15 11:14:43.006上午,624,50,35,44,50
274,1.365, 2017/11/15 11:14:43.011上午,573,49,36,44,49
275,1.37, 2017/11/15 11:14:43.016上午,602,49,35,44,49
276,1.375, 2017/11/15 11:14:43.021上午,607,49,38,44,49
277,1.38, 2017/11/15 11:14:43.026上午,619,50,36,46,50
278,1.385, 2017/11/15 11:14:43.031上午,626,49,34,44,49
279,1.39, 2017/11/15 11:14:43.036上午,604,52,34,44,52
280,1.395, 2017/11/15 11:14:43.041上午,630,52,34,47,52
281,1.4, 2017/11/15 11:14:43.046上午,607,47,34,46,47
282,1.405, 2017/11/15 11:14:43.051上午,588,47,34,44,47
283,1.41, 2017/11/15 11:14:43.056上午,598,49,34,44,49
284,1.415, 2017/11/15 11:14:43.061上午,598,50,36,44,50
285,1.42, 2017/11/15 11:14:43.066上午,584,52,36,44,52
286,1.425, 2017/11/15 11:14:43.071上午,610,52,36,44,52
287,1.43, 2017/11/15 11:14:43.076上午,599,52,36,47,52
288,1.435, 2017/11/15 11:14:43.081上午,614,52,34,43,52
289,1.44, 2017/11/15 11:14:43.086上午,609,50,34,44,50
290,1.445, 2017/11/15 11:14:43.091上午,596,47,36,44,47
291,1.45, 2017/11/15 11:14:43.096上午,594,50,36,43,50
292,1.455, 2017/11/15 11:14:43.101上午,607,49,36,44,49
293,1.46, 2017/11/15 11:14:43.106上午,616,52,38,44,52
294,1.465, 2017/11/15 11:14:43.111上午,618,50,34,46,50
295,1.47, 2017/11/15 11:14:43.116上午,623,52,34,44,52
296,1.475, 2017/11/15 11:14:43.121上午,613,50,34,46,50
297,1.48, 2017/11/15 11:14:43.126上午,623,52,34,43,52
298,1.485, 2017/11/15 11:14:43.131上午,606,50,36,46,50
299,1.49, 2017/11/15 11:14:43.136上午,605,49,36,44,49
300,1.495, 2017/11/15 11:14:43.141上午,621,49,36,44,49
301,1.5, 2017/11/15 11:14:43.146上午,579,50,36,46,50
302,1.505, 2017/11/15 11:14:43.151上午,616,49,36,46,49
303,1.51, 2017/11/15 11:14:43.156上午,620,52,36,46,52
304,1.515, 2017/11/15 11:14:43.161上午,639,52,34,44,52
305,1.52, 2017/11/15 11:14:43.166上午,613,49,34,43,49
306,1.525, 2017/11/15 11:14:43.171上午,592,49,36,46,49
307,1.53, 2017/11/15 11:14:43.176上午,605,49,36,44,49
308,1.535, 2017/11/15 11:14:43.181上午,617,50,36,46,50
309,1.54, 2017/11/15 11:14:43.186上午,609,52,34,44,52
310,1.545, 2017/11/15 11:14:43.191上午,614,52,36,47,52
311,1.55, 2017/11/15 11:14:43.196上午,602,50,36,46,50
312,1.555, 2017/11/15 11:14:43.201上午,608,50,34,44,50
313,1.56, 2017/11/15 11:14:43.206上午,589,49,34,43,49
314,1.565, 2017/11/15 11:14:43.211上午,611,49,36,44,49
315,1.57, 2017/11/15 11:14:43.216上午,611,50,38,46,50
316,1.575, 2017/11/15 11:14:43.221上午,609,52,36,44,52
317,1.58, 2017/11/15 11:14:43.226上午,612,52,38,46,52
318,1.585, 2017/11/15 11:14:43.231上午,615,52,36,46,52
319,1.59, 2017/11/15 11:14:43.236上午,637,52,34,46,52
320,1.595, 2017/11/15 11:14:43.241上午,617,50,36,46,50
321,1.6, 2017/11/15 11:14:43.246上午,613,50,34,46,50
322,1.605, 2017/11/15 11:14:43.251上午,608,49,34,46,49
323,1.61, 2017/11/15 11:14:43.256上午,601,49,34,44,49
324,1.615, 2017/11/15 11:14:43.261上午,600,49,36,43,49
325,1.62, 2017/11/15 11:14:43.266上午,601,50,36,46,50
326,1.625, 2017/11/15 11:14:43.271上午,610,52,36,44,52
327,1.63, 2017/11/15 11:14:43.276上午,634,52,34,44,52
328,1.635, 2017/11/15 11:14:43.281上午,607,49,34,47,49
329,1.64, 2017/11/15 11:14:43.286上午,605,49,34,46,49
330,1.645, 2017/11/15 11:14:43.291上午,597,52,36,46,52
331,1.65, 2017/11/15 11:14:43.296上午,610,50,36,44,50
332,1.655, 2017/11/15 11:14:43.301上午,645,52,34,44,52
333,1.66, 2017/11/15 11:14:43.306上午,612,50,34,47,50
334,1.665, 2017/11/15 11:14:43.311上午,601,50,34,44,50
335,1.67, 2017/11/15 11:14:43.316上午,594,49,34,44,49
336,1.675, 2017/11/15 11:14:43.321上午,578,52,34,44,52
337,1.68, 2017/11/15 11:14:43.326上午,606,50,36,43,50
338,1.685, 2017/11/15 11:14:43.331上午,610,52,36,44,52
339,1.69, 2017/11/15 11:14:43.336上午,620,52,36,46,52
340,1.695, 2017/11/15 11:14:43.341上午,608,52,34,46,52
341,1.7, 2017/11/15 11:14:43.346上午,633,52,34,46,52
342,1.705, 2017/11/15 11:14:43.351上午,626,52,36,47,52
343,1.71, 2017/11/15 11:14:43.356上午,603,49,34,46,49
344,1.715, 2017/11/15 11:14:43.361上午,618,50,36,44,50
345,1.72, 2017/11/15 11:14:43.366上午,598,50,36,44,50
346,1.725, 2017/11/15 11:14:43.371上午,607,49,36,46,49
347,1.73, 2017/11/15 11:14:43.376上午,607,50,36,44,50
348,1.735, 2017/11/15 11:14:43.381上午,612,52,34,44,52
349,1.74, 2017/11/15 11:14:43.386上午,620,52,36,46,52
350,1.745, 2017/11/15 11:14:43.391上午,581,50,32,43,50
351,1.75, 2017/11/15 11:14:43.396上午,611,49,34,44,49
352,1.755, 2017/11/15 11:14:43.401上午,609,52,36,44,52
353,1.76, 2017/11/15 11:14:43.406上午,615,52,36,46,52
354,1.765, 2017/11/15 11:14:43.411上午,641,52,36,44,52
355,1.77, 2017/11/15 11:14:43.416上午,613,52,34,45,52
356,1.775, 2017/11/15 11:14:43.421上午,593,52,36,44,52
357,1.78, 2017/11/15 11:14:43.426上午,593,50,34,45,50
358,1.785, 2017/11/15 11:14:43.431上午,606,50,36,44,50
359,1.79, 2017/11/15 11:14:43.436上午,602,50,34,44,50
360,1.795, 2017/11/15 11:14:43.441上午,622,52,36,43,52
361,1.8, 2017/11/15 11:14:43.446上午,616,52,36,44,52
362,1.805, 2017/11/15 11:14:43.451上午,622,52,36,47,52
363,1.81, 2017/11/15 11:14:43.456上午,631,53,34,47,53
364,1.815, 2017/11/15 11:14:43.461上午,615,52,34,44,52
365,1.82, 2017/11/15 11:14:43.466上午,617,50,36,44,50
366,1.825, 2017/11/15 11:14:43.471上午,611,52,36,44,52
367,1.83, 2017/11/15 11:14:43.476上午,631,52,38,44,52
368,1.835, 2017/11/15 11:14:43.481上午,604,52,34,44,52
369,1.84, 2017/11/15 11:14:43.486上午,624,50,38,44,50
370,1.845, 2017/11/15 11:14:43.491上午,607,50,34,44,50
371,1.85, 2017/11/15 11:14:43.496上午,606,52,36,46,52
372,1.855, 2017/11/15 11:14:43.501上午,630,53,34,47,53
373,1.86, 2017/11/15 11:14:43.506上午,602,53,34,43,53
374,1.865, 2017/11/15 11:14:43.511上午,630,52,34,44,52
375,1.87, 2017/11/15 11:14:43.516上午,624,50,34,44,50
376,1.875, 2017/11/15 11:14:43.521上午,599,52,36,43,52
377,1.88, 2017/11/15 11:14:43.526上午,621,52,36,46,52
378,1.885, 2017/11/15 11:14:43.531上午,622,52,36,46,52
379,1.89, 2017/11/15 11:14:43.536上午,644,53,34,44,53
380,1.895, 2017/11/15 11:14:43.541上午,621,52,34,44,52
381,1.9, 2017/11/15 11:14:43.546上午,604,52,34,44,52
382,1.905, 2017/11/15 11:14:43.551上午,602,50,36,44,50
383,1.91, 2017/11/15 11:14:43.556上午,614,52,36,43,52
384,1.915, 2017/11/15 11:14:43.561上午,636,52,36,46,52
385,1.92, 2017/11/15 11:14:43.566上午,605,52,34,44,52
386,1.925, 2017/11/15 11:14:43.571上午,644,53,34,46,53
387,1.93, 2017/11/15 11:14:43.576上午,606,52,34,44,52
388,1.935, 2017/11/15 11:14:43.581上午,628,50,36,43,50
389,1.94, 2017/11/15 11:14:43.586上午,623,52,36,44,52
390,1.945, 2017/11/15 11:14:43.591上午,612,53,34,42,53
391,1.95, 2017/11/15 11:14:43.596上午,632,53,34,45,53
392,1.955, 2017/11/15 11:14:43.601上午,612,52,36,43,52
393,1.96, 2017/11/15 11:14:43.606上午,623,52,36,44,52
394,1.965, 2017/11/15 11:14:43.611上午,623,52,36,44,52
395,1.97, 2017/11/15 11:14:43.616上午,629,52,36,43,52
396,1.975, 2017/11/15 11:14:43.621上午,635,53,34,44,53
397,1.98, 2017/11/15 11:14:43.626上午,625,52,33,46,52
398,1.985, 2017/11/15 11:14:43.631上午,611,52,34,44,52
399,1.99, 2017/11/15 11:14:43.636上午,595,52,34,44,52
400,1.995, 2017/11/15 11:14:43.641上午,617,53,38,44,53
401,2, 2017/11/15 11:14:43.646上午,625,52,38,44,52
402,2.005, 2017/11/15 11:14:43.651上午,624,52,36,44,52
403,2.01, 2017/11/15 11:14:43.656上午,597,53,34,44,53
404,2.015, 2017/11/15 11:14:43.661上午,626,53,34,46,53
405,2.02, 2017/11/15 11:14:43.666上午,614,53,36,43,53
406,2.025, 2017/11/15 11:14:43.671上午,614,52,36,43,52
407,2.03, 2017/11/15 11:14:43.676上午,602,52,36,43,52
408,2.035, 2017/11/15 11:14:43.681上午,617,53,37,44,53
409,2.04, 2017/11/15 11:14:43.686上午,622,53,36,44,53
410,2.045, 2017/11/15 11:14:43.691上午,621,53,36,43,53
411,2.05, 2017/11/15 11:14:43.696上午,606,52,36,42,52
412,2.055, 2017/11/15 11:14:43.701上午,608,53,34,42,53
413,2.06, 2017/11/15 11:14:43.706上午,615,53,37,46,53
414,2.065, 2017/11/15 11:14:43.711上午,610,53,36,44,53
415,2.07, 2017/11/15 11:14:43.716上午,624,53,34,44,53
416,2.075, 2017/11/15 11:14:43.721上午,617,53,34,44,53
417,2.08, 2017/11/15 11:14:43.726上午,627,53,34,42,53
418,2.085, 2017/11/15 11:14:43.731上午,613,53,36,42,53
419,2.09, 2017/11/15 11:14:43.736上午,619,52,36,44,52
420,2.095, 2017/11/15 11:14:43.741上午,621,52,38,44,52
421,2.1, 2017/11/15 11:14:43.746上午,647,53,34,42,53
422,2.105, 2017/11/15 11:14:43.751上午,645,53,34,42,53
423,2.11, 2017/11/15 11:14:43.756上午,596,53,34,42,53
424,2.115, 2017/11/15 11:14:43.761上午,608,53,36,42,53
425,2.12, 2017/11/15 11:14:43.766上午,609,52,36,44,52
426,2.125, 2017/11/15 11:14:43.771上午,635,53,34,42,53
427,2.13, 2017/11/15 11:14:43.776上午,605,52,34,42,52
428,2.135, 2017/11/15 11:14:43.781上午,607,53,34,42,53
429,2.14, 2017/11/15 11:14:43.786上午,632,52,36,44,52
430,2.145, 2017/11/15 11:14:43.791上午,609,53,36,42,53
431,2.15, 2017/11/15 11:14:43.796上午,619,53,34,42,53
432,2.155, 2017/11/15 11:14:43.801上午,597,53,36,42,53
433,2.16, 2017/11/15 11:14:43.806上午,623,53,36,42,53
434,2.165, 2017/11/15 11:14:43.811上午,605,52,34,42,52
435,2.17, 2017/11/15 11:14:43.816上午,622,55,36,42,55
436,2.175, 2017/11/15 11:14:43.821上午,621,53,36,45,53
437,2.18, 2017/11/15 11:14:43.826上午,646,53,34,44,53
438,2.185, 2017/11/15 11:14:43.831上午,615,55,34,42,55
439,2.19, 2017/11/15 11:14:43.836上午,614,53,34,42,53
440,2.195, 2017/11/15 11:14:43.841上午,626,55,36,42,55
441,2.2, 2017/11/15 11:14:43.846上午,616,52,36,42,52
442,2.205, 2017/11/15 11:14:43.851上午,610,53,34,44,53
443,2.21, 2017/11/15 11:14:43.856上午,600,53,34,42,53
444,2.215, 2017/11/15 11:14:43.861上午,593,53,34,42,53
445,2.22, 2017/11/15 11:14:43.866上午,604,53,36,41,53
446,2.225, 2017/11/15 11:14:43.871上午,621,55,36,42,55
447,2.23, 2017/11/15 11:14:43.876上午,609,53,34,44,53
448,2.235, 2017/11/15 11:14:43.881上午,631,56,34,42,56
449,2.24, 2017/11/15 11:14:43.886上午,616,53,34,42,53
450,2.245, 2017/11/15 11:14:43.891上午,604,53,36,41,53
451,2.25, 2017/11/15 11:14:43.896上午,617,55,36,42,55
452,2.255, 2017/11/15 11:14:43.901上午,605,53,36,42,53
453,2.26, 2017/11/15 11:14:43.906上午,611,55,36,42,55
454,2.265, 2017/11/15 11:14:43.911上午,616,53,33,42,53
455,2.27, 2017/11/15 11:14:43.916上午,598,53,33,44,53
456,2.275, 2017/11/15 11:14:43.921上午,591,53,35,42,53
457,2.28, 2017/11/15 11:14:43.926上午,611,52,35,42,52
458,2.285, 2017/11/15 11:14:43.931上午,629,53,35,42,53
459,2.29, 2017/11/15 11:14:43.936上午,619,53,35,43,53
460,2.295, 2017/11/15 11:14:43.941上午,623,55,35,43,55
461,2.3, 2017/11/15 11:14:43.946上午,621,53,33,42,53
462,2.305, 2017/11/15 11:14:43.951上午,631,53,33,42,53
463,2.31, 2017/11/15 11:14:43.956上午,595,53,34,41,53
464,2.315, 2017/11/15 11:14:43.961上午,624,55,36,42,55
465,2.32, 2017/11/15 11:14:43.966上午,623,55,36,42,55
466,2.325, 2017/11/15 11:14:43.971上午,629,55,36,41,55
467,2.33, 2017/11/15 11:14:43.976上午,635,56,34,42,56
468,2.335, 2017/11/15 11:14:43.981上午,606,53,33,42,53
469,2.34, 2017/11/15 11:14:43.986上午,612,53,33,42,53
470,2.345, 2017/11/15 11:14:43.991上午,628,55,36,44,55
471,2.35, 2017/11/15 11:14:43.996上午,633,53,36,41,53
472,2.355, 2017/11/15 11:14:44.001上午,619,53,33,42,53
473,2.36, 2017/11/15 11:14:44.006上午,610,53,33,42,53
474,2.365, 2017/11/15 11:14:44.011上午,600,52,33,42,52
475,2.37, 2017/11/15 11:14:44.016上午,610,52,36,42,52
476,2.375, 2017/11/15 11:14:44.021上午,651,55,33,41,55
477,2.38, 2017/11/15 11:14:44.026上午,604,53,33,42,53
478,2.385, 2017/11/15 11:14:44.031上午,613,53,33,42,53
479,2.39, 2017/11/15 11:14:44.036上午,626,55,37,42,55
480,2.395, 2017/11/15 11:14:44.041上午,627,55,36,42,55
481,2.4, 2017/11/15 11:14:44.046上午,620,53,36,44,53
482,2.405, 2017/11/15 11:14:44.051上午,605,53,34,42,53
483,2.41, 2017/11/15 11:14:44.056上午,602,53,34,44,53
484,2.415, 2017/11/15 11:14:44.061上午,600,53,33,42,53
485,2.42, 2017/11/15 11:14:44.066上午,623,55,35,42,55
486,2.425, 2017/11/15 11:14:44.071上午,622,55,35,44,55
487,2.43, 2017/11/15 11:14:44.076上午,640,53,34,41,53
488,2.435, 2017/11/15 11:14:44.081上午,596,53,33,42,53
489,2.44, 2017/11/15 11:14:44.086上午,623,55,36,42,55
490,2.445, 2017/11/15 11:14:44.091上午,642,55,36,41,55
491,2.45, 2017/11/15 11:14:44.096上午,616,53,35,42,53
492,2.455, 2017/11/15 11:14:44.101上午,608,53,33,44,53
493,2.46, 2017/11/15 11:14:44.106上午,617,53,35,42,53
494,2.465, 2017/11/15 11:14:44.111上午,621,52,33,42,52
495,2.47, 2017/11/15 11:14:44.116上午,613,52,35,44,52
496,2.475, 2017/11/15 11:14:44.121上午,631,53,35,42,53
497,2.48, 2017/11/15 11:14:44.126上午,626,53,33,42,53
498,2.485, 2017/11/15 11:14:44.131上午,622,53,33,42,53
499,2.49, 2017/11/15 11:14:44.136上午,612,53,33,44,53
500,2.495, 2017/11/15 11:14:44.141上午,629,53,35,44,53
501,2.5, 2017/11/15 11:14:44.146上午,605,52,35,44,52
502,2.505, 2017/11/15 11:14:44.151上午,628,53,33,42,53
503,2.51, 2017/11/15 11:14:44.156上午,605,53,34,42,53
504,2.515, 2017/11/15 11:14:44.161上午,600,53,33,42,53
505,2.52, 2017/11/15 11:14:44.166上午,609,53,33,41,53
506,2.525, 2017/11/15 11:14:44.171上午,606,53,35,42,53
507,2.53, 2017/11/15 11:14:44.176上午,618,53,34,42,53
508,2.535, 2017/11/15 11:14:44.181上午,646,53,33,42,53
509,2.54, 2017/11/15 11:14:44.186上午,615,53,33,42,53
510,2.545, 2017/11/15 11:14:44.191上午,604,53,35,44,53
511,2.55, 2017/11/15 11:14:44.196上午,611,52,35,42,52
512,2.555, 2017/11/15 11:14:44.201上午,622,55,35,45,55
513,2.56, 2017/11/15 11:14:44.206上午,618,53,33,42,53
514,2.565, 2017/11/15 11:14:44.211上午,604,53,33,42,53
515,2.57, 2017/11/15 11:14:44.216上午,602,53,35,42,53
516,2.575, 2017/11/15 11:14:44.221上午,609,53,36,42,53
517,2.58, 2017/11/15 11:14:44.226上午,631,53,36,44,53
518,2.585, 2017/11/15 11:14:44.231上午,614,53,34,41,53
519,2.59, 2017/11/15 11:14:44.236上午,603,53,34,44,53
520,2.595, 2017/11/15 11:14:44.241上午,605,53,33,42,53
521,2.6, 2017/11/15 11:14:44.246上午,623,53,33,42,53
522,2.605, 2017/11/15 11:14:44.251上午,608,52,33,42,52
523,2.61, 2017/11/15 11:14:44.256上午,614,52,35,44,52
524,2.615, 2017/11/15 11:14:44.261上午,610,53,35,41,53
525,2.62, 2017/11/15 11:14:44.266上午,625,53,35,42,53
526,2.625, 2017/11/15 11:14:44.271上午,607,53,33,42,53
527,2.63, 2017/11/15 11:14:44.276上午,614,53,33,42,53
528,2.635, 2017/11/15 11:14:44.281上午,602,52,33,42,52
529,2.64, 2017/11/15 11:14:44.286上午,615,53,35,44,53
530,2.645, 2017/11/15 11:14:44.291上午,614,53,34,45,53
531,2.65, 2017/11/15 11:14:44.296上午,631,53,35,42,53
532,2.655, 2017/11/15 11:14:44.301上午,605,53,33,44,53
533,2.66, 2017/11/15 11:14:44.306上午,604,52,33,42,52
534,2.665, 2017/11/15 11:14:44.311上午,603,53,37,42,53
535,2.67, 2017/11/15 11:14:44.316上午,613,53,35,44,53
536,2.675, 2017/11/15 11:14:44.321上午,629,53,34,42,53
537,2.68, 2017/11/15 11:14:44.326上午,604,53,34,44,53
538,2.685, 2017/11/15 11:14:44.331上午,596,52,33,44,52
539,2.69, 2017/11/15 11:14:44.336上午,629,53,35,42,53
540,2.695, 2017/11/15 11:14:44.341上午,613,52,35,42,52
541,2.7, 2017/11/15 11:14:44.346上午,610,52,35,44,52
542,2.705, 2017/11/15 11:14:44.351上午,622,53,34,42,53
543,2.71, 2017/11/15 11:14:44.356上午,634,53,34,42,53
544,2.715, 2017/11/15 11:14:44.361上午,613,53,35,42,53
545,2.72, 2017/11/15 11:14:44.366上午,603,53,35,42,53
546,2.725, 2017/11/15 11:14:44.371上午,603,52,35,44,52
547,2.73, 2017/11/15 11:14:44.376上午,628,53,35,42,53
548,2.735, 2017/11/15 11:14:44.381上午,611,53,33,42,53
549,2.74, 2017/11/15 11:14:44.386上午,618,53,35,42,53
550,2.745, 2017/11/15 11:14:44.391上午,619,53,35,40,53
551,2.75, 2017/11/15 11:14:44.396上午,603,53,34,44,53
552,2.755, 2017/11/15 11:14:44.401上午,627,53,33,41,53
553,2.76, 2017/11/15 11:14:44.406上午,597,53,33,42,53
554,2.765, 2017/11/15 11:14:44.411上午,602,53,33,42,53
555,2.77, 2017/11/15 11:14:44.416上午,605,50,36,42,50
556,2.775, 2017/11/15 11:14:44.421上午,616,52,36,42,52
557,2.78, 2017/11/15 11:14:44.426上午,610,53,34,42,53
558,2.785, 2017/11/15 11:14:44.431上午,616,52,33,42,52
559,2.79, 2017/11/15 11:14:44.436上午,637,53,33,42,53
560,2.795, 2017/11/15 11:14:44.441上午,625,52,33,42,52
561,2.8, 2017/11/15 11:14:44.446上午,599,52,33,44,52
562,2.805, 2017/11/15 11:14:44.451上午,628,53,35,42,53
563,2.81, 2017/11/15 11:14:44.456上午,635,53,35,44,53
564,2.815, 2017/11/15 11:14:44.461上午,625,53,34,42,53
565,2.82, 2017/11/15 11:14:44.466上午,610,53,34,42,53
566,2.825, 2017/11/15 11:14:44.471上午,616,53,35,41,53
567,2.83, 2017/11/15 11:14:44.476上午,629,52,35,42,52
568,2.835, 2017/11/15 11:14:44.481上午,598,52,35,42,52
569,2.84, 2017/11/15 11:14:44.486上午,602,53,34,42,53
570,2.845, 2017/11/15 11:14:44.491上午,643,53,33,42,53
571,2.85, 2017/11/15 11:14:44.496上午,597,52,33,42,52
572,2.855, 2017/11/15 11:14:44.501上午,623,53,35,41,53
573,2.86, 2017/11/15 11:14:44.506上午,609,53,35,44,53
574,2.865, 2017/11/15 11:14:44.511上午,622,53,34,41,53
575,2.87, 2017/11/15 11:14:44.516上午,635,53,35,42,53
576,2.875, 2017/11/15 11:14:44.521上午,622,53,34,42,53
577,2.88, 2017/11/15 11:14:44.526上午,620,53,33,42,53
578,2.885, 2017/11/15 11:14:44.531上午,613,52,33,42,52
579,2.89, 2017/11/15 11:14:44.536上午,612,53,35,42,53
580,2.895, 2017/11/15 11:14:44.541上午,626,52,35,42,52
581,2.9, 2017/11/15 11:14:44.546上午,610,52,35,42,52
582,2.905, 2017/11/15 11:14:44.551上午,635,53,33,42,53
583,2.91, 2017/11/15 11:14:44.556上午,600,53,35,42,53
584,2.915, 2017/11/15 11:14:44.561上午,595,52,33,42,52
585,2.92, 2017/11/15 11:14:44.566上午,609,52,37,42,52
586,2.925, 2017/11/15 11:14:44.571上午,626,55,35,40,55
587,2.93, 2017/11/15 11:14:44.576上午,617,52,35,42,52
588,2.935, 2017/11/15 11:14:44.581上午,635,53,33,42,53
589,2.94, 2017/11/15 11:14:44.586上午,627,53,35,42,53
590,2.945, 2017/11/15 11:14:44.591上午,590,52,33,42,52
591,2.95, 2017/11/15 11:14:44.596上午,618,55,35,42,55
592,2.955, 2017/11/15 11:14:44.601上午,610,52,33,44,52
593,2.96, 2017/11/15 11:14:44.606上午,642,53,33,41,53
594,2.965, 2017/11/15 11:14:44.611上午,593,53,33,42,53
595,2.97, 2017/11/15 11:14:44.616上午,600,53,35,42,53
596,2.975, 2017/11/15 11:14:44.621上午,598,52,33,42,52
597,2.98, 2017/11/15 11:14:44.626上午,610,55,33,42,55
598,2.985, 2017/11/15 11:14:44.631上午,623,53,33,42,53
599,2.99, 2017/11/15 11:14:44.636上午,605,53,34,44,53
600,2.995, 2017/11/15 11:14:44.641上午,623,53,33,42,53
@@,,,,,,,
