DATA_TYPE Graph,,,,,,,
VERSION Tekscan Pressure Measurement System 6.70-03,,,,,,,
HARDWARE 00114-3447,,,,,,,
MAP_VERSION 6.5,,,,,,,
HW_TYPE 4,,,,,,,
VersaPogoFsx 0,,,,,,,
檔案名 C:\Users\asus\Desktop\工研院_計畫\收案資料\Subject02\Plantar Pressure\R65S_STAND_RIGHT_3.fsx,,,,,,,
SENSOR_TYPE FSCAN,,,,,,,
ROWS 60,,,,,,,
COLS 21,,,,,,,
ROW_SPACING 0.508 centimeters,,,,,,,
COL_SPACING 0.508 centimeters,,,,,,,
SENSEL_AREA 0.258064 cm2,,,,,,,
NOISE_THRESHOLD 3,,,,,,,
SECONDS_PER_FRAME 0.005,,,,,,,
SECONDS_PER_FRAME 0,,,,,,,
MICRO_SECOND 0,,,,,,,
TIME 2017/11/15 11:15:58.365上午,,,,,,,
SATURATION_PRESSURE 2347.96 KPa ,,,,,,,
CALIBRATION_POINT_1 48.0001 (Kilograms) 1981 (Raw Sum) 199 (Number of Loaded Cells),,,,,,,
CALIBRATION_MODE_1 步態,,,,,,,
CALIBRATION_INFO C:\Users\asus\Desktop\工研院_計畫\收案資料\Subject02\Plantar Pressure\R65S_STAND_RIGHT_3.fsx,,,,,,,
SENSITIVITY 自定義,,,,,,,
MAP_INDEX 0,,,,,,,
SUBMAP 0,,,,,,,
Patient ID: ,,,,,,,
,,,,,,,
Speed of Gait: ,,,,,,,
,,,,,,,
Weight: ,,,,,,,
,,,,,,,
Gender: ,,,,,,,
,,,,,,,
Physician: ,,,,,,,
,,,,,,,
Technician: ,,,,,,,
,,,,,,,
Shoe: ,,,,,,,
,,,,,,,
START_FRAME 1,,,,,,,
END_FRAME 600,,,,,,,
UNITS KPa,,,,,,,
ASCII_DATA @@,,,,,,,
畫面(X), 時間(X), 絕對時間(X), Raw Sum, 峰值壓力(Y:天藍色), 峰值壓力(Y), 峰值壓力(Y), 峰值壓力(Y)
1,0, 2017/11/15 11:15:58.365上午,593,44,33,47,47
2,0.005, 2017/11/15 11:15:58.37上午,586,46,37,48,48
3,0.01, 2017/11/15 11:15:58.375上午,609,47,35,46,47
4,0.015, 2017/11/15 11:15:58.38上午,617,47,35,46,47
5,0.02, 2017/11/15 11:15:58.385上午,597,46,35,47,47
6,0.025, 2017/11/15 11:15:58.39上午,596,47,37,48,48
7,0.03, 2017/11/15 11:15:58.395上午,594,47,36,46,47
8,0.035, 2017/11/15 11:15:58.4上午,623,47,33,48,48
9,0.04, 2017/11/15 11:15:58.405上午,615,46,33,45,46
10,0.045, 2017/11/15 11:15:58.41上午,587,46,34,45,46
11,0.05, 2017/11/15 11:15:58.415上午,614,47,35,46,47
12,0.055, 2017/11/15 11:15:58.42上午,587,44,33,46,46
13,0.06, 2017/11/15 11:15:58.425上午,608,46,36,50,50
14,0.065, 2017/11/15 11:15:58.43上午,622,46,35,46,46
15,0.07, 2017/11/15 11:15:58.435上午,583,44,35,48,48
16,0.075, 2017/11/15 11:15:58.44上午,625,46,33,46,46
17,0.08, 2017/11/15 11:15:58.445上午,598,44,35,47,47
18,0.085, 2017/11/15 11:15:58.45上午,595,46,37,47,47
19,0.09, 2017/11/15 11:15:58.455上午,606,46,33,46,46
20,0.095, 2017/11/15 11:15:58.46上午,610,46,33,47,47
21,0.1, 2017/11/15 11:15:58.465上午,581,46,36,47,47
22,0.105, 2017/11/15 11:15:58.47上午,619,47,35,46,47
23,0.11, 2017/11/15 11:15:58.475上午,620,46,35,46,46
24,0.115, 2017/11/15 11:15:58.48上午,591,46,35,47,47
25,0.12, 2017/11/15 11:15:58.485上午,594,48,35,47,48
26,0.125, 2017/11/15 11:15:58.49上午,613,47,35,49,49
27,0.13, 2017/11/15 11:15:58.495上午,610,46,33,46,46
28,0.135, 2017/11/15 11:15:58.5上午,605,46,35,45,46
29,0.14, 2017/11/15 11:15:58.505上午,604,46,36,46,46
30,0.145, 2017/11/15 11:15:58.51上午,629,46,33,46,46
31,0.15, 2017/11/15 11:15:58.515上午,596,44,34,46,46
32,0.155, 2017/11/15 11:15:58.52上午,600,46,34,46,46
33,0.16, 2017/11/15 11:15:58.525上午,613,47,35,47,47
34,0.165, 2017/11/15 11:15:58.53上午,599,46,34,46,46
35,0.17, 2017/11/15 11:15:58.535上午,574,46,34,45,46
36,0.175, 2017/11/15 11:15:58.54上午,601,46,36,46,46
37,0.18, 2017/11/15 11:15:58.545上午,615,47,37,46,47
38,0.185, 2017/11/15 11:15:58.55上午,613,47,35,46,47
39,0.19, 2017/11/15 11:15:58.555上午,597,47,37,46,47
40,0.195, 2017/11/15 11:15:58.56上午,606,46,35,44,46
41,0.2, 2017/11/15 11:15:58.565上午,606,46,36,45,46
42,0.205, 2017/11/15 11:15:58.57上午,622,47,33,46,47
43,0.21, 2017/11/15 11:15:58.575上午,613,47,33,46,47
44,0.215, 2017/11/15 11:15:58.58上午,588,46,35,45,46
45,0.22, 2017/11/15 11:15:58.585上午,605,47,34,44,47
46,0.225, 2017/11/15 11:15:58.59上午,621,49,35,48,49
47,0.23, 2017/11/15 11:15:58.595上午,628,47,33,46,47
48,0.235, 2017/11/15 11:15:58.6上午,606,48,35,46,48
49,0.24, 2017/11/15 11:15:58.605上午,607,49,35,46,49
50,0.245, 2017/11/15 11:15:58.61上午,622,49,35,47,49
51,0.25, 2017/11/15 11:15:58.615上午,618,47,33,46,47
52,0.255, 2017/11/15 11:15:58.62上午,592,49,35,45,49
53,0.26, 2017/11/15 11:15:58.625上午,624,48,33,47,48
54,0.265, 2017/11/15 11:15:58.63上午,603,47,33,46,47
55,0.27, 2017/11/15 11:15:58.635上午,615,47,36,48,48
56,0.275, 2017/11/15 11:15:58.64上午,609,47,33,44,47
57,0.28, 2017/11/15 11:15:58.645上午,617,47,35,46,47
58,0.285, 2017/11/15 11:15:58.65上午,605,47,36,45,47
59,0.29, 2017/11/15 11:15:58.655上午,625,49,33,44,49
60,0.295, 2017/11/15 11:15:58.66上午,608,46,33,46,46
61,0.3, 2017/11/15 11:15:58.665上午,601,48,35,46,48
62,0.305, 2017/11/15 11:15:58.67上午,605,50,34,45,50
63,0.31, 2017/11/15 11:15:58.675上午,640,47,33,46,47
64,0.315, 2017/11/15 11:15:58.68上午,623,47,35,46,47
65,0.32, 2017/11/15 11:15:58.685上午,602,49,36,46,49
66,0.325, 2017/11/15 11:15:58.69上午,599,47,36,45,47
67,0.33, 2017/11/15 11:15:58.695上午,616,49,33,44,49
68,0.335, 2017/11/15 11:15:58.7上午,600,49,35,46,49
69,0.34, 2017/11/15 11:15:58.705上午,625,49,35,45,49
70,0.345, 2017/11/15 11:15:58.71上午,632,48,35,46,48
71,0.35, 2017/11/15 11:15:58.715上午,609,47,35,44,47
72,0.355, 2017/11/15 11:15:58.72上午,607,49,35,44,49
73,0.36, 2017/11/15 11:15:58.725上午,620,49,34,46,49
74,0.365, 2017/11/15 11:15:58.73上午,614,47,35,45,47
75,0.37, 2017/11/15 11:15:58.735上午,608,49,36,44,49
76,0.375, 2017/11/15 11:15:58.74上午,619,49,35,46,49
77,0.38, 2017/11/15 11:15:58.745上午,615,47,33,45,47
78,0.385, 2017/11/15 11:15:58.75上午,607,49,36,46,49
79,0.39, 2017/11/15 11:15:58.755上午,627,49,33,45,49
80,0.395, 2017/11/15 11:15:58.76上午,612,46,33,45,46
81,0.4, 2017/11/15 11:15:58.765上午,610,49,35,43,49
82,0.405, 2017/11/15 11:15:58.77上午,627,49,33,44,49
83,0.41, 2017/11/15 11:15:58.775上午,624,49,35,44,49
84,0.415, 2017/11/15 11:15:58.78上午,608,49,35,46,49
85,0.42, 2017/11/15 11:15:58.785上午,631,49,36,46,49
86,0.425, 2017/11/15 11:15:58.79上午,616,49,37,45,49
87,0.43, 2017/11/15 11:15:58.795上午,636,49,33,46,49
88,0.435, 2017/11/15 11:15:58.8上午,617,49,36,45,49
89,0.44, 2017/11/15 11:15:58.805上午,627,49,33,45,49
90,0.445, 2017/11/15 11:15:58.81上午,626,47,33,45,47
91,0.45, 2017/11/15 11:15:58.815上午,622,49,36,46,49
92,0.455, 2017/11/15 11:15:58.82上午,628,47,35,44,47
93,0.46, 2017/11/15 11:15:58.825上午,615,49,35,45,49
94,0.465, 2017/11/15 11:15:58.83上午,620,49,36,43,49
95,0.47, 2017/11/15 11:15:58.835上午,632,48,33,46,48
96,0.475, 2017/11/15 11:15:58.84上午,600,49,33,46,49
97,0.48, 2017/11/15 11:15:58.845上午,634,49,33,44,49
98,0.485, 2017/11/15 11:15:58.85上午,639,47,33,45,47
99,0.49, 2017/11/15 11:15:58.855上午,615,49,36,44,49
100,0.495, 2017/11/15 11:15:58.86上午,625,52,35,44,52
101,0.5, 2017/11/15 11:15:58.865上午,634,49,39,45,49
102,0.505, 2017/11/15 11:15:58.87上午,616,47,35,46,47
103,0.51, 2017/11/15 11:15:58.875上午,630,49,35,44,49
104,0.515, 2017/11/15 11:15:58.88上午,627,52,33,43,52
105,0.52, 2017/11/15 11:15:58.885上午,637,47,33,46,47
106,0.525, 2017/11/15 11:15:58.89上午,621,47,33,45,47
107,0.53, 2017/11/15 11:15:58.895上午,616,49,35,45,49
108,0.535, 2017/11/15 11:15:58.9上午,635,49,34,45,49
109,0.54, 2017/11/15 11:15:58.905上午,639,47,37,46,47
110,0.545, 2017/11/15 11:15:58.91上午,618,49,35,46,49
111,0.55, 2017/11/15 11:15:58.915上午,619,50,35,44,50
112,0.555, 2017/11/15 11:15:58.92上午,638,47,33,45,47
113,0.56, 2017/11/15 11:15:58.925上午,609,49,35,48,49
114,0.565, 2017/11/15 11:15:58.93上午,632,52,35,46,52
115,0.57, 2017/11/15 11:15:58.935上午,634,49,33,46,49
116,0.575, 2017/11/15 11:15:58.94上午,600,49,33,46,49
117,0.58, 2017/11/15 11:15:58.945上午,637,52,35,46,52
118,0.585, 2017/11/15 11:15:58.95上午,627,49,33,45,49
119,0.59, 2017/11/15 11:15:58.955上午,611,49,35,46,49
120,0.595, 2017/11/15 11:15:58.96上午,626,52,38,46,52
121,0.6, 2017/11/15 11:15:58.965上午,636,49,35,44,49
122,0.605, 2017/11/15 11:15:58.97上午,642,47,33,44,47
123,0.61, 2017/11/15 11:15:58.975上午,607,48,37,43,48
124,0.615, 2017/11/15 11:15:58.98上午,619,49,38,46,49
125,0.62, 2017/11/15 11:15:58.985上午,636,49,36,45,49
126,0.625, 2017/11/15 11:15:58.99上午,608,49,34,46,49
127,0.63, 2017/11/15 11:15:58.995上午,625,49,35,45,49
128,0.635, 2017/11/15 11:15:59上午,639,47,35,46,47
129,0.64, 2017/11/15 11:15:59.005上午,633,47,34,44,47
130,0.645, 2017/11/15 11:15:59.01上午,627,49,36,46,49
131,0.65, 2017/11/15 11:15:59.015上午,616,49,32,46,49
132,0.655, 2017/11/15 11:15:59.02上午,622,49,34,48,49
133,0.66, 2017/11/15 11:15:59.025上午,623,47,35,45,47
134,0.665, 2017/11/15 11:15:59.03上午,629,47,34,46,47
135,0.67, 2017/11/15 11:15:59.035上午,607,47,35,44,47
136,0.675, 2017/11/15 11:15:59.04上午,626,49,35,45,49
137,0.68, 2017/11/15 11:15:59.045上午,631,47,34,46,47
138,0.685, 2017/11/15 11:15:59.05上午,614,49,34,48,49
139,0.69, 2017/11/15 11:15:59.055上午,631,47,35,45,47
140,0.695, 2017/11/15 11:15:59.06上午,633,49,33,45,49
141,0.7, 2017/11/15 11:15:59.065上午,612,47,34,44,47
142,0.705, 2017/11/15 11:15:59.07上午,625,49,34,47,49
143,0.71, 2017/11/15 11:15:59.075上午,634,49,35,45,49
144,0.715, 2017/11/15 11:15:59.08上午,634,47,35,45,47
145,0.72, 2017/11/15 11:15:59.085上午,615,47,34,44,47
146,0.725, 2017/11/15 11:15:59.09上午,616,49,35,47,49
147,0.73, 2017/11/15 11:15:59.095上午,629,47,34,44,47
148,0.735, 2017/11/15 11:15:59.1上午,629,49,34,45,49
149,0.74, 2017/11/15 11:15:59.105上午,624,49,34,46,49
150,0.745, 2017/11/15 11:15:59.11上午,619,46,34,45,46
151,0.75, 2017/11/15 11:15:59.115上午,641,49,34,47,49
152,0.755, 2017/11/15 11:15:59.12上午,611,47,34,46,47
153,0.76, 2017/11/15 11:15:59.125上午,614,49,36,46,49
154,0.765, 2017/11/15 11:15:59.13上午,630,47,34,46,47
155,0.77, 2017/11/15 11:15:59.135上午,619,47,34,46,47
156,0.775, 2017/11/15 11:15:59.14上午,614,49,37,46,49
157,0.78, 2017/11/15 11:15:59.145上午,639,47,35,45,47
158,0.785, 2017/11/15 11:15:59.15上午,639,47,34,45,47
159,0.79, 2017/11/15 11:15:59.155上午,627,49,36,46,49
160,0.795, 2017/11/15 11:15:59.16上午,626,47,35,45,47
161,0.8, 2017/11/15 11:15:59.165上午,628,49,37,45,49
162,0.805, 2017/11/15 11:15:59.17上午,628,47,34,46,47
163,0.81, 2017/11/15 11:15:59.175上午,615,48,36,49,49
164,0.815, 2017/11/15 11:15:59.18上午,643,50,36,47,50
165,0.82, 2017/11/15 11:15:59.185上午,615,47,34,46,47
166,0.825, 2017/11/15 11:15:59.19上午,615,47,34,47,47
167,0.83, 2017/11/15 11:15:59.195上午,622,50,34,46,50
168,0.835, 2017/11/15 11:15:59.2上午,629,49,32,46,49
169,0.84, 2017/11/15 11:15:59.205上午,626,49,34,44,49
170,0.845, 2017/11/15 11:15:59.21上午,605,47,36,45,47
171,0.85, 2017/11/15 11:15:59.215上午,633,49,34,46,49
172,0.855, 2017/11/15 11:15:59.22上午,625,47,34,46,47
173,0.86, 2017/11/15 11:15:59.225上午,628,49,36,45,49
174,0.865, 2017/11/15 11:15:59.23上午,631,47,34,44,47
175,0.87, 2017/11/15 11:15:59.235上午,619,49,34,44,49
176,0.875, 2017/11/15 11:15:59.24上午,641,47,34,45,47
177,0.88, 2017/11/15 11:15:59.245上午,623,47,34,45,47
178,0.885, 2017/11/15 11:15:59.25上午,621,49,36,45,49
179,0.89, 2017/11/15 11:15:59.255上午,626,49,36,46,49
180,0.895, 2017/11/15 11:15:59.26上午,607,49,34,44,49
181,0.9, 2017/11/15 11:15:59.265上午,625,52,34,45,52
182,0.905, 2017/11/15 11:15:59.27上午,633,47,34,44,47
183,0.91, 2017/11/15 11:15:59.275上午,621,49,34,46,49
184,0.915, 2017/11/15 11:15:59.28上午,633,49,34,46,49
185,0.92, 2017/11/15 11:15:59.285上午,629,52,35,45,52
186,0.925, 2017/11/15 11:15:59.29上午,623,47,34,46,47
187,0.93, 2017/11/15 11:15:59.295上午,619,47,34,44,47
188,0.935, 2017/11/15 11:15:59.3上午,620,49,36,46,49
189,0.94, 2017/11/15 11:15:59.305上午,633,49,34,45,49
190,0.945, 2017/11/15 11:15:59.31上午,615,48,34,46,48
191,0.95, 2017/11/15 11:15:59.315上午,634,50,35,43,50
192,0.955, 2017/11/15 11:15:59.32上午,650,49,34,45,49
193,0.96, 2017/11/15 11:15:59.325上午,619,49,34,43,49
194,0.965, 2017/11/15 11:15:59.33上午,639,47,33,46,47
195,0.97, 2017/11/15 11:15:59.335上午,613,47,34,46,47
196,0.975, 2017/11/15 11:15:59.34上午,634,49,36,47,49
197,0.98, 2017/11/15 11:15:59.345上午,636,49,36,45,49
198,0.985, 2017/11/15 11:15:59.35上午,624,49,34,46,49
199,0.99, 2017/11/15 11:15:59.355上午,626,49,36,45,49
200,0.995, 2017/11/15 11:15:59.36上午,635,49,34,46,49
201,1, 2017/11/15 11:15:59.365上午,629,47,34,46,47
202,1.005, 2017/11/15 11:15:59.37上午,626,49,36,46,49
203,1.01, 2017/11/15 11:15:59.375上午,632,50,34,44,50
204,1.015, 2017/11/15 11:15:59.38上午,618,47,34,46,47
205,1.02, 2017/11/15 11:15:59.385上午,624,49,34,43,49
206,1.025, 2017/11/15 11:15:59.39上午,620,47,34,45,47
207,1.03, 2017/11/15 11:15:59.395上午,644,47,34,45,47
208,1.035, 2017/11/15 11:15:59.4上午,615,47,34,47,47
209,1.04, 2017/11/15 11:15:59.405上午,611,47,36,46,47
210,1.045, 2017/11/15 11:15:59.41上午,623,49,38,45,49
211,1.05, 2017/11/15 11:15:59.415上午,609,47,34,44,47
212,1.055, 2017/11/15 11:15:59.42上午,611,50,35,45,50
213,1.06, 2017/11/15 11:15:59.425上午,608,49,34,45,49
214,1.065, 2017/11/15 11:15:59.43上午,625,49,34,44,49
215,1.07, 2017/11/15 11:15:59.435上午,628,47,33,45,47
216,1.075, 2017/11/15 11:15:59.44上午,629,47,34,46,47
217,1.08, 2017/11/15 11:15:59.445上午,635,49,36,45,49
218,1.085, 2017/11/15 11:15:59.45上午,630,50,33,45,50
219,1.09, 2017/11/15 11:15:59.455上午,631,47,34,46,47
220,1.095, 2017/11/15 11:15:59.46上午,641,49,36,44,49
221,1.1, 2017/11/15 11:15:59.465上午,635,50,36,46,50
222,1.105, 2017/11/15 11:15:59.47上午,623,47,32,45,47
223,1.11, 2017/11/15 11:15:59.475上午,615,47,34,46,47
224,1.115, 2017/11/15 11:15:59.48上午,619,49,34,45,49
225,1.12, 2017/11/15 11:15:59.485上午,626,49,36,47,49
226,1.125, 2017/11/15 11:15:59.49上午,628,47,34,46,47
227,1.13, 2017/11/15 11:15:59.495上午,630,47,34,47,47
228,1.135, 2017/11/15 11:15:59.5上午,615,50,34,46,50
229,1.14, 2017/11/15 11:15:59.505上午,627,47,34,46,47
230,1.145, 2017/11/15 11:15:59.51上午,613,49,34,47,49
231,1.15, 2017/11/15 11:15:59.515上午,632,47,36,45,47
232,1.155, 2017/11/15 11:15:59.52上午,638,47,34,45,47
233,1.16, 2017/11/15 11:15:59.525上午,629,49,36,45,49
234,1.165, 2017/11/15 11:15:59.53上午,627,47,34,45,47
235,1.17, 2017/11/15 11:15:59.535上午,618,47,34,46,47
236,1.175, 2017/11/15 11:15:59.54上午,621,50,36,46,50
237,1.18, 2017/11/15 11:15:59.545上午,642,47,34,45,47
238,1.185, 2017/11/15 11:15:59.55上午,620,48,34,44,48
239,1.19, 2017/11/15 11:15:59.555上午,635,47,36,45,47
240,1.195, 2017/11/15 11:15:59.56上午,633,49,34,45,49
241,1.2, 2017/11/15 11:15:59.565上午,626,47,34,46,47
242,1.205, 2017/11/15 11:15:59.57上午,617,48,36,45,48
243,1.21, 2017/11/15 11:15:59.575上午,632,50,34,44,50
244,1.215, 2017/11/15 11:15:59.58上午,639,47,34,44,47
245,1.22, 2017/11/15 11:15:59.585上午,622,45,34,46,46
246,1.225, 2017/11/15 11:15:59.59上午,635,47,35,43,47
247,1.23, 2017/11/15 11:15:59.595上午,627,47,34,46,47
248,1.235, 2017/11/15 11:15:59.6上午,620,47,34,44,47
249,1.24, 2017/11/15 11:15:59.605上午,621,49,38,46,49
250,1.245, 2017/11/15 11:15:59.61上午,628,49,33,45,49
251,1.25, 2017/11/15 11:15:59.615上午,621,47,34,44,47
252,1.255, 2017/11/15 11:15:59.62上午,633,49,35,45,49
253,1.26, 2017/11/15 11:15:59.625上午,633,47,34,44,47
254,1.265, 2017/11/15 11:15:59.63上午,630,48,34,44,48
255,1.27, 2017/11/15 11:15:59.635上午,628,46,36,45,46
256,1.275, 2017/11/15 11:15:59.64上午,630,49,34,45,49
257,1.28, 2017/11/15 11:15:59.645上午,611,46,34,46,46
258,1.285, 2017/11/15 11:15:59.65上午,616,49,36,47,49
259,1.29, 2017/11/15 11:15:59.655上午,628,49,34,45,49
260,1.295, 2017/11/15 11:15:59.66上午,617,47,34,46,47
261,1.3, 2017/11/15 11:15:59.665上午,615,46,34,43,46
262,1.305, 2017/11/15 11:15:59.67上午,626,47,36,45,47
263,1.31, 2017/11/15 11:15:59.675上午,629,49,34,46,49
264,1.315, 2017/11/15 11:15:59.68上午,616,47,34,44,47
265,1.32, 2017/11/15 11:15:59.685上午,613,47,36,46,47
266,1.325, 2017/11/15 11:15:59.69上午,616,50,36,45,50
267,1.33, 2017/11/15 11:15:59.695上午,639,49,36,44,49
268,1.335, 2017/11/15 11:15:59.7上午,616,46,34,46,46
269,1.34, 2017/11/15 11:15:59.705上午,597,48,34,45,48
270,1.345, 2017/11/15 11:15:59.71上午,627,47,34,45,47
271,1.35, 2017/11/15 11:15:59.715上午,641,49,34,46,49
272,1.355, 2017/11/15 11:15:59.72上午,618,48,34,45,48
273,1.36, 2017/11/15 11:15:59.725上午,612,46,34,44,46
274,1.365, 2017/11/15 11:15:59.73上午,608,47,32,44,47
275,1.37, 2017/11/15 11:15:59.735上午,610,49,35,44,49
276,1.375, 2017/11/15 11:15:59.74上午,633,47,34,44,47
277,1.38, 2017/11/15 11:15:59.745上午,609,46,34,44,46
278,1.385, 2017/11/15 11:15:59.75上午,617,48,36,45,48
279,1.39, 2017/11/15 11:15:59.755上午,640,49,34,46,49
280,1.395, 2017/11/15 11:15:59.76上午,632,47,34,46,47
281,1.4, 2017/11/15 11:15:59.765上午,630,49,33,46,49
282,1.405, 2017/11/15 11:15:59.77上午,636,47,34,44,47
283,1.41, 2017/11/15 11:15:59.775上午,629,47,34,46,47
284,1.415, 2017/11/15 11:15:59.78上午,616,46,36,45,46
285,1.42, 2017/11/15 11:15:59.785上午,631,47,34,46,47
286,1.425, 2017/11/15 11:15:59.79上午,622,47,34,46,47
287,1.43, 2017/11/15 11:15:59.795上午,616,46,34,44,46
288,1.435, 2017/11/15 11:15:59.8上午,608,47,36,45,47
289,1.44, 2017/11/15 11:15:59.805上午,619,49,32,44,49
290,1.445, 2017/11/15 11:15:59.81上午,619,46,34,44,46
291,1.45, 2017/11/15 11:15:59.815上午,614,47,34,46,47
292,1.455, 2017/11/15 11:15:59.82上午,641,49,34,44,49
293,1.46, 2017/11/15 11:15:59.825上午,615,46,34,46,46
294,1.465, 2017/11/15 11:15:59.83上午,630,46,36,46,46
295,1.47, 2017/11/15 11:15:59.835上午,623,47,36,46,47
296,1.475, 2017/11/15 11:15:59.84上午,610,44,34,44,44
297,1.48, 2017/11/15 11:15:59.845上午,624,48,36,47,48
298,1.485, 2017/11/15 11:15:59.85上午,626,49,34,44,49
299,1.49, 2017/11/15 11:15:59.855上午,617,46,34,46,46
300,1.495, 2017/11/15 11:15:59.86上午,612,49,32,45,49
301,1.5, 2017/11/15 11:15:59.865上午,623,48,34,45,48
302,1.505, 2017/11/15 11:15:59.87上午,620,47,34,46,47
303,1.51, 2017/11/15 11:15:59.875上午,618,47,34,46,47
304,1.515, 2017/11/15 11:15:59.88上午,613,48,34,45,48
305,1.52, 2017/11/15 11:15:59.885上午,622,47,34,46,47
306,1.525, 2017/11/15 11:15:59.89上午,622,47,34,44,47
307,1.53, 2017/11/15 11:15:59.895上午,614,47,34,45,47
308,1.535, 2017/11/15 11:15:59.9上午,632,47,34,44,47
309,1.54, 2017/11/15 11:15:59.905上午,625,49,32,44,49
310,1.545, 2017/11/15 11:15:59.91上午,627,49,34,45,49
311,1.55, 2017/11/15 11:15:59.915上午,624,49,32,45,49
312,1.555, 2017/11/15 11:15:59.92上午,612,47,34,45,47
313,1.56, 2017/11/15 11:15:59.925上午,622,47,36,45,47
314,1.565, 2017/11/15 11:15:59.93上午,629,49,32,44,49
315,1.57, 2017/11/15 11:15:59.935上午,610,49,34,45,49
316,1.575, 2017/11/15 11:15:59.94上午,624,49,34,45,49
317,1.58, 2017/11/15 11:15:59.945上午,621,47,34,45,47
318,1.585, 2017/11/15 11:15:59.95上午,620,49,36,47,49
319,1.59, 2017/11/15 11:15:59.955上午,611,49,32,44,49
320,1.595, 2017/11/15 11:15:59.96上午,619,49,34,45,49
321,1.6, 2017/11/15 11:15:59.965上午,629,49,34,44,49
322,1.605, 2017/11/15 11:15:59.97上午,622,47,32,45,47
323,1.61, 2017/11/15 11:15:59.975上午,593,47,34,46,47
324,1.615, 2017/11/15 11:15:59.98上午,622,49,34,47,49
325,1.62, 2017/11/15 11:15:59.985上午,633,49,34,44,49
326,1.625, 2017/11/15 11:15:59.99上午,630,48,32,44,48
327,1.63, 2017/11/15 11:15:59.995上午,630,48,34,44,48
328,1.635, 2017/11/15 11:16:00上午,625,48,32,44,48
329,1.64, 2017/11/15 11:16:00.005上午,638,49,34,44,49
330,1.645, 2017/11/15 11:16:00.01上午,618,49,34,45,49
331,1.65, 2017/11/15 11:16:00.015上午,628,51,34,45,51
332,1.655, 2017/11/15 11:16:00.02上午,638,47,32,44,47
333,1.66, 2017/11/15 11:16:00.025上午,628,49,36,44,49
334,1.665, 2017/11/15 11:16:00.03上午,643,49,32,44,49
335,1.67, 2017/11/15 11:16:00.035上午,620,49,34,45,49
336,1.675, 2017/11/15 11:16:00.04上午,625,52,34,45,52
337,1.68, 2017/11/15 11:16:00.045上午,639,49,36,45,49
338,1.685, 2017/11/15 11:16:00.05上午,632,49,34,43,49
339,1.69, 2017/11/15 11:16:00.055上午,634,49,34,44,49
340,1.695, 2017/11/15 11:16:00.06上午,623,49,34,45,49
341,1.7, 2017/11/15 11:16:00.065上午,636,52,36,44,52
342,1.705, 2017/11/15 11:16:00.07上午,621,49,34,44,49
343,1.71, 2017/11/15 11:16:00.075上午,627,48,32,45,48
344,1.715, 2017/11/15 11:16:00.08上午,626,50,36,44,50
345,1.72, 2017/11/15 11:16:00.085上午,632,47,32,44,47
346,1.725, 2017/11/15 11:16:00.09上午,625,49,34,45,49
347,1.73, 2017/11/15 11:16:00.095上午,626,49,35,44,49
348,1.735, 2017/11/15 11:16:00.1上午,624,50,32,44,50
349,1.74, 2017/11/15 11:16:00.105上午,616,49,34,44,49
350,1.745, 2017/11/15 11:16:00.11上午,638,49,32,44,49
351,1.75, 2017/11/15 11:16:00.115上午,639,47,34,44,47
352,1.755, 2017/11/15 11:16:00.12上午,622,52,36,43,52
353,1.76, 2017/11/15 11:16:00.125上午,638,47,32,44,47
354,1.765, 2017/11/15 11:16:00.13上午,619,49,34,42,49
355,1.77, 2017/11/15 11:16:00.135上午,607,49,32,44,49
356,1.775, 2017/11/15 11:16:00.14上午,622,49,34,44,49
357,1.78, 2017/11/15 11:16:00.145上午,638,49,38,43,49
358,1.785, 2017/11/15 11:16:00.15上午,647,49,32,45,49
359,1.79, 2017/11/15 11:16:00.155上午,635,49,34,44,49
360,1.795, 2017/11/15 11:16:00.16上午,633,50,34,44,50
361,1.8, 2017/11/15 11:16:00.165上午,633,52,32,44,52
362,1.805, 2017/11/15 11:16:00.17上午,635,49,34,45,49
363,1.81, 2017/11/15 11:16:00.175上午,631,52,36,44,52
364,1.815, 2017/11/15 11:16:00.18上午,636,50,34,44,50
365,1.82, 2017/11/15 11:16:00.185上午,618,49,36,44,49
366,1.825, 2017/11/15 11:16:00.19上午,615,50,36,44,50
367,1.83, 2017/11/15 11:16:00.195上午,629,49,32,44,49
368,1.835, 2017/11/15 11:16:00.2上午,623,49,32,44,49
369,1.84, 2017/11/15 11:16:00.205上午,639,49,36,45,49
370,1.845, 2017/11/15 11:16:00.21上午,648,47,32,45,47
371,1.85, 2017/11/15 11:16:00.215上午,648,49,36,43,49
372,1.855, 2017/11/15 11:16:00.22上午,635,49,36,44,49
373,1.86, 2017/11/15 11:16:00.225上午,625,47,34,44,47
374,1.865, 2017/11/15 11:16:00.23上午,634,50,33,44,50
375,1.87, 2017/11/15 11:16:00.235上午,623,47,34,45,47
376,1.875, 2017/11/15 11:16:00.24上午,611,49,36,44,49
377,1.88, 2017/11/15 11:16:00.245上午,638,47,32,44,47
378,1.885, 2017/11/15 11:16:00.25上午,643,49,36,45,49
379,1.89, 2017/11/15 11:16:00.255上午,642,49,36,44,49
380,1.895, 2017/11/15 11:16:00.26上午,627,49,36,45,49
381,1.9, 2017/11/15 11:16:00.265上午,636,50,34,44,50
382,1.905, 2017/11/15 11:16:00.27上午,632,47,34,43,47
383,1.91, 2017/11/15 11:16:00.275上午,625,52,34,42,52
384,1.915, 2017/11/15 11:16:00.28上午,630,49,34,44,49
385,1.92, 2017/11/15 11:16:00.285上午,624,49,32,45,49
386,1.925, 2017/11/15 11:16:00.29上午,637,49,36,44,49
387,1.93, 2017/11/15 11:16:00.295上午,635,49,36,44,49
388,1.935, 2017/11/15 11:16:00.3上午,635,51,34,42,51
389,1.94, 2017/11/15 11:16:00.305上午,655,49,36,44,49
390,1.945, 2017/11/15 11:16:00.31上午,631,50,34,44,50
391,1.95, 2017/11/15 11:16:00.315上午,623,50,36,44,50
392,1.955, 2017/11/15 11:16:00.32上午,636,50,34,44,50
393,1.96, 2017/11/15 11:16:00.325上午,638,49,34,44,49
394,1.965, 2017/11/15 11:16:00.33上午,627,47,32,44,47
395,1.97, 2017/11/15 11:16:00.335上午,636,49,36,44,49
396,1.975, 2017/11/15 11:16:00.34上午,652,52,34,44,52
397,1.98, 2017/11/15 11:16:00.345上午,622,49,34,45,49
398,1.985, 2017/11/15 11:16:00.35上午,637,52,34,43,52
399,1.99, 2017/11/15 11:16:00.355上午,649,47,34,44,47
400,1.995, 2017/11/15 11:16:00.36上午,640,49,34,44,49
401,2, 2017/11/15 11:16:00.365上午,642,49,34,44,49
402,2.005, 2017/11/15 11:16:00.37上午,637,49,34,44,49
403,2.01, 2017/11/15 11:16:00.375上午,630,50,32,42,50
404,2.015, 2017/11/15 11:16:00.38上午,641,50,34,44,50
405,2.02, 2017/11/15 11:16:00.385上午,636,52,36,45,52
406,2.025, 2017/11/15 11:16:00.39上午,641,49,34,44,49
407,2.03, 2017/11/15 11:16:00.395上午,627,49,34,44,49
408,2.035, 2017/11/15 11:16:00.4上午,634,49,36,42,49
409,2.04, 2017/11/15 11:16:00.405上午,631,50,32,44,50
410,2.045, 2017/11/15 11:16:00.41上午,628,49,36,44,49
411,2.05, 2017/11/15 11:16:00.415上午,637,52,32,44,52
412,2.055, 2017/11/15 11:16:00.42上午,638,49,34,44,49
413,2.06, 2017/11/15 11:16:00.425上午,639,50,36,44,50
414,2.065, 2017/11/15 11:16:00.43上午,644,50,36,44,50
415,2.07, 2017/11/15 11:16:00.435上午,625,49,34,43,49
416,2.075, 2017/11/15 11:16:00.44上午,632,52,32,42,52
417,2.08, 2017/11/15 11:16:00.445上午,632,49,34,44,49
418,2.085, 2017/11/15 11:16:00.45上午,638,49,36,41,49
419,2.09, 2017/11/15 11:16:00.455上午,630,50,34,42,50
420,2.095, 2017/11/15 11:16:00.46上午,633,49,34,45,49
421,2.1, 2017/11/15 11:16:00.465上午,629,50,34,44,50
422,2.105, 2017/11/15 11:16:00.47上午,641,52,32,42,52
423,2.11, 2017/11/15 11:16:00.475上午,645,50,34,43,50
424,2.115, 2017/11/15 11:16:00.48上午,630,52,34,44,52
425,2.12, 2017/11/15 11:16:00.485上午,627,52,34,44,52
426,2.125, 2017/11/15 11:16:00.49上午,644,52,34,44,52
427,2.13, 2017/11/15 11:16:00.495上午,647,52,32,44,52
428,2.135, 2017/11/15 11:16:00.5上午,626,49,34,44,49
429,2.14, 2017/11/15 11:16:00.505上午,635,49,34,44,49
430,2.145, 2017/11/15 11:16:00.51上午,633,52,34,44,52
431,2.15, 2017/11/15 11:16:00.515上午,631,50,34,44,50
432,2.155, 2017/11/15 11:16:00.52上午,634,50,36,44,50
433,2.16, 2017/11/15 11:16:00.525上午,645,52,34,44,52
434,2.165, 2017/11/15 11:16:00.53上午,639,50,34,43,50
435,2.17, 2017/11/15 11:16:00.535上午,641,52,38,44,52
436,2.175, 2017/11/15 11:16:00.54上午,650,52,32,44,52
437,2.18, 2017/11/15 11:16:00.545上午,662,49,34,44,49
438,2.185, 2017/11/15 11:16:00.55上午,639,52,38,43,52
439,2.19, 2017/11/15 11:16:00.555上午,641,53,32,42,53
440,2.195, 2017/11/15 11:16:00.56上午,631,52,34,44,52
441,2.2, 2017/11/15 11:16:00.565上午,629,52,36,42,52
442,2.205, 2017/11/15 11:16:00.57上午,624,52,34,44,52
443,2.21, 2017/11/15 11:16:00.575上午,638,52,34,44,52
444,2.215, 2017/11/15 11:16:00.58上午,647,52,34,43,52
445,2.22, 2017/11/15 11:16:00.585上午,628,52,34,42,52
446,2.225, 2017/11/15 11:16:00.59上午,647,52,32,43,52
447,2.23, 2017/11/15 11:16:00.595上午,633,50,34,44,50
448,2.235, 2017/11/15 11:16:00.6上午,645,52,34,42,52
449,2.24, 2017/11/15 11:16:00.605上午,639,53,32,43,53
450,2.245, 2017/11/15 11:16:00.61上午,637,52,34,42,52
451,2.25, 2017/11/15 11:16:00.615上午,641,52,34,42,52
452,2.255, 2017/11/15 11:16:00.62上午,651,52,32,43,52
453,2.26, 2017/11/15 11:16:00.625上午,624,49,34,44,49
454,2.265, 2017/11/15 11:16:00.63上午,637,52,36,42,52
455,2.27, 2017/11/15 11:16:00.635上午,653,53,32,44,53
456,2.275, 2017/11/15 11:16:00.64上午,656,50,34,42,50
457,2.28, 2017/11/15 11:16:00.645上午,629,52,38,42,52
458,2.285, 2017/11/15 11:16:00.65上午,635,52,34,44,52
459,2.29, 2017/11/15 11:16:00.655上午,640,52,34,42,52
460,2.295, 2017/11/15 11:16:00.66上午,645,51,34,42,51
461,2.3, 2017/11/15 11:16:00.665上午,633,52,36,42,52
462,2.305, 2017/11/15 11:16:00.67上午,648,53,34,44,53
463,2.31, 2017/11/15 11:16:00.675上午,653,52,34,41,52
464,2.315, 2017/11/15 11:16:00.68上午,665,52,34,42,52
465,2.32, 2017/11/15 11:16:00.685上午,648,52,34,42,52
466,2.325, 2017/11/15 11:16:00.69上午,652,53,34,43,53
467,2.33, 2017/11/15 11:16:00.695上午,633,52,34,42,52
468,2.335, 2017/11/15 11:16:00.7上午,631,50,34,44,50
469,2.34, 2017/11/15 11:16:00.705上午,642,53,36,42,53
470,2.345, 2017/11/15 11:16:00.71上午,649,53,36,42,53
471,2.35, 2017/11/15 11:16:00.715上午,640,50,34,41,50
472,2.355, 2017/11/15 11:16:00.72上午,636,54,38,42,54
473,2.36, 2017/11/15 11:16:00.725上午,658,53,34,43,53
474,2.365, 2017/11/15 11:16:00.73上午,642,52,34,40,52
475,2.37, 2017/11/15 11:16:00.735上午,626,52,36,40,52
476,2.375, 2017/11/15 11:16:00.74上午,614,53,32,43,53
477,2.38, 2017/11/15 11:16:00.745上午,648,52,34,42,52
478,2.385, 2017/11/15 11:16:00.75上午,635,52,36,43,52
479,2.39, 2017/11/15 11:16:00.755上午,635,53,32,42,53
480,2.395, 2017/11/15 11:16:00.76上午,639,51,34,42,51
481,2.4, 2017/11/15 11:16:00.765上午,653,52,35,42,52
482,2.405, 2017/11/15 11:16:00.77上午,635,53,34,43,53
483,2.41, 2017/11/15 11:16:00.775上午,635,52,34,42,52
484,2.415, 2017/11/15 11:16:00.78上午,642,53,34,42,53
485,2.42, 2017/11/15 11:16:00.785上午,640,53,36,42,53
486,2.425, 2017/11/15 11:16:00.79上午,631,53,32,42,53
487,2.43, 2017/11/15 11:16:00.795上午,645,52,34,41,52
488,2.435, 2017/11/15 11:16:00.8上午,637,54,36,42,54
489,2.44, 2017/11/15 11:16:00.805上午,645,53,34,42,53
490,2.445, 2017/11/15 11:16:00.81上午,637,52,34,42,52
491,2.45, 2017/11/15 11:16:00.815上午,624,52,36,43,52
492,2.455, 2017/11/15 11:16:00.82上午,640,53,32,41,53
493,2.46, 2017/11/15 11:16:00.825上午,636,52,32,42,52
494,2.465, 2017/11/15 11:16:00.83上午,632,53,36,42,53
495,2.47, 2017/11/15 11:16:00.835上午,633,53,32,40,53
496,2.475, 2017/11/15 11:16:00.84上午,641,52,32,42,52
497,2.48, 2017/11/15 11:16:00.845上午,627,53,32,41,53
498,2.485, 2017/11/15 11:16:00.85上午,643,53,32,42,53
499,2.49, 2017/11/15 11:16:00.855上午,628,52,36,41,52
500,2.495, 2017/11/15 11:16:00.86上午,630,53,32,42,53
501,2.5, 2017/11/15 11:16:00.865上午,663,53,32,44,53
502,2.505, 2017/11/15 11:16:00.87上午,644,52,32,40,52
503,2.51, 2017/11/15 11:16:00.875上午,638,53,34,42,53
504,2.515, 2017/11/15 11:16:00.88上午,635,53,32,42,53
505,2.52, 2017/11/15 11:16:00.885上午,631,52,33,41,52
506,2.525, 2017/11/15 11:16:00.89上午,635,52,34,40,52
507,2.53, 2017/11/15 11:16:00.895上午,627,54,36,42,54
508,2.535, 2017/11/15 11:16:00.9上午,639,53,32,43,53
509,2.54, 2017/11/15 11:16:00.905上午,645,53,32,44,53
510,2.545, 2017/11/15 11:16:00.91上午,639,53,34,42,53
511,2.55, 2017/11/15 11:16:00.915上午,634,53,32,41,53
512,2.555, 2017/11/15 11:16:00.92上午,628,52,32,42,52
513,2.56, 2017/11/15 11:16:00.925上午,638,52,34,42,52
514,2.565, 2017/11/15 11:16:00.93上午,634,53,32,41,53
515,2.57, 2017/11/15 11:16:00.935上午,644,53,32,42,53
516,2.575, 2017/11/15 11:16:00.94上午,656,53,36,42,53
517,2.58, 2017/11/15 11:16:00.945上午,638,53,32,41,53
518,2.585, 2017/11/15 11:16:00.95上午,625,55,34,42,55
519,2.59, 2017/11/15 11:16:00.955上午,639,54,36,41,54
520,2.595, 2017/11/15 11:16:00.96上午,635,54,34,42,54
521,2.6, 2017/11/15 11:16:00.965上午,630,53,32,41,53
522,2.605, 2017/11/15 11:16:00.97上午,646,55,34,40,55
523,2.61, 2017/11/15 11:16:00.975上午,637,55,32,42,55
524,2.615, 2017/11/15 11:16:00.98上午,636,53,32,43,53
525,2.62, 2017/11/15 11:16:00.985上午,649,53,31,42,53
526,2.625, 2017/11/15 11:16:00.99上午,629,52,33,42,52
527,2.63, 2017/11/15 11:16:00.995上午,626,54,36,42,54
528,2.635, 2017/11/15 11:16:01上午,621,54,34,42,54
529,2.64, 2017/11/15 11:16:01.005上午,638,53,32,41,53
530,2.645, 2017/11/15 11:16:01.01上午,648,55,32,42,55
531,2.65, 2017/11/15 11:16:01.015上午,639,54,36,40,54
532,2.655, 2017/11/15 11:16:01.02上午,620,53,31,41,53
533,2.66, 2017/11/15 11:16:01.025上午,633,53,33,41,53
534,2.665, 2017/11/15 11:16:01.03上午,650,54,33,39,54
535,2.67, 2017/11/15 11:16:01.035上午,640,54,34,42,54
536,2.675, 2017/11/15 11:16:01.04上午,629,53,32,41,53
537,2.68, 2017/11/15 11:16:01.045上午,622,53,34,41,53
538,2.685, 2017/11/15 11:16:01.05上午,641,55,34,40,55
539,2.69, 2017/11/15 11:16:01.055上午,622,53,34,41,53
540,2.695, 2017/11/15 11:16:01.06上午,643,53,32,41,53
541,2.7, 2017/11/15 11:16:01.065上午,644,53,32,41,53
542,2.705, 2017/11/15 11:16:01.07上午,645,55,32,42,55
543,2.71, 2017/11/15 11:16:01.075上午,650,54,36,41,54
544,2.715, 2017/11/15 11:16:01.08上午,622,53,32,42,53
545,2.72, 2017/11/15 11:16:01.085上午,643,53,33,41,53
546,2.725, 2017/11/15 11:16:01.09上午,640,53,33,42,53
547,2.73, 2017/11/15 11:16:01.095上午,641,57,32,40,57
548,2.735, 2017/11/15 11:16:01.1上午,634,53,32,41,53
549,2.74, 2017/11/15 11:16:01.105上午,637,55,32,41,55
550,2.745, 2017/11/15 11:16:01.11上午,635,53,32,41,53
551,2.75, 2017/11/15 11:16:01.115上午,641,54,32,41,54
552,2.755, 2017/11/15 11:16:01.12上午,625,54,32,41,54
553,2.76, 2017/11/15 11:16:01.125上午,630,53,32,40,53
554,2.765, 2017/11/15 11:16:01.13上午,639,54,33,40,54
555,2.77, 2017/11/15 11:16:01.135上午,634,54,34,41,54
556,2.775, 2017/11/15 11:16:01.14上午,630,53,31,41,53
557,2.78, 2017/11/15 11:16:01.145上午,640,54,33,40,54
558,2.785, 2017/11/15 11:16:01.15上午,626,55,32,41,55
559,2.79, 2017/11/15 11:16:01.155上午,623,54,30,41,54
560,2.795, 2017/11/15 11:16:01.16上午,626,53,31,41,53
561,2.8, 2017/11/15 11:16:01.165上午,628,54,33,41,54
562,2.805, 2017/11/15 11:16:01.17上午,650,54,33,40,54
563,2.81, 2017/11/15 11:16:01.175上午,633,55,32,41,55
564,2.815, 2017/11/15 11:16:01.18上午,627,53,31,41,53
565,2.82, 2017/11/15 11:16:01.185上午,612,53,31,41,53
566,2.825, 2017/11/15 11:16:01.19上午,630,55,33,39,55
567,2.83, 2017/11/15 11:16:01.195上午,618,54,32,41,54
568,2.835, 2017/11/15 11:16:01.2上午,632,55,32,41,55
569,2.84, 2017/11/15 11:16:01.205上午,610,53,31,41,53
570,2.845, 2017/11/15 11:16:01.21上午,630,55,33,40,55
571,2.85, 2017/11/15 11:16:01.215上午,639,57,34,40,57
572,2.855, 2017/11/15 11:16:01.22上午,625,54,31,41,54
573,2.86, 2017/11/15 11:16:01.225上午,633,54,33,41,54
574,2.865, 2017/11/15 11:16:01.23上午,647,55,33,39,55
575,2.87, 2017/11/15 11:16:01.235上午,625,55,31,41,55
576,2.875, 2017/11/15 11:16:01.24上午,635,53,33,41,53
577,2.88, 2017/11/15 11:16:01.245上午,622,55,33,40,55
578,2.885, 2017/11/15 11:16:01.25上午,650,54,34,41,54
579,2.89, 2017/11/15 11:16:01.255上午,625,53,31,42,53
580,2.895, 2017/11/15 11:16:01.26上午,618,53,31,39,53
581,2.9, 2017/11/15 11:16:01.265上午,639,54,33,39,54
582,2.905, 2017/11/15 11:16:01.27上午,641,54,32,41,54
583,2.91, 2017/11/15 11:16:01.275上午,625,55,32,42,55
584,2.915, 2017/11/15 11:16:01.28上午,633,53,31,41,53
585,2.92, 2017/11/15 11:16:01.285上午,649,55,33,40,55
586,2.925, 2017/11/15 11:16:01.29上午,641,55,32,40,55
587,2.93, 2017/11/15 11:16:01.295上午,638,56,32,41,56
588,2.935, 2017/11/15 11:16:01.3上午,625,54,34,41,54
589,2.94, 2017/11/15 11:16:01.305上午,631,53,31,41,53
590,2.945, 2017/11/15 11:16:01.31上午,642,54,33,40,54
591,2.95, 2017/11/15 11:16:01.315上午,630,54,34,42,54
592,2.955, 2017/11/15 11:16:01.32上午,628,54,32,42,54
593,2.96, 2017/11/15 11:16:01.325上午,644,53,33,40,53
594,2.965, 2017/11/15 11:16:01.33上午,632,55,31,40,55
595,2.97, 2017/11/15 11:16:01.335上午,622,54,34,42,54
596,2.975, 2017/11/15 11:16:01.34上午,641,53,31,41,53
597,2.98, 2017/11/15 11:16:01.345上午,646,55,33,42,55
598,2.985, 2017/11/15 11:16:01.35上午,619,54,35,41,54
599,2.99, 2017/11/15 11:16:01.355上午,632,54,32,41,54
600,2.995, 2017/11/15 11:16:01.36上午,627,53,33,41,53
@@,,,,,,,
