DATA_TYPE Graph
VERSION Tekscan Pressure Measurement System 6.70-03
HARDWARE 00114-3447
MAP_VERSION 6.5
HW_TYPE 4
VersaPogoFsx 0
FILENAME C:\Users\User\Desktop\Subject01\plantar pressure\EVA_STAND_RIGHT_SUPPORT_2.fsx
SENSOR_TYPE FSCAN
ROWS 60
COLS 21
ROW_SPACING 0.508 centimeters
COL_SPACING 0.508 centimeters
SENSEL_AREA 0.258064 cm2
NOISE_THRESHOLD 3
SECONDS_PER_FRAME 0.005
SECONDS_PER_FRAME 0
MICRO_SECOND 0
TIME 2017/11/14 06:17:05.372下午
SATURATION_PRESSURE 2514.18 KPa 
CALIBRATION_POINT_1 59.0001 (Kilograms) 2274 (Raw Sum) 286 (Number of Loaded Cells)
CALIBRATION_MODE_1 Step
CALIBRATION_INFO C:\Users\User\Desktop\Subject01\plantar pressure\EVA_STAND_RIGHT_SUPPORT_2.fsx
SENSITIVITY Custom
MAP_INDEX 0
SUBMAP 0
Patient ID: 

Speed of Gait: 

Weight: 

Gender: 

Physician: 

Technician: 

Shoe: 

START_FRAME 1
END_FRAME 600
UNITS cm2
ASCII_DATA @@
Frames(X), Time(X), Absolute Time(X), Raw Sum, Area(Y:blue), Area(Y), Area(Y), Area(Y)
1, 0, 2017/11/14 06:17:05.372下午, 314.0, 0.00, 5.94, 10.06, 16.26
2, 0.005, 2017/11/14 06:17:05.377下午, 289.0, 0.00, 5.94, 7.48, 13.68
3, 0.01, 2017/11/14 06:17:05.382下午, 298.0, 0.00, 5.42, 9.29, 14.97
4, 0.015, 2017/11/14 06:17:05.387下午, 305.0, 0.00, 5.42, 9.55, 15.23
5, 0.02, 2017/11/14 06:17:05.392下午, 304.0, 0.00, 5.94, 9.03, 15.23
6, 0.025, 2017/11/14 06:17:05.397下午, 296.0, 0.00, 5.94, 8.00, 14.19
7, 0.03, 2017/11/14 06:17:05.402下午, 305.0, 0.00, 5.42, 9.55, 15.23
8, 0.035, 2017/11/14 06:17:05.407下午, 307.0, 0.00, 5.94, 8.77, 14.97
9, 0.04, 2017/11/14 06:17:05.412下午, 302.0, 0.00, 5.94, 9.03, 15.23
10, 0.045, 2017/11/14 06:17:05.417下午, 315.0, 0.00, 5.94, 9.81, 16.00
11, 0.05, 2017/11/14 06:17:05.422下午, 302.0, 0.00, 5.94, 9.03, 15.23
12, 0.055, 2017/11/14 06:17:05.427下午, 291.0, 0.00, 5.94, 7.74, 13.94
13, 0.06, 2017/11/14 06:17:05.432下午, 326.0, 0.00, 5.94, 10.58, 16.77
14, 0.065, 2017/11/14 06:17:05.437下午, 294.0, 0.00, 5.42, 8.77, 14.45
15, 0.07, 2017/11/14 06:17:05.442下午, 300.0, 0.00, 5.94, 8.77, 14.97
16, 0.075, 2017/11/14 06:17:05.447下午, 300.0, 0.00, 5.94, 8.52, 14.71
17, 0.08, 2017/11/14 06:17:05.452下午, 315.0, 0.00, 5.94, 9.81, 16.00
18, 0.085, 2017/11/14 06:17:05.457下午, 298.0, 0.00, 5.94, 8.26, 14.45
19, 0.09, 2017/11/14 06:17:05.462下午, 306.0, 0.00, 5.94, 9.29, 15.48
20, 0.095, 2017/11/14 06:17:05.467下午, 320.0, 0.00, 6.45, 9.55, 16.26
21, 0.1, 2017/11/14 06:17:05.472下午, 300.0, 0.00, 5.94, 8.52, 14.71
22, 0.105, 2017/11/14 06:17:05.477下午, 326.0, 0.00, 6.45, 10.32, 17.03
23, 0.11, 2017/11/14 06:17:05.482下午, 302.0, 0.00, 5.94, 8.77, 14.97
24, 0.115, 2017/11/14 06:17:05.487下午, 306.0, 0.00, 5.94, 8.52, 14.71
25, 0.12, 2017/11/14 06:17:05.492下午, 306.0, 0.00, 5.94, 9.55, 15.74
26, 0.125, 2017/11/14 06:17:05.497下午, 297.0, 0.00, 5.42, 8.77, 14.45
27, 0.13, 2017/11/14 06:17:05.502下午, 308.0, 0.00, 6.45, 8.77, 15.48
28, 0.135, 2017/11/14 06:17:05.507下午, 294.0, 0.00, 5.94, 8.26, 14.45
29, 0.14, 2017/11/14 06:17:05.512下午, 319.0, 0.00, 6.45, 9.81, 16.52
30, 0.145, 2017/11/14 06:17:05.517下午, 295.0, 0.00, 5.94, 8.52, 14.71
31, 0.15, 2017/11/14 06:17:05.522下午, 292.0, 0.00, 5.94, 8.26, 14.45
32, 0.155, 2017/11/14 06:17:05.527下午, 306.0, 0.00, 5.94, 9.29, 15.48
33, 0.16, 2017/11/14 06:17:05.532下午, 311.0, 0.00, 5.94, 9.55, 15.74
34, 0.165, 2017/11/14 06:17:05.537下午, 299.0, 0.00, 5.94, 8.52, 14.71
35, 0.17, 2017/11/14 06:17:05.542下午, 312.0, 0.00, 5.94, 9.55, 15.74
36, 0.175, 2017/11/14 06:17:05.547下午, 309.0, 0.00, 5.94, 9.29, 15.48
37, 0.18, 2017/11/14 06:17:05.552下午, 301.0, 0.00, 5.94, 9.03, 15.23
38, 0.185, 2017/11/14 06:17:05.557下午, 296.0, 0.00, 5.94, 8.00, 14.19
39, 0.19, 2017/11/14 06:17:05.562下午, 326.0, 0.00, 6.45, 10.32, 17.03
40, 0.195, 2017/11/14 06:17:05.567下午, 310.0, 0.00, 5.94, 9.29, 15.48
41, 0.2, 2017/11/14 06:17:05.572下午, 297.0, 0.00, 5.94, 8.26, 14.45
42, 0.205, 2017/11/14 06:17:05.577下午, 306.0, 0.00, 5.94, 9.29, 15.48
43, 0.21, 2017/11/14 06:17:05.582下午, 318.0, 0.00, 6.45, 9.55, 16.26
44, 0.215, 2017/11/14 06:17:05.587下午, 304.0, 0.00, 5.94, 9.03, 15.23
45, 0.22, 2017/11/14 06:17:05.592下午, 306.0, 0.00, 5.94, 9.29, 15.48
46, 0.225, 2017/11/14 06:17:05.597下午, 302.0, 0.00, 5.94, 9.29, 15.48
47, 0.23, 2017/11/14 06:17:05.602下午, 298.0, 0.00, 5.94, 8.77, 14.97
48, 0.235, 2017/11/14 06:17:05.607下午, 318.0, 0.00, 5.94, 10.06, 16.26
49, 0.24, 2017/11/14 06:17:05.612下午, 291.0, 0.00, 5.94, 8.26, 14.45
50, 0.245, 2017/11/14 06:17:05.617下午, 314.0, 0.00, 5.94, 9.55, 15.74
51, 0.25, 2017/11/14 06:17:05.622下午, 322.0, 0.00, 6.45, 9.81, 16.52
52, 0.255, 2017/11/14 06:17:05.627下午, 301.0, 0.00, 5.94, 9.03, 15.23
53, 0.26, 2017/11/14 06:17:05.632下午, 301.0, 0.00, 5.94, 8.52, 14.71
54, 0.265, 2017/11/14 06:17:05.637下午, 310.0, 0.00, 5.94, 9.29, 15.48
55, 0.27, 2017/11/14 06:17:05.642下午, 316.0, 0.00, 5.94, 10.06, 16.26
56, 0.275, 2017/11/14 06:17:05.647下午, 300.0, 0.00, 5.94, 8.52, 14.71
57, 0.28, 2017/11/14 06:17:05.652下午, 299.0, 0.00, 5.42, 9.29, 14.97
58, 0.285, 2017/11/14 06:17:05.657下午, 302.0, 0.00, 5.94, 9.03, 15.23
59, 0.29, 2017/11/14 06:17:05.662下午, 293.0, 0.00, 5.94, 8.00, 14.19
60, 0.295, 2017/11/14 06:17:05.667下午, 324.0, 0.00, 6.45, 10.32, 17.03
61, 0.3, 2017/11/14 06:17:05.672下午, 305.0, 0.00, 5.94, 9.29, 15.48
62, 0.305, 2017/11/14 06:17:05.677下午, 301.0, 0.00, 5.94, 8.00, 14.19
63, 0.31, 2017/11/14 06:17:05.682下午, 312.0, 0.00, 5.94, 9.81, 16.00
64, 0.315, 2017/11/14 06:17:05.687下午, 300.0, 0.00, 5.94, 8.52, 14.71
65, 0.32, 2017/11/14 06:17:05.692下午, 316.0, 0.00, 5.94, 10.06, 16.26
66, 0.325, 2017/11/14 06:17:05.697下午, 308.0, 0.00, 5.94, 9.29, 15.48
67, 0.33, 2017/11/14 06:17:05.702下午, 299.0, 0.00, 5.42, 9.29, 14.97
68, 0.335, 2017/11/14 06:17:05.707下午, 299.0, 0.00, 5.94, 8.52, 14.71
69, 0.34, 2017/11/14 06:17:05.712下午, 326.0, 0.00, 5.94, 10.32, 16.52
70, 0.345, 2017/11/14 06:17:05.717下午, 322.0, 0.00, 5.94, 10.32, 16.52
71, 0.35, 2017/11/14 06:17:05.722下午, 291.0, 0.00, 5.94, 7.74, 13.94
72, 0.355, 2017/11/14 06:17:05.727下午, 284.0, 0.00, 5.94, 7.23, 13.42
73, 0.36, 2017/11/14 06:17:05.732下午, 312.0, 0.00, 5.94, 9.81, 16.00
74, 0.365, 2017/11/14 06:17:05.737下午, 297.0, 0.00, 5.42, 9.03, 14.71
75, 0.37, 2017/11/14 06:17:05.742下午, 286.0, 0.00, 5.94, 7.48, 13.68
76, 0.375, 2017/11/14 06:17:05.747下午, 308.0, 0.00, 5.42, 9.29, 14.97
77, 0.38, 2017/11/14 06:17:05.752下午, 315.0, 0.00, 5.94, 9.55, 15.74
78, 0.385, 2017/11/14 06:17:05.757下午, 304.0, 0.00, 5.94, 9.03, 15.23
79, 0.39, 2017/11/14 06:17:05.762下午, 309.0, 0.00, 5.94, 9.29, 15.48
80, 0.395, 2017/11/14 06:17:05.767下午, 305.0, 0.00, 5.94, 9.03, 15.23
81, 0.4, 2017/11/14 06:17:05.772下午, 299.0, 0.00, 5.94, 8.00, 14.19
82, 0.405, 2017/11/14 06:17:05.777下午, 305.0, 0.00, 5.42, 9.29, 14.97
83, 0.41, 2017/11/14 06:17:05.782下午, 300.0, 0.00, 5.42, 9.29, 14.97
84, 0.415, 2017/11/14 06:17:05.787下午, 294.0, 0.00, 5.94, 7.74, 13.94
85, 0.42, 2017/11/14 06:17:05.792下午, 317.0, 0.00, 5.94, 9.81, 16.00
86, 0.425, 2017/11/14 06:17:05.797下午, 301.0, 0.00, 5.94, 8.52, 14.71
87, 0.43, 2017/11/14 06:17:05.802下午, 312.0, 0.00, 5.94, 9.03, 15.23
88, 0.435, 2017/11/14 06:17:05.807下午, 319.0, 0.00, 5.42, 9.81, 15.48
89, 0.44, 2017/11/14 06:17:05.812下午, 319.0, 0.00, 5.94, 10.32, 16.52
90, 0.445, 2017/11/14 06:17:05.817下午, 315.0, 0.00, 5.94, 9.55, 15.74
91, 0.45, 2017/11/14 06:17:05.822下午, 317.0, 0.00, 5.94, 9.55, 15.74
92, 0.455, 2017/11/14 06:17:05.827下午, 300.0, 0.00, 5.42, 9.29, 14.97
93, 0.46, 2017/11/14 06:17:05.832下午, 305.0, 0.00, 5.42, 10.06, 15.74
94, 0.465, 2017/11/14 06:17:05.837下午, 311.0, 0.00, 5.94, 9.81, 16.00
95, 0.47, 2017/11/14 06:17:05.842下午, 293.0, 0.00, 5.42, 8.77, 14.45
96, 0.475, 2017/11/14 06:17:05.847下午, 318.0, 0.00, 5.94, 10.06, 16.26
97, 0.48, 2017/11/14 06:17:05.852下午, 302.0, 0.00, 5.42, 9.29, 14.97
98, 0.485, 2017/11/14 06:17:05.857下午, 300.0, 0.00, 5.94, 8.26, 14.45
99, 0.49, 2017/11/14 06:17:05.862下午, 307.0, 0.00, 5.94, 9.55, 15.74
100, 0.495, 2017/11/14 06:17:05.867下午, 308.0, 0.00, 5.42, 9.81, 15.48
101, 0.5, 2017/11/14 06:17:05.872下午, 309.0, 0.00, 5.94, 8.52, 14.71
102, 0.505, 2017/11/14 06:17:05.877下午, 306.0, 0.00, 5.42, 9.03, 14.71
103, 0.51, 2017/11/14 06:17:05.882下午, 317.0, 0.00, 5.94, 9.55, 15.74
104, 0.515, 2017/11/14 06:17:05.887下午, 297.0, 0.00, 5.94, 8.26, 14.45
105, 0.52, 2017/11/14 06:17:05.892下午, 312.0, 0.00, 5.42, 9.81, 15.48
106, 0.525, 2017/11/14 06:17:05.897下午, 320.0, 0.00, 5.94, 10.06, 16.26
107, 0.53, 2017/11/14 06:17:05.902下午, 314.0, 0.00, 5.94, 9.81, 16.00
108, 0.535, 2017/11/14 06:17:05.907下午, 303.0, 0.00, 5.94, 8.26, 14.45
109, 0.54, 2017/11/14 06:17:05.912下午, 312.0, 0.00, 5.94, 9.81, 16.00
110, 0.545, 2017/11/14 06:17:05.917下午, 306.0, 0.00, 5.94, 9.03, 15.23
111, 0.55, 2017/11/14 06:17:05.922下午, 302.0, 0.00, 6.45, 8.26, 14.97
112, 0.555, 2017/11/14 06:17:05.927下午, 310.0, 0.00, 5.94, 9.03, 15.23
113, 0.56, 2017/11/14 06:17:05.932下午, 302.0, 0.00, 5.42, 9.29, 14.97
114, 0.565, 2017/11/14 06:17:05.937下午, 322.0, 0.00, 6.45, 9.55, 16.26
115, 0.57, 2017/11/14 06:17:05.942下午, 305.0, 0.00, 5.42, 9.03, 14.71
116, 0.575, 2017/11/14 06:17:05.947下午, 312.0, 0.00, 5.42, 9.81, 15.48
117, 0.58, 2017/11/14 06:17:05.952下午, 326.0, 0.00, 5.94, 10.58, 16.77
118, 0.585, 2017/11/14 06:17:05.957下午, 302.0, 0.00, 5.94, 8.26, 14.45
119, 0.59, 2017/11/14 06:17:05.962下午, 313.0, 0.00, 5.94, 9.55, 15.74
120, 0.595, 2017/11/14 06:17:05.967下午, 320.0, 0.00, 5.94, 10.06, 16.26
121, 0.6, 2017/11/14 06:17:05.972下午, 309.0, 0.00, 5.94, 9.29, 15.48
122, 0.605, 2017/11/14 06:17:05.977下午, 308.0, 0.00, 5.94, 8.52, 14.71
123, 0.61, 2017/11/14 06:17:05.982下午, 324.0, 0.00, 6.45, 9.81, 16.52
124, 0.615, 2017/11/14 06:17:05.987下午, 313.0, 0.00, 5.94, 9.55, 15.74
125, 0.62, 2017/11/14 06:17:05.992下午, 309.0, 0.00, 5.94, 8.77, 14.97
126, 0.625, 2017/11/14 06:17:05.997下午, 311.0, 0.00, 5.42, 9.55, 15.23
127, 0.63, 2017/11/14 06:17:06.002下午, 300.0, 0.00, 5.42, 9.29, 14.97
128, 0.635, 2017/11/14 06:17:06.007下午, 303.0, 0.00, 5.94, 9.03, 15.23
129, 0.64, 2017/11/14 06:17:06.012下午, 288.0, 0.00, 5.42, 7.48, 13.16
130, 0.645, 2017/11/14 06:17:06.017下午, 330.0, 0.00, 5.94, 10.32, 16.52
131, 0.65, 2017/11/14 06:17:06.022下午, 302.0, 0.00, 5.94, 9.03, 15.23
132, 0.655, 2017/11/14 06:17:06.027下午, 306.0, 0.00, 5.94, 9.29, 15.48
133, 0.66, 2017/11/14 06:17:06.032下午, 293.0, 0.00, 5.94, 7.48, 13.68
134, 0.665, 2017/11/14 06:17:06.037下午, 318.0, 0.00, 5.94, 9.55, 15.74
135, 0.67, 2017/11/14 06:17:06.042下午, 313.0, 0.00, 5.94, 9.55, 15.74
136, 0.675, 2017/11/14 06:17:06.047下午, 311.0, 0.00, 6.45, 9.03, 15.74
137, 0.68, 2017/11/14 06:17:06.052下午, 305.0, 0.00, 5.94, 8.26, 14.45
138, 0.685, 2017/11/14 06:17:06.057下午, 316.0, 0.00, 5.94, 9.55, 15.74
139, 0.69, 2017/11/14 06:17:06.062下午, 328.0, 0.00, 5.94, 10.32, 16.52
140, 0.695, 2017/11/14 06:17:06.067下午, 318.0, 0.00, 5.94, 9.29, 15.48
141, 0.7, 2017/11/14 06:17:06.072下午, 323.0, 0.00, 5.94, 9.55, 15.74
142, 0.705, 2017/11/14 06:17:06.077下午, 318.0, 0.00, 5.42, 10.06, 15.74
143, 0.71, 2017/11/14 06:17:06.082下午, 298.0, 0.00, 5.42, 8.52, 14.19
144, 0.715, 2017/11/14 06:17:06.087下午, 306.0, 0.00, 5.94, 8.52, 14.71
145, 0.72, 2017/11/14 06:17:06.092下午, 307.0, 0.00, 5.94, 9.03, 15.23
146, 0.725, 2017/11/14 06:17:06.097下午, 317.0, 0.00, 5.94, 9.55, 15.74
147, 0.73, 2017/11/14 06:17:06.102下午, 307.0, 0.00, 5.94, 8.52, 14.71
148, 0.735, 2017/11/14 06:17:06.107下午, 305.0, 0.00, 5.42, 9.03, 14.71
149, 0.74, 2017/11/14 06:17:06.112下午, 309.0, 0.00, 5.42, 9.03, 14.71
150, 0.745, 2017/11/14 06:17:06.117下午, 313.0, 0.00, 5.94, 9.03, 15.23
151, 0.75, 2017/11/14 06:17:06.122下午, 305.0, 0.00, 5.94, 8.52, 14.71
152, 0.755, 2017/11/14 06:17:06.127下午, 314.0, 0.00, 5.94, 9.55, 15.74
153, 0.76, 2017/11/14 06:17:06.132下午, 331.0, 0.00, 5.94, 10.58, 16.77
154, 0.765, 2017/11/14 06:17:06.137下午, 323.0, 0.00, 5.94, 9.81, 16.00
155, 0.77, 2017/11/14 06:17:06.142下午, 298.0, 0.00, 5.94, 8.00, 14.19
156, 0.775, 2017/11/14 06:17:06.147下午, 329.0, 0.00, 6.45, 9.81, 16.52
157, 0.78, 2017/11/14 06:17:06.152下午, 324.0, 0.00, 6.45, 9.55, 16.26
158, 0.785, 2017/11/14 06:17:06.157下午, 306.0, 0.00, 6.45, 8.00, 14.71
159, 0.79, 2017/11/14 06:17:06.162下午, 305.0, 0.00, 5.42, 9.03, 14.71
160, 0.795, 2017/11/14 06:17:06.167下午, 322.0, 0.00, 5.94, 9.81, 16.00
161, 0.8, 2017/11/14 06:17:06.172下午, 315.0, 0.00, 6.45, 9.55, 16.26
162, 0.805, 2017/11/14 06:17:06.177下午, 305.0, 0.00, 5.94, 8.26, 14.45
163, 0.81, 2017/11/14 06:17:06.182下午, 319.0, 0.00, 5.94, 10.32, 16.52
164, 0.815, 2017/11/14 06:17:06.187下午, 322.0, 0.00, 6.45, 9.81, 16.52
165, 0.82, 2017/11/14 06:17:06.192下午, 301.0, 0.00, 5.94, 8.00, 14.19
166, 0.825, 2017/11/14 06:17:06.197下午, 316.0, 0.00, 5.94, 9.29, 15.48
167, 0.83, 2017/11/14 06:17:06.202下午, 309.0, 0.00, 5.94, 9.55, 15.74
168, 0.835, 2017/11/14 06:17:06.207下午, 304.0, 0.00, 5.94, 8.77, 14.97
169, 0.84, 2017/11/14 06:17:06.212下午, 304.0, 0.00, 5.42, 9.03, 14.71
170, 0.845, 2017/11/14 06:17:06.217下午, 315.0, 0.00, 5.94, 9.55, 15.74
171, 0.85, 2017/11/14 06:17:06.222下午, 314.0, 0.00, 6.45, 8.52, 15.23
172, 0.855, 2017/11/14 06:17:06.227下午, 299.0, 0.00, 5.94, 8.00, 14.19
173, 0.86, 2017/11/14 06:17:06.232下午, 319.0, 0.00, 5.94, 9.81, 16.00
174, 0.865, 2017/11/14 06:17:06.237下午, 313.0, 0.00, 6.45, 9.29, 16.00
175, 0.87, 2017/11/14 06:17:06.242下午, 314.0, 0.00, 6.45, 8.52, 15.23
176, 0.875, 2017/11/14 06:17:06.247下午, 311.0, 0.00, 5.94, 8.77, 14.97
177, 0.88, 2017/11/14 06:17:06.252下午, 303.0, 0.00, 5.42, 9.29, 14.97
178, 0.885, 2017/11/14 06:17:06.257下午, 301.0, 0.00, 5.94, 9.03, 15.23
179, 0.89, 2017/11/14 06:17:06.262下午, 312.0, 0.00, 5.94, 8.77, 14.97
180, 0.895, 2017/11/14 06:17:06.267下午, 315.0, 0.00, 5.94, 9.55, 15.74
181, 0.9, 2017/11/14 06:17:06.272下午, 316.0, 0.00, 5.94, 9.55, 15.74
182, 0.905, 2017/11/14 06:17:06.277下午, 303.0, 0.00, 5.94, 8.52, 14.71
183, 0.91, 2017/11/14 06:17:06.282下午, 311.0, 0.00, 5.94, 9.81, 16.00
184, 0.915, 2017/11/14 06:17:06.287下午, 306.0, 0.00, 5.94, 9.03, 15.23
185, 0.92, 2017/11/14 06:17:06.292下午, 309.0, 0.00, 5.94, 8.52, 14.71
186, 0.925, 2017/11/14 06:17:06.297下午, 316.0, 0.00, 5.94, 9.81, 16.00
187, 0.93, 2017/11/14 06:17:06.302下午, 314.0, 0.00, 6.45, 9.29, 16.00
188, 0.935, 2017/11/14 06:17:06.307下午, 311.0, 0.00, 5.94, 9.03, 15.23
189, 0.94, 2017/11/14 06:17:06.312下午, 309.0, 0.00, 5.94, 9.55, 15.74
190, 0.945, 2017/11/14 06:17:06.317下午, 314.0, 0.00, 5.94, 9.55, 15.74
191, 0.95, 2017/11/14 06:17:06.322下午, 304.0, 0.00, 5.94, 8.26, 14.45
192, 0.955, 2017/11/14 06:17:06.327下午, 321.0, 0.00, 5.94, 10.32, 16.52
193, 0.96, 2017/11/14 06:17:06.332下午, 302.0, 0.00, 5.42, 9.55, 15.23
194, 0.965, 2017/11/14 06:17:06.337下午, 316.0, 0.00, 5.94, 9.03, 15.23
195, 0.97, 2017/11/14 06:17:06.342下午, 322.0, 0.00, 5.94, 9.81, 16.00
196, 0.975, 2017/11/14 06:17:06.347下午, 319.0, 0.00, 6.45, 9.81, 16.52
197, 0.98, 2017/11/14 06:17:06.352下午, 317.0, 0.00, 6.45, 9.29, 16.00
198, 0.985, 2017/11/14 06:17:06.357下午, 297.0, 0.00, 5.42, 9.03, 14.45
199, 0.99, 2017/11/14 06:17:06.362下午, 314.0, 0.00, 5.94, 9.81, 16.00
200, 0.995, 2017/11/14 06:17:06.367下午, 298.0, 0.00, 5.94, 8.52, 14.71
201, 1, 2017/11/14 06:17:06.372下午, 305.0, 0.00, 5.42, 9.03, 14.71
202, 1.005, 2017/11/14 06:17:06.377下午, 315.0, 0.00, 5.94, 9.55, 15.74
203, 1.01, 2017/11/14 06:17:06.382下午, 300.0, 0.00, 5.94, 8.26, 14.45
204, 1.015, 2017/11/14 06:17:06.387下午, 310.0, 0.00, 5.94, 9.81, 16.00
205, 1.02, 2017/11/14 06:17:06.392下午, 311.0, 0.00, 5.94, 9.55, 15.74
206, 1.025, 2017/11/14 06:17:06.397下午, 303.0, 0.00, 5.94, 8.26, 14.45
207, 1.03, 2017/11/14 06:17:06.402下午, 316.0, 0.00, 5.94, 9.81, 16.00
208, 1.035, 2017/11/14 06:17:06.407下午, 301.0, 0.00, 5.94, 8.77, 14.97
209, 1.04, 2017/11/14 06:17:06.412下午, 312.0, 0.00, 5.94, 9.03, 15.23
210, 1.045, 2017/11/14 06:17:06.417下午, 317.0, 0.00, 5.94, 9.81, 16.00
211, 1.05, 2017/11/14 06:17:06.422下午, 296.0, 0.00, 5.94, 8.52, 14.71
212, 1.055, 2017/11/14 06:17:06.427下午, 297.0, 0.00, 5.94, 8.26, 14.45
213, 1.06, 2017/11/14 06:17:06.432下午, 311.0, 0.00, 5.94, 9.55, 15.74
214, 1.065, 2017/11/14 06:17:06.437下午, 310.0, 0.00, 6.45, 9.03, 15.74
215, 1.07, 2017/11/14 06:17:06.442下午, 309.0, 0.00, 5.94, 9.29, 15.48
216, 1.075, 2017/11/14 06:17:06.447下午, 309.0, 0.00, 5.94, 9.55, 15.74
217, 1.08, 2017/11/14 06:17:06.452下午, 312.0, 0.00, 5.94, 9.81, 16.00
218, 1.085, 2017/11/14 06:17:06.457下午, 300.0, 0.00, 5.94, 8.52, 14.71
219, 1.09, 2017/11/14 06:17:06.462下午, 322.0, 0.00, 5.94, 10.32, 16.52
220, 1.095, 2017/11/14 06:17:06.467下午, 320.0, 0.00, 6.45, 9.55, 16.26
221, 1.1, 2017/11/14 06:17:06.472下午, 294.0, 0.00, 5.94, 8.26, 14.45
222, 1.105, 2017/11/14 06:17:06.477下午, 306.0, 0.00, 5.94, 9.55, 15.74
223, 1.11, 2017/11/14 06:17:06.482下午, 318.0, 0.00, 5.94, 10.32, 16.52
224, 1.115, 2017/11/14 06:17:06.487下午, 297.0, 0.00, 5.94, 8.52, 14.71
225, 1.12, 2017/11/14 06:17:06.492下午, 300.0, 0.00, 5.94, 8.52, 14.71
226, 1.125, 2017/11/14 06:17:06.497下午, 318.0, 0.00, 5.94, 9.81, 16.00
227, 1.13, 2017/11/14 06:17:06.502下午, 299.0, 0.00, 5.94, 8.52, 14.71
228, 1.135, 2017/11/14 06:17:06.507下午, 299.0, 0.00, 5.42, 9.29, 14.97
229, 1.14, 2017/11/14 06:17:06.512下午, 321.0, 0.00, 5.94, 10.32, 16.52
230, 1.145, 2017/11/14 06:17:06.517下午, 302.0, 0.00, 5.94, 9.03, 15.23
231, 1.15, 2017/11/14 06:17:06.522下午, 308.0, 0.00, 5.94, 9.55, 15.74
232, 1.155, 2017/11/14 06:17:06.527下午, 308.0, 0.00, 5.94, 8.77, 14.97
233, 1.16, 2017/11/14 06:17:06.532下午, 304.0, 0.00, 5.94, 9.29, 15.48
234, 1.165, 2017/11/14 06:17:06.537下午, 304.0, 0.00, 5.94, 8.77, 14.97
235, 1.17, 2017/11/14 06:17:06.542下午, 313.0, 0.00, 5.94, 9.81, 16.00
236, 1.175, 2017/11/14 06:17:06.547下午, 318.0, 0.00, 6.45, 9.55, 16.26
237, 1.18, 2017/11/14 06:17:06.552下午, 297.0, 0.00, 5.94, 8.26, 14.45
238, 1.185, 2017/11/14 06:17:06.557下午, 306.0, 0.00, 5.94, 9.29, 15.48
239, 1.19, 2017/11/14 06:17:06.562下午, 305.0, 0.00, 5.94, 9.55, 15.74
240, 1.195, 2017/11/14 06:17:06.567下午, 311.0, 0.00, 6.45, 9.29, 16.00
241, 1.2, 2017/11/14 06:17:06.572下午, 307.0, 0.00, 5.94, 9.29, 15.48
242, 1.205, 2017/11/14 06:17:06.577下午, 320.0, 0.00, 5.94, 10.32, 16.52
243, 1.21, 2017/11/14 06:17:06.582下午, 300.0, 0.00, 5.94, 8.52, 14.71
244, 1.215, 2017/11/14 06:17:06.587下午, 299.0, 0.00, 5.42, 9.29, 14.97
245, 1.22, 2017/11/14 06:17:06.592下午, 325.0, 0.00, 6.45, 10.06, 16.77
246, 1.225, 2017/11/14 06:17:06.597下午, 312.0, 0.00, 6.45, 9.29, 16.00
247, 1.23, 2017/11/14 06:17:06.602下午, 297.0, 0.00, 5.94, 8.00, 14.19
248, 1.235, 2017/11/14 06:17:06.607下午, 303.0, 0.00, 5.42, 9.81, 15.48
249, 1.24, 2017/11/14 06:17:06.612下午, 319.0, 0.00, 6.45, 9.81, 16.52
250, 1.245, 2017/11/14 06:17:06.617下午, 306.0, 0.00, 6.45, 8.52, 15.23
251, 1.25, 2017/11/14 06:17:06.622下午, 306.0, 0.00, 5.94, 9.29, 15.48
252, 1.255, 2017/11/14 06:17:06.627下午, 312.0, 0.00, 5.94, 9.81, 16.00
253, 1.26, 2017/11/14 06:17:06.632下午, 288.0, 0.00, 5.94, 7.74, 13.94
254, 1.265, 2017/11/14 06:17:06.637下午, 308.0, 0.00, 5.94, 9.29, 15.48
255, 1.27, 2017/11/14 06:17:06.642下午, 311.0, 0.00, 5.94, 9.81, 16.00
256, 1.275, 2017/11/14 06:17:06.647下午, 313.0, 0.00, 6.45, 9.29, 16.00
257, 1.28, 2017/11/14 06:17:06.652下午, 302.0, 0.00, 5.94, 8.26, 14.45
258, 1.285, 2017/11/14 06:17:06.657下午, 300.0, 0.00, 5.42, 9.29, 14.97
259, 1.29, 2017/11/14 06:17:06.662下午, 313.0, 0.00, 5.94, 9.81, 16.00
260, 1.295, 2017/11/14 06:17:06.667下午, 312.0, 0.00, 6.45, 9.29, 16.00
261, 1.3, 2017/11/14 06:17:06.672下午, 303.0, 0.00, 5.94, 9.03, 15.23
262, 1.305, 2017/11/14 06:17:06.677下午, 312.0, 0.00, 5.94, 9.81, 16.00
263, 1.31, 2017/11/14 06:17:06.682下午, 294.0, 0.00, 5.94, 8.52, 14.71
264, 1.315, 2017/11/14 06:17:06.687下午, 301.0, 0.00, 5.94, 8.26, 14.45
265, 1.32, 2017/11/14 06:17:06.692下午, 315.0, 0.00, 5.94, 10.32, 16.52
266, 1.325, 2017/11/14 06:17:06.697下午, 303.0, 0.00, 5.94, 9.03, 15.23
267, 1.33, 2017/11/14 06:17:06.702下午, 287.0, 0.00, 5.94, 7.74, 13.94
268, 1.335, 2017/11/14 06:17:06.707下午, 308.0, 0.00, 5.94, 9.29, 15.48
269, 1.34, 2017/11/14 06:17:06.712下午, 298.0, 0.00, 5.42, 9.03, 14.71
270, 1.345, 2017/11/14 06:17:06.717下午, 293.0, 0.00, 5.94, 8.00, 14.19
271, 1.35, 2017/11/14 06:17:06.722下午, 305.0, 0.00, 5.94, 9.29, 15.48
272, 1.355, 2017/11/14 06:17:06.727下午, 298.0, 0.00, 5.94, 8.52, 14.71
273, 1.36, 2017/11/14 06:17:06.732下午, 290.0, 0.00, 5.94, 7.74, 13.94
274, 1.365, 2017/11/14 06:17:06.737下午, 309.0, 0.00, 5.94, 9.29, 15.48
275, 1.37, 2017/11/14 06:17:06.742下午, 320.0, 0.00, 6.45, 9.55, 16.26
276, 1.375, 2017/11/14 06:17:06.747下午, 289.0, 0.00, 5.94, 7.74, 13.94
277, 1.38, 2017/11/14 06:17:06.752下午, 316.0, 0.00, 6.45, 9.81, 16.52
278, 1.385, 2017/11/14 06:17:06.757下午, 315.0, 0.00, 6.45, 9.81, 16.52
279, 1.39, 2017/11/14 06:17:06.762下午, 306.0, 0.00, 5.94, 9.29, 15.48
280, 1.395, 2017/11/14 06:17:06.767下午, 307.0, 0.00, 5.94, 9.55, 15.74
281, 1.4, 2017/11/14 06:17:06.772下午, 285.0, 0.00, 5.94, 7.74, 13.94
282, 1.405, 2017/11/14 06:17:06.777下午, 305.0, 0.00, 5.94, 9.29, 15.48
283, 1.41, 2017/11/14 06:17:06.782下午, 313.0, 0.00, 5.94, 9.55, 15.74
284, 1.415, 2017/11/14 06:17:06.787下午, 298.0, 0.00, 6.45, 8.26, 14.97
285, 1.42, 2017/11/14 06:17:06.792下午, 295.0, 0.00, 5.94, 8.77, 14.97
286, 1.425, 2017/11/14 06:17:06.797下午, 301.0, 0.00, 5.94, 9.03, 15.23
287, 1.43, 2017/11/14 06:17:06.802下午, 308.0, 0.00, 5.94, 9.03, 15.23
288, 1.435, 2017/11/14 06:17:06.807下午, 300.0, 0.00, 5.42, 8.77, 14.45
289, 1.44, 2017/11/14 06:17:06.812下午, 316.0, 0.00, 6.45, 9.55, 16.26
290, 1.445, 2017/11/14 06:17:06.817下午, 281.0, 0.00, 5.94, 7.23, 13.42
291, 1.45, 2017/11/14 06:17:06.822下午, 311.0, 0.00, 5.94, 9.81, 16.00
292, 1.455, 2017/11/14 06:17:06.827下午, 310.0, 0.00, 6.45, 9.03, 15.74
293, 1.46, 2017/11/14 06:17:06.832下午, 287.0, 0.00, 5.94, 7.74, 13.94
294, 1.465, 2017/11/14 06:17:06.837下午, 310.0, 0.00, 5.42, 9.81, 15.48
295, 1.47, 2017/11/14 06:17:06.842下午, 299.0, 0.00, 5.94, 9.03, 15.23
296, 1.475, 2017/11/14 06:17:06.847下午, 292.0, 0.00, 5.42, 8.77, 14.45
297, 1.48, 2017/11/14 06:17:06.852下午, 310.0, 0.00, 5.94, 9.55, 15.74
298, 1.485, 2017/11/14 06:17:06.857下午, 309.0, 0.00, 5.94, 9.29, 15.48
299, 1.49, 2017/11/14 06:17:06.862下午, 309.0, 0.00, 5.42, 9.81, 15.48
300, 1.495, 2017/11/14 06:17:06.867下午, 313.0, 0.00, 6.45, 9.29, 16.00
301, 1.5, 2017/11/14 06:17:06.872下午, 304.0, 0.00, 5.94, 9.03, 15.23
302, 1.505, 2017/11/14 06:17:06.877下午, 310.0, 0.00, 5.94, 9.29, 15.48
303, 1.51, 2017/11/14 06:17:06.882下午, 300.0, 0.00, 6.45, 8.00, 14.71
304, 1.515, 2017/11/14 06:17:06.887下午, 301.0, 0.00, 5.94, 9.03, 15.23
305, 1.52, 2017/11/14 06:17:06.892下午, 317.0, 0.00, 6.45, 9.29, 16.00
306, 1.525, 2017/11/14 06:17:06.897下午, 297.0, 0.00, 5.94, 8.00, 14.19
307, 1.53, 2017/11/14 06:17:06.902下午, 309.0, 0.00, 5.94, 9.81, 16.00
308, 1.535, 2017/11/14 06:17:06.907下午, 284.0, 0.00, 5.94, 7.48, 13.68
309, 1.54, 2017/11/14 06:17:06.912下午, 304.0, 0.00, 5.94, 9.29, 15.48
310, 1.545, 2017/11/14 06:17:06.917下午, 298.0, 0.00, 5.94, 8.52, 14.71
311, 1.55, 2017/11/14 06:17:06.922下午, 293.0, 0.00, 5.94, 8.00, 14.19
312, 1.555, 2017/11/14 06:17:06.927下午, 316.0, 0.00, 5.94, 10.32, 16.52
313, 1.56, 2017/11/14 06:17:06.932下午, 304.0, 0.00, 6.45, 8.52, 15.23
314, 1.565, 2017/11/14 06:17:06.937下午, 296.0, 0.00, 5.94, 8.77, 14.97
315, 1.57, 2017/11/14 06:17:06.942下午, 306.0, 0.00, 5.94, 9.29, 15.48
316, 1.575, 2017/11/14 06:17:06.947下午, 316.0, 0.00, 6.45, 9.03, 15.74
317, 1.58, 2017/11/14 06:17:06.952下午, 310.0, 0.00, 5.94, 9.55, 15.74
318, 1.585, 2017/11/14 06:17:06.957下午, 285.0, 0.00, 5.42, 8.26, 13.94
319, 1.59, 2017/11/14 06:17:06.962下午, 307.0, 0.00, 5.94, 9.29, 15.48
320, 1.595, 2017/11/14 06:17:06.967下午, 315.0, 0.00, 6.45, 9.55, 16.26
321, 1.6, 2017/11/14 06:17:06.972下午, 310.0, 0.00, 6.45, 9.03, 15.74
322, 1.605, 2017/11/14 06:17:06.977下午, 310.0, 0.00, 5.94, 9.55, 15.74
323, 1.61, 2017/11/14 06:17:06.982下午, 317.0, 0.00, 6.45, 9.55, 16.26
324, 1.615, 2017/11/14 06:17:06.987下午, 304.0, 0.00, 5.94, 8.77, 14.97
325, 1.62, 2017/11/14 06:17:06.992下午, 302.0, 0.00, 5.94, 8.77, 14.97
326, 1.625, 2017/11/14 06:17:06.997下午, 286.0, 0.00, 5.94, 7.48, 13.68
327, 1.63, 2017/11/14 06:17:07.002下午, 301.0, 0.00, 5.94, 9.29, 15.23
328, 1.635, 2017/11/14 06:17:07.007下午, 306.0, 0.00, 5.94, 9.29, 15.48
329, 1.64, 2017/11/14 06:17:07.012下午, 298.0, 0.00, 5.94, 8.52, 14.71
330, 1.645, 2017/11/14 06:17:07.017下午, 316.0, 0.00, 6.45, 9.81, 16.52
331, 1.65, 2017/11/14 06:17:07.022下午, 317.0, 0.00, 6.45, 9.81, 16.52
332, 1.655, 2017/11/14 06:17:07.027下午, 297.0, 0.00, 5.94, 8.52, 14.71
333, 1.66, 2017/11/14 06:17:07.032下午, 311.0, 0.00, 5.94, 9.81, 16.00
334, 1.665, 2017/11/14 06:17:07.037下午, 300.0, 0.00, 5.94, 9.03, 15.23
335, 1.67, 2017/11/14 06:17:07.042下午, 293.0, 0.00, 5.94, 8.00, 14.19
336, 1.675, 2017/11/14 06:17:07.047下午, 303.0, 0.00, 5.94, 9.03, 15.23
337, 1.68, 2017/11/14 06:17:07.052下午, 310.0, 0.00, 5.94, 9.55, 15.74
338, 1.685, 2017/11/14 06:17:07.057下午, 286.0, 0.00, 5.94, 7.48, 13.68
339, 1.69, 2017/11/14 06:17:07.062下午, 295.0, 0.00, 5.42, 9.29, 14.97
340, 1.695, 2017/11/14 06:17:07.067下午, 302.0, 0.00, 5.94, 8.52, 14.71
341, 1.7, 2017/11/14 06:17:07.072下午, 306.0, 0.00, 5.94, 9.29, 15.48
342, 1.705, 2017/11/14 06:17:07.077下午, 308.0, 0.00, 5.94, 9.55, 15.74
343, 1.71, 2017/11/14 06:17:07.082下午, 310.0, 0.00, 6.45, 8.77, 15.48
344, 1.715, 2017/11/14 06:17:07.087下午, 303.0, 0.00, 5.94, 9.03, 15.23
345, 1.72, 2017/11/14 06:17:07.092下午, 292.0, 0.00, 5.42, 8.77, 14.45
346, 1.725, 2017/11/14 06:17:07.097下午, 301.0, 0.00, 5.94, 8.52, 14.71
347, 1.73, 2017/11/14 06:17:07.102下午, 313.0, 0.00, 5.94, 9.81, 16.00
348, 1.735, 2017/11/14 06:17:07.107下午, 298.0, 0.00, 5.94, 8.77, 14.97
349, 1.74, 2017/11/14 06:17:07.112下午, 286.0, 0.00, 5.94, 7.48, 13.68
350, 1.745, 2017/11/14 06:17:07.117下午, 311.0, 0.00, 5.94, 9.81, 16.00
351, 1.75, 2017/11/14 06:17:07.122下午, 299.0, 0.00, 5.42, 9.03, 14.71
352, 1.755, 2017/11/14 06:17:07.127下午, 298.0, 0.00, 5.94, 8.52, 14.71
353, 1.76, 2017/11/14 06:17:07.132下午, 297.0, 0.00, 5.42, 9.29, 14.97
354, 1.765, 2017/11/14 06:17:07.137下午, 316.0, 0.00, 6.45, 9.55, 16.26
355, 1.77, 2017/11/14 06:17:07.142下午, 287.0, 0.00, 5.94, 7.48, 13.68
356, 1.775, 2017/11/14 06:17:07.147下午, 295.0, 0.00, 5.42, 9.29, 14.97
357, 1.78, 2017/11/14 06:17:07.152下午, 287.0, 0.00, 5.94, 7.48, 13.68
358, 1.785, 2017/11/14 06:17:07.157下午, 304.0, 0.00, 5.94, 9.29, 15.48
359, 1.79, 2017/11/14 06:17:07.162下午, 294.0, 0.00, 5.42, 9.03, 14.71
360, 1.795, 2017/11/14 06:17:07.167下午, 298.0, 0.00, 5.94, 8.26, 14.45
361, 1.8, 2017/11/14 06:17:07.172下午, 318.0, 0.00, 6.45, 9.81, 16.52
362, 1.805, 2017/11/14 06:17:07.177下午, 296.0, 0.00, 5.94, 8.77, 14.97
363, 1.81, 2017/11/14 06:17:07.182下午, 315.0, 0.00, 6.45, 9.55, 16.26
364, 1.815, 2017/11/14 06:17:07.187下午, 320.0, 0.00, 6.45, 10.06, 16.77
365, 1.82, 2017/11/14 06:17:07.192下午, 294.0, 0.00, 5.94, 8.26, 14.45
366, 1.825, 2017/11/14 06:17:07.197下午, 311.0, 0.00, 5.94, 9.29, 15.48
367, 1.83, 2017/11/14 06:17:07.202下午, 313.0, 0.00, 5.94, 9.55, 15.74
368, 1.835, 2017/11/14 06:17:07.207下午, 294.0, 0.00, 5.94, 8.26, 14.45
369, 1.84, 2017/11/14 06:17:07.212下午, 311.0, 0.00, 5.94, 9.81, 16.00
370, 1.845, 2017/11/14 06:17:07.217下午, 285.0, 0.00, 5.94, 7.48, 13.68
371, 1.85, 2017/11/14 06:17:07.222下午, 306.0, 0.00, 5.94, 9.29, 15.48
372, 1.855, 2017/11/14 06:17:07.227下午, 298.0, 0.00, 5.42, 9.29, 14.97
373, 1.86, 2017/11/14 06:17:07.232下午, 286.0, 0.00, 5.94, 7.48, 13.68
374, 1.865, 2017/11/14 06:17:07.237下午, 293.0, 0.00, 5.42, 8.77, 14.45
375, 1.87, 2017/11/14 06:17:07.242下午, 285.0, 0.00, 5.94, 7.48, 13.68
376, 1.875, 2017/11/14 06:17:07.247下午, 310.0, 0.00, 5.94, 9.55, 15.74
377, 1.88, 2017/11/14 06:17:07.252下午, 311.0, 0.00, 6.45, 9.55, 16.26
378, 1.885, 2017/11/14 06:17:07.257下午, 319.0, 0.00, 6.45, 10.06, 16.77
379, 1.89, 2017/11/14 06:17:07.262下午, 302.0, 0.00, 5.94, 9.03, 15.23
380, 1.895, 2017/11/14 06:17:07.267下午, 309.0, 0.00, 5.94, 9.29, 15.48
381, 1.9, 2017/11/14 06:17:07.272下午, 309.0, 0.00, 5.94, 9.29, 15.48
382, 1.905, 2017/11/14 06:17:07.277下午, 285.0, 0.00, 5.94, 7.48, 13.68
383, 1.91, 2017/11/14 06:17:07.282下午, 308.0, 0.00, 5.94, 9.29, 15.48
384, 1.915, 2017/11/14 06:17:07.287下午, 307.0, 0.00, 6.45, 9.03, 15.74
385, 1.92, 2017/11/14 06:17:07.292下午, 307.0, 0.00, 5.94, 9.29, 15.48
386, 1.925, 2017/11/14 06:17:07.297下午, 302.0, 0.00, 5.94, 9.03, 15.23
387, 1.93, 2017/11/14 06:17:07.302下午, 300.0, 0.00, 5.94, 8.77, 14.97
388, 1.935, 2017/11/14 06:17:07.307下午, 309.0, 0.00, 5.94, 9.55, 15.74
389, 1.94, 2017/11/14 06:17:07.312下午, 281.0, 0.00, 5.94, 7.23, 13.42
390, 1.945, 2017/11/14 06:17:07.317下午, 309.0, 0.00, 5.94, 9.81, 16.00
391, 1.95, 2017/11/14 06:17:07.322下午, 300.0, 0.00, 5.94, 8.52, 14.71
392, 1.955, 2017/11/14 06:17:07.327下午, 305.0, 0.00, 5.94, 9.29, 15.48
393, 1.96, 2017/11/14 06:17:07.332下午, 317.0, 0.00, 5.94, 10.32, 16.52
394, 1.965, 2017/11/14 06:17:07.337下午, 300.0, 0.00, 5.94, 8.26, 14.45
395, 1.97, 2017/11/14 06:17:07.342下午, 296.0, 0.00, 5.42, 9.29, 14.97
396, 1.975, 2017/11/14 06:17:07.347下午, 308.0, 0.00, 6.45, 8.52, 15.23
397, 1.98, 2017/11/14 06:17:07.352下午, 315.0, 0.00, 5.94, 9.81, 16.00
398, 1.985, 2017/11/14 06:17:07.357下午, 307.0, 0.00, 5.94, 9.29, 15.48
399, 1.99, 2017/11/14 06:17:07.362下午, 319.0, 0.00, 6.45, 9.81, 16.52
400, 1.995, 2017/11/14 06:17:07.367下午, 303.0, 0.00, 5.94, 9.03, 15.23
401, 2, 2017/11/14 06:17:07.372下午, 300.0, 0.00, 5.42, 9.29, 14.97
402, 2.005, 2017/11/14 06:17:07.377下午, 294.0, 0.00, 5.42, 8.77, 14.45
403, 2.01, 2017/11/14 06:17:07.382下午, 306.0, 0.00, 5.94, 9.29, 15.48
404, 2.015, 2017/11/14 06:17:07.387下午, 311.0, 0.00, 5.94, 9.55, 15.74
405, 2.02, 2017/11/14 06:17:07.392下午, 296.0, 0.00, 5.94, 8.77, 14.97
406, 2.025, 2017/11/14 06:17:07.397下午, 304.0, 0.00, 5.94, 9.03, 15.23
407, 2.03, 2017/11/14 06:17:07.402下午, 299.0, 0.00, 5.94, 8.77, 14.97
408, 2.035, 2017/11/14 06:17:07.407下午, 296.0, 0.00, 5.94, 8.26, 14.45
409, 2.04, 2017/11/14 06:17:07.412下午, 308.0, 0.00, 5.94, 9.29, 15.48
410, 2.045, 2017/11/14 06:17:07.417下午, 283.0, 0.00, 5.94, 7.48, 13.68
411, 2.05, 2017/11/14 06:17:07.422下午, 304.0, 0.00, 5.94, 9.29, 15.48
412, 2.055, 2017/11/14 06:17:07.427下午, 307.0, 0.00, 5.94, 9.55, 15.74
413, 2.06, 2017/11/14 06:17:07.432下午, 287.0, 0.00, 5.94, 7.74, 13.94
414, 2.065, 2017/11/14 06:17:07.437下午, 311.0, 0.00, 5.94, 9.55, 15.74
415, 2.07, 2017/11/14 06:17:07.442下午, 293.0, 0.00, 5.42, 8.77, 14.45
416, 2.075, 2017/11/14 06:17:07.447下午, 287.0, 0.00, 5.94, 7.48, 13.68
417, 2.08, 2017/11/14 06:17:07.452下午, 308.0, 0.00, 5.94, 9.55, 15.74
418, 2.085, 2017/11/14 06:17:07.457下午, 298.0, 0.00, 6.45, 8.26, 14.97
419, 2.09, 2017/11/14 06:17:07.462下午, 301.0, 0.00, 5.94, 8.77, 14.97
420, 2.095, 2017/11/14 06:17:07.467下午, 314.0, 0.00, 5.94, 10.06, 16.26
421, 2.1, 2017/11/14 06:17:07.472下午, 287.0, 0.00, 5.94, 7.48, 13.68
422, 2.105, 2017/11/14 06:17:07.477下午, 322.0, 0.00, 6.45, 10.06, 16.77
423, 2.11, 2017/11/14 06:17:07.482下午, 290.0, 0.00, 5.94, 7.48, 13.68
424, 2.115, 2017/11/14 06:17:07.487下午, 319.0, 0.00, 5.94, 10.32, 16.52
425, 2.12, 2017/11/14 06:17:07.492下午, 298.0, 0.00, 6.45, 8.00, 14.71
426, 2.125, 2017/11/14 06:17:07.497下午, 305.0, 0.00, 5.94, 9.29, 15.48
427, 2.13, 2017/11/14 06:17:07.502下午, 295.0, 0.00, 5.42, 9.03, 14.71
428, 2.135, 2017/11/14 06:17:07.507下午, 300.0, 0.00, 5.94, 8.52, 14.71
429, 2.14, 2017/11/14 06:17:07.512下午, 294.0, 0.00, 5.42, 8.77, 14.45
430, 2.145, 2017/11/14 06:17:07.517下午, 284.0, 0.00, 5.94, 7.48, 13.68
431, 2.15, 2017/11/14 06:17:07.522下午, 303.0, 0.00, 5.94, 9.03, 15.23
432, 2.155, 2017/11/14 06:17:07.527下午, 316.0, 0.00, 6.45, 9.81, 16.52
433, 2.16, 2017/11/14 06:17:07.532下午, 321.0, 0.00, 6.45, 10.06, 16.77
434, 2.165, 2017/11/14 06:17:07.537下午, 306.0, 0.00, 6.45, 9.03, 15.74
435, 2.17, 2017/11/14 06:17:07.542下午, 302.0, 0.00, 5.94, 9.03, 15.23
436, 2.175, 2017/11/14 06:17:07.547下午, 307.0, 0.00, 5.94, 9.55, 15.74
437, 2.18, 2017/11/14 06:17:07.552下午, 303.0, 0.00, 5.94, 9.03, 15.23
438, 2.185, 2017/11/14 06:17:07.557下午, 310.0, 0.00, 6.45, 9.29, 16.00
439, 2.19, 2017/11/14 06:17:07.562下午, 302.0, 0.00, 5.94, 9.29, 15.48
440, 2.195, 2017/11/14 06:17:07.567下午, 313.0, 0.00, 6.45, 9.03, 15.74
441, 2.2, 2017/11/14 06:17:07.572下午, 305.0, 0.00, 5.94, 9.29, 15.48
442, 2.205, 2017/11/14 06:17:07.577下午, 313.0, 0.00, 5.94, 9.81, 16.00
443, 2.21, 2017/11/14 06:17:07.582下午, 300.0, 0.00, 5.94, 8.77, 14.97
444, 2.215, 2017/11/14 06:17:07.587下午, 307.0, 0.00, 5.94, 9.55, 15.74
445, 2.22, 2017/11/14 06:17:07.592下午, 315.0, 0.00, 5.94, 9.55, 15.74
446, 2.225, 2017/11/14 06:17:07.597下午, 309.0, 0.00, 5.94, 9.55, 15.74
447, 2.23, 2017/11/14 06:17:07.602下午, 303.0, 0.00, 6.45, 8.26, 14.97
448, 2.235, 2017/11/14 06:17:07.607下午, 304.0, 0.00, 5.94, 9.29, 15.48
449, 2.24, 2017/11/14 06:17:07.612下午, 307.0, 0.00, 5.94, 9.55, 15.74
450, 2.245, 2017/11/14 06:17:07.617下午, 298.0, 0.00, 5.94, 8.52, 14.71
451, 2.25, 2017/11/14 06:17:07.622下午, 314.0, 0.00, 5.94, 9.81, 16.00
452, 2.255, 2017/11/14 06:17:07.627下午, 302.0, 0.00, 5.94, 9.03, 15.23
453, 2.26, 2017/11/14 06:17:07.632下午, 284.0, 0.00, 5.94, 7.48, 13.68
454, 2.265, 2017/11/14 06:17:07.637下午, 316.0, 0.00, 6.45, 9.81, 16.52
455, 2.27, 2017/11/14 06:17:07.642下午, 312.0, 0.00, 6.45, 9.29, 16.00
456, 2.275, 2017/11/14 06:17:07.647下午, 306.0, 0.00, 5.94, 9.03, 15.23
457, 2.28, 2017/11/14 06:17:07.652下午, 309.0, 0.00, 5.94, 9.29, 15.48
458, 2.285, 2017/11/14 06:17:07.657下午, 323.0, 0.00, 6.45, 10.32, 17.03
459, 2.29, 2017/11/14 06:17:07.662下午, 287.0, 0.00, 5.94, 7.48, 13.68
460, 2.295, 2017/11/14 06:17:07.667下午, 308.0, 0.00, 5.94, 9.81, 16.00
461, 2.3, 2017/11/14 06:17:07.672下午, 307.0, 0.00, 5.94, 9.29, 15.48
462, 2.305, 2017/11/14 06:17:07.677下午, 305.0, 0.00, 5.94, 9.29, 15.48
463, 2.31, 2017/11/14 06:17:07.682下午, 318.0, 0.00, 6.45, 9.55, 16.26
464, 2.315, 2017/11/14 06:17:07.687下午, 286.0, 0.00, 5.94, 7.48, 13.68
465, 2.32, 2017/11/14 06:17:07.692下午, 303.0, 0.00, 5.94, 9.29, 15.48
466, 2.325, 2017/11/14 06:17:07.697下午, 295.0, 0.00, 5.42, 9.03, 14.71
467, 2.33, 2017/11/14 06:17:07.702下午, 289.0, 0.00, 5.94, 7.74, 13.94
468, 2.335, 2017/11/14 06:17:07.707下午, 294.0, 0.00, 5.42, 9.29, 14.97
469, 2.34, 2017/11/14 06:17:07.712下午, 302.0, 0.00, 5.94, 8.77, 14.97
470, 2.345, 2017/11/14 06:17:07.717下午, 306.0, 0.00, 5.94, 9.29, 15.48
471, 2.35, 2017/11/14 06:17:07.722下午, 316.0, 0.00, 5.94, 9.55, 15.74
472, 2.355, 2017/11/14 06:17:07.727下午, 299.0, 0.00, 5.94, 9.03, 15.23
473, 2.36, 2017/11/14 06:17:07.732下午, 305.0, 0.00, 5.94, 9.29, 15.48
474, 2.365, 2017/11/14 06:17:07.737下午, 293.0, 0.00, 5.42, 9.03, 14.71
475, 2.37, 2017/11/14 06:17:07.742下午, 285.0, 0.00, 5.94, 7.48, 13.68
476, 2.375, 2017/11/14 06:17:07.747下午, 317.0, 0.00, 6.45, 9.81, 16.52
477, 2.38, 2017/11/14 06:17:07.752下午, 301.0, 0.00, 5.94, 9.03, 15.23
478, 2.385, 2017/11/14 06:17:07.757下午, 302.0, 0.00, 5.94, 9.29, 15.48
479, 2.39, 2017/11/14 06:17:07.762下午, 300.0, 0.00, 5.42, 9.29, 14.97
480, 2.395, 2017/11/14 06:17:07.767下午, 294.0, 0.00, 5.94, 8.00, 14.19
481, 2.4, 2017/11/14 06:17:07.772下午, 297.0, 0.00, 5.42, 9.03, 14.71
482, 2.405, 2017/11/14 06:17:07.777下午, 303.0, 0.00, 5.94, 8.77, 14.97
483, 2.41, 2017/11/14 06:17:07.782下午, 307.0, 0.00, 5.94, 9.81, 16.00
484, 2.415, 2017/11/14 06:17:07.787下午, 305.0, 0.00, 5.94, 9.03, 15.23
485, 2.42, 2017/11/14 06:17:07.792下午, 300.0, 0.00, 5.94, 9.03, 15.23
486, 2.425, 2017/11/14 06:17:07.797下午, 298.0, 0.00, 5.94, 9.03, 15.23
487, 2.43, 2017/11/14 06:17:07.802下午, 301.0, 0.00, 5.94, 8.77, 14.97
488, 2.435, 2017/11/14 06:17:07.807下午, 309.0, 0.00, 5.94, 9.81, 16.00
489, 2.44, 2017/11/14 06:17:07.812下午, 297.0, 0.00, 5.94, 8.52, 14.71
490, 2.445, 2017/11/14 06:17:07.817下午, 311.0, 0.00, 5.94, 9.81, 16.00
491, 2.45, 2017/11/14 06:17:07.822下午, 292.0, 0.00, 6.45, 7.74, 14.45
492, 2.455, 2017/11/14 06:17:07.827下午, 311.0, 0.00, 5.94, 9.55, 15.74
493, 2.46, 2017/11/14 06:17:07.832下午, 318.0, 0.00, 6.45, 9.55, 16.26
494, 2.465, 2017/11/14 06:17:07.837下午, 300.0, 0.00, 5.94, 8.52, 14.71
495, 2.47, 2017/11/14 06:17:07.842下午, 294.0, 0.00, 5.42, 8.77, 14.45
496, 2.475, 2017/11/14 06:17:07.847下午, 290.0, 0.00, 5.94, 8.26, 14.45
497, 2.48, 2017/11/14 06:17:07.852下午, 318.0, 0.00, 6.45, 9.81, 16.52
498, 2.485, 2017/11/14 06:17:07.857下午, 297.0, 0.00, 5.94, 8.77, 14.97
499, 2.49, 2017/11/14 06:17:07.862下午, 305.0, 0.00, 5.94, 9.29, 15.48
500, 2.495, 2017/11/14 06:17:07.867下午, 304.0, 0.00, 5.94, 9.29, 15.48
501, 2.5, 2017/11/14 06:17:07.872下午, 306.0, 0.00, 5.94, 9.29, 15.48
502, 2.505, 2017/11/14 06:17:07.877下午, 307.0, 0.00, 5.94, 9.03, 15.23
503, 2.51, 2017/11/14 06:17:07.882下午, 314.0, 0.00, 5.94, 9.81, 16.00
504, 2.515, 2017/11/14 06:17:07.887下午, 311.0, 0.00, 5.94, 9.81, 16.00
505, 2.52, 2017/11/14 06:17:07.892下午, 287.0, 0.00, 5.94, 7.48, 13.68
506, 2.525, 2017/11/14 06:17:07.897下午, 310.0, 0.00, 5.94, 9.55, 15.74
507, 2.53, 2017/11/14 06:17:07.902下午, 283.0, 0.00, 5.94, 7.23, 13.42
508, 2.535, 2017/11/14 06:17:07.907下午, 297.0, 0.00, 5.42, 9.03, 14.71
509, 2.54, 2017/11/14 06:17:07.912下午, 318.0, 0.00, 6.45, 9.55, 16.26
510, 2.545, 2017/11/14 06:17:07.917下午, 304.0, 0.00, 5.94, 8.77, 14.97
511, 2.55, 2017/11/14 06:17:07.922下午, 301.0, 0.00, 5.94, 9.03, 15.23
512, 2.555, 2017/11/14 06:17:07.927下午, 292.0, 0.00, 5.94, 8.00, 14.19
513, 2.56, 2017/11/14 06:17:07.932下午, 298.0, 0.00, 5.42, 9.03, 14.71
514, 2.565, 2017/11/14 06:17:07.937下午, 297.0, 0.00, 5.94, 8.52, 14.71
515, 2.57, 2017/11/14 06:17:07.942下午, 298.0, 0.00, 5.42, 9.29, 14.97
516, 2.575, 2017/11/14 06:17:07.947下午, 300.0, 0.00, 5.94, 8.52, 14.71
517, 2.58, 2017/11/14 06:17:07.952下午, 304.0, 0.00, 5.94, 9.29, 15.48
518, 2.585, 2017/11/14 06:17:07.957下午, 289.0, 0.00, 5.94, 8.26, 14.45
519, 2.59, 2017/11/14 06:17:07.962下午, 316.0, 0.00, 5.94, 9.81, 16.00
520, 2.595, 2017/11/14 06:17:07.967下午, 298.0, 0.00, 5.94, 8.52, 14.71
521, 2.6, 2017/11/14 06:17:07.972下午, 302.0, 0.00, 5.94, 8.52, 14.71
522, 2.605, 2017/11/14 06:17:07.977下午, 312.0, 0.00, 6.45, 9.29, 16.00
523, 2.61, 2017/11/14 06:17:07.982下午, 306.0, 0.00, 5.94, 9.03, 15.23
524, 2.615, 2017/11/14 06:17:07.987下午, 300.0, 0.00, 5.94, 9.03, 15.23
525, 2.62, 2017/11/14 06:17:07.992下午, 301.0, 0.00, 5.94, 8.77, 14.97
526, 2.625, 2017/11/14 06:17:07.997下午, 314.0, 0.00, 5.94, 9.81, 16.00
527, 2.63, 2017/11/14 06:17:08.002下午, 284.0, 0.00, 5.94, 7.48, 13.68
528, 2.635, 2017/11/14 06:17:08.007下午, 297.0, 0.00, 5.42, 9.29, 14.97
529, 2.64, 2017/11/14 06:17:08.012下午, 287.0, 0.00, 5.94, 7.48, 13.68
530, 2.645, 2017/11/14 06:17:08.017下午, 297.0, 0.00, 5.42, 9.03, 14.71
531, 2.65, 2017/11/14 06:17:08.022下午, 297.0, 0.00, 6.45, 8.00, 14.71
532, 2.655, 2017/11/14 06:17:08.027下午, 302.0, 0.00, 5.94, 8.77, 14.97
533, 2.66, 2017/11/14 06:17:08.032下午, 295.0, 0.00, 5.94, 8.52, 14.71
534, 2.665, 2017/11/14 06:17:08.037下午, 302.0, 0.00, 5.94, 9.03, 15.23
535, 2.67, 2017/11/14 06:17:08.042下午, 312.0, 0.00, 5.94, 9.55, 15.74
536, 2.675, 2017/11/14 06:17:08.047下午, 298.0, 0.00, 6.45, 8.26, 14.97
537, 2.68, 2017/11/14 06:17:08.052下午, 309.0, 0.00, 5.94, 9.81, 16.00
538, 2.685, 2017/11/14 06:17:08.057下午, 296.0, 0.00, 5.94, 8.77, 14.97
539, 2.69, 2017/11/14 06:17:08.062下午, 301.0, 0.00, 5.94, 9.03, 15.23
540, 2.695, 2017/11/14 06:17:08.067下午, 311.0, 0.00, 5.94, 9.55, 15.74
541, 2.7, 2017/11/14 06:17:08.072下午, 298.0, 0.00, 5.94, 8.77, 14.97
542, 2.705, 2017/11/14 06:17:08.077下午, 307.0, 0.00, 5.94, 9.55, 15.74
543, 2.71, 2017/11/14 06:17:08.082下午, 298.0, 0.00, 5.94, 8.77, 14.97
544, 2.715, 2017/11/14 06:17:08.087下午, 290.0, 0.00, 5.42, 8.77, 14.45
545, 2.72, 2017/11/14 06:17:08.092下午, 286.0, 0.00, 5.94, 7.48, 13.68
546, 2.725, 2017/11/14 06:17:08.097下午, 292.0, 0.00, 5.42, 9.03, 14.71
547, 2.73, 2017/11/14 06:17:08.102下午, 283.0, 0.00, 5.94, 7.48, 13.68
548, 2.735, 2017/11/14 06:17:08.107下午, 293.0, 0.00, 5.42, 9.03, 14.71
549, 2.74, 2017/11/14 06:17:08.112下午, 306.0, 0.00, 6.45, 8.77, 15.48
550, 2.745, 2017/11/14 06:17:08.117下午, 303.0, 0.00, 5.94, 9.29, 15.48
551, 2.75, 2017/11/14 06:17:08.122下午, 299.0, 0.00, 5.94, 9.03, 15.23
552, 2.755, 2017/11/14 06:17:08.127下午, 303.0, 0.00, 5.94, 9.29, 15.48
553, 2.76, 2017/11/14 06:17:08.132下午, 315.0, 0.00, 5.94, 10.06, 16.26
554, 2.765, 2017/11/14 06:17:08.137下午, 286.0, 0.00, 5.94, 7.48, 13.68
555, 2.77, 2017/11/14 06:17:08.142下午, 306.0, 0.00, 5.94, 9.81, 16.00
556, 2.775, 2017/11/14 06:17:08.147下午, 295.0, 0.00, 5.94, 8.00, 14.19
557, 2.78, 2017/11/14 06:17:08.152下午, 289.0, 0.00, 5.42, 8.52, 14.19
558, 2.785, 2017/11/14 06:17:08.157下午, 309.0, 0.00, 5.94, 9.55, 15.74
559, 2.79, 2017/11/14 06:17:08.162下午, 298.0, 0.00, 5.94, 8.52, 14.71
560, 2.795, 2017/11/14 06:17:08.167下午, 304.0, 0.00, 5.94, 9.29, 15.48
561, 2.8, 2017/11/14 06:17:08.172下午, 296.0, 0.00, 5.94, 8.77, 14.97
562, 2.805, 2017/11/14 06:17:08.177下午, 315.0, 0.00, 6.45, 9.55, 16.26
563, 2.81, 2017/11/14 06:17:08.182下午, 302.0, 0.00, 5.94, 9.03, 15.23
564, 2.815, 2017/11/14 06:17:08.187下午, 311.0, 0.00, 5.94, 9.55, 15.74
565, 2.82, 2017/11/14 06:17:08.192下午, 283.0, 0.00, 5.94, 7.48, 13.68
566, 2.825, 2017/11/14 06:17:08.197下午, 317.0, 0.00, 6.45, 9.81, 16.52
567, 2.83, 2017/11/14 06:17:08.202下午, 300.0, 0.00, 5.94, 9.03, 15.23
568, 2.835, 2017/11/14 06:17:08.207下午, 291.0, 0.00, 5.94, 8.00, 14.19
569, 2.84, 2017/11/14 06:17:08.212下午, 320.0, 0.00, 5.94, 10.32, 16.52
570, 2.845, 2017/11/14 06:17:08.217下午, 294.0, 0.00, 5.94, 8.00, 14.19
571, 2.85, 2017/11/14 06:17:08.222下午, 316.0, 0.00, 6.45, 9.81, 16.52
572, 2.855, 2017/11/14 06:17:08.227下午, 301.0, 0.00, 5.94, 9.03, 15.23
573, 2.86, 2017/11/14 06:17:08.232下午, 298.0, 0.00, 5.94, 9.03, 15.23
574, 2.865, 2017/11/14 06:17:08.237下午, 304.0, 0.00, 5.94, 9.29, 15.48
575, 2.87, 2017/11/14 06:17:08.242下午, 297.0, 0.00, 5.94, 8.52, 14.71
576, 2.875, 2017/11/14 06:17:08.247下午, 309.0, 0.00, 5.94, 9.81, 16.00
577, 2.88, 2017/11/14 06:17:08.252下午, 298.0, 0.00, 5.94, 9.03, 15.23
578, 2.885, 2017/11/14 06:17:08.257下午, 295.0, 0.00, 5.94, 8.77, 14.71
579, 2.89, 2017/11/14 06:17:08.262下午, 315.0, 0.00, 5.94, 9.81, 16.00
580, 2.895, 2017/11/14 06:17:08.267下午, 282.0, 0.00, 5.94, 7.23, 13.42
581, 2.9, 2017/11/14 06:17:08.272下午, 309.0, 0.00, 5.94, 9.81, 16.00
582, 2.905, 2017/11/14 06:17:08.277下午, 300.0, 0.00, 5.94, 9.03, 15.23
583, 2.91, 2017/11/14 06:17:08.282下午, 316.0, 0.00, 6.45, 9.81, 16.52
584, 2.915, 2017/11/14 06:17:08.287下午, 302.0, 0.00, 5.94, 9.03, 15.23
585, 2.92, 2017/11/14 06:17:08.292下午, 296.0, 0.00, 5.94, 8.26, 14.45
586, 2.925, 2017/11/14 06:17:08.297下午, 321.0, 0.00, 6.45, 10.06, 16.77
587, 2.93, 2017/11/14 06:17:08.302下午, 296.0, 0.00, 5.42, 9.03, 14.71
588, 2.935, 2017/11/14 06:17:08.307下午, 287.0, 0.00, 5.94, 7.74, 13.94
589, 2.94, 2017/11/14 06:17:08.312下午, 309.0, 0.00, 5.94, 9.55, 15.74
590, 2.945, 2017/11/14 06:17:08.317下午, 302.0, 0.00, 5.94, 9.03, 15.23
591, 2.95, 2017/11/14 06:17:08.322下午, 299.0, 0.00, 5.94, 8.52, 14.71
592, 2.955, 2017/11/14 06:17:08.327下午, 304.0, 0.00, 5.94, 9.29, 15.48
593, 2.96, 2017/11/14 06:17:08.332下午, 303.0, 0.00, 5.94, 9.03, 15.23
594, 2.965, 2017/11/14 06:17:08.337下午, 295.0, 0.00, 5.94, 8.52, 14.71
595, 2.97, 2017/11/14 06:17:08.342下午, 313.0, 0.00, 5.94, 9.81, 16.00
596, 2.975, 2017/11/14 06:17:08.347下午, 297.0, 0.00, 5.94, 8.52, 14.71
597, 2.98, 2017/11/14 06:17:08.352下午, 287.0, 0.00, 5.94, 7.74, 13.94
598, 2.985, 2017/11/14 06:17:08.357下午, 314.0, 0.00, 5.94, 10.06, 16.26
599, 2.99, 2017/11/14 06:17:08.362下午, 303.0, 0.00, 5.94, 9.29, 15.48
600, 2.995, 2017/11/14 06:17:08.367下午, 294.0, 0.00, 5.94, 8.77, 14.97
@@
