DATA_TYPE Graph,,,,,,,
VERSION Tekscan Pressure Measurement System 6.70-03,,,,,,,
HARDWARE 00114-3447,,,,,,,
MAP_VERSION 6.5,,,,,,,
HW_TYPE 4,,,,,,,
VersaPogoFsx 0,,,,,,,
檔案名 C:\Users\asus\Desktop\工研院_計畫\收案資料\Subject02\Plantar Pressure\EVA_STAND_RIGHT_3.fsx,,,,,,,
SENSOR_TYPE FSCAN,,,,,,,
ROWS 60,,,,,,,
COLS 21,,,,,,,
ROW_SPACING 0.508 centimeters,,,,,,,
COL_SPACING 0.508 centimeters,,,,,,,
SENSEL_AREA 0.258064 cm2,,,,,,,
NOISE_THRESHOLD 3,,,,,,,
SECONDS_PER_FRAME 0.005,,,,,,,
SECONDS_PER_FRAME 0,,,,,,,
MICRO_SECOND 0,,,,,,,
TIME 2017/11/15 10:17:42.404上午,,,,,,,
SATURATION_PRESSURE 2347.96 KPa ,,,,,,,
CALIBRATION_POINT_1 48.0001 (Kilograms) 1981 (Raw Sum) 199 (Number of Loaded Cells),,,,,,,
CALIBRATION_MODE_1 步態,,,,,,,
CALIBRATION_INFO C:\Users\asus\Desktop\工研院_計畫\收案資料\Subject02\Plantar Pressure\EVA_STAND_RIGHT_3.fsx,,,,,,,
SENSITIVITY 自定義,,,,,,,
MAP_INDEX 0,,,,,,,
SUBMAP 0,,,,,,,
Patient ID: ,,,,,,,
,,,,,,,
Speed of Gait: ,,,,,,,
,,,,,,,
Weight: ,,,,,,,
,,,,,,,
Gender: ,,,,,,,
,,,,,,,
Physician: ,,,,,,,
,,,,,,,
Technician: ,,,,,,,
,,,,,,,
Shoe: ,,,,,,,
,,,,,,,
START_FRAME 1,,,,,,,
END_FRAME 600,,,,,,,
UNITS KPa,,,,,,,
ASCII_DATA @@,,,,,,,
畫面(X), 時間(X), 絕對時間(X), Raw Sum, 峰值壓力(Y:天藍色), 峰值壓力(Y), 峰值壓力(Y), 峰值壓力(Y)
1,0, 2017/11/15 10:17:42.404上午,1222,58,40,53,58
2,0.005, 2017/11/15 10:17:42.409上午,1175,58,41,55,58
3,0.01, 2017/11/15 10:17:42.414上午,1224,59,40,52,59
4,0.015, 2017/11/15 10:17:42.419上午,1173,58,40,53,58
5,0.02, 2017/11/15 10:17:42.424上午,1199,58,40,53,58
6,0.025, 2017/11/15 10:17:42.429上午,1176,56,40,55,56
7,0.03, 2017/11/15 10:17:42.434上午,1226,58,40,53,58
8,0.035, 2017/11/15 10:17:42.439上午,1185,58,41,53,58
9,0.04, 2017/11/15 10:17:42.444上午,1230,58,40,52,58
10,0.045, 2017/11/15 10:17:42.449上午,1197,58,40,55,58
11,0.05, 2017/11/15 10:17:42.454上午,1220,58,40,53,58
12,0.055, 2017/11/15 10:17:42.459上午,1197,56,40,53,56
13,0.06, 2017/11/15 10:17:42.464上午,1201,59,40,53,59
14,0.065, 2017/11/15 10:17:42.469上午,1190,58,41,55,58
15,0.07, 2017/11/15 10:17:42.474上午,1200,58,38,52,58
16,0.075, 2017/11/15 10:17:42.479上午,1212,58,41,53,58
17,0.08, 2017/11/15 10:17:42.484上午,1207,58,38,52,58
18,0.085, 2017/11/15 10:17:42.489上午,1195,58,41,52,58
19,0.09, 2017/11/15 10:17:42.494上午,1219,58,40,52,58
20,0.095, 2017/11/15 10:17:42.499上午,1209,59,41,53,59
21,0.1, 2017/11/15 10:17:42.504上午,1201,56,38,52,56
22,0.105, 2017/11/15 10:17:42.509上午,1217,58,40,52,58
23,0.11, 2017/11/15 10:17:42.514上午,1178,58,38,52,58
24,0.115, 2017/11/15 10:17:42.519上午,1201,58,41,53,58
25,0.12, 2017/11/15 10:17:42.524上午,1196,58,38,53,58
26,0.125, 2017/11/15 10:17:42.529上午,1212,58,40,52,58
27,0.13, 2017/11/15 10:17:42.534上午,1201,58,40,53,58
28,0.135, 2017/11/15 10:17:42.539上午,1208,58,41,53,58
29,0.14, 2017/11/15 10:17:42.544上午,1224,58,40,53,58
30,0.145, 2017/11/15 10:17:42.549上午,1190,58,41,52,58
31,0.15, 2017/11/15 10:17:42.554上午,1198,58,40,52,58
32,0.155, 2017/11/15 10:17:42.559上午,1190,58,41,53,58
33,0.16, 2017/11/15 10:17:42.564上午,1213,59,41,53,59
34,0.165, 2017/11/15 10:17:42.569上午,1197,58,40,53,58
35,0.17, 2017/11/15 10:17:42.574上午,1227,58,40,53,58
36,0.175, 2017/11/15 10:17:42.579上午,1196,58,40,53,58
37,0.18, 2017/11/15 10:17:42.584上午,1216,58,41,53,58
38,0.185, 2017/11/15 10:17:42.589上午,1194,58,41,52,58
39,0.19, 2017/11/15 10:17:42.594上午,1235,58,40,52,58
40,0.195, 2017/11/15 10:17:42.599上午,1205,58,40,53,58
41,0.2, 2017/11/15 10:17:42.604上午,1206,58,38,52,58
42,0.205, 2017/11/15 10:17:42.609上午,1209,58,40,53,58
43,0.21, 2017/11/15 10:17:42.614上午,1242,58,40,53,58
44,0.215, 2017/11/15 10:17:42.619上午,1195,58,43,52,58
45,0.22, 2017/11/15 10:17:42.624上午,1229,58,40,52,58
46,0.225, 2017/11/15 10:17:42.629上午,1206,58,40,53,58
47,0.23, 2017/11/15 10:17:42.634上午,1225,58,40,53,58
48,0.235, 2017/11/15 10:17:42.639上午,1203,59,40,55,59
49,0.24, 2017/11/15 10:17:42.644上午,1224,58,40,55,58
50,0.245, 2017/11/15 10:17:42.649上午,1183,58,41,55,58
51,0.25, 2017/11/15 10:17:42.654上午,1216,58,40,52,58
52,0.255, 2017/11/15 10:17:42.659上午,1175,58,41,53,58
53,0.26, 2017/11/15 10:17:42.664上午,1211,59,41,53,59
54,0.265, 2017/11/15 10:17:42.669上午,1209,58,40,52,58
55,0.27, 2017/11/15 10:17:42.674上午,1226,61,40,53,61
56,0.275, 2017/11/15 10:17:42.679上午,1201,58,43,55,58
57,0.28, 2017/11/15 10:17:42.684上午,1220,58,40,52,58
58,0.285, 2017/11/15 10:17:42.689上午,1184,58,41,53,58
59,0.29, 2017/11/15 10:17:42.694上午,1221,59,40,52,59
60,0.295, 2017/11/15 10:17:42.699上午,1214,59,40,53,59
61,0.3, 2017/11/15 10:17:42.704上午,1211,59,40,52,59
62,0.305, 2017/11/15 10:17:42.709上午,1186,58,40,55,58
63,0.31, 2017/11/15 10:17:42.714上午,1206,59,40,52,59
64,0.315, 2017/11/15 10:17:42.719上午,1201,58,43,53,58
65,0.32, 2017/11/15 10:17:42.724上午,1210,59,41,52,59
66,0.325, 2017/11/15 10:17:42.729上午,1214,58,40,52,58
67,0.33, 2017/11/15 10:17:42.734上午,1190,59,40,52,59
68,0.335, 2017/11/15 10:17:42.739上午,1199,58,40,52,58
69,0.34, 2017/11/15 10:17:42.744上午,1201,58,40,52,58
70,0.345, 2017/11/15 10:17:42.749上午,1226,58,40,53,58
71,0.35, 2017/11/15 10:17:42.754上午,1183,58,40,52,58
72,0.355, 2017/11/15 10:17:42.759上午,1227,58,40,52,58
73,0.36, 2017/11/15 10:17:42.764上午,1192,58,38,53,58
74,0.365, 2017/11/15 10:17:42.769上午,1197,58,40,52,58
75,0.37, 2017/11/15 10:17:42.774上午,1210,59,40,52,59
76,0.375, 2017/11/15 10:17:42.779上午,1210,58,40,52,58
77,0.38, 2017/11/15 10:17:42.784上午,1211,59,40,52,59
78,0.385, 2017/11/15 10:17:42.789上午,1191,58,40,52,58
79,0.39, 2017/11/15 10:17:42.794上午,1215,58,40,52,58
80,0.395, 2017/11/15 10:17:42.799上午,1167,58,41,55,58
81,0.4, 2017/11/15 10:17:42.804上午,1224,59,40,53,59
82,0.405, 2017/11/15 10:17:42.809上午,1209,58,40,52,58
83,0.41, 2017/11/15 10:17:42.814上午,1204,59,41,52,59
84,0.415, 2017/11/15 10:17:42.819上午,1202,58,40,52,58
85,0.42, 2017/11/15 10:17:42.824上午,1207,59,41,52,59
86,0.425, 2017/11/15 10:17:42.829上午,1196,59,38,52,59
87,0.43, 2017/11/15 10:17:42.834上午,1204,58,41,52,58
88,0.435, 2017/11/15 10:17:42.839上午,1226,58,40,52,58
89,0.44, 2017/11/15 10:17:42.844上午,1206,58,41,52,58
90,0.445, 2017/11/15 10:17:42.849上午,1214,58,40,52,58
91,0.45, 2017/11/15 10:17:42.854上午,1193,58,41,52,58
92,0.455, 2017/11/15 10:17:42.859上午,1228,58,40,52,58
93,0.46, 2017/11/15 10:17:42.864上午,1189,58,38,55,58
94,0.465, 2017/11/15 10:17:42.869上午,1189,56,40,52,56
95,0.47, 2017/11/15 10:17:42.874上午,1213,59,40,52,59
96,0.475, 2017/11/15 10:17:42.879上午,1206,58,40,52,58
97,0.48, 2017/11/15 10:17:42.884上午,1200,58,40,53,58
98,0.485, 2017/11/15 10:17:42.889上午,1177,58,40,55,58
99,0.49, 2017/11/15 10:17:42.894上午,1208,59,38,52,59
100,0.495, 2017/11/15 10:17:42.899上午,1180,58,43,53,58
101,0.5, 2017/11/15 10:17:42.904上午,1215,58,40,52,58
102,0.505, 2017/11/15 10:17:42.909上午,1181,58,41,52,58
103,0.51, 2017/11/15 10:17:42.914上午,1212,59,40,52,59
104,0.515, 2017/11/15 10:17:42.919上午,1181,58,40,55,58
105,0.52, 2017/11/15 10:17:42.924上午,1206,58,40,53,58
106,0.525, 2017/11/15 10:17:42.929上午,1184,58,40,53,58
107,0.53, 2017/11/15 10:17:42.934上午,1229,58,40,53,58
108,0.535, 2017/11/15 10:17:42.939上午,1178,58,41,53,58
109,0.54, 2017/11/15 10:17:42.944上午,1204,58,40,53,58
110,0.545, 2017/11/15 10:17:42.949上午,1178,58,38,53,58
111,0.55, 2017/11/15 10:17:42.954上午,1212,59,40,53,59
112,0.555, 2017/11/15 10:17:42.959上午,1186,58,38,53,58
113,0.56, 2017/11/15 10:17:42.964上午,1203,58,40,52,58
114,0.565, 2017/11/15 10:17:42.969上午,1189,58,41,53,58
115,0.57, 2017/11/15 10:17:42.974上午,1211,58,40,52,58
116,0.575, 2017/11/15 10:17:42.979上午,1185,58,41,53,58
117,0.58, 2017/11/15 10:17:42.984上午,1190,58,40,52,58
118,0.585, 2017/11/15 10:17:42.989上午,1187,58,41,53,58
119,0.59, 2017/11/15 10:17:42.994上午,1211,56,38,53,56
120,0.595, 2017/11/15 10:17:42.999上午,1203,58,40,52,58
121,0.6, 2017/11/15 10:17:43.004上午,1192,56,38,52,56
122,0.605, 2017/11/15 10:17:43.009上午,1192,59,40,52,59
123,0.61, 2017/11/15 10:17:43.014上午,1185,56,41,52,56
124,0.615, 2017/11/15 10:17:43.019上午,1210,59,40,55,59
125,0.62, 2017/11/15 10:17:43.024上午,1170,56,43,55,56
126,0.625, 2017/11/15 10:17:43.029上午,1208,59,41,53,59
127,0.63, 2017/11/15 10:17:43.034上午,1177,56,40,52,56
128,0.635, 2017/11/15 10:17:43.039上午,1206,59,40,55,59
129,0.64, 2017/11/15 10:17:43.044上午,1192,56,40,55,56
130,0.645, 2017/11/15 10:17:43.049上午,1203,59,41,55,59
131,0.65, 2017/11/15 10:17:43.054上午,1163,58,41,55,58
132,0.655, 2017/11/15 10:17:43.059上午,1202,59,40,53,59
133,0.66, 2017/11/15 10:17:43.064上午,1190,58,41,55,58
134,0.665, 2017/11/15 10:17:43.069上午,1187,56,40,53,56
135,0.67, 2017/11/15 10:17:43.074上午,1207,58,41,53,58
136,0.675, 2017/11/15 10:17:43.079上午,1202,56,43,52,56
137,0.68, 2017/11/15 10:17:43.084上午,1197,56,40,55,56
138,0.685, 2017/11/15 10:17:43.089上午,1168,56,41,53,56
139,0.69, 2017/11/15 10:17:43.094上午,1212,56,40,55,56
140,0.695, 2017/11/15 10:17:43.099上午,1201,58,41,53,58
141,0.7, 2017/11/15 10:17:43.104上午,1194,56,38,52,56
142,0.705, 2017/11/15 10:17:43.109上午,1204,58,41,53,58
143,0.71, 2017/11/15 10:17:43.114上午,1191,56,41,52,56
144,0.715, 2017/11/15 10:17:43.119上午,1193,58,41,52,58
145,0.72, 2017/11/15 10:17:43.124上午,1206,56,38,53,56
146,0.725, 2017/11/15 10:17:43.129上午,1192,58,40,52,58
147,0.73, 2017/11/15 10:17:43.134上午,1185,56,40,53,56
148,0.735, 2017/11/15 10:17:43.139上午,1205,59,40,55,59
149,0.74, 2017/11/15 10:17:43.144上午,1177,55,38,55,55
150,0.745, 2017/11/15 10:17:43.149上午,1186,56,41,55,56
151,0.75, 2017/11/15 10:17:43.154上午,1179,56,41,55,56
152,0.755, 2017/11/15 10:17:43.159上午,1217,56,40,53,56
153,0.76, 2017/11/15 10:17:43.164上午,1187,58,41,55,58
154,0.765, 2017/11/15 10:17:43.169上午,1178,56,43,53,56
155,0.77, 2017/11/15 10:17:43.174上午,1216,58,40,53,58
156,0.775, 2017/11/15 10:17:43.179上午,1176,56,41,55,56
157,0.78, 2017/11/15 10:17:43.184上午,1198,55,38,52,55
158,0.785, 2017/11/15 10:17:43.189上午,1208,58,41,55,58
159,0.79, 2017/11/15 10:17:43.194上午,1195,56,40,52,56
160,0.795, 2017/11/15 10:17:43.199上午,1212,56,41,53,56
161,0.8, 2017/11/15 10:17:43.204上午,1199,58,41,53,58
162,0.805, 2017/11/15 10:17:43.209上午,1190,56,40,53,56
163,0.81, 2017/11/15 10:17:43.214上午,1196,58,41,53,58
164,0.815, 2017/11/15 10:17:43.219上午,1197,56,40,52,56
165,0.82, 2017/11/15 10:17:43.224上午,1194,58,41,53,58
166,0.825, 2017/11/15 10:17:43.229上午,1190,55,41,52,55
167,0.83, 2017/11/15 10:17:43.234上午,1204,58,41,55,58
168,0.835, 2017/11/15 10:17:43.239上午,1180,56,43,55,56
169,0.84, 2017/11/15 10:17:43.244上午,1213,58,40,53,58
170,0.845, 2017/11/15 10:17:43.249上午,1187,58,41,53,58
171,0.85, 2017/11/15 10:17:43.254上午,1199,58,41,52,58
172,0.855, 2017/11/15 10:17:43.259上午,1202,58,40,53,58
173,0.86, 2017/11/15 10:17:43.264上午,1196,56,43,52,56
174,0.865, 2017/11/15 10:17:43.269上午,1214,56,40,55,56
175,0.87, 2017/11/15 10:17:43.274上午,1187,58,41,53,58
176,0.875, 2017/11/15 10:17:43.279上午,1206,56,40,53,56
177,0.88, 2017/11/15 10:17:43.284上午,1192,56,40,55,56
178,0.885, 2017/11/15 10:17:43.289上午,1173,56,43,55,56
179,0.89, 2017/11/15 10:17:43.294上午,1204,58,40,55,58
180,0.895, 2017/11/15 10:17:43.299上午,1185,58,43,53,58
181,0.9, 2017/11/15 10:17:43.304上午,1190,58,38,52,58
182,0.905, 2017/11/15 10:17:43.309上午,1203,59,41,52,59
183,0.91, 2017/11/15 10:17:43.314上午,1208,56,41,53,56
184,0.915, 2017/11/15 10:17:43.319上午,1215,59,40,53,59
185,0.92, 2017/11/15 10:17:43.324上午,1173,58,38,53,58
186,0.925, 2017/11/15 10:17:43.329上午,1210,59,41,52,59
187,0.93, 2017/11/15 10:17:43.334上午,1191,56,40,55,56
188,0.935, 2017/11/15 10:17:43.339上午,1213,58,40,53,58
189,0.94, 2017/11/15 10:17:43.344上午,1191,56,43,55,56
190,0.945, 2017/11/15 10:17:43.349上午,1219,58,40,53,58
191,0.95, 2017/11/15 10:17:43.354上午,1188,58,40,53,58
192,0.955, 2017/11/15 10:17:43.359上午,1197,56,41,52,56
193,0.96, 2017/11/15 10:17:43.364上午,1199,58,41,53,58
194,0.965, 2017/11/15 10:17:43.369上午,1189,56,41,55,56
195,0.97, 2017/11/15 10:17:43.374上午,1214,58,40,55,58
196,0.975, 2017/11/15 10:17:43.379上午,1168,58,43,55,58
197,0.98, 2017/11/15 10:17:43.384上午,1186,56,40,53,56
198,0.985, 2017/11/15 10:17:43.389上午,1222,58,41,52,58
199,0.99, 2017/11/15 10:17:43.394上午,1189,56,41,52,56
200,0.995, 2017/11/15 10:17:43.399上午,1205,58,40,55,58
201,1, 2017/11/15 10:17:43.404上午,1189,58,43,55,58
202,1.005, 2017/11/15 10:17:43.409上午,1201,58,40,55,58
203,1.01, 2017/11/15 10:17:43.414上午,1192,58,41,55,58
204,1.015, 2017/11/15 10:17:43.419上午,1218,56,40,52,56
205,1.02, 2017/11/15 10:17:43.424上午,1203,58,41,53,58
206,1.025, 2017/11/15 10:17:43.429上午,1225,56,41,53,56
207,1.03, 2017/11/15 10:17:43.434上午,1200,58,40,53,58
208,1.035, 2017/11/15 10:17:43.439上午,1198,58,40,53,58
209,1.04, 2017/11/15 10:17:43.444上午,1194,58,40,53,58
210,1.045, 2017/11/15 10:17:43.449上午,1205,56,40,53,56
211,1.05, 2017/11/15 10:17:43.454上午,1191,58,41,55,58
212,1.055, 2017/11/15 10:17:43.459上午,1222,58,40,52,58
213,1.06, 2017/11/15 10:17:43.464上午,1200,58,40,53,58
214,1.065, 2017/11/15 10:17:43.469上午,1196,58,43,52,58
215,1.07, 2017/11/15 10:17:43.474上午,1208,58,41,55,58
216,1.075, 2017/11/15 10:17:43.479上午,1201,58,43,53,58
217,1.08, 2017/11/15 10:17:43.484上午,1212,56,38,53,56
218,1.085, 2017/11/15 10:17:43.489上午,1194,59,41,52,59
219,1.09, 2017/11/15 10:17:43.494上午,1191,56,40,53,56
220,1.095, 2017/11/15 10:17:43.499上午,1221,56,40,55,56
221,1.1, 2017/11/15 10:17:43.504上午,1209,58,41,53,58
222,1.105, 2017/11/15 10:17:43.509上午,1196,56,41,52,56
223,1.11, 2017/11/15 10:17:43.514上午,1202,58,41,53,58
224,1.115, 2017/11/15 10:17:43.519上午,1197,56,41,55,56
225,1.12, 2017/11/15 10:17:43.524上午,1191,58,40,53,58
226,1.125, 2017/11/15 10:17:43.529上午,1200,55,41,52,55
227,1.13, 2017/11/15 10:17:43.534上午,1192,58,41,52,58
228,1.135, 2017/11/15 10:17:43.539上午,1182,56,38,52,56
229,1.14, 2017/11/15 10:17:43.544上午,1217,59,41,52,59
230,1.145, 2017/11/15 10:17:43.549上午,1178,56,41,52,56
231,1.15, 2017/11/15 10:17:43.554上午,1201,58,40,53,58
232,1.155, 2017/11/15 10:17:43.559上午,1181,56,41,56,56
233,1.16, 2017/11/15 10:17:43.564上午,1219,58,40,53,58
234,1.165, 2017/11/15 10:17:43.569上午,1209,58,41,55,58
235,1.17, 2017/11/15 10:17:43.574上午,1175,58,41,55,58
236,1.175, 2017/11/15 10:17:43.579上午,1217,58,40,53,58
237,1.18, 2017/11/15 10:17:43.584上午,1202,58,40,53,58
238,1.185, 2017/11/15 10:17:43.589上午,1197,58,40,53,58
239,1.19, 2017/11/15 10:17:43.594上午,1209,58,40,56,58
240,1.195, 2017/11/15 10:17:43.599上午,1200,55,43,53,55
241,1.2, 2017/11/15 10:17:43.604上午,1195,59,41,55,59
242,1.205, 2017/11/15 10:17:43.609上午,1201,56,43,53,56
243,1.21, 2017/11/15 10:17:43.614上午,1219,58,40,53,58
244,1.215, 2017/11/15 10:17:43.619上午,1193,53,38,55,55
245,1.22, 2017/11/15 10:17:43.624上午,1224,56,40,55,56
246,1.225, 2017/11/15 10:17:43.629上午,1176,56,41,55,56
247,1.23, 2017/11/15 10:17:43.634上午,1221,56,40,53,56
248,1.235, 2017/11/15 10:17:43.639上午,1197,56,43,53,56
249,1.24, 2017/11/15 10:17:43.644上午,1210,56,41,53,56
250,1.245, 2017/11/15 10:17:43.649上午,1223,58,41,53,58
251,1.25, 2017/11/15 10:17:43.654上午,1200,55,38,55,55
252,1.255, 2017/11/15 10:17:43.659上午,1204,59,41,55,59
253,1.26, 2017/11/15 10:17:43.664上午,1197,58,41,55,58
254,1.265, 2017/11/15 10:17:43.669上午,1201,56,40,52,56
255,1.27, 2017/11/15 10:17:43.674上午,1206,58,41,53,58
256,1.275, 2017/11/15 10:17:43.679上午,1191,55,43,55,55
257,1.28, 2017/11/15 10:17:43.684上午,1178,56,40,55,56
258,1.285, 2017/11/15 10:17:43.689上午,1192,56,41,56,56
259,1.29, 2017/11/15 10:17:43.694上午,1213,55,40,55,55
260,1.295, 2017/11/15 10:17:43.699上午,1222,58,41,53,58
261,1.3, 2017/11/15 10:17:43.704上午,1203,56,40,53,56
262,1.305, 2017/11/15 10:17:43.709上午,1228,58,41,53,58
263,1.31, 2017/11/15 10:17:43.714上午,1183,55,41,55,55
264,1.315, 2017/11/15 10:17:43.719上午,1219,58,41,55,58
265,1.32, 2017/11/15 10:17:43.724上午,1198,56,40,53,56
266,1.325, 2017/11/15 10:17:43.729上午,1202,58,41,53,58
267,1.33, 2017/11/15 10:17:43.734上午,1191,56,40,55,56
268,1.335, 2017/11/15 10:17:43.739上午,1202,58,41,53,58
269,1.34, 2017/11/15 10:17:43.744上午,1212,56,40,55,56
270,1.345, 2017/11/15 10:17:43.749上午,1202,58,41,53,58
271,1.35, 2017/11/15 10:17:43.754上午,1205,55,41,53,55
272,1.355, 2017/11/15 10:17:43.759上午,1183,56,41,55,56
273,1.36, 2017/11/15 10:17:43.764上午,1212,55,40,55,55
274,1.365, 2017/11/15 10:17:43.769上午,1213,56,41,53,56
275,1.37, 2017/11/15 10:17:43.774上午,1197,56,40,53,56
276,1.375, 2017/11/15 10:17:43.779上午,1195,58,40,56,58
277,1.38, 2017/11/15 10:17:43.784上午,1165,56,43,55,56
278,1.385, 2017/11/15 10:17:43.789上午,1209,58,41,55,58
279,1.39, 2017/11/15 10:17:43.794上午,1171,56,41,55,56
280,1.395, 2017/11/15 10:17:43.799上午,1212,56,40,55,56
281,1.4, 2017/11/15 10:17:43.804上午,1191,58,41,55,58
282,1.405, 2017/11/15 10:17:43.809上午,1217,55,41,55,55
283,1.41, 2017/11/15 10:17:43.814上午,1198,56,40,55,56
284,1.415, 2017/11/15 10:17:43.819上午,1188,55,41,53,55
285,1.42, 2017/11/15 10:17:43.824上午,1211,58,41,56,58
286,1.425, 2017/11/15 10:17:43.829上午,1206,56,40,53,56
287,1.43, 2017/11/15 10:17:43.834上午,1196,58,40,55,58
288,1.435, 2017/11/15 10:17:43.839上午,1189,55,40,53,55
289,1.44, 2017/11/15 10:17:43.844上午,1204,58,41,53,58
290,1.445, 2017/11/15 10:17:43.849上午,1184,55,40,55,55
291,1.45, 2017/11/15 10:17:43.854上午,1205,56,41,53,56
292,1.455, 2017/11/15 10:17:43.859上午,1186,53,40,55,55
293,1.46, 2017/11/15 10:17:43.864上午,1194,55,41,55,55
294,1.465, 2017/11/15 10:17:43.869上午,1186,56,40,56,56
295,1.47, 2017/11/15 10:17:43.874上午,1196,56,41,53,56
296,1.475, 2017/11/15 10:17:43.879上午,1174,55,40,55,55
297,1.48, 2017/11/15 10:17:43.884上午,1181,55,40,55,55
298,1.485, 2017/11/15 10:17:43.889上午,1200,56,40,55,56
299,1.49, 2017/11/15 10:17:43.894上午,1185,56,41,55,56
300,1.495, 2017/11/15 10:17:43.899上午,1208,56,41,52,56
301,1.5, 2017/11/15 10:17:43.904上午,1181,56,41,55,56
302,1.505, 2017/11/15 10:17:43.909上午,1200,53,40,55,55
303,1.51, 2017/11/15 10:17:43.914上午,1188,56,40,55,56
304,1.515, 2017/11/15 10:17:43.919上午,1186,53,41,55,55
305,1.52, 2017/11/15 10:17:43.924上午,1188,56,41,55,56
306,1.525, 2017/11/15 10:17:43.929上午,1202,53,38,55,55
307,1.53, 2017/11/15 10:17:43.934上午,1184,55,40,55,55
308,1.535, 2017/11/15 10:17:43.939上午,1173,55,38,55,55
309,1.54, 2017/11/15 10:17:43.944上午,1184,56,43,56,56
310,1.545, 2017/11/15 10:17:43.949上午,1196,56,40,55,56
311,1.55, 2017/11/15 10:17:43.954上午,1171,56,41,56,56
312,1.555, 2017/11/15 10:17:43.959上午,1171,55,40,53,55
313,1.56, 2017/11/15 10:17:43.964上午,1175,55,40,55,55
314,1.565, 2017/11/15 10:17:43.969上午,1171,55,43,56,56
315,1.57, 2017/11/15 10:17:43.974上午,1175,55,40,56,56
316,1.575, 2017/11/15 10:17:43.979上午,1174,55,41,56,56
317,1.58, 2017/11/15 10:17:43.984上午,1156,53,43,55,55
318,1.585, 2017/11/15 10:17:43.989上午,1190,55,40,55,55
319,1.59, 2017/11/15 10:17:43.994上午,1177,56,41,55,56
320,1.595, 2017/11/15 10:17:43.999上午,1174,53,40,55,55
321,1.6, 2017/11/15 10:17:44.004上午,1174,56,40,56,56
322,1.605, 2017/11/15 10:17:44.009上午,1171,53,43,55,55
323,1.61, 2017/11/15 10:17:44.014上午,1177,55,40,55,55
324,1.615, 2017/11/15 10:17:44.019上午,1155,55,41,55,55
325,1.62, 2017/11/15 10:17:44.024上午,1167,53,38,55,55
326,1.625, 2017/11/15 10:17:44.029上午,1163,55,41,56,56
327,1.63, 2017/11/15 10:17:44.034上午,1162,53,38,56,56
328,1.635, 2017/11/15 10:17:44.039上午,1185,53,41,56,56
329,1.64, 2017/11/15 10:17:44.044上午,1187,53,41,53,53
330,1.645, 2017/11/15 10:17:44.049上午,1177,56,41,55,56
331,1.65, 2017/11/15 10:17:44.054上午,1170,53,41,55,55
332,1.655, 2017/11/15 10:17:44.059上午,1170,55,40,55,55
333,1.66, 2017/11/15 10:17:44.064上午,1186,55,43,56,56
334,1.665, 2017/11/15 10:17:44.069上午,1172,55,40,56,56
335,1.67, 2017/11/15 10:17:44.074上午,1164,56,41,56,56
336,1.675, 2017/11/15 10:17:44.079上午,1172,52,41,55,55
337,1.68, 2017/11/15 10:17:44.084上午,1179,55,41,56,56
338,1.685, 2017/11/15 10:17:44.089上午,1189,52,43,56,56
339,1.69, 2017/11/15 10:17:44.094上午,1187,55,41,55,55
340,1.695, 2017/11/15 10:17:44.099上午,1166,53,40,55,55
341,1.7, 2017/11/15 10:17:44.104上午,1164,55,40,55,55
342,1.705, 2017/11/15 10:17:44.109上午,1172,53,43,55,55
343,1.71, 2017/11/15 10:17:44.114上午,1158,55,40,55,55
344,1.715, 2017/11/15 10:17:44.119上午,1167,55,43,55,55
345,1.72, 2017/11/15 10:17:44.124上午,1174,55,40,55,55
346,1.725, 2017/11/15 10:17:44.129上午,1169,53,43,55,55
347,1.73, 2017/11/15 10:17:44.134上午,1172,55,40,55,55
348,1.735, 2017/11/15 10:17:44.139上午,1183,55,43,53,55
349,1.74, 2017/11/15 10:17:44.144上午,1166,55,40,55,55
350,1.745, 2017/11/15 10:17:44.149上午,1158,53,43,56,56
351,1.75, 2017/11/15 10:17:44.154上午,1178,55,40,55,55
352,1.755, 2017/11/15 10:17:44.159上午,1178,53,43,55,55
353,1.76, 2017/11/15 10:17:44.164上午,1180,55,40,55,55
354,1.765, 2017/11/15 10:17:44.169上午,1177,56,41,56,56
355,1.77, 2017/11/15 10:17:44.174上午,1174,53,38,55,55
356,1.775, 2017/11/15 10:17:44.179上午,1176,55,41,55,55
357,1.78, 2017/11/15 10:17:44.184上午,1161,53,43,55,55
358,1.785, 2017/11/15 10:17:44.189上午,1165,52,38,56,56
359,1.79, 2017/11/15 10:17:44.194上午,1176,56,40,55,56
360,1.795, 2017/11/15 10:17:44.199上午,1163,52,41,55,55
361,1.8, 2017/11/15 10:17:44.204上午,1173,55,40,55,55
362,1.805, 2017/11/15 10:17:44.209上午,1153,53,41,56,56
363,1.81, 2017/11/15 10:17:44.214上午,1160,55,40,56,56
364,1.815, 2017/11/15 10:17:44.219上午,1156,53,43,55,55
365,1.82, 2017/11/15 10:17:44.224上午,1168,52,43,56,56
366,1.825, 2017/11/15 10:17:44.229上午,1162,56,43,56,56
367,1.83, 2017/11/15 10:17:44.234上午,1170,52,38,56,56
368,1.835, 2017/11/15 10:17:44.239上午,1151,53,43,56,56
369,1.84, 2017/11/15 10:17:44.244上午,1171,52,40,56,56
370,1.845, 2017/11/15 10:17:44.249上午,1163,55,41,55,55
371,1.85, 2017/11/15 10:17:44.254上午,1172,52,38,56,56
372,1.855, 2017/11/15 10:17:44.259上午,1161,55,41,55,55
373,1.86, 2017/11/15 10:17:44.264上午,1148,52,41,56,56
374,1.865, 2017/11/15 10:17:44.269上午,1156,55,40,55,55
375,1.87, 2017/11/15 10:17:44.274上午,1151,52,43,56,56
376,1.875, 2017/11/15 10:17:44.279上午,1167,55,41,55,55
377,1.88, 2017/11/15 10:17:44.284上午,1162,55,41,55,55
378,1.885, 2017/11/15 10:17:44.289上午,1153,52,40,55,55
379,1.89, 2017/11/15 10:17:44.294上午,1178,53,41,56,56
380,1.895, 2017/11/15 10:17:44.299上午,1168,52,41,55,55
381,1.9, 2017/11/15 10:17:44.304上午,1152,55,40,56,56
382,1.905, 2017/11/15 10:17:44.309上午,1154,52,41,58,58
383,1.91, 2017/11/15 10:17:44.314上午,1167,55,40,55,55
384,1.915, 2017/11/15 10:17:44.319上午,1176,52,43,56,56
385,1.92, 2017/11/15 10:17:44.324上午,1176,55,40,56,56
386,1.925, 2017/11/15 10:17:44.329上午,1174,55,41,55,55
387,1.93, 2017/11/15 10:17:44.334上午,1161,52,41,56,56
388,1.935, 2017/11/15 10:17:44.339上午,1181,53,40,55,55
389,1.94, 2017/11/15 10:17:44.344上午,1151,52,40,58,58
390,1.945, 2017/11/15 10:17:44.349上午,1165,55,40,55,55
391,1.95, 2017/11/15 10:17:44.354上午,1153,50,41,56,56
392,1.955, 2017/11/15 10:17:44.359上午,1166,53,41,55,55
393,1.96, 2017/11/15 10:17:44.364上午,1144,52,41,56,56
394,1.965, 2017/11/15 10:17:44.369上午,1162,52,38,56,56
395,1.97, 2017/11/15 10:17:44.374上午,1174,56,41,56,56
396,1.975, 2017/11/15 10:17:44.379上午,1162,55,41,56,56
397,1.98, 2017/11/15 10:17:44.384上午,1160,55,40,55,55
398,1.985, 2017/11/15 10:17:44.389上午,1166,53,41,56,56
399,1.99, 2017/11/15 10:17:44.394上午,1176,53,40,55,55
400,1.995, 2017/11/15 10:17:44.399上午,1158,53,41,53,53
401,2, 2017/11/15 10:17:44.404上午,1162,52,41,55,55
402,2.005, 2017/11/15 10:17:44.409上午,1165,55,38,56,56
403,2.01, 2017/11/15 10:17:44.414上午,1155,52,40,55,55
404,2.015, 2017/11/15 10:17:44.419上午,1176,55,38,56,56
405,2.02, 2017/11/15 10:17:44.424上午,1170,56,40,53,56
406,2.025, 2017/11/15 10:17:44.429上午,1177,53,40,56,56
407,2.03, 2017/11/15 10:17:44.434上午,1179,55,40,53,55
408,2.035, 2017/11/15 10:17:44.439上午,1169,53,40,55,55
409,2.04, 2017/11/15 10:17:44.444上午,1180,55,40,53,55
410,2.045, 2017/11/15 10:17:44.449上午,1161,55,40,55,55
411,2.05, 2017/11/15 10:17:44.454上午,1158,52,38,55,55
412,2.055, 2017/11/15 10:17:44.459上午,1181,55,41,56,56
413,2.06, 2017/11/15 10:17:44.464上午,1171,55,40,55,55
414,2.065, 2017/11/15 10:17:44.469上午,1147,52,38,55,55
415,2.07, 2017/11/15 10:17:44.474上午,1170,53,41,55,55
416,2.075, 2017/11/15 10:17:44.479上午,1163,53,40,55,55
417,2.08, 2017/11/15 10:17:44.484上午,1169,55,40,56,56
418,2.085, 2017/11/15 10:17:44.489上午,1172,53,43,55,55
419,2.09, 2017/11/15 10:17:44.494上午,1190,53,38,56,56
420,2.095, 2017/11/15 10:17:44.499上午,1156,56,41,56,56
421,2.1, 2017/11/15 10:17:44.504上午,1166,52,38,56,56
422,2.105, 2017/11/15 10:17:44.509上午,1172,56,40,55,56
423,2.11, 2017/11/15 10:17:44.514上午,1174,52,38,55,55
424,2.115, 2017/11/15 10:17:44.519上午,1173,56,38,55,56
425,2.12, 2017/11/15 10:17:44.524上午,1167,53,38,55,55
426,2.125, 2017/11/15 10:17:44.529上午,1155,55,40,55,55
427,2.13, 2017/11/15 10:17:44.534上午,1177,56,40,55,56
428,2.135, 2017/11/15 10:17:44.539上午,1166,55,41,55,55
429,2.14, 2017/11/15 10:17:44.544上午,1178,56,38,56,56
430,2.145, 2017/11/15 10:17:44.549上午,1171,53,40,55,55
431,2.15, 2017/11/15 10:17:44.554上午,1178,55,38,56,56
432,2.155, 2017/11/15 10:17:44.559上午,1166,53,41,55,55
433,2.16, 2017/11/15 10:17:44.564上午,1177,56,38,53,56
434,2.165, 2017/11/15 10:17:44.569上午,1168,56,40,55,56
435,2.17, 2017/11/15 10:17:44.574上午,1170,55,38,55,55
436,2.175, 2017/11/15 10:17:44.579上午,1185,56,40,55,56
437,2.18, 2017/11/15 10:17:44.584上午,1172,53,38,55,55
438,2.185, 2017/11/15 10:17:44.589上午,1169,58,38,53,58
439,2.19, 2017/11/15 10:17:44.594上午,1170,53,38,55,55
440,2.195, 2017/11/15 10:17:44.599上午,1193,58,40,55,58
441,2.2, 2017/11/15 10:17:44.604上午,1183,53,38,55,55
442,2.205, 2017/11/15 10:17:44.609上午,1183,56,37,55,56
443,2.21, 2017/11/15 10:17:44.614上午,1169,55,38,55,55
444,2.215, 2017/11/15 10:17:44.619上午,1188,56,37,55,56
445,2.22, 2017/11/15 10:17:44.624上午,1176,58,40,55,58
446,2.225, 2017/11/15 10:17:44.629上午,1204,55,38,56,56
447,2.23, 2017/11/15 10:17:44.634上午,1195,58,38,55,58
448,2.235, 2017/11/15 10:17:44.639上午,1176,55,38,55,55
449,2.24, 2017/11/15 10:17:44.644上午,1201,58,38,55,58
450,2.245, 2017/11/15 10:17:44.649上午,1163,55,38,55,55
451,2.25, 2017/11/15 10:17:44.654上午,1191,56,38,55,56
452,2.255, 2017/11/15 10:17:44.659上午,1191,58,40,52,58
453,2.26, 2017/11/15 10:17:44.664上午,1179,56,40,55,56
454,2.265, 2017/11/15 10:17:44.669上午,1177,55,38,53,55
455,2.27, 2017/11/15 10:17:44.674上午,1193,58,40,52,58
456,2.275, 2017/11/15 10:17:44.679上午,1167,58,38,55,58
457,2.28, 2017/11/15 10:17:44.684上午,1181,55,37,53,55
458,2.285, 2017/11/15 10:17:44.689上午,1205,58,38,53,58
459,2.29, 2017/11/15 10:17:44.694上午,1183,58,40,55,58
460,2.295, 2017/11/15 10:17:44.699上午,1199,56,38,52,56
461,2.3, 2017/11/15 10:17:44.704上午,1194,58,38,52,58
462,2.305, 2017/11/15 10:17:44.709上午,1181,56,40,52,56
463,2.31, 2017/11/15 10:17:44.714上午,1185,56,38,53,56
464,2.315, 2017/11/15 10:17:44.719上午,1185,56,38,53,56
465,2.32, 2017/11/15 10:17:44.724上午,1205,56,37,55,56
466,2.325, 2017/11/15 10:17:44.729上午,1179,58,40,53,58
467,2.33, 2017/11/15 10:17:44.734上午,1190,56,38,52,56
468,2.335, 2017/11/15 10:17:44.739上午,1191,58,38,52,58
469,2.34, 2017/11/15 10:17:44.744上午,1195,56,37,53,56
470,2.345, 2017/11/15 10:17:44.749上午,1200,56,38,55,56
471,2.35, 2017/11/15 10:17:44.754上午,1157,56,40,55,56
472,2.355, 2017/11/15 10:17:44.759上午,1196,58,38,55,58
473,2.36, 2017/11/15 10:17:44.764上午,1172,56,41,55,56
474,2.365, 2017/11/15 10:17:44.769上午,1192,55,38,52,55
475,2.37, 2017/11/15 10:17:44.774上午,1189,58,38,55,58
476,2.375, 2017/11/15 10:17:44.779上午,1169,56,38,55,56
477,2.38, 2017/11/15 10:17:44.784上午,1192,56,38,53,56
478,2.385, 2017/11/15 10:17:44.789上午,1201,58,40,53,58
479,2.39, 2017/11/15 10:17:44.794上午,1189,56,38,53,56
480,2.395, 2017/11/15 10:17:44.799上午,1204,56,40,53,56
481,2.4, 2017/11/15 10:17:44.804上午,1182,58,41,53,58
482,2.405, 2017/11/15 10:17:44.809上午,1199,56,38,53,56
483,2.41, 2017/11/15 10:17:44.814上午,1186,58,40,53,58
484,2.415, 2017/11/15 10:17:44.819上午,1181,55,38,53,55
485,2.42, 2017/11/15 10:17:44.824上午,1215,59,40,53,59
486,2.425, 2017/11/15 10:17:44.829上午,1173,56,41,53,56
487,2.43, 2017/11/15 10:17:44.834上午,1194,56,38,55,56
488,2.435, 2017/11/15 10:17:44.839上午,1207,56,40,55,56
489,2.44, 2017/11/15 10:17:44.844上午,1188,56,38,53,56
490,2.445, 2017/11/15 10:17:44.849上午,1158,55,40,53,55
491,2.45, 2017/11/15 10:17:44.854上午,1182,56,40,52,56
492,2.455, 2017/11/15 10:17:44.859上午,1187,58,41,55,58
493,2.46, 2017/11/15 10:17:44.864上午,1204,56,40,53,56
494,2.465, 2017/11/15 10:17:44.869上午,1186,58,38,53,58
495,2.47, 2017/11/15 10:17:44.874上午,1187,56,38,55,56
496,2.475, 2017/11/15 10:17:44.879上午,1207,58,40,55,58
497,2.48, 2017/11/15 10:17:44.884上午,1185,58,40,53,58
498,2.485, 2017/11/15 10:17:44.889上午,1177,58,38,55,58
499,2.49, 2017/11/15 10:17:44.894上午,1208,56,38,53,56
500,2.495, 2017/11/15 10:17:44.899上午,1200,58,40,53,58
501,2.5, 2017/11/15 10:17:44.904上午,1163,55,38,55,55
502,2.505, 2017/11/15 10:17:44.909上午,1199,58,41,55,58
503,2.51, 2017/11/15 10:17:44.914上午,1187,56,38,55,56
504,2.515, 2017/11/15 10:17:44.919上午,1202,56,40,53,56
505,2.52, 2017/11/15 10:17:44.924上午,1187,58,40,52,58
506,2.525, 2017/11/15 10:17:44.929上午,1172,55,40,53,55
507,2.53, 2017/11/15 10:17:44.934上午,1187,56,40,55,56
508,2.535, 2017/11/15 10:17:44.939上午,1187,56,38,55,56
509,2.54, 2017/11/15 10:17:44.944上午,1199,56,40,55,56
510,2.545, 2017/11/15 10:17:44.949上午,1177,56,38,55,56
511,2.55, 2017/11/15 10:17:44.954上午,1205,56,41,53,56
512,2.555, 2017/11/15 10:17:44.959上午,1211,58,40,55,58
513,2.56, 2017/11/15 10:17:44.964上午,1183,56,40,55,56
514,2.565, 2017/11/15 10:17:44.969上午,1185,58,40,55,58
515,2.57, 2017/11/15 10:17:44.974上午,1180,53,41,55,55
516,2.575, 2017/11/15 10:17:44.979上午,1207,56,41,55,56
517,2.58, 2017/11/15 10:17:44.984上午,1181,55,41,55,55
518,2.585, 2017/11/15 10:17:44.989上午,1186,55,38,55,55
519,2.59, 2017/11/15 10:17:44.994上午,1175,56,40,53,56
520,2.595, 2017/11/15 10:17:44.999上午,1194,55,43,55,55
521,2.6, 2017/11/15 10:17:45.004上午,1192,56,40,55,56
522,2.605, 2017/11/15 10:17:45.009上午,1175,55,40,55,55
523,2.61, 2017/11/15 10:17:45.014上午,1193,56,40,55,56
524,2.615, 2017/11/15 10:17:45.019上午,1170,55,41,55,55
525,2.62, 2017/11/15 10:17:45.024上午,1196,56,40,55,56
526,2.625, 2017/11/15 10:17:45.029上午,1158,55,43,55,55
527,2.63, 2017/11/15 10:17:45.034上午,1195,56,40,53,56
528,2.635, 2017/11/15 10:17:45.039上午,1182,53,41,55,55
529,2.64, 2017/11/15 10:17:45.044上午,1187,58,41,55,58
530,2.645, 2017/11/15 10:17:45.049上午,1165,55,40,55,55
531,2.65, 2017/11/15 10:17:45.054上午,1193,58,40,55,58
532,2.655, 2017/11/15 10:17:45.059上午,1175,56,43,56,56
533,2.66, 2017/11/15 10:17:45.064上午,1188,56,40,53,56
534,2.665, 2017/11/15 10:17:45.069上午,1198,58,41,55,58
535,2.67, 2017/11/15 10:17:45.074上午,1177,55,38,55,55
536,2.675, 2017/11/15 10:17:45.079上午,1194,56,41,53,56
537,2.68, 2017/11/15 10:17:45.084上午,1197,56,41,55,56
538,2.685, 2017/11/15 10:17:45.089上午,1208,56,41,56,56
539,2.69, 2017/11/15 10:17:45.094上午,1203,58,41,55,58
540,2.695, 2017/11/15 10:17:45.099上午,1189,56,41,53,56
541,2.7, 2017/11/15 10:17:45.104上午,1213,58,40,55,58
542,2.705, 2017/11/15 10:17:45.109上午,1170,53,43,55,55
543,2.71, 2017/11/15 10:17:45.114上午,1192,56,41,53,56
544,2.715, 2017/11/15 10:17:45.119上午,1197,55,41,55,55
545,2.72, 2017/11/15 10:17:45.124上午,1190,56,41,55,56
546,2.725, 2017/11/15 10:17:45.129上午,1188,53,41,55,55
547,2.73, 2017/11/15 10:17:45.134上午,1195,56,41,56,56
548,2.735, 2017/11/15 10:17:45.139上午,1186,53,43,56,56
549,2.74, 2017/11/15 10:17:45.144上午,1197,56,41,53,56
550,2.745, 2017/11/15 10:17:45.149上午,1198,55,40,55,55
551,2.75, 2017/11/15 10:17:45.154上午,1194,55,41,55,55
552,2.755, 2017/11/15 10:17:45.159上午,1181,56,40,53,56
553,2.76, 2017/11/15 10:17:45.164上午,1196,53,43,55,55
554,2.765, 2017/11/15 10:17:45.169上午,1203,56,40,56,56
555,2.77, 2017/11/15 10:17:45.174上午,1190,55,43,55,55
556,2.775, 2017/11/15 10:17:45.179上午,1200,55,40,53,55
557,2.78, 2017/11/15 10:17:45.184上午,1200,55,40,55,55
558,2.785, 2017/11/15 10:17:45.189上午,1188,55,41,55,55
559,2.79, 2017/11/15 10:17:45.194上午,1198,56,40,55,56
560,2.795, 2017/11/15 10:17:45.199上午,1182,56,41,56,56
561,2.8, 2017/11/15 10:17:45.204上午,1180,53,41,55,55
562,2.805, 2017/11/15 10:17:45.209上午,1183,56,41,55,56
563,2.81, 2017/11/15 10:17:45.214上午,1176,55,43,55,55
564,2.815, 2017/11/15 10:17:45.219上午,1196,58,40,55,58
565,2.82, 2017/11/15 10:17:45.224上午,1178,56,43,55,56
566,2.825, 2017/11/15 10:17:45.229上午,1190,56,41,53,56
567,2.83, 2017/11/15 10:17:45.234上午,1191,55,43,53,55
568,2.835, 2017/11/15 10:17:45.239上午,1184,53,38,55,55
569,2.84, 2017/11/15 10:17:45.244上午,1202,58,41,56,58
570,2.845, 2017/11/15 10:17:45.249上午,1178,56,43,55,56
571,2.85, 2017/11/15 10:17:45.254上午,1207,55,41,55,55
572,2.855, 2017/11/15 10:17:45.259上午,1188,56,41,53,56
573,2.86, 2017/11/15 10:17:45.264上午,1192,56,38,55,56
574,2.865, 2017/11/15 10:17:45.269上午,1210,56,40,53,56
575,2.87, 2017/11/15 10:17:45.274上午,1201,56,43,56,56
576,2.875, 2017/11/15 10:17:45.279上午,1199,56,41,55,56
577,2.88, 2017/11/15 10:17:45.284上午,1182,56,41,55,56
578,2.885, 2017/11/15 10:17:45.289上午,1166,55,41,56,56
579,2.89, 2017/11/15 10:17:45.294上午,1213,56,43,55,56
580,2.895, 2017/11/15 10:17:45.299上午,1201,58,41,55,58
581,2.9, 2017/11/15 10:17:45.304上午,1194,55,38,55,55
582,2.905, 2017/11/15 10:17:45.309上午,1193,58,40,55,58
583,2.91, 2017/11/15 10:17:45.314上午,1210,56,43,55,56
584,2.915, 2017/11/15 10:17:45.319上午,1198,58,40,55,58
585,2.92, 2017/11/15 10:17:45.324上午,1193,53,40,55,55
586,2.925, 2017/11/15 10:17:45.329上午,1200,58,43,53,58
587,2.93, 2017/11/15 10:17:45.334上午,1188,55,40,55,55
588,2.935, 2017/11/15 10:17:45.339上午,1197,58,41,53,58
589,2.94, 2017/11/15 10:17:45.344上午,1191,55,40,55,55
590,2.945, 2017/11/15 10:17:45.349上午,1215,58,41,55,58
591,2.95, 2017/11/15 10:17:45.354上午,1168,56,40,55,56
592,2.955, 2017/11/15 10:17:45.359上午,1194,58,41,55,58
593,2.96, 2017/11/15 10:17:45.364上午,1189,58,43,55,58
594,2.965, 2017/11/15 10:17:45.369上午,1191,55,40,55,55
595,2.97, 2017/11/15 10:17:45.374上午,1194,56,41,55,56
596,2.975, 2017/11/15 10:17:45.379上午,1188,55,40,55,55
597,2.98, 2017/11/15 10:17:45.384上午,1193,56,41,55,56
598,2.985, 2017/11/15 10:17:45.389上午,1198,55,40,55,55
599,2.99, 2017/11/15 10:17:45.394上午,1195,56,40,55,56
600,2.995, 2017/11/15 10:17:45.399上午,1195,58,41,53,58
@@,,,,,,,
