DATA_TYPE Graph
VERSION Tekscan Pressure Measurement System 6.70-03
HARDWARE 00114-3447
MAP_VERSION 6.5
HW_TYPE 4
VersaPogoFsx 0
FILENAME C:\Users\User\Desktop\Subject01\plantar pressure\EVA_STAND_RIGHT_SUPPORT_1.fsx
SENSOR_TYPE FSCAN
ROWS 60
COLS 21
ROW_SPACING 0.508 centimeters
COL_SPACING 0.508 centimeters
SENSEL_AREA 0.258064 cm2
NOISE_THRESHOLD 3
SECONDS_PER_FRAME 0.005
SECONDS_PER_FRAME 0
MICRO_SECOND 0
TIME 2017/11/14 06:15:32.458下午
SATURATION_PRESSURE 2514.18 KPa 
CALIBRATION_POINT_1 59.0001 (Kilograms) 2274 (Raw Sum) 286 (Number of Loaded Cells)
CALIBRATION_MODE_1 Step
CALIBRATION_INFO C:\Users\User\Desktop\Subject01\plantar pressure\EVA_STAND_RIGHT_SUPPORT_1.fsx
SENSITIVITY Custom
MAP_INDEX 0
SUBMAP 0
Patient ID: 

Speed of Gait: 

Weight: 

Gender: 

Physician: 

Technician: 

Shoe: 

START_FRAME 1
END_FRAME 600
UNITS cm2
ASCII_DATA @@
Frames(X), Time(X), Absolute Time(X), Raw Sum, Area(Y:blue), Area(Y), Area(Y), Area(Y)
1, 0, 2017/11/14 06:15:32.458下午, 219.0, 2.84, 4.65, 6.45, 13.94
2, 0.005, 2017/11/14 06:15:32.463下午, 219.0, 3.35, 4.65, 5.94, 13.94
3, 0.01, 2017/11/14 06:15:32.468下午, 216.0, 2.84, 4.65, 6.45, 13.94
4, 0.015, 2017/11/14 06:15:32.473下午, 223.0, 3.10, 4.65, 6.45, 14.19
5, 0.02, 2017/11/14 06:15:32.478下午, 236.0, 3.87, 3.87, 6.19, 13.94
6, 0.025, 2017/11/14 06:15:32.483下午, 242.0, 3.35, 4.65, 6.19, 14.19
7, 0.03, 2017/11/14 06:15:32.488下午, 245.0, 3.35, 4.65, 5.94, 13.94
8, 0.035, 2017/11/14 06:15:32.493下午, 232.0, 2.58, 4.39, 5.68, 12.65
9, 0.04, 2017/11/14 06:15:32.498下午, 234.0, 2.84, 4.65, 5.94, 13.42
10, 0.045, 2017/11/14 06:15:32.503下午, 231.0, 2.58, 4.65, 5.94, 13.16
11, 0.05, 2017/11/14 06:15:32.508下午, 216.0, 2.84, 4.65, 5.94, 13.42
12, 0.055, 2017/11/14 06:15:32.513下午, 220.0, 3.35, 4.65, 5.94, 13.94
13, 0.06, 2017/11/14 06:15:32.518下午, 219.0, 2.58, 4.65, 6.45, 13.68
14, 0.065, 2017/11/14 06:15:32.523下午, 225.0, 3.35, 4.65, 6.19, 14.19
15, 0.07, 2017/11/14 06:15:32.528下午, 224.0, 3.10, 4.65, 6.45, 14.19
16, 0.075, 2017/11/14 06:15:32.533下午, 236.0, 3.35, 4.39, 6.19, 13.94
17, 0.08, 2017/11/14 06:15:32.538下午, 246.0, 3.61, 4.39, 6.19, 14.19
18, 0.085, 2017/11/14 06:15:32.543下午, 243.0, 3.35, 4.39, 6.19, 13.94
19, 0.09, 2017/11/14 06:15:32.548下午, 252.0, 4.13, 4.39, 6.19, 14.71
20, 0.095, 2017/11/14 06:15:32.553下午, 244.0, 2.58, 4.39, 6.71, 13.68
21, 0.1, 2017/11/14 06:15:32.558下午, 236.0, 2.84, 4.39, 6.19, 13.42
22, 0.105, 2017/11/14 06:15:32.563下午, 235.0, 2.32, 4.65, 6.19, 13.16
23, 0.11, 2017/11/14 06:15:32.568下午, 238.0, 2.32, 4.65, 6.45, 13.42
24, 0.115, 2017/11/14 06:15:32.573下午, 234.0, 2.58, 4.39, 6.19, 13.16
25, 0.12, 2017/11/14 06:15:32.578下午, 228.0, 2.84, 4.65, 6.19, 13.68
26, 0.125, 2017/11/14 06:15:32.583下午, 203.0, 2.32, 4.65, 5.16, 12.13
27, 0.13, 2017/11/14 06:15:32.588下午, 249.0, 3.35, 4.39, 6.45, 14.19
28, 0.135, 2017/11/14 06:15:32.593下午, 242.0, 2.32, 4.39, 6.71, 13.42
29, 0.14, 2017/11/14 06:15:32.598下午, 228.0, 2.58, 4.39, 5.94, 12.90
30, 0.145, 2017/11/14 06:15:32.603下午, 220.0, 2.84, 4.65, 5.94, 13.42
31, 0.15, 2017/11/14 06:15:32.608下午, 221.0, 2.58, 4.65, 6.45, 13.68
32, 0.155, 2017/11/14 06:15:32.613下午, 206.0, 2.06, 4.65, 5.94, 12.65
33, 0.16, 2017/11/14 06:15:32.618下午, 221.0, 2.58, 4.65, 6.45, 13.68
34, 0.165, 2017/11/14 06:15:32.623下午, 229.0, 2.32, 4.65, 6.19, 13.16
35, 0.17, 2017/11/14 06:15:32.628下午, 240.0, 3.35, 4.39, 6.19, 13.94
36, 0.175, 2017/11/14 06:15:32.633下午, 238.0, 2.84, 4.65, 6.19, 13.68
37, 0.18, 2017/11/14 06:15:32.638下午, 226.0, 1.55, 4.65, 6.71, 12.90
38, 0.185, 2017/11/14 06:15:32.643下午, 230.0, 2.84, 4.39, 6.19, 13.42
39, 0.19, 2017/11/14 06:15:32.648下午, 223.0, 2.06, 4.39, 6.19, 12.65
40, 0.195, 2017/11/14 06:15:32.653下午, 234.0, 2.58, 4.65, 6.45, 13.68
41, 0.2, 2017/11/14 06:15:32.658下午, 241.0, 3.35, 4.39, 6.19, 13.94
42, 0.205, 2017/11/14 06:15:32.663下午, 216.0, 1.55, 4.65, 5.94, 12.13
43, 0.21, 2017/11/14 06:15:32.668下午, 224.0, 2.84, 3.61, 6.45, 12.90
44, 0.215, 2017/11/14 06:15:32.673下午, 242.0, 3.35, 4.65, 6.19, 14.19
45, 0.22, 2017/11/14 06:15:32.678下午, 241.0, 2.84, 4.65, 6.19, 13.68
46, 0.225, 2017/11/14 06:15:32.683下午, 244.0, 2.32, 4.39, 6.71, 13.68
47, 0.23, 2017/11/14 06:15:32.688下午, 244.0, 2.58, 4.39, 6.71, 13.94
48, 0.235, 2017/11/14 06:15:32.693下午, 225.0, 2.06, 4.65, 5.94, 12.65
49, 0.24, 2017/11/14 06:15:32.698下午, 213.0, 2.32, 4.65, 5.94, 12.90
50, 0.245, 2017/11/14 06:15:32.703下午, 214.0, 2.32, 4.65, 6.45, 13.42
51, 0.25, 2017/11/14 06:15:32.708下午, 231.0, 2.58, 4.65, 6.45, 13.68
52, 0.255, 2017/11/14 06:15:32.713下午, 240.0, 2.84, 4.65, 6.71, 14.19
53, 0.26, 2017/11/14 06:15:32.718下午, 234.0, 2.58, 4.65, 6.45, 13.68
54, 0.265, 2017/11/14 06:15:32.723下午, 223.0, 1.55, 4.65, 6.71, 12.90
55, 0.27, 2017/11/14 06:15:32.728下午, 226.0, 2.32, 4.39, 5.94, 12.65
56, 0.275, 2017/11/14 06:15:32.733下午, 234.0, 2.06, 4.65, 6.19, 13.16
57, 0.28, 2017/11/14 06:15:32.738下午, 233.0, 2.06, 4.39, 6.19, 12.90
58, 0.285, 2017/11/14 06:15:32.743下午, 234.0, 2.06, 4.39, 6.71, 13.42
59, 0.29, 2017/11/14 06:15:32.748下午, 227.0, 1.55, 4.65, 6.45, 12.65
60, 0.295, 2017/11/14 06:15:32.753下午, 224.0, 1.55, 4.65, 5.94, 12.13
61, 0.3, 2017/11/14 06:15:32.758下午, 224.0, 1.81, 4.65, 5.94, 12.39
62, 0.305, 2017/11/14 06:15:32.763下午, 207.0, 1.29, 4.90, 6.45, 12.65
63, 0.31, 2017/11/14 06:15:32.768下午, 230.0, 2.58, 4.65, 6.19, 13.42
64, 0.315, 2017/11/14 06:15:32.773下午, 227.0, 2.06, 4.65, 6.19, 12.90
65, 0.32, 2017/11/14 06:15:32.778下午, 233.0, 2.06, 4.65, 6.71, 13.42
66, 0.325, 2017/11/14 06:15:32.783下午, 218.0, 1.03, 4.39, 6.71, 12.13
67, 0.33, 2017/11/14 06:15:32.788下午, 227.0, 1.55, 4.65, 6.45, 12.90
68, 0.335, 2017/11/14 06:15:32.793下午, 227.0, 1.55, 4.65, 6.45, 12.65
69, 0.34, 2017/11/14 06:15:32.798下午, 237.0, 2.06, 4.39, 6.45, 13.16
70, 0.345, 2017/11/14 06:15:32.803下午, 225.0, 1.55, 4.65, 6.19, 12.39
71, 0.35, 2017/11/14 06:15:32.808下午, 224.0, 1.29, 4.90, 6.19, 12.65
72, 0.355, 2017/11/14 06:15:32.813下午, 232.0, 2.06, 4.65, 6.97, 13.68
73, 0.36, 2017/11/14 06:15:32.818下午, 222.0, 1.03, 4.65, 6.71, 12.39
74, 0.365, 2017/11/14 06:15:32.823下午, 226.0, 1.29, 4.65, 6.97, 12.90
75, 0.37, 2017/11/14 06:15:32.828下午, 209.0, 1.03, 3.87, 6.45, 11.35
76, 0.375, 2017/11/14 06:15:32.833下午, 223.0, 1.03, 4.90, 6.45, 12.39
77, 0.38, 2017/11/14 06:15:32.838下午, 233.0, 1.29, 4.39, 6.97, 12.65
78, 0.385, 2017/11/14 06:15:32.843下午, 230.0, 1.55, 4.65, 6.19, 12.65
79, 0.39, 2017/11/14 06:15:32.848下午, 236.0, 1.55, 4.39, 6.71, 12.90
80, 0.395, 2017/11/14 06:15:32.853下午, 211.0, 1.29, 4.90, 6.19, 12.65
81, 0.4, 2017/11/14 06:15:32.858下午, 223.0, 1.29, 4.65, 6.19, 12.13
82, 0.405, 2017/11/14 06:15:32.863下午, 212.0, 1.29, 4.65, 6.19, 12.39
83, 0.41, 2017/11/14 06:15:32.868下午, 212.0, 1.81, 4.65, 6.19, 12.90
84, 0.415, 2017/11/14 06:15:32.873下午, 228.0, 2.06, 4.65, 6.45, 13.16
85, 0.42, 2017/11/14 06:15:32.878下午, 217.0, 1.03, 4.65, 6.19, 11.87
86, 0.425, 2017/11/14 06:15:32.883下午, 227.0, 1.29, 4.65, 6.71, 12.65
87, 0.43, 2017/11/14 06:15:32.888下午, 224.0, 1.03, 4.65, 6.97, 12.65
88, 0.435, 2017/11/14 06:15:32.893下午, 225.0, 1.55, 4.65, 6.45, 12.65
89, 0.44, 2017/11/14 06:15:32.898下午, 226.0, 1.55, 4.65, 5.94, 12.39
90, 0.445, 2017/11/14 06:15:32.903下午, 231.0, 1.55, 4.65, 6.45, 12.90
91, 0.45, 2017/11/14 06:15:32.908下午, 228.0, 1.29, 4.39, 6.71, 12.65
92, 0.455, 2017/11/14 06:15:32.913下午, 222.0, 1.29, 4.65, 5.94, 11.87
93, 0.46, 2017/11/14 06:15:32.918下午, 222.0, 1.29, 4.39, 6.45, 12.13
94, 0.465, 2017/11/14 06:15:32.923下午, 206.0, 1.29, 4.65, 6.19, 12.39
95, 0.47, 2017/11/14 06:15:32.928下午, 208.0, 1.03, 4.65, 6.97, 12.65
96, 0.475, 2017/11/14 06:15:32.933下午, 218.0, 1.29, 4.65, 7.23, 13.42
97, 0.48, 2017/11/14 06:15:32.938下午, 215.0, 1.29, 4.65, 6.71, 12.90
98, 0.485, 2017/11/14 06:15:32.943下午, 217.0, 1.03, 4.39, 6.71, 12.13
99, 0.49, 2017/11/14 06:15:32.948下午, 220.0, 1.03, 4.65, 6.45, 12.13
100, 0.495, 2017/11/14 06:15:32.953下午, 223.0, 1.03, 4.65, 6.71, 12.39
101, 0.5, 2017/11/14 06:15:32.958下午, 230.0, 1.03, 4.65, 6.71, 12.65
102, 0.505, 2017/11/14 06:15:32.963下午, 218.0, 1.03, 4.39, 5.94, 11.61
103, 0.51, 2017/11/14 06:15:32.968下午, 229.0, 1.03, 4.65, 6.71, 12.65
104, 0.515, 2017/11/14 06:15:32.973下午, 234.0, 1.55, 4.39, 6.97, 12.90
105, 0.52, 2017/11/14 06:15:32.978下午, 229.0, 1.29, 4.65, 6.19, 12.39
106, 0.525, 2017/11/14 06:15:32.983下午, 218.0, 1.29, 4.65, 7.23, 13.16
107, 0.53, 2017/11/14 06:15:32.988下午, 225.0, 1.29, 4.65, 6.45, 12.39
108, 0.535, 2017/11/14 06:15:32.993下午, 221.0, 1.03, 4.65, 6.45, 12.13
109, 0.54, 2017/11/14 06:15:32.998下午, 228.0, 1.03, 4.65, 6.97, 12.65
110, 0.545, 2017/11/14 06:15:33.003下午, 240.0, 1.55, 4.65, 6.71, 13.16
111, 0.55, 2017/11/14 06:15:33.008下午, 234.0, 1.29, 4.65, 6.97, 12.90
112, 0.555, 2017/11/14 06:15:33.013下午, 218.0, 1.03, 4.65, 5.94, 11.87
113, 0.56, 2017/11/14 06:15:33.018下午, 226.0, 1.03, 4.65, 6.45, 12.39
114, 0.565, 2017/11/14 06:15:33.023下午, 222.0, 1.29, 4.39, 6.19, 11.87
115, 0.57, 2017/11/14 06:15:33.028下午, 209.0, 1.29, 4.65, 6.19, 12.39
116, 0.575, 2017/11/14 06:15:33.033下午, 210.0, 1.29, 4.65, 6.71, 12.90
117, 0.58, 2017/11/14 06:15:33.038下午, 222.0, 1.29, 4.65, 7.23, 13.42
118, 0.585, 2017/11/14 06:15:33.043下午, 212.0, 1.29, 4.65, 6.71, 12.90
119, 0.59, 2017/11/14 06:15:33.048下午, 215.0, 1.03, 4.65, 6.19, 11.87
120, 0.595, 2017/11/14 06:15:33.053下午, 224.0, 1.03, 4.90, 6.45, 12.65
121, 0.6, 2017/11/14 06:15:33.058下午, 217.0, 1.03, 4.65, 6.45, 12.13
122, 0.605, 2017/11/14 06:15:33.063下午, 227.0, 1.03, 4.90, 6.71, 12.65
123, 0.61, 2017/11/14 06:15:33.068下午, 231.0, 1.03, 4.39, 7.23, 12.90
124, 0.615, 2017/11/14 06:15:33.073下午, 210.0, 0.00, 4.90, 6.45, 11.35
125, 0.62, 2017/11/14 06:15:33.078下午, 225.0, 1.03, 4.65, 6.45, 12.39
126, 0.625, 2017/11/14 06:15:33.083下午, 232.0, 1.03, 4.39, 7.23, 12.90
127, 0.63, 2017/11/14 06:15:33.088下午, 231.0, 1.03, 4.39, 6.97, 12.65
128, 0.635, 2017/11/14 06:15:33.093下午, 224.0, 1.03, 4.65, 6.19, 12.13
129, 0.64, 2017/11/14 06:15:33.098下午, 216.0, 1.29, 4.90, 6.71, 12.90
130, 0.645, 2017/11/14 06:15:33.103下午, 223.0, 1.81, 4.39, 7.23, 13.68
131, 0.65, 2017/11/14 06:15:33.108下午, 224.0, 1.03, 4.39, 7.23, 12.65
132, 0.655, 2017/11/14 06:15:33.113下午, 212.0, 0.00, 4.90, 6.71, 11.61
133, 0.66, 2017/11/14 06:15:33.118下午, 224.0, 1.03, 4.39, 6.71, 12.39
134, 0.665, 2017/11/14 06:15:33.123下午, 223.0, 1.03, 4.39, 6.45, 12.13
135, 0.67, 2017/11/14 06:15:33.128下午, 228.0, 1.03, 4.39, 6.97, 12.65
136, 0.675, 2017/11/14 06:15:33.133下午, 231.0, 1.03, 4.90, 6.71, 12.90
137, 0.68, 2017/11/14 06:15:33.138下午, 230.0, 1.03, 4.65, 6.71, 12.65
138, 0.685, 2017/11/14 06:15:33.143下午, 230.0, 1.03, 4.39, 7.23, 12.65
139, 0.69, 2017/11/14 06:15:33.148下午, 227.0, 1.03, 4.65, 6.45, 12.39
140, 0.695, 2017/11/14 06:15:33.153下午, 227.0, 1.03, 4.39, 6.97, 12.39
141, 0.7, 2017/11/14 06:15:33.158下午, 212.0, 1.29, 4.90, 6.19, 12.39
142, 0.705, 2017/11/14 06:15:33.163下午, 220.0, 1.03, 4.39, 6.19, 11.87
143, 0.71, 2017/11/14 06:15:33.168下午, 235.0, 1.03, 4.65, 6.97, 12.90
144, 0.715, 2017/11/14 06:15:33.173下午, 224.0, 1.03, 4.65, 6.19, 12.13
145, 0.72, 2017/11/14 06:15:33.178下午, 227.0, 1.29, 4.65, 6.19, 12.39
146, 0.725, 2017/11/14 06:15:33.183下午, 226.0, 1.29, 4.90, 7.23, 13.68
147, 0.73, 2017/11/14 06:15:33.188下午, 218.0, 1.29, 4.65, 7.23, 13.16
148, 0.735, 2017/11/14 06:15:33.193下午, 234.0, 1.29, 4.65, 6.97, 13.16
149, 0.74, 2017/11/14 06:15:33.198下午, 231.0, 1.03, 4.65, 6.97, 12.65
150, 0.745, 2017/11/14 06:15:33.203下午, 220.0, 1.03, 4.65, 6.45, 12.13
151, 0.75, 2017/11/14 06:15:33.208下午, 226.0, 1.03, 4.39, 6.97, 12.39
152, 0.755, 2017/11/14 06:15:33.213下午, 221.0, 1.03, 4.65, 6.45, 12.13
153, 0.76, 2017/11/14 06:15:33.218下午, 224.0, 1.03, 4.65, 6.71, 12.39
154, 0.765, 2017/11/14 06:15:33.223下午, 237.0, 1.03, 4.65, 7.23, 13.16
155, 0.77, 2017/11/14 06:15:33.228下午, 236.0, 1.03, 4.65, 7.23, 13.16
156, 0.775, 2017/11/14 06:15:33.233下午, 226.0, 1.29, 4.65, 6.19, 12.39
157, 0.78, 2017/11/14 06:15:33.238下午, 223.0, 1.29, 4.65, 6.19, 12.13
158, 0.785, 2017/11/14 06:15:33.243下午, 236.0, 1.03, 4.90, 6.97, 12.90
159, 0.79, 2017/11/14 06:15:33.248下午, 221.0, 1.29, 4.65, 7.23, 13.42
160, 0.795, 2017/11/14 06:15:33.253下午, 241.0, 1.29, 4.90, 6.97, 13.42
161, 0.8, 2017/11/14 06:15:33.258下午, 219.0, 1.29, 4.65, 7.23, 13.42
162, 0.805, 2017/11/14 06:15:33.263下午, 204.0, 0.00, 4.65, 6.45, 11.10
163, 0.81, 2017/11/14 06:15:33.268下午, 243.0, 1.29, 4.65, 7.74, 13.94
164, 0.815, 2017/11/14 06:15:33.273下午, 220.0, 1.03, 4.90, 6.45, 12.39
165, 0.82, 2017/11/14 06:15:33.278下午, 232.0, 1.03, 4.65, 7.23, 13.16
166, 0.825, 2017/11/14 06:15:33.283下午, 227.0, 1.03, 4.39, 6.71, 12.13
167, 0.83, 2017/11/14 06:15:33.288下午, 233.0, 1.29, 4.65, 6.97, 12.90
168, 0.835, 2017/11/14 06:15:33.293下午, 230.0, 1.55, 4.65, 6.19, 12.65
169, 0.84, 2017/11/14 06:15:33.298下午, 230.0, 1.81, 4.65, 7.48, 14.19
170, 0.845, 2017/11/14 06:15:33.303下午, 234.0, 2.58, 4.65, 7.23, 14.71
171, 0.85, 2017/11/14 06:15:33.308下午, 231.0, 1.29, 4.65, 7.23, 13.42
172, 0.855, 2017/11/14 06:15:33.313下午, 219.0, 1.03, 4.65, 6.19, 11.87
173, 0.86, 2017/11/14 06:15:33.318下午, 231.0, 1.81, 4.65, 6.45, 12.90
174, 0.865, 2017/11/14 06:15:33.323下午, 213.0, 1.03, 3.87, 6.71, 11.61
175, 0.87, 2017/11/14 06:15:33.328下午, 222.0, 1.03, 4.39, 6.45, 12.13
176, 0.875, 2017/11/14 06:15:33.333下午, 240.0, 1.55, 4.65, 6.97, 13.42
177, 0.88, 2017/11/14 06:15:33.338下午, 227.0, 1.55, 4.65, 6.19, 12.39
178, 0.885, 2017/11/14 06:15:33.343下午, 236.0, 1.55, 4.65, 6.45, 12.90
179, 0.89, 2017/11/14 06:15:33.348下午, 236.0, 1.55, 4.65, 6.97, 13.42
180, 0.895, 2017/11/14 06:15:33.353下午, 231.0, 1.55, 4.65, 6.19, 12.65
181, 0.9, 2017/11/14 06:15:33.358下午, 237.0, 1.81, 4.39, 6.71, 12.90
182, 0.905, 2017/11/14 06:15:33.363下午, 234.0, 1.29, 4.65, 6.97, 13.16
183, 0.91, 2017/11/14 06:15:33.368下午, 213.0, 1.55, 4.90, 6.19, 12.90
184, 0.915, 2017/11/14 06:15:33.373下午, 219.0, 1.29, 4.90, 7.23, 13.68
185, 0.92, 2017/11/14 06:15:33.378下午, 217.0, 1.29, 4.65, 7.23, 13.42
186, 0.925, 2017/11/14 06:15:33.383下午, 226.0, 2.06, 4.65, 7.23, 14.19
187, 0.93, 2017/11/14 06:15:33.388下午, 217.0, 1.03, 4.65, 6.19, 11.87
188, 0.935, 2017/11/14 06:15:33.393下午, 225.0, 1.29, 4.65, 6.71, 12.65
189, 0.94, 2017/11/14 06:15:33.398下午, 217.0, 1.29, 4.65, 6.19, 12.13
190, 0.945, 2017/11/14 06:15:33.403下午, 249.0, 2.58, 4.39, 7.23, 14.45
191, 0.95, 2017/11/14 06:15:33.408下午, 235.0, 1.55, 4.39, 6.71, 12.90
192, 0.955, 2017/11/14 06:15:33.413下午, 243.0, 1.55, 4.65, 6.97, 13.42
193, 0.96, 2017/11/14 06:15:33.418下午, 248.0, 2.06, 4.65, 6.97, 13.94
194, 0.965, 2017/11/14 06:15:33.423下午, 231.0, 2.06, 4.65, 5.94, 12.65
195, 0.97, 2017/11/14 06:15:33.428下午, 239.0, 1.55, 4.65, 6.97, 13.42
196, 0.975, 2017/11/14 06:15:33.433下午, 245.0, 2.06, 4.65, 6.97, 13.68
197, 0.98, 2017/11/14 06:15:33.438下午, 219.0, 1.81, 4.65, 5.94, 12.39
198, 0.985, 2017/11/14 06:15:33.443下午, 219.0, 1.55, 4.90, 6.97, 13.42
199, 0.99, 2017/11/14 06:15:33.448下午, 210.0, 1.55, 4.65, 6.19, 12.39
200, 0.995, 2017/11/14 06:15:33.453下午, 211.0, 1.55, 4.65, 6.19, 12.65
201, 1, 2017/11/14 06:15:33.458下午, 226.0, 1.55, 4.65, 5.94, 12.13
202, 1.005, 2017/11/14 06:15:33.463下午, 234.0, 1.55, 4.39, 6.97, 13.16
203, 1.01, 2017/11/14 06:15:33.468下午, 209.0, 2.06, 4.65, 5.94, 12.65
204, 1.015, 2017/11/14 06:15:33.473下午, 212.0, 2.06, 4.65, 6.45, 13.16
205, 1.02, 2017/11/14 06:15:33.478下午, 240.0, 2.58, 4.65, 6.71, 13.94
206, 1.025, 2017/11/14 06:15:33.483下午, 219.0, 1.55, 4.39, 6.45, 12.65
207, 1.03, 2017/11/14 06:15:33.488下午, 224.0, 2.58, 4.65, 6.71, 14.19
208, 1.035, 2017/11/14 06:15:33.493下午, 236.0, 1.55, 4.65, 7.48, 13.68
209, 1.04, 2017/11/14 06:15:33.498下午, 219.0, 1.03, 4.65, 6.45, 12.13
210, 1.045, 2017/11/14 06:15:33.503下午, 239.0, 2.58, 4.65, 6.45, 13.68
211, 1.05, 2017/11/14 06:15:33.508下午, 243.0, 2.06, 4.65, 6.97, 13.94
212, 1.055, 2017/11/14 06:15:33.513下午, 245.0, 2.06, 4.65, 6.71, 13.68
213, 1.06, 2017/11/14 06:15:33.518下午, 242.0, 2.32, 4.39, 6.97, 13.68
214, 1.065, 2017/11/14 06:15:33.523下午, 233.0, 2.06, 4.65, 6.19, 13.16
215, 1.07, 2017/11/14 06:15:33.528下午, 222.0, 2.84, 4.65, 6.45, 13.94
216, 1.075, 2017/11/14 06:15:33.533下午, 236.0, 2.84, 4.65, 6.45, 13.94
217, 1.08, 2017/11/14 06:15:33.538下午, 220.0, 2.06, 4.65, 6.71, 13.68
218, 1.085, 2017/11/14 06:15:33.543下午, 231.0, 2.58, 4.65, 6.45, 13.68
219, 1.09, 2017/11/14 06:15:33.548下午, 224.0, 1.81, 4.39, 6.19, 12.39
220, 1.095, 2017/11/14 06:15:33.553下午, 230.0, 2.58, 4.65, 6.45, 13.68
221, 1.1, 2017/11/14 06:15:33.558下午, 225.0, 1.81, 4.65, 6.19, 12.65
222, 1.105, 2017/11/14 06:15:33.563下午, 235.0, 1.81, 4.39, 6.71, 13.16
223, 1.11, 2017/11/14 06:15:33.568下午, 251.0, 3.87, 4.39, 6.45, 14.71
224, 1.115, 2017/11/14 06:15:33.573下午, 240.0, 2.84, 4.39, 6.19, 13.42
225, 1.12, 2017/11/14 06:15:33.578下午, 245.0, 2.58, 4.39, 6.71, 13.68
226, 1.125, 2017/11/14 06:15:33.583下午, 211.0, 2.06, 4.65, 5.94, 12.65
227, 1.13, 2017/11/14 06:15:33.588下午, 224.0, 2.84, 4.65, 6.45, 13.94
228, 1.135, 2017/11/14 06:15:33.593下午, 232.0, 2.32, 4.65, 6.19, 13.16
229, 1.14, 2017/11/14 06:15:33.598下午, 243.0, 3.35, 4.65, 6.19, 14.19
230, 1.145, 2017/11/14 06:15:33.603下午, 239.0, 2.84, 4.39, 6.19, 13.42
231, 1.15, 2017/11/14 06:15:33.608下午, 241.0, 2.32, 4.39, 6.71, 13.68
232, 1.155, 2017/11/14 06:15:33.613下午, 237.0, 2.58, 4.65, 6.19, 13.42
233, 1.16, 2017/11/14 06:15:33.618下午, 237.0, 2.32, 4.65, 5.94, 13.16
234, 1.165, 2017/11/14 06:15:33.623下午, 236.0, 2.58, 4.39, 6.19, 13.16
235, 1.17, 2017/11/14 06:15:33.628下午, 229.0, 2.84, 4.65, 6.19, 13.94
236, 1.175, 2017/11/14 06:15:33.633下午, 216.0, 2.84, 4.65, 5.94, 13.42
237, 1.18, 2017/11/14 06:15:33.638下午, 238.0, 2.58, 4.65, 6.71, 14.19
238, 1.185, 2017/11/14 06:15:33.643下午, 222.0, 2.84, 4.65, 5.94, 13.42
239, 1.19, 2017/11/14 06:15:33.648下午, 223.0, 3.10, 4.39, 6.45, 13.94
240, 1.195, 2017/11/14 06:15:33.653下午, 229.0, 2.84, 4.65, 6.71, 14.45
241, 1.2, 2017/11/14 06:15:33.658下午, 232.0, 2.58, 4.65, 6.45, 13.68
242, 1.205, 2017/11/14 06:15:33.663下午, 241.0, 3.35, 4.65, 6.19, 14.19
243, 1.21, 2017/11/14 06:15:33.668下午, 256.0, 4.13, 4.65, 6.45, 15.23
244, 1.215, 2017/11/14 06:15:33.673下午, 232.0, 2.32, 4.65, 6.19, 13.16
245, 1.22, 2017/11/14 06:15:33.678下午, 255.0, 3.61, 4.65, 6.45, 14.71
246, 1.225, 2017/11/14 06:15:33.683下午, 240.0, 2.84, 4.39, 6.45, 13.68
247, 1.23, 2017/11/14 06:15:33.688下午, 239.0, 2.58, 4.39, 6.45, 13.42
248, 1.235, 2017/11/14 06:15:33.693下午, 237.0, 2.84, 4.65, 5.94, 13.42
249, 1.24, 2017/11/14 06:15:33.698下午, 221.0, 3.35, 4.65, 5.94, 13.94
250, 1.245, 2017/11/14 06:15:33.703下午, 239.0, 3.10, 4.65, 6.45, 14.19
251, 1.25, 2017/11/14 06:15:33.708下午, 244.0, 3.35, 4.65, 6.19, 14.19
252, 1.255, 2017/11/14 06:15:33.713下午, 248.0, 3.10, 4.39, 6.71, 14.45
253, 1.26, 2017/11/14 06:15:33.718下午, 245.0, 2.58, 4.39, 6.45, 13.68
254, 1.265, 2017/11/14 06:15:33.723下午, 233.0, 2.58, 4.39, 6.19, 13.16
255, 1.27, 2017/11/14 06:15:33.728下午, 231.0, 2.84, 4.65, 6.71, 14.19
256, 1.275, 2017/11/14 06:15:33.733下午, 237.0, 2.84, 4.65, 5.94, 13.42
257, 1.28, 2017/11/14 06:15:33.738下午, 231.0, 3.35, 4.65, 6.45, 14.45
258, 1.285, 2017/11/14 06:15:33.743下午, 237.0, 2.84, 4.65, 6.19, 13.68
259, 1.29, 2017/11/14 06:15:33.748下午, 236.0, 3.10, 4.39, 6.19, 13.68
260, 1.295, 2017/11/14 06:15:33.753下午, 243.0, 3.35, 4.65, 6.19, 14.19
261, 1.3, 2017/11/14 06:15:33.758下午, 257.0, 4.13, 4.65, 6.19, 14.97
262, 1.305, 2017/11/14 06:15:33.763下午, 247.0, 3.87, 4.65, 5.94, 14.45
263, 1.31, 2017/11/14 06:15:33.768下午, 255.0, 4.13, 4.39, 6.45, 14.97
264, 1.315, 2017/11/14 06:15:33.773下午, 237.0, 2.58, 4.39, 5.94, 12.90
265, 1.32, 2017/11/14 06:15:33.778下午, 241.0, 2.84, 4.65, 5.94, 13.42
266, 1.325, 2017/11/14 06:15:33.783下午, 227.0, 3.35, 4.65, 5.94, 13.94
267, 1.33, 2017/11/14 06:15:33.788下午, 231.0, 3.35, 4.65, 6.19, 14.19
268, 1.335, 2017/11/14 06:15:33.793下午, 244.0, 2.84, 4.65, 6.45, 14.19
269, 1.34, 2017/11/14 06:15:33.798下午, 232.0, 2.58, 4.39, 6.19, 13.16
270, 1.345, 2017/11/14 06:15:33.803下午, 237.0, 2.84, 4.65, 6.45, 13.94
271, 1.35, 2017/11/14 06:15:33.808下午, 254.0, 3.35, 4.39, 6.71, 14.71
272, 1.355, 2017/11/14 06:15:33.813下午, 251.0, 3.35, 4.90, 6.45, 14.71
273, 1.36, 2017/11/14 06:15:33.818下午, 238.0, 2.84, 4.39, 6.19, 13.42
274, 1.365, 2017/11/14 06:15:33.823下午, 237.0, 2.32, 4.39, 6.45, 13.16
275, 1.37, 2017/11/14 06:15:33.828下午, 238.0, 2.58, 4.39, 6.45, 13.42
276, 1.375, 2017/11/14 06:15:33.833下午, 238.0, 3.35, 4.39, 6.71, 14.45
277, 1.38, 2017/11/14 06:15:33.838下午, 238.0, 2.58, 4.39, 6.19, 13.16
278, 1.385, 2017/11/14 06:15:33.843下午, 241.0, 2.58, 4.39, 6.45, 13.42
279, 1.39, 2017/11/14 06:15:33.848下午, 255.0, 2.84, 4.65, 6.97, 14.71
280, 1.395, 2017/11/14 06:15:33.853下午, 236.0, 2.58, 4.65, 5.68, 13.16
281, 1.4, 2017/11/14 06:15:33.858下午, 248.0, 2.58, 4.39, 6.71, 13.68
282, 1.405, 2017/11/14 06:15:33.863下午, 245.0, 2.84, 4.65, 6.19, 13.94
283, 1.41, 2017/11/14 06:15:33.868下午, 229.0, 2.84, 4.65, 6.19, 13.94
284, 1.415, 2017/11/14 06:15:33.873下午, 240.0, 2.84, 4.39, 6.19, 13.42
285, 1.42, 2017/11/14 06:15:33.878下午, 235.0, 2.58, 4.65, 6.19, 13.42
286, 1.425, 2017/11/14 06:15:33.883下午, 233.0, 2.32, 4.65, 5.94, 12.90
287, 1.43, 2017/11/14 06:15:33.888下午, 227.0, 2.06, 4.65, 5.94, 12.65
288, 1.435, 2017/11/14 06:15:33.893下午, 224.0, 2.84, 4.65, 6.19, 13.94
289, 1.44, 2017/11/14 06:15:33.898下午, 233.0, 3.10, 4.65, 6.71, 14.71
290, 1.445, 2017/11/14 06:15:33.903下午, 221.0, 2.58, 4.65, 6.45, 13.68
291, 1.45, 2017/11/14 06:15:33.908下午, 239.0, 2.58, 4.65, 6.45, 13.68
292, 1.455, 2017/11/14 06:15:33.913下午, 226.0, 2.84, 3.87, 6.19, 12.90
293, 1.46, 2017/11/14 06:15:33.918下午, 239.0, 2.84, 4.65, 6.19, 13.68
294, 1.465, 2017/11/14 06:15:33.923下午, 232.0, 2.58, 4.65, 5.94, 13.16
295, 1.47, 2017/11/14 06:15:33.928下午, 231.0, 2.06, 4.65, 6.19, 12.90
296, 1.475, 2017/11/14 06:15:33.933下午, 234.0, 2.58, 4.39, 6.45, 13.42
297, 1.48, 2017/11/14 06:15:33.938下午, 237.0, 2.84, 4.65, 6.19, 13.68
298, 1.485, 2017/11/14 06:15:33.943下午, 241.0, 2.84, 4.90, 6.19, 13.94
299, 1.49, 2017/11/14 06:15:33.948下午, 240.0, 2.58, 4.39, 6.71, 13.68
300, 1.495, 2017/11/14 06:15:33.953下午, 248.0, 2.84, 4.39, 6.97, 14.19
301, 1.5, 2017/11/14 06:15:33.958下午, 244.0, 2.84, 4.65, 6.45, 13.94
302, 1.505, 2017/11/14 06:15:33.963下午, 247.0, 3.10, 4.90, 6.45, 14.45
303, 1.51, 2017/11/14 06:15:33.968下午, 250.0, 2.84, 4.39, 7.23, 14.71
304, 1.515, 2017/11/14 06:15:33.973下午, 251.0, 2.58, 4.65, 6.71, 14.19
305, 1.52, 2017/11/14 06:15:33.978下午, 246.0, 2.32, 4.65, 6.97, 14.19
306, 1.525, 2017/11/14 06:15:33.983下午, 220.0, 2.32, 4.65, 5.42, 12.39
307, 1.53, 2017/11/14 06:15:33.988下午, 236.0, 2.58, 4.39, 6.19, 13.16
308, 1.535, 2017/11/14 06:15:33.993下午, 220.0, 2.32, 4.65, 6.45, 13.42
309, 1.54, 2017/11/14 06:15:33.998下午, 231.0, 2.84, 4.65, 6.71, 14.45
310, 1.545, 2017/11/14 06:15:34.003下午, 232.0, 2.32, 4.65, 6.45, 13.42
311, 1.55, 2017/11/14 06:15:34.008下午, 238.0, 2.58, 4.39, 6.45, 13.42
312, 1.555, 2017/11/14 06:15:34.013下午, 233.0, 2.06, 4.65, 6.71, 13.42
313, 1.56, 2017/11/14 06:15:34.018下午, 228.0, 2.32, 4.39, 6.19, 12.90
314, 1.565, 2017/11/14 06:15:34.023下午, 243.0, 2.58, 4.39, 6.71, 13.68
315, 1.57, 2017/11/14 06:15:34.028下午, 243.0, 1.81, 4.65, 7.23, 13.68
316, 1.575, 2017/11/14 06:15:34.033下午, 234.0, 2.32, 4.65, 5.94, 13.16
317, 1.58, 2017/11/14 06:15:34.038下午, 239.0, 2.84, 4.39, 5.94, 13.42
318, 1.585, 2017/11/14 06:15:34.043下午, 249.0, 2.58, 4.65, 6.71, 13.94
319, 1.59, 2017/11/14 06:15:34.048下午, 225.0, 1.81, 4.65, 6.19, 12.65
320, 1.595, 2017/11/14 06:15:34.053下午, 243.0, 2.58, 4.39, 6.71, 13.68
321, 1.6, 2017/11/14 06:15:34.058下午, 233.0, 2.06, 4.65, 6.19, 13.16
322, 1.605, 2017/11/14 06:15:34.063下午, 212.0, 1.81, 4.65, 6.19, 12.65
323, 1.61, 2017/11/14 06:15:34.068下午, 226.0, 1.81, 4.65, 6.19, 12.65
324, 1.615, 2017/11/14 06:15:34.073下午, 233.0, 1.81, 4.65, 6.19, 12.90
325, 1.62, 2017/11/14 06:15:34.078下午, 229.0, 2.32, 4.65, 6.19, 13.42
326, 1.625, 2017/11/14 06:15:34.083下午, 216.0, 2.06, 4.65, 6.19, 13.16
327, 1.63, 2017/11/14 06:15:34.088下午, 229.0, 2.06, 4.65, 6.45, 13.16
328, 1.635, 2017/11/14 06:15:34.093下午, 229.0, 2.06, 4.65, 6.45, 13.16
329, 1.64, 2017/11/14 06:15:34.098下午, 231.0, 1.55, 4.65, 6.71, 12.90
330, 1.645, 2017/11/14 06:15:34.103下午, 232.0, 2.06, 4.65, 6.19, 12.90
331, 1.65, 2017/11/14 06:15:34.108下午, 229.0, 2.06, 4.65, 6.19, 12.90
332, 1.655, 2017/11/14 06:15:34.113下午, 221.0, 1.55, 4.65, 6.19, 12.39
333, 1.66, 2017/11/14 06:15:34.118下午, 238.0, 2.58, 4.65, 6.71, 13.94
334, 1.665, 2017/11/14 06:15:34.123下午, 229.0, 2.06, 4.65, 6.19, 12.90
335, 1.67, 2017/11/14 06:15:34.128下午, 242.0, 2.06, 4.39, 7.23, 13.94
336, 1.675, 2017/11/14 06:15:34.133下午, 238.0, 2.06, 4.65, 6.45, 13.42
337, 1.68, 2017/11/14 06:15:34.138下午, 236.0, 1.81, 4.65, 6.71, 13.16
338, 1.685, 2017/11/14 06:15:34.143下午, 224.0, 1.55, 4.39, 6.45, 12.39
339, 1.69, 2017/11/14 06:15:34.148下午, 238.0, 1.81, 4.39, 7.23, 13.42
340, 1.695, 2017/11/14 06:15:34.153下午, 234.0, 2.32, 4.65, 6.19, 13.16
341, 1.7, 2017/11/14 06:15:34.158下午, 232.0, 1.81, 4.90, 6.19, 12.90
342, 1.705, 2017/11/14 06:15:34.163下午, 233.0, 2.06, 4.65, 6.19, 13.16
343, 1.71, 2017/11/14 06:15:34.168下午, 245.0, 2.58, 4.65, 6.97, 14.45
344, 1.715, 2017/11/14 06:15:34.173下午, 244.0, 2.58, 4.65, 7.23, 14.71
345, 1.72, 2017/11/14 06:15:34.178下午, 247.0, 2.58, 4.65, 6.97, 14.45
346, 1.725, 2017/11/14 06:15:34.183下午, 221.0, 2.06, 4.65, 6.71, 13.68
347, 1.73, 2017/11/14 06:15:34.188下午, 240.0, 2.06, 4.65, 7.23, 13.94
348, 1.735, 2017/11/14 06:15:34.193下午, 233.0, 1.55, 4.65, 6.71, 12.90
349, 1.74, 2017/11/14 06:15:34.198下午, 234.0, 2.06, 4.39, 6.97, 13.42
350, 1.745, 2017/11/14 06:15:34.203下午, 226.0, 1.55, 4.65, 6.45, 12.65
351, 1.75, 2017/11/14 06:15:34.208下午, 230.0, 1.55, 4.65, 6.45, 12.90
352, 1.755, 2017/11/14 06:15:34.213下午, 240.0, 2.06, 4.39, 6.71, 13.42
353, 1.76, 2017/11/14 06:15:34.218下午, 235.0, 1.55, 4.39, 6.97, 12.90
354, 1.765, 2017/11/14 06:15:34.223下午, 238.0, 1.55, 4.65, 6.97, 13.42
355, 1.77, 2017/11/14 06:15:34.228下午, 236.0, 1.55, 4.90, 6.71, 13.42
356, 1.775, 2017/11/14 06:15:34.233下午, 227.0, 1.55, 4.90, 6.19, 12.65
357, 1.78, 2017/11/14 06:15:34.238下午, 215.0, 1.55, 4.65, 6.71, 13.16
358, 1.785, 2017/11/14 06:15:34.243下午, 232.0, 2.06, 4.65, 6.45, 13.16
359, 1.79, 2017/11/14 06:15:34.248下午, 221.0, 1.55, 4.65, 7.23, 13.68
360, 1.795, 2017/11/14 06:15:34.253下午, 222.0, 1.29, 4.65, 6.19, 12.13
361, 1.8, 2017/11/14 06:15:34.258下午, 232.0, 1.03, 4.90, 6.97, 12.90
362, 1.805, 2017/11/14 06:15:34.263下午, 218.0, 1.03, 4.65, 6.45, 12.13
363, 1.81, 2017/11/14 06:15:34.268下午, 236.0, 1.03, 4.39, 7.74, 13.16
364, 1.815, 2017/11/14 06:15:34.273下午, 242.0, 2.06, 4.65, 6.45, 13.42
365, 1.82, 2017/11/14 06:15:34.278下午, 239.0, 1.29, 4.65, 7.23, 13.16
366, 1.825, 2017/11/14 06:15:34.283下午, 240.0, 1.55, 4.65, 6.97, 13.42
367, 1.83, 2017/11/14 06:15:34.288下午, 240.0, 1.55, 4.65, 6.97, 13.42
368, 1.835, 2017/11/14 06:15:34.293下午, 230.0, 1.29, 4.65, 6.97, 12.90
369, 1.84, 2017/11/14 06:15:34.298下午, 210.0, 1.55, 4.39, 6.71, 12.65
370, 1.845, 2017/11/14 06:15:34.303下午, 218.0, 1.29, 4.65, 7.23, 13.42
371, 1.85, 2017/11/14 06:15:34.308下午, 236.0, 2.58, 4.39, 6.71, 13.68
372, 1.855, 2017/11/14 06:15:34.313下午, 229.0, 1.29, 4.65, 6.71, 12.90
373, 1.86, 2017/11/14 06:15:34.318下午, 232.0, 2.58, 4.65, 6.71, 14.19
374, 1.865, 2017/11/14 06:15:34.323下午, 220.0, 1.03, 4.65, 6.45, 12.13
375, 1.87, 2017/11/14 06:15:34.328下午, 226.0, 1.29, 4.90, 6.19, 12.39
376, 1.875, 2017/11/14 06:15:34.333下午, 227.0, 1.03, 4.39, 6.71, 12.39
377, 1.88, 2017/11/14 06:15:34.338下午, 229.0, 1.03, 4.65, 6.71, 12.65
378, 1.885, 2017/11/14 06:15:34.343下午, 245.0, 1.55, 4.65, 6.97, 13.42
379, 1.89, 2017/11/14 06:15:34.348下午, 241.0, 1.55, 4.65, 6.97, 13.42
380, 1.895, 2017/11/14 06:15:34.353下午, 232.0, 1.03, 4.90, 6.71, 12.90
381, 1.9, 2017/11/14 06:15:34.358下午, 241.0, 1.55, 4.65, 6.97, 13.16
382, 1.905, 2017/11/14 06:15:34.363下午, 234.0, 1.29, 4.65, 6.97, 12.90
383, 1.91, 2017/11/14 06:15:34.368下午, 209.0, 1.29, 4.39, 6.19, 12.13
384, 1.915, 2017/11/14 06:15:34.373下午, 225.0, 1.55, 4.65, 6.19, 12.39
385, 1.92, 2017/11/14 06:15:34.378下午, 225.0, 1.29, 4.65, 6.19, 12.39
386, 1.925, 2017/11/14 06:15:34.383下午, 219.0, 1.29, 4.65, 6.97, 13.16
387, 1.93, 2017/11/14 06:15:34.388下午, 215.0, 1.29, 4.65, 6.97, 12.90
388, 1.935, 2017/11/14 06:15:34.393下午, 213.0, 1.03, 4.65, 6.19, 11.87
389, 1.94, 2017/11/14 06:15:34.398下午, 231.0, 1.03, 4.65, 6.97, 12.90
390, 1.945, 2017/11/14 06:15:34.403下午, 219.0, 1.03, 4.65, 6.19, 11.87
391, 1.95, 2017/11/14 06:15:34.408下午, 242.0, 1.03, 4.65, 7.74, 13.68
392, 1.955, 2017/11/14 06:15:34.413下午, 224.0, 1.03, 4.39, 6.45, 12.13
393, 1.96, 2017/11/14 06:15:34.418下午, 230.0, 1.29, 4.65, 6.45, 12.39
394, 1.965, 2017/11/14 06:15:34.423下午, 223.0, 1.29, 4.65, 6.19, 12.13
395, 1.97, 2017/11/14 06:15:34.428下午, 232.0, 1.03, 4.39, 6.71, 12.39
396, 1.975, 2017/11/14 06:15:34.433下午, 235.0, 1.29, 4.65, 6.97, 12.90
397, 1.98, 2017/11/14 06:15:34.438下午, 221.0, 1.29, 4.65, 7.23, 13.42
398, 1.985, 2017/11/14 06:15:34.443下午, 232.0, 1.29, 4.65, 6.97, 12.90
399, 1.99, 2017/11/14 06:15:34.448下午, 208.0, 1.29, 4.65, 6.19, 12.39
400, 1.995, 2017/11/14 06:15:34.453下午, 223.0, 1.29, 4.65, 6.45, 12.39
401, 2, 2017/11/14 06:15:34.458下午, 224.0, 1.29, 4.65, 6.19, 12.39
402, 2.005, 2017/11/14 06:15:34.463下午, 222.0, 1.29, 4.65, 6.45, 12.39
403, 2.01, 2017/11/14 06:15:34.468下午, 222.0, 1.29, 4.65, 6.19, 12.13
404, 2.015, 2017/11/14 06:15:34.473下午, 222.0, 1.03, 4.65, 6.45, 12.13
405, 2.02, 2017/11/14 06:15:34.478下午, 225.0, 1.03, 4.65, 6.45, 12.39
406, 2.025, 2017/11/14 06:15:34.483下午, 237.0, 1.29, 4.65, 7.48, 13.42
407, 2.03, 2017/11/14 06:15:34.488下午, 243.0, 1.03, 4.39, 8.00, 13.68
408, 2.035, 2017/11/14 06:15:34.493下午, 226.0, 1.03, 4.65, 6.71, 12.65
409, 2.04, 2017/11/14 06:15:34.498下午, 232.0, 1.03, 4.65, 6.71, 12.65
410, 2.045, 2017/11/14 06:15:34.503下午, 230.0, 1.03, 4.39, 6.71, 12.39
411, 2.05, 2017/11/14 06:15:34.508下午, 216.0, 1.55, 4.65, 6.19, 12.65
412, 2.055, 2017/11/14 06:15:34.513下午, 231.0, 1.03, 4.65, 7.23, 13.16
413, 2.06, 2017/11/14 06:15:34.518下午, 224.0, 1.29, 4.65, 6.45, 12.39
414, 2.065, 2017/11/14 06:15:34.523下午, 225.0, 1.29, 4.65, 6.19, 12.13
415, 2.07, 2017/11/14 06:15:34.528下午, 254.0, 1.29, 4.65, 8.52, 14.71
416, 2.075, 2017/11/14 06:15:34.533下午, 229.0, 1.03, 4.65, 6.71, 12.65
417, 2.08, 2017/11/14 06:15:34.538下午, 246.0, 1.03, 4.90, 7.74, 13.68
418, 2.085, 2017/11/14 06:15:34.543下午, 229.0, 1.03, 4.65, 6.71, 12.65
419, 2.09, 2017/11/14 06:15:34.548下午, 229.0, 1.03, 4.65, 6.71, 12.39
420, 2.095, 2017/11/14 06:15:34.553下午, 235.0, 1.03, 4.90, 6.97, 13.16
421, 2.1, 2017/11/14 06:15:34.558下午, 232.0, 1.29, 4.65, 6.97, 12.90
422, 2.105, 2017/11/14 06:15:34.563下午, 238.0, 1.29, 4.65, 6.97, 12.90
423, 2.11, 2017/11/14 06:15:34.568下午, 225.0, 1.03, 4.65, 6.19, 12.13
424, 2.115, 2017/11/14 06:15:34.573下午, 219.0, 1.29, 4.65, 6.19, 12.39
425, 2.12, 2017/11/14 06:15:34.578下午, 213.0, 0.00, 4.65, 6.71, 11.35
426, 2.125, 2017/11/14 06:15:34.583下午, 219.0, 0.00, 4.90, 6.97, 11.87
427, 2.13, 2017/11/14 06:15:34.588下午, 224.0, 1.03, 4.65, 6.45, 12.13
428, 2.135, 2017/11/14 06:15:34.593下午, 228.0, 1.03, 4.39, 6.71, 12.39
429, 2.14, 2017/11/14 06:15:34.598下午, 226.0, 1.03, 4.65, 6.71, 12.39
430, 2.145, 2017/11/14 06:15:34.603下午, 231.0, 1.29, 4.65, 6.71, 12.90
431, 2.15, 2017/11/14 06:15:34.608下午, 232.0, 1.29, 4.65, 6.97, 13.16
432, 2.155, 2017/11/14 06:15:34.613下午, 237.0, 1.29, 4.65, 7.48, 13.42
433, 2.16, 2017/11/14 06:15:34.618下午, 240.0, 1.29, 4.39, 7.23, 13.16
434, 2.165, 2017/11/14 06:15:34.623下午, 228.0, 1.03, 4.39, 6.97, 12.39
435, 2.17, 2017/11/14 06:15:34.628下午, 213.0, 1.29, 4.90, 6.71, 12.90
436, 2.175, 2017/11/14 06:15:34.633下午, 236.0, 1.29, 4.65, 7.23, 13.42
437, 2.18, 2017/11/14 06:15:34.638下午, 230.0, 1.29, 4.65, 6.71, 12.65
438, 2.185, 2017/11/14 06:15:34.643下午, 236.0, 1.03, 4.90, 6.97, 12.90
439, 2.19, 2017/11/14 06:15:34.648下午, 227.0, 1.03, 4.65, 6.45, 12.39
440, 2.195, 2017/11/14 06:15:34.653下午, 239.0, 1.03, 4.65, 7.74, 13.42
441, 2.2, 2017/11/14 06:15:34.658下午, 225.0, 1.03, 4.39, 6.45, 12.13
442, 2.205, 2017/11/14 06:15:34.663下午, 230.0, 1.03, 4.65, 6.97, 12.90
443, 2.21, 2017/11/14 06:15:34.668下午, 234.0, 1.03, 4.90, 6.97, 13.16
444, 2.215, 2017/11/14 06:15:34.673下午, 220.0, 1.03, 4.65, 7.23, 13.16
445, 2.22, 2017/11/14 06:15:34.678下午, 233.0, 1.29, 4.65, 7.23, 13.42
446, 2.225, 2017/11/14 06:15:34.683下午, 239.0, 1.29, 4.65, 7.48, 13.68
447, 2.23, 2017/11/14 06:15:34.688下午, 228.0, 1.03, 4.65, 6.97, 12.65
448, 2.235, 2017/11/14 06:15:34.693下午, 236.0, 1.29, 4.65, 7.23, 13.42
449, 2.24, 2017/11/14 06:15:34.698下午, 235.0, 1.03, 4.65, 7.23, 13.16
450, 2.245, 2017/11/14 06:15:34.703下午, 241.0, 1.29, 4.90, 6.97, 13.42
451, 2.25, 2017/11/14 06:15:34.708下午, 227.0, 1.29, 4.65, 6.19, 12.39
452, 2.255, 2017/11/14 06:15:34.713下午, 224.0, 1.29, 4.65, 7.48, 13.68
453, 2.26, 2017/11/14 06:15:34.718下午, 227.0, 1.29, 4.65, 6.71, 12.65
454, 2.265, 2017/11/14 06:15:34.723下午, 228.0, 1.29, 4.65, 6.71, 12.65
455, 2.27, 2017/11/14 06:15:34.728下午, 216.0, 0.00, 4.65, 6.97, 11.61
456, 2.275, 2017/11/14 06:15:34.733下午, 248.0, 1.03, 4.90, 8.00, 14.19
457, 2.28, 2017/11/14 06:15:34.738下午, 242.0, 1.03, 4.90, 7.23, 13.42
458, 2.285, 2017/11/14 06:15:34.743下午, 242.0, 1.03, 4.90, 7.23, 13.42
459, 2.29, 2017/11/14 06:15:34.748下午, 237.0, 1.29, 4.65, 6.97, 13.16
460, 2.295, 2017/11/14 06:15:34.753下午, 225.0, 1.29, 4.90, 6.97, 13.42
461, 2.3, 2017/11/14 06:15:34.758下午, 237.0, 1.29, 4.65, 6.97, 13.16
462, 2.305, 2017/11/14 06:15:34.763下午, 229.0, 1.29, 4.65, 6.97, 12.90
463, 2.31, 2017/11/14 06:15:34.768下午, 227.0, 1.03, 4.65, 6.97, 12.65
464, 2.315, 2017/11/14 06:15:34.773下午, 246.0, 1.29, 4.65, 7.74, 13.94
465, 2.32, 2017/11/14 06:15:34.778下午, 247.0, 1.55, 4.65, 7.48, 13.94
466, 2.325, 2017/11/14 06:15:34.783下午, 226.0, 1.03, 4.65, 6.45, 12.39
467, 2.33, 2017/11/14 06:15:34.788下午, 234.0, 1.03, 4.65, 6.97, 12.90
468, 2.335, 2017/11/14 06:15:34.793下午, 244.0, 1.55, 4.90, 6.97, 13.68
469, 2.34, 2017/11/14 06:15:34.798下午, 214.0, 1.29, 4.90, 6.19, 12.65
470, 2.345, 2017/11/14 06:15:34.803下午, 235.0, 1.29, 4.65, 7.23, 13.42
471, 2.35, 2017/11/14 06:15:34.808下午, 233.0, 1.03, 4.65, 6.71, 12.65
472, 2.355, 2017/11/14 06:15:34.813下午, 212.0, 0.00, 4.65, 6.45, 11.35
473, 2.36, 2017/11/14 06:15:34.818下午, 230.0, 1.29, 4.65, 6.97, 12.90
474, 2.365, 2017/11/14 06:15:34.823下午, 242.0, 1.55, 4.65, 6.71, 13.16
475, 2.37, 2017/11/14 06:15:34.828下午, 237.0, 1.29, 4.65, 6.97, 13.16
476, 2.375, 2017/11/14 06:15:34.833下午, 230.0, 1.03, 4.90, 6.19, 12.39
477, 2.38, 2017/11/14 06:15:34.838下午, 222.0, 1.29, 4.65, 6.97, 13.16
478, 2.385, 2017/11/14 06:15:34.843下午, 219.0, 1.29, 4.65, 6.97, 13.16
479, 2.39, 2017/11/14 06:15:34.848下午, 226.0, 1.29, 4.65, 6.45, 12.65
480, 2.395, 2017/11/14 06:15:34.853下午, 226.0, 1.29, 4.90, 7.23, 13.42
481, 2.4, 2017/11/14 06:15:34.858下午, 242.0, 1.81, 4.65, 6.97, 13.68
482, 2.405, 2017/11/14 06:15:34.863下午, 232.0, 1.03, 4.65, 6.97, 12.65
483, 2.41, 2017/11/14 06:15:34.868下午, 231.0, 1.03, 4.65, 6.97, 12.65
484, 2.415, 2017/11/14 06:15:34.873下午, 244.0, 1.29, 4.65, 7.74, 13.94
485, 2.42, 2017/11/14 06:15:34.878下午, 238.0, 1.03, 4.65, 7.23, 13.16
486, 2.425, 2017/11/14 06:15:34.883下午, 245.0, 1.55, 4.65, 7.23, 13.68
487, 2.43, 2017/11/14 06:15:34.888下午, 236.0, 1.29, 4.65, 6.97, 13.16
488, 2.435, 2017/11/14 06:15:34.893下午, 240.0, 1.29, 4.90, 7.48, 13.94
489, 2.44, 2017/11/14 06:15:34.898下午, 223.0, 1.03, 4.65, 6.19, 11.87
490, 2.445, 2017/11/14 06:15:34.903下午, 234.0, 1.29, 4.65, 6.71, 12.90
491, 2.45, 2017/11/14 06:15:34.908下午, 251.0, 1.03, 4.90, 8.00, 14.19
492, 2.455, 2017/11/14 06:15:34.913下午, 248.0, 1.03, 4.90, 7.48, 13.68
493, 2.46, 2017/11/14 06:15:34.918下午, 225.0, 1.03, 4.65, 6.19, 12.13
494, 2.465, 2017/11/14 06:15:34.923下午, 238.0, 1.29, 4.65, 6.97, 13.16
495, 2.47, 2017/11/14 06:15:34.928下午, 222.0, 1.29, 4.65, 6.97, 13.16
496, 2.475, 2017/11/14 06:15:34.933下午, 243.0, 1.29, 4.65, 7.48, 13.68
497, 2.48, 2017/11/14 06:15:34.938下午, 230.0, 1.55, 4.65, 6.45, 12.65
498, 2.485, 2017/11/14 06:15:34.943下午, 232.0, 1.03, 4.65, 6.97, 12.65
499, 2.49, 2017/11/14 06:15:34.948下午, 236.0, 1.29, 4.90, 6.71, 13.16
500, 2.495, 2017/11/14 06:15:34.953下午, 225.0, 1.03, 4.39, 6.45, 12.13
501, 2.5, 2017/11/14 06:15:34.958下午, 241.0, 1.29, 4.90, 6.97, 13.42
502, 2.505, 2017/11/14 06:15:34.963下午, 244.0, 1.55, 4.90, 6.71, 13.42
503, 2.51, 2017/11/14 06:15:34.968下午, 236.0, 1.29, 4.65, 6.97, 13.16
504, 2.515, 2017/11/14 06:15:34.973下午, 242.0, 2.06, 4.65, 7.23, 14.19
505, 2.52, 2017/11/14 06:15:34.978下午, 239.0, 1.29, 4.90, 7.23, 13.68
506, 2.525, 2017/11/14 06:15:34.983下午, 221.0, 1.29, 4.65, 7.23, 13.42
507, 2.53, 2017/11/14 06:15:34.988下午, 222.0, 1.29, 4.65, 7.23, 13.42
508, 2.535, 2017/11/14 06:15:34.993下午, 237.0, 1.03, 4.65, 7.23, 13.16
509, 2.54, 2017/11/14 06:15:34.998下午, 234.0, 1.03, 4.90, 6.97, 12.90
510, 2.545, 2017/11/14 06:15:35.003下午, 231.0, 1.29, 4.90, 6.45, 12.65
511, 2.55, 2017/11/14 06:15:35.008下午, 252.0, 1.55, 4.65, 7.23, 13.68
512, 2.555, 2017/11/14 06:15:35.013下午, 242.0, 1.29, 4.65, 7.48, 13.68
513, 2.56, 2017/11/14 06:15:35.018下午, 221.0, 1.55, 4.65, 6.97, 13.42
514, 2.565, 2017/11/14 06:15:35.023下午, 243.0, 1.29, 4.65, 7.23, 13.42
515, 2.57, 2017/11/14 06:15:35.028下午, 245.0, 1.29, 4.65, 7.74, 13.68
516, 2.575, 2017/11/14 06:15:35.033下午, 248.0, 1.03, 4.65, 8.26, 14.19
517, 2.58, 2017/11/14 06:15:35.038下午, 233.0, 1.03, 4.65, 6.71, 12.65
518, 2.585, 2017/11/14 06:15:35.043下午, 228.0, 1.29, 4.65, 6.19, 12.39
519, 2.59, 2017/11/14 06:15:35.048下午, 233.0, 1.03, 4.65, 6.71, 12.65
520, 2.595, 2017/11/14 06:15:35.053下午, 240.0, 1.55, 4.65, 6.97, 13.42
521, 2.6, 2017/11/14 06:15:35.058下午, 228.0, 1.55, 4.65, 7.48, 13.94
522, 2.605, 2017/11/14 06:15:35.063下午, 225.0, 1.29, 4.90, 7.23, 13.68
523, 2.61, 2017/11/14 06:15:35.068下午, 216.0, 1.81, 4.65, 6.45, 12.90
524, 2.615, 2017/11/14 06:15:35.073下午, 241.0, 1.55, 4.65, 6.97, 13.42
525, 2.62, 2017/11/14 06:15:35.078下午, 252.0, 1.81, 4.90, 7.48, 14.19
526, 2.625, 2017/11/14 06:15:35.083下午, 240.0, 1.29, 4.65, 7.23, 13.42
527, 2.63, 2017/11/14 06:15:35.088下午, 234.0, 1.29, 4.65, 6.71, 12.90
528, 2.635, 2017/11/14 06:15:35.093下午, 241.0, 1.55, 4.90, 6.97, 13.68
529, 2.64, 2017/11/14 06:15:35.098下午, 225.0, 1.55, 4.90, 6.97, 13.68
530, 2.645, 2017/11/14 06:15:35.103下午, 228.0, 1.55, 4.65, 7.23, 13.68
531, 2.65, 2017/11/14 06:15:35.108下午, 253.0, 2.58, 4.65, 6.97, 14.45
532, 2.655, 2017/11/14 06:15:35.113下午, 253.0, 1.81, 4.65, 7.74, 14.45
533, 2.66, 2017/11/14 06:15:35.118下午, 239.0, 1.81, 4.65, 6.71, 13.42
534, 2.665, 2017/11/14 06:15:35.123下午, 258.0, 1.55, 4.65, 8.00, 14.45
535, 2.67, 2017/11/14 06:15:35.128下午, 242.0, 1.55, 4.90, 6.97, 13.68
536, 2.675, 2017/11/14 06:15:35.133下午, 226.0, 1.55, 4.90, 6.97, 13.68
537, 2.68, 2017/11/14 06:15:35.138下午, 236.0, 1.81, 4.65, 6.45, 13.16
538, 2.685, 2017/11/14 06:15:35.143下午, 237.0, 1.81, 4.65, 6.97, 13.42
539, 2.69, 2017/11/14 06:15:35.148下午, 230.0, 1.29, 4.65, 6.71, 12.65
540, 2.695, 2017/11/14 06:15:35.153下午, 245.0, 1.29, 4.65, 7.74, 13.94
541, 2.7, 2017/11/14 06:15:35.158下午, 223.0, 1.03, 4.65, 6.45, 12.13
542, 2.705, 2017/11/14 06:15:35.163下午, 241.0, 1.55, 4.65, 6.71, 13.16
543, 2.71, 2017/11/14 06:15:35.168下午, 247.0, 1.81, 4.90, 7.23, 13.94
544, 2.715, 2017/11/14 06:15:35.173下午, 239.0, 1.03, 4.90, 6.97, 13.16
545, 2.72, 2017/11/14 06:15:35.178下午, 241.0, 1.55, 4.65, 6.97, 13.42
546, 2.725, 2017/11/14 06:15:35.183下午, 225.0, 1.55, 4.90, 5.94, 12.39
547, 2.73, 2017/11/14 06:15:35.188下午, 233.0, 2.06, 4.65, 7.23, 14.19
548, 2.735, 2017/11/14 06:15:35.193下午, 239.0, 1.03, 4.65, 7.48, 13.16
549, 2.74, 2017/11/14 06:15:35.198下午, 242.0, 1.29, 4.65, 7.48, 13.42
550, 2.745, 2017/11/14 06:15:35.203下午, 240.0, 1.29, 4.65, 7.23, 13.42
551, 2.75, 2017/11/14 06:15:35.208下午, 244.0, 1.81, 4.65, 7.23, 13.68
552, 2.755, 2017/11/14 06:15:35.213下午, 215.0, 1.29, 4.90, 6.19, 12.65
553, 2.76, 2017/11/14 06:15:35.218下午, 247.0, 1.81, 4.90, 7.48, 14.45
554, 2.765, 2017/11/14 06:15:35.223下午, 244.0, 2.06, 4.65, 6.97, 13.68
555, 2.77, 2017/11/14 06:15:35.228下午, 229.0, 1.29, 4.65, 6.19, 12.13
556, 2.775, 2017/11/14 06:15:35.233下午, 242.0, 1.81, 4.65, 6.97, 13.42
557, 2.78, 2017/11/14 06:15:35.238下午, 239.0, 1.55, 4.65, 6.71, 13.16
558, 2.785, 2017/11/14 06:15:35.243下午, 240.0, 1.81, 4.65, 6.45, 13.16
559, 2.79, 2017/11/14 06:15:35.248下午, 260.0, 1.55, 4.90, 8.00, 14.71
560, 2.795, 2017/11/14 06:15:35.253下午, 238.0, 1.55, 4.90, 6.19, 12.90
561, 2.8, 2017/11/14 06:15:35.258下午, 230.0, 1.03, 4.65, 6.71, 12.65
562, 2.805, 2017/11/14 06:15:35.263下午, 246.0, 1.81, 4.90, 6.71, 13.68
563, 2.81, 2017/11/14 06:15:35.268下午, 238.0, 1.55, 4.65, 7.23, 13.42
564, 2.815, 2017/11/14 06:15:35.273下午, 233.0, 1.55, 4.65, 6.97, 13.16
565, 2.82, 2017/11/14 06:15:35.278下午, 236.0, 1.55, 4.90, 6.71, 13.42
566, 2.825, 2017/11/14 06:15:35.283下午, 234.0, 1.81, 4.90, 6.19, 13.16
567, 2.83, 2017/11/14 06:15:35.288下午, 221.0, 1.29, 4.65, 7.23, 13.42
568, 2.835, 2017/11/14 06:15:35.293下午, 233.0, 1.29, 4.65, 6.71, 12.65
569, 2.84, 2017/11/14 06:15:35.298下午, 234.0, 1.81, 4.90, 6.45, 13.16
570, 2.845, 2017/11/14 06:15:35.303下午, 243.0, 1.55, 4.65, 6.97, 13.42
571, 2.85, 2017/11/14 06:15:35.308下午, 249.0, 2.06, 4.65, 6.97, 13.94
572, 2.855, 2017/11/14 06:15:35.313下午, 241.0, 1.81, 4.90, 6.97, 13.68
573, 2.86, 2017/11/14 06:15:35.318下午, 216.0, 1.55, 4.65, 6.19, 12.65
574, 2.865, 2017/11/14 06:15:35.323下午, 222.0, 1.55, 4.90, 6.71, 13.42
575, 2.87, 2017/11/14 06:15:35.328下午, 223.0, 1.29, 4.65, 7.23, 13.42
576, 2.875, 2017/11/14 06:15:35.333下午, 226.0, 1.81, 4.90, 6.97, 13.94
577, 2.88, 2017/11/14 06:15:35.338下午, 245.0, 2.06, 4.65, 7.23, 14.19
578, 2.885, 2017/11/14 06:15:35.343下午, 222.0, 1.03, 4.65, 6.19, 11.87
579, 2.89, 2017/11/14 06:15:35.348下午, 255.0, 2.58, 4.65, 7.23, 14.71
580, 2.895, 2017/11/14 06:15:35.353下午, 241.0, 2.06, 4.65, 6.71, 13.68
581, 2.9, 2017/11/14 06:15:35.358下午, 223.0, 1.29, 4.65, 6.19, 12.13
582, 2.905, 2017/11/14 06:15:35.363下午, 235.0, 1.55, 4.90, 6.45, 12.90
583, 2.91, 2017/11/14 06:15:35.368下午, 247.0, 2.06, 4.90, 6.45, 13.68
584, 2.915, 2017/11/14 06:15:35.373下午, 250.0, 2.06, 4.65, 6.97, 13.94
585, 2.92, 2017/11/14 06:15:35.378下午, 244.0, 1.81, 4.90, 6.97, 13.94
586, 2.925, 2017/11/14 06:15:35.383下午, 228.0, 1.55, 4.90, 6.97, 13.68
587, 2.93, 2017/11/14 06:15:35.388下午, 227.0, 1.81, 4.90, 7.23, 13.94
588, 2.935, 2017/11/14 06:15:35.393下午, 224.0, 1.81, 4.65, 6.71, 13.42
589, 2.94, 2017/11/14 06:15:35.398下午, 255.0, 2.84, 4.65, 7.23, 14.97
590, 2.945, 2017/11/14 06:15:35.403下午, 258.0, 2.58, 4.90, 7.23, 14.97
591, 2.95, 2017/11/14 06:15:35.408下午, 236.0, 1.55, 4.65, 6.97, 13.16
592, 2.955, 2017/11/14 06:15:35.413下午, 228.0, 1.03, 4.90, 6.19, 12.13
593, 2.96, 2017/11/14 06:15:35.418下午, 243.0, 1.55, 4.90, 6.97, 13.42
594, 2.965, 2017/11/14 06:15:35.423下午, 246.0, 1.81, 4.39, 7.23, 13.68
595, 2.97, 2017/11/14 06:15:35.428下午, 241.0, 1.81, 4.65, 6.97, 13.68
596, 2.975, 2017/11/14 06:15:35.433下午, 236.0, 1.81, 4.90, 7.48, 14.45
597, 2.98, 2017/11/14 06:15:35.438下午, 233.0, 1.81, 4.90, 7.23, 14.19
598, 2.985, 2017/11/14 06:15:35.443下午, 239.0, 2.06, 4.65, 6.71, 13.42
599, 2.99, 2017/11/14 06:15:35.448下午, 243.0, 1.55, 4.65, 7.74, 13.94
600, 2.995, 2017/11/14 06:15:35.453下午, 245.0, 2.06, 4.65, 6.97, 13.68
@@
