DATA_TYPE COF,,,,,,,,,,,,,
VERSION Tekscan Pressure Measurement System 6.70-03,,,,,,,,,,,,,
HARDWARE 00114-3447,,,,,,,,,,,,,
MAP_VERSION 6.5,,,,,,,,,,,,,
HW_TYPE 4,,,,,,,,,,,,,
VersaPogoFsx 0,,,,,,,,,,,,,
檔案名 C:\Users\asus\Desktop\工研院_計畫\收案資料\Subject02\Plantar Pressure\FOAM_STAND_RIGHT_1.fsx,,,,,,,,,,,,,
SENSOR_TYPE FSCAN,,,,,,,,,,,,,
ROWS 60,,,,,,,,,,,,,
COLS 21,,,,,,,,,,,,,
ROW_SPACING 0.508 centimeters,,,,,,,,,,,,,
COL_SPACING 0.508 centimeters,,,,,,,,,,,,,
SENSEL_AREA 0.258064 cm2,,,,,,,,,,,,,
NOISE_THRESHOLD 3,,,,,,,,,,,,,
SECONDS_PER_FRAME 0.005,,,,,,,,,,,,,
SECONDS_PER_FRAME 0,,,,,,,,,,,,,
MICRO_SECOND 0,,,,,,,,,,,,,
TIME 2017/11/15 11:58:57.964上午,,,,,,,,,,,,,
SATURATION_PRESSURE 2347.96 KPa ,,,,,,,,,,,,,
CALIBRATION_POINT_1 48.0001 (Kilograms) 1981 (Raw Sum) 199 (Number of Loaded Cells),,,,,,,,,,,,,
CALIBRATION_MODE_1 步態,,,,,,,,,,,,,
CALIBRATION_INFO C:\Users\asus\Desktop\工研院_計畫\收案資料\Subject02\Plantar Pressure\FOAM_STAND_RIGHT_1.fsx,,,,,,,,,,,,,
SENSITIVITY 自定義,,,,,,,,,,,,,
MAP_INDEX 0,,,,,,,,,,,,,
SUBMAP 0,,,,,,,,,,,,,
Patient ID: ,,,,,,,,,,,,,
,,,,,,,,,,,,,
Speed of Gait: ,,,,,,,,,,,,,
,,,,,,,,,,,,,
Weight: ,,,,,,,,,,,,,
,,,,,,,,,,,,,
Gender: ,,,,,,,,,,,,,
,,,,,,,,,,,,,
Physician: ,,,,,,,,,,,,,
,,,,,,,,,,,,,
Technician: ,,,,,,,,,,,,,
,,,,,,,,,,,,,
Shoe: ,,,,,,,,,,,,,
,,,,,,,,,,,,,
START_FRAME 1,,,,,,,,,,,,,
END_FRAME 600,,,,,,,,,,,,,
COMMENTS Frame, Time, (Absolute Time), Row (cm), Col (cm), Raw Sum,,,,,,,,
ASCII_DATA @@,,,,,,,,,,,,,
Frame, Time, Absolute Time, Main(Row,Col,Raw Sum), 青色(Row,Col), 絳紅(Row,Col), 黃色(Row,Col), 藍色(Row,Col)
1,0, 2017/11/15 11:58:57.964上午,16.89,4.32,199,47.53,8.32,-1,-1,20.89,8.65,33.26,8.5
2,0.005, 2017/11/15 11:58:57.969上午,16.06,4.31,188,47.47,8.12,-1,-1,20.86,8.72,31.61,8.48
3,0.01, 2017/11/15 11:58:57.974上午,16.23,4.35,197,48.16,8.54,-1,-1,20.94,8.56,31.95,8.55
4,0.015, 2017/11/15 11:58:57.979上午,16.86,4.34,194,47.64,8.34,-1,-1,21.08,8.71,33.19,8.54
5,0.02, 2017/11/15 11:58:57.984上午,16.46,4.26,190,47.45,8.13,-1,-1,20.96,8.58,32.4,8.39
6,0.025, 2017/11/15 11:58:57.989上午,16.62,4.36,190,47.75,8.31,-1,-1,21,8.8,32.72,8.58
7,0.03, 2017/11/15 11:58:57.994上午,16.49,4.37,193,48.13,8.56,-1,-1,20.95,8.64,32.47,8.61
8,0.035, 2017/11/15 11:58:57.999上午,16.01,4.32,184,47.38,8.29,-1,-1,20.89,8.63,31.52,8.5
9,0.04, 2017/11/15 11:58:58.004上午,16.74,4.34,195,47.67,8.26,-1,-1,21.01,8.76,32.95,8.54
10,0.045, 2017/11/15 11:58:58.009上午,15.98,4.35,184,47.97,8.46,-1,-1,20.88,8.62,31.45,8.56
11,0.05, 2017/11/15 11:58:58.014上午,16.39,4.26,188,47.46,8.15,-1,-1,20.98,8.56,32.27,8.38
12,0.055, 2017/11/15 11:58:58.019上午,17.09,4.24,194,48.24,8.23,-1,-1,21.16,8.45,33.65,8.35
13,0.06, 2017/11/15 11:58:58.024上午,16.93,4.36,198,47.53,8.31,-1,-1,21.14,8.81,33.32,8.58
14,0.065, 2017/11/15 11:58:58.029上午,16.12,4.34,180,47.42,8.24,-1,-1,21.01,8.76,31.73,8.55
15,0.07, 2017/11/15 11:58:58.034上午,16.36,4.33,204,47.7,8.27,-1,-1,20.89,8.7,32.2,8.52
16,0.075, 2017/11/15 11:58:58.039上午,16.43,4.39,189,47.24,8.43,-1,-1,21.09,8.8,32.34,8.64
17,0.08, 2017/11/15 11:58:58.044上午,16.14,4.29,186,47.65,8.16,-1,-1,20.96,8.63,31.77,8.44
18,0.085, 2017/11/15 11:58:58.049上午,17.35,4.25,185,47.84,8.12,-1,-1,21.32,8.58,34.15,8.36
19,0.09, 2017/11/15 11:58:58.054上午,16.42,4.27,182,47.62,8.41,-1,-1,20.9,8.42,32.33,8.41
20,0.095, 2017/11/15 11:58:58.059上午,17.41,4.39,179,47.93,8.3,-1,-1,21.26,8.98,34.27,8.65
21,0.1, 2017/11/15 11:58:58.064上午,16.75,4.23,198,47.78,7.95,-1,-1,20.89,8.64,32.97,8.33
22,0.105, 2017/11/15 11:58:58.069上午,16.99,4.27,202,47.82,8.06,-1,-1,20.93,8.73,33.45,8.42
23,0.11, 2017/11/15 11:58:58.074上午,16.16,4.39,193,47.62,8.41,-1,-1,20.96,8.81,31.81,8.64
24,0.115, 2017/11/15 11:58:58.079上午,15.87,4.36,184,47.59,8.3,-1,-1,20.88,8.75,31.25,8.57
25,0.12, 2017/11/15 11:58:58.084上午,16.62,4.25,198,47.7,8.27,-1,-1,21.04,8.43,32.72,8.36
26,0.125, 2017/11/15 11:58:58.089上午,16.18,4.37,178,47.76,8.59,-1,-1,21.16,8.61,31.86,8.61
27,0.13, 2017/11/15 11:58:58.094上午,16.24,4.33,193,47.26,8.44,-1,-1,20.96,8.58,31.97,8.52
28,0.135, 2017/11/15 11:58:58.099上午,16.55,4.27,178,47.5,8.13,-1,-1,21.03,8.61,32.58,8.4
29,0.14, 2017/11/15 11:58:58.104上午,15.97,4.45,165,47.56,8.87,-1,-1,21.24,8.71,31.45,8.77
30,0.145, 2017/11/15 11:58:58.109上午,16.81,4.31,197,47.89,8.3,-1,-1,20.93,8.63,33.1,8.48
31,0.15, 2017/11/15 11:58:58.114上午,16.83,4.27,183,47.7,8.19,-1,-1,21.03,8.59,33.12,8.41
32,0.155, 2017/11/15 11:58:58.119上午,16.79,4.37,189,47.91,8.38,-1,-1,21.13,8.77,33.04,8.6
33,0.16, 2017/11/15 11:58:58.124上午,16.92,4.29,202,47.5,8.24,-1,-1,20.92,8.61,33.3,8.44
34,0.165, 2017/11/15 11:58:58.129上午,17.02,4.27,182,47.71,8.27,-1,-1,21.3,8.54,33.51,8.41
35,0.17, 2017/11/15 11:58:58.134上午,16.56,4.34,197,47.88,8.37,-1,-1,20.84,8.69,32.6,8.55
36,0.175, 2017/11/15 11:58:58.139上午,16.04,4.33,186,47.56,8.31,-1,-1,20.91,8.65,31.57,8.51
37,0.18, 2017/11/15 11:58:58.144上午,17.19,4.29,183,47.7,8.27,-1,-1,21.2,8.62,33.83,8.45
38,0.185, 2017/11/15 11:58:58.149上午,16.21,4.31,175,47.88,8.52,-1,-1,21.18,8.45,31.9,8.48
39,0.19, 2017/11/15 11:58:58.154上午,16.32,4.31,192,47.93,8.11,-1,-1,20.88,8.75,32.12,8.48
40,0.195, 2017/11/15 11:58:58.159上午,17.04,4.2,191,47.79,7.9,-1,-1,21.06,8.59,33.54,8.27
41,0.2, 2017/11/15 11:58:58.164上午,16.85,4.31,196,47.84,8.02,-1,-1,20.96,8.86,33.16,8.48
42,0.205, 2017/11/15 11:58:58.169上午,16.44,4.37,188,47.61,8.33,-1,-1,20.8,8.81,32.36,8.61
43,0.21, 2017/11/15 11:58:58.174上午,16.11,4.33,178,47.57,8.43,-1,-1,21.05,8.58,31.72,8.52
44,0.215, 2017/11/15 11:58:58.179上午,16.38,4.28,184,47.64,8.15,-1,-1,20.96,8.63,32.25,8.43
45,0.22, 2017/11/15 11:58:58.184上午,16.75,4.25,186,48,8.22,-1,-1,21.14,8.47,32.98,8.36
46,0.225, 2017/11/15 11:58:58.189上午,16.47,4.36,198,47.87,8.36,-1,-1,20.87,8.74,32.43,8.57
47,0.23, 2017/11/15 11:58:58.194上午,16.51,4.3,184,47.63,8.22,-1,-1,20.92,8.67,32.51,8.47
48,0.235, 2017/11/15 11:58:58.199上午,16,4.3,180,47.84,8.53,-1,-1,21.25,8.43,31.5,8.47
49,0.24, 2017/11/15 11:58:58.204上午,16.35,4.45,183,47.9,8.41,-1,-1,20.86,9.01,32.18,8.76
50,0.245, 2017/11/15 11:58:58.209上午,16.13,4.28,174,47.37,8.18,-1,-1,21.05,8.59,31.75,8.42
51,0.25, 2017/11/15 11:58:58.214上午,16.19,4.37,175,47.85,8.54,-1,-1,21.32,8.63,31.86,8.59
52,0.255, 2017/11/15 11:58:58.219上午,16.72,4.36,198,47.86,8.29,-1,-1,20.95,8.8,32.9,8.57
53,0.26, 2017/11/15 11:58:58.224上午,16.76,4.28,185,47.7,8.17,-1,-1,21.23,8.64,32.99,8.43
54,0.265, 2017/11/15 11:58:58.229上午,16.53,4.34,179,47.87,8.58,-1,-1,21.31,8.5,32.55,8.54
55,0.27, 2017/11/15 11:58:58.234上午,15.9,4.35,188,47.6,8.3,-1,-1,20.88,8.72,31.3,8.56
56,0.275, 2017/11/15 11:58:58.239上午,16.78,4.3,187,47.69,8.17,-1,-1,21.06,8.71,33.03,8.47
57,0.28, 2017/11/15 11:58:58.244上午,16.06,4.3,194,47.94,8.19,-1,-1,20.94,8.64,31.61,8.46
58,0.285, 2017/11/15 11:58:58.249上午,16.68,4.35,201,47.87,8.3,-1,-1,20.88,8.75,32.83,8.55
59,0.29, 2017/11/15 11:58:58.254上午,17.21,4.19,169,47.57,8.17,-1,-1,21.46,8.33,33.87,8.25
60,0.295, 2017/11/15 11:58:58.259上午,16.75,4.24,199,47.8,7.98,-1,-1,21.2,8.63,32.97,8.34
61,0.3, 2017/11/15 11:58:58.264上午,16.25,4.39,190,47.59,8.4,-1,-1,20.94,8.82,31.99,8.65
62,0.305, 2017/11/15 11:58:58.269上午,16.72,4.32,201,47.38,8.35,-1,-1,20.91,8.64,32.91,8.51
63,0.31, 2017/11/15 11:58:58.274上午,16.08,4.28,174,47.45,8.35,-1,-1,21.17,8.46,31.66,8.42
64,0.315, 2017/11/15 11:58:58.279上午,16.24,4.33,183,47.79,8.53,-1,-1,21.4,8.53,31.96,8.53
65,0.32, 2017/11/15 11:58:58.284上午,17.13,4.32,205,47.49,8.32,-1,-1,21.05,8.67,33.71,8.5
66,0.325, 2017/11/15 11:58:58.289上午,16.23,4.28,191,47.51,8.13,-1,-1,20.88,8.62,31.95,8.42
67,0.33, 2017/11/15 11:58:58.294上午,16.74,4.33,186,47.7,8.17,-1,-1,21.08,8.82,32.95,8.53
68,0.335, 2017/11/15 11:58:58.299上午,16.66,4.34,183,47.62,8.41,-1,-1,21.32,8.65,32.79,8.54
69,0.34, 2017/11/15 11:58:58.304上午,16.16,4.3,184,47.48,8.24,-1,-1,20.89,8.62,31.8,8.46
70,0.345, 2017/11/15 11:58:58.309上午,16.47,4.28,179,47.55,8.13,-1,-1,21.03,8.66,32.41,8.43
71,0.35, 2017/11/15 11:58:58.314上午,15.85,4.38,185,47.84,8.5,-1,-1,20.85,8.7,31.21,8.62
72,0.355, 2017/11/15 11:58:58.319上午,16.77,4.37,206,47.46,8.37,-1,-1,20.86,8.8,33,8.6
73,0.36, 2017/11/15 11:58:58.324上午,15.99,4.26,179,47.23,8.05,-1,-1,21.02,8.62,31.47,8.39
74,0.365, 2017/11/15 11:58:58.329上午,15.87,4.37,192,47.81,8.6,-1,-1,21.08,8.61,31.24,8.61
75,0.37, 2017/11/15 11:58:58.334上午,16.57,4.38,193,47.91,8.38,-1,-1,20.86,8.8,32.62,8.62
76,0.375, 2017/11/15 11:58:58.339上午,16.57,4.24,190,47.7,8.17,-1,-1,20.98,8.49,32.63,8.35
77,0.38, 2017/11/15 11:58:58.344上午,15.92,4.36,176,47.89,8.41,-1,-1,20.86,8.7,31.34,8.59
78,0.385, 2017/11/15 11:58:58.349上午,16.33,4.36,195,47.62,8.43,-1,-1,21.04,8.69,32.15,8.58
79,0.39, 2017/11/15 11:58:58.354上午,16.55,4.29,186,47.62,8.07,-1,-1,21.09,8.71,32.59,8.44
80,0.395, 2017/11/15 11:58:58.359上午,16.8,4.26,184,47.7,8.17,-1,-1,21.06,8.58,33.07,8.39
81,0.4, 2017/11/15 11:58:58.364上午,16.26,4.39,195,47.92,8.35,-1,-1,20.81,8.85,32,8.64
82,0.405, 2017/11/15 11:58:58.369上午,16.82,4.37,192,47.88,8.37,-1,-1,21.18,8.81,33.11,8.61
83,0.41, 2017/11/15 11:58:58.374上午,15.94,4.36,184,47.61,8.31,-1,-1,20.89,8.77,31.38,8.59
84,0.415, 2017/11/15 11:58:58.379上午,16.66,4.28,191,47.71,8.18,-1,-1,20.95,8.6,32.79,8.42
85,0.42, 2017/11/15 11:58:58.384上午,16.5,4.35,197,48.02,8.29,-1,-1,20.85,8.78,32.49,8.57
86,0.425, 2017/11/15 11:58:58.389上午,17.56,4.43,195,47.72,8.38,-1,-1,21.2,9.05,34.57,8.72
87,0.43, 2017/11/15 11:58:58.394上午,16.94,4.22,189,47.82,7.89,-1,-1,20.99,8.65,33.35,8.3
88,0.435, 2017/11/15 11:58:58.399上午,16.99,4.31,187,47.69,8.25,-1,-1,21.09,8.67,33.44,8.48
89,0.44, 2017/11/15 11:58:58.404上午,17.09,4.29,196,47.48,8.19,-1,-1,21.09,8.66,33.63,8.44
90,0.445, 2017/11/15 11:58:58.409上午,16.34,4.31,188,47.48,8.14,-1,-1,20.93,8.73,32.17,8.48
91,0.45, 2017/11/15 11:58:58.414上午,16.42,4.31,191,47.94,8.28,-1,-1,20.95,8.63,32.33,8.48
92,0.455, 2017/11/15 11:58:58.419上午,17.03,4.35,202,47.6,8.35,-1,-1,21.01,8.76,33.53,8.57
93,0.46, 2017/11/15 11:58:58.424上午,16.32,4.3,194,47.12,8.26,-1,-1,20.94,8.61,32.12,8.46
94,0.465, 2017/11/15 11:58:58.429上午,17.09,4.26,194,47.82,8.13,-1,-1,21.12,8.61,33.64,8.38
95,0.47, 2017/11/15 11:58:58.434上午,16.75,4.45,176,47.63,8.41,-1,-1,21.08,9.03,32.97,8.75
96,0.475, 2017/11/15 11:58:58.439上午,16.24,4.27,189,47.53,8.11,-1,-1,20.95,8.6,31.97,8.4
97,0.48, 2017/11/15 11:58:58.444上午,17.62,4.25,187,47.82,8.06,-1,-1,21.29,8.7,34.69,8.37
98,0.485, 2017/11/15 11:58:58.449上午,15.89,4.44,189,47.82,8.61,-1,-1,20.83,8.83,31.28,8.75
99,0.49, 2017/11/15 11:58:58.454上午,16.92,4.29,195,47.5,8.13,-1,-1,21.09,8.72,33.3,8.44
100,0.495, 2017/11/15 11:58:58.459上午,16.79,4.22,202,47.82,7.91,-1,-1,20.93,8.64,33.05,8.31
101,0.5, 2017/11/15 11:58:58.464上午,16.82,4.33,190,47.69,8.25,-1,-1,21.03,8.74,33.11,8.52
102,0.505, 2017/11/15 11:58:58.469上午,16.49,4.37,191,48.15,8.56,-1,-1,20.83,8.65,32.47,8.61
103,0.51, 2017/11/15 11:58:58.474上午,17.02,4.3,187,47.88,8.37,-1,-1,21.24,8.54,33.5,8.46
104,0.515, 2017/11/15 11:58:58.479上午,16.3,4.31,187,47.53,8.21,-1,-1,20.89,8.69,32.08,8.49
105,0.52, 2017/11/15 11:58:58.484上午,16.36,4.27,176,47.35,8.13,-1,-1,21.05,8.61,32.21,8.41
106,0.525, 2017/11/15 11:58:58.489上午,16.84,4.29,201,47.83,8.11,-1,-1,21.03,8.71,33.15,8.44
107,0.53, 2017/11/15 11:58:58.494上午,16.75,4.25,185,47.6,8.11,-1,-1,21.11,8.57,32.97,8.37
108,0.535, 2017/11/15 11:58:58.499上午,16.67,4.29,189,47.55,8.1,-1,-1,21.04,8.72,32.82,8.44
109,0.54, 2017/11/15 11:58:58.504上午,17.38,4.23,193,47.81,8.14,-1,-1,21.2,8.5,34.21,8.32
110,0.545, 2017/11/15 11:58:58.509上午,16.89,4.34,189,47.88,8.37,-1,-1,21.05,8.7,33.25,8.55
111,0.55, 2017/11/15 11:58:58.514上午,17.21,4.3,200,47.61,8.36,-1,-1,21.09,8.58,33.87,8.47
112,0.555, 2017/11/15 11:58:58.519上午,16.76,4.31,189,47.71,8.18,-1,-1,21.02,8.74,33,8.49
113,0.56, 2017/11/15 11:58:58.524上午,16.63,4.25,199,47.8,8.06,-1,-1,20.87,8.61,32.74,8.37
114,0.565, 2017/11/15 11:58:58.529上午,17.09,4.32,199,47.61,8.43,-1,-1,21.37,8.56,33.64,8.5
115,0.57, 2017/11/15 11:58:58.534上午,16.43,4.3,176,47.32,8.32,-1,-1,21.04,8.59,32.34,8.47
116,0.575, 2017/11/15 11:58:58.539上午,17.26,4.3,177,47.69,8.16,-1,-1,21.23,8.73,33.97,8.46
117,0.58, 2017/11/15 11:58:58.544上午,16.71,4.3,208,48.28,8.23,-1,-1,20.98,8.66,32.89,8.47
118,0.585, 2017/11/15 11:58:58.549上午,16.33,4.36,190,48.22,8.48,-1,-1,20.87,8.65,32.14,8.58
119,0.59, 2017/11/15 11:58:58.554上午,16.74,4.3,199,47.87,8.3,-1,-1,20.92,8.59,32.96,8.46
120,0.595, 2017/11/15 11:58:58.559上午,17.18,4.23,171,47.63,8.12,-1,-1,21.32,8.51,33.82,8.33
121,0.6, 2017/11/15 11:58:58.564上午,16.26,4.33,192,47.77,8.16,-1,-1,20.85,8.79,32.01,8.53
122,0.605, 2017/11/15 11:58:58.569上午,16.71,4.39,168,47.82,8.61,-1,-1,21.28,8.67,32.9,8.64
123,0.61, 2017/11/15 11:58:58.574上午,17.17,4.32,201,47.64,8.3,-1,-1,21.07,8.71,33.8,8.51
124,0.615, 2017/11/15 11:58:58.579上午,16.9,4.29,189,47.31,8.18,-1,-1,21.01,8.67,33.28,8.44
125,0.62, 2017/11/15 11:58:58.584上午,16.72,4.27,185,47.71,8.15,-1,-1,21.11,8.62,32.92,8.41
126,0.625, 2017/11/15 11:58:58.589上午,16.12,4.38,189,47.74,8.61,-1,-1,20.9,8.62,31.73,8.62
127,0.63, 2017/11/15 11:58:58.594上午,17.1,4.25,182,47.78,8.06,-1,-1,21.24,8.63,33.66,8.36
128,0.635, 2017/11/15 11:58:58.599上午,17.42,4.24,175,47.6,8.18,-1,-1,21.33,8.51,34.3,8.35
129,0.64, 2017/11/15 11:58:58.604上午,17.54,4.3,176,47.68,8.25,-1,-1,21.26,8.69,34.52,8.47
130,0.645, 2017/11/15 11:58:58.609上午,16.92,4.31,191,47.95,8.22,-1,-1,21.07,8.7,33.32,8.48
131,0.65, 2017/11/15 11:58:58.614上午,17.37,4.2,196,48.09,7.87,-1,-1,21.05,8.63,34.2,8.26
132,0.655, 2017/11/15 11:58:58.619上午,17.05,4.33,181,47.71,8.27,-1,-1,21.16,8.77,33.56,8.53
133,0.66, 2017/11/15 11:58:58.624上午,17.49,4.41,195,47.47,8.32,-1,-1,21.06,9.05,34.42,8.68
134,0.665, 2017/11/15 11:58:58.629上午,16.27,4.38,193,47.71,8.63,-1,-1,20.98,8.6,32.03,8.61
135,0.67, 2017/11/15 11:58:58.634上午,16.87,4.26,205,48.21,8.24,-1,-1,20.98,8.52,33.2,8.39
136,0.675, 2017/11/15 11:58:58.639上午,16.48,4.35,182,47.66,8.31,-1,-1,21.11,8.77,32.45,8.57
137,0.68, 2017/11/15 11:58:58.644上午,16.75,4.3,193,47.95,8.21,-1,-1,20.92,8.66,32.97,8.46
138,0.685, 2017/11/15 11:58:58.649上午,15.78,4.31,178,47.06,8.28,-1,-1,21.07,8.62,31.07,8.49
139,0.69, 2017/11/15 11:58:58.654上午,16.76,4.3,206,48.24,8.23,-1,-1,20.97,8.64,32.99,8.46
140,0.695, 2017/11/15 11:58:58.659上午,17.14,4.44,189,47.86,8.3,-1,-1,21.08,9.15,33.74,8.75
141,0.7, 2017/11/15 11:58:58.664上午,16.6,4.26,192,47.77,8.09,-1,-1,20.96,8.62,32.67,8.39
142,0.705, 2017/11/15 11:58:58.669上午,17.03,4.3,189,47.67,8.25,-1,-1,21.11,8.67,33.52,8.47
143,0.71, 2017/11/15 11:58:58.674上午,17.09,4.41,172,47.62,8.4,-1,-1,21.12,8.95,33.64,8.69
144,0.715, 2017/11/15 11:58:58.679上午,16.59,4.3,194,47.64,8.23,-1,-1,20.92,8.66,32.65,8.47
145,0.72, 2017/11/15 11:58:58.684上午,16.39,4.32,187,47.74,8.16,-1,-1,20.93,8.74,32.26,8.49
146,0.725, 2017/11/15 11:58:58.689上午,16.96,4.41,185,48.09,8.54,-1,-1,21.18,8.79,33.39,8.68
147,0.73, 2017/11/15 11:58:58.694上午,16.8,4.29,200,47.61,8.25,-1,-1,20.88,8.61,33.07,8.44
148,0.735, 2017/11/15 11:58:58.699上午,16.73,4.29,202,48.21,8.25,-1,-1,20.9,8.61,32.94,8.45
149,0.74, 2017/11/15 11:58:58.704上午,17.29,4.38,200,47.49,8.32,-1,-1,20.92,8.93,34.03,8.63
150,0.745, 2017/11/15 11:58:58.709上午,16.99,4.27,190,47.67,8.24,-1,-1,21.07,8.56,33.45,8.41
151,0.75, 2017/11/15 11:58:58.714上午,16.88,4.46,186,47.9,8.38,-1,-1,20.81,9.12,33.24,8.78
152,0.755, 2017/11/15 11:58:58.719上午,16.53,4.34,176,47.65,8.4,-1,-1,21.05,8.64,32.54,8.54
153,0.76, 2017/11/15 11:58:58.724上午,16.28,4.4,196,48.15,8.54,-1,-1,20.85,8.76,32.05,8.67
154,0.765, 2017/11/15 11:58:58.729上午,16.79,4.33,203,47.6,8.41,-1,-1,20.9,8.62,33.05,8.52
155,0.77, 2017/11/15 11:58:58.734上午,17.2,4.2,180,47.68,8.16,-1,-1,21.37,8.38,33.86,8.28
156,0.775, 2017/11/15 11:58:58.739上午,17.27,4.39,192,47.66,8.28,-1,-1,21.04,8.97,34,8.63
157,0.78, 2017/11/15 11:58:58.744上午,16.65,4.26,182,47.63,8.08,-1,-1,21.04,8.63,32.78,8.39
158,0.785, 2017/11/15 11:58:58.749上午,16.08,4.4,197,47.82,8.58,-1,-1,20.87,8.72,31.65,8.66
159,0.79, 2017/11/15 11:58:58.754上午,17.17,4.33,183,47.93,8.38,-1,-1,21.17,8.66,33.8,8.53
160,0.795, 2017/11/15 11:58:58.759上午,15.97,4.32,182,47.58,8.29,-1,-1,20.93,8.64,31.43,8.51
161,0.8, 2017/11/15 11:58:58.764上午,16.13,4.26,172,47.38,8.07,-1,-1,21.06,8.6,31.76,8.39
162,0.805, 2017/11/15 11:58:58.769上午,16.41,4.35,172,47.87,8.53,-1,-1,21.28,8.58,32.3,8.56
163,0.81, 2017/11/15 11:58:58.774上午,17.16,4.33,200,47.76,8.31,-1,-1,21.08,8.7,33.79,8.52
164,0.815, 2017/11/15 11:58:58.779上午,16.48,4.29,179,47.62,8.17,-1,-1,21.01,8.64,32.44,8.44
165,0.82, 2017/11/15 11:58:58.784上午,16.25,4.32,196,48,8.15,-1,-1,20.84,8.74,31.99,8.5
166,0.825, 2017/11/15 11:58:58.789上午,16.34,4.4,172,47.79,8.6,-1,-1,21.24,8.71,32.17,8.66
167,0.83, 2017/11/15 11:58:58.794上午,16.14,4.32,177,47.56,8.27,-1,-1,21.03,8.67,31.77,8.51
168,0.835, 2017/11/15 11:58:58.799上午,17.42,4.25,190,48.09,8.03,-1,-1,21.21,8.68,34.29,8.36
169,0.84, 2017/11/15 11:58:58.804上午,17.2,4.26,192,47.68,8.17,-1,-1,21.1,8.57,33.87,8.38
170,0.845, 2017/11/15 11:58:58.809上午,16.57,4.27,180,47.54,8.11,-1,-1,21.04,8.65,32.62,8.41
171,0.85, 2017/11/15 11:58:58.814上午,16.26,4.38,187,47.61,8.4,-1,-1,20.87,8.78,32,8.62
172,0.855, 2017/11/15 11:58:58.819上午,16.01,4.34,179,47.41,8.38,-1,-1,20.93,8.66,31.51,8.55
173,0.86, 2017/11/15 11:58:58.824上午,16.38,4.34,197,47.71,8.18,-1,-1,20.84,8.82,32.25,8.55
174,0.865, 2017/11/15 11:58:58.829上午,17.06,4.36,197,47.61,8.42,-1,-1,21.03,8.73,33.59,8.59
175,0.87, 2017/11/15 11:58:58.834上午,16.27,4.29,174,47.35,8.28,-1,-1,21.06,8.56,32.03,8.45
176,0.875, 2017/11/15 11:58:58.839上午,16.18,4.3,191,47.69,8.32,-1,-1,21.12,8.55,31.86,8.46
177,0.88, 2017/11/15 11:58:58.844上午,17.18,4.26,184,47.77,8.13,-1,-1,21.26,8.62,33.83,8.39
178,0.885, 2017/11/15 11:58:58.849上午,16.28,4.3,183,47.46,8.12,-1,-1,20.91,8.71,32.04,8.46
179,0.89, 2017/11/15 11:58:58.854上午,16.89,4.27,179,48.07,8.22,-1,-1,21.28,8.54,33.25,8.4
180,0.895, 2017/11/15 11:58:58.859上午,17.09,4.41,183,47.87,8.35,-1,-1,21.25,8.96,33.64,8.68
181,0.9, 2017/11/15 11:58:58.864上午,15.83,4.35,185,47.59,8.29,-1,-1,20.87,8.74,31.16,8.57
182,0.905, 2017/11/15 11:58:58.869上午,16.47,4.3,186,47.59,8.24,-1,-1,21.05,8.62,32.43,8.46
183,0.91, 2017/11/15 11:58:58.874上午,16.09,4.36,182,47.7,8.23,-1,-1,20.86,8.83,31.68,8.59
184,0.915, 2017/11/15 11:58:58.879上午,16.5,4.3,182,47.73,8.16,-1,-1,21.09,8.69,32.48,8.46
185,0.92, 2017/11/15 11:58:58.884上午,16.67,4.3,188,47.7,8.16,-1,-1,21.02,8.7,32.81,8.47
186,0.925, 2017/11/15 11:58:58.889上午,15.9,4.42,165,47.57,8.89,-1,-1,21.39,8.6,31.3,8.71
187,0.93, 2017/11/15 11:58:58.894上午,16.56,4.32,197,47.06,8.32,-1,-1,20.91,8.65,32.6,8.51
188,0.935, 2017/11/15 11:58:58.899上午,16.3,4.33,190,47.75,8.18,-1,-1,20.91,8.78,32.09,8.53
189,0.94, 2017/11/15 11:58:58.904上午,17,4.29,204,47.83,8.21,-1,-1,20.88,8.66,33.47,8.45
190,0.945, 2017/11/15 11:58:58.909上午,16.13,4.3,172,47.42,8.27,-1,-1,21.03,8.6,31.74,8.47
191,0.95, 2017/11/15 11:58:58.914上午,16.7,4.34,196,47.97,8.37,-1,-1,21.06,8.67,32.88,8.54
192,0.955, 2017/11/15 11:58:58.919上午,16.61,4.29,196,47.47,8.16,-1,-1,20.88,8.66,32.7,8.44
193,0.96, 2017/11/15 11:58:58.924上午,16.08,4.28,180,47.48,8.04,-1,-1,20.95,8.68,31.66,8.42
194,0.965, 2017/11/15 11:58:58.929上午,16.14,4.4,192,47.6,8.39,-1,-1,21.01,8.86,31.77,8.67
195,0.97, 2017/11/15 11:58:58.934上午,17.3,4.3,205,47.6,8.31,-1,-1,21,8.62,34.06,8.47
196,0.975, 2017/11/15 11:58:58.939上午,16.74,4.26,174,47.63,8.21,-1,-1,21.28,8.53,32.96,8.39
197,0.98, 2017/11/15 11:58:58.944上午,16,4.4,181,47.79,8.6,-1,-1,21.04,8.69,31.5,8.66
198,0.985, 2017/11/15 11:58:58.949上午,16.05,4.41,195,47.27,8.36,-1,-1,21.02,8.88,31.6,8.67
199,0.99, 2017/11/15 11:58:58.954上午,15.88,4.32,180,48.11,8.23,-1,-1,20.89,8.68,31.27,8.51
200,0.995, 2017/11/15 11:58:58.959上午,16.23,4.41,161,47.9,8.41,-1,-1,21.2,8.85,31.95,8.67
201,1, 2017/11/15 11:58:58.964上午,16.98,4.35,186,47.87,8.35,-1,-1,21.21,8.74,33.43,8.56
202,1.005, 2017/11/15 11:58:58.969上午,16.34,4.27,187,47.64,8.08,-1,-1,20.88,8.64,32.17,8.41
203,1.01, 2017/11/15 11:58:58.974上午,17.01,4.19,196,47.79,8,-1,-1,21.18,8.44,33.49,8.24
204,1.015, 2017/11/15 11:58:58.979上午,16.28,4.31,178,47.63,8.19,-1,-1,21.28,8.68,32.06,8.48
205,1.02, 2017/11/15 11:58:58.984上午,16.21,4.32,190,47.48,8.12,-1,-1,20.88,8.78,31.91,8.5
206,1.025, 2017/11/15 11:58:58.989上午,16.47,4.3,185,47.74,8.25,-1,-1,20.92,8.64,32.42,8.47
207,1.03, 2017/11/15 11:58:58.994上午,17.05,4.32,192,47.86,8.3,-1,-1,21.11,8.68,33.56,8.5
208,1.035, 2017/11/15 11:58:58.999上午,16.48,4.29,199,47.61,8.17,-1,-1,20.88,8.65,32.45,8.44
209,1.04, 2017/11/15 11:58:59.004上午,16.18,4.41,185,47.88,8.5,-1,-1,20.99,8.8,31.85,8.68
210,1.045, 2017/11/15 11:58:59.009上午,16.59,4.37,195,47.87,8.35,-1,-1,20.93,8.81,32.66,8.61
211,1.05, 2017/11/15 11:58:59.014上午,16.33,4.3,187,47.6,8.24,-1,-1,20.9,8.64,32.15,8.47
212,1.055, 2017/11/15 11:58:59.019上午,16.58,4.37,194,47.91,8.37,-1,-1,20.95,8.78,32.64,8.61
213,1.06, 2017/11/15 11:58:59.024上午,15.87,4.34,177,47.63,8.38,-1,-1,20.9,8.64,31.24,8.54
214,1.065, 2017/11/15 11:58:59.029上午,15.96,4.41,177,47.85,8.54,-1,-1,21,8.77,31.42,8.68
215,1.07, 2017/11/15 11:58:59.034上午,17.02,4.44,202,47.59,8.35,-1,-1,20.87,9.08,33.5,8.73
216,1.075, 2017/11/15 11:58:59.039上午,16.24,4.26,185,47.31,8.03,-1,-1,21.07,8.63,31.97,8.38
217,1.08, 2017/11/15 11:58:59.044上午,15.98,4.41,173,47.89,8.53,-1,-1,21.12,8.77,31.46,8.67
218,1.085, 2017/11/15 11:58:59.049上午,16.63,4.35,179,47.6,8.39,-1,-1,21.23,8.71,32.73,8.57
219,1.09, 2017/11/15 11:58:59.054上午,16.38,4.31,189,47.75,8.19,-1,-1,20.9,8.68,32.25,8.48
220,1.095, 2017/11/15 11:58:59.059上午,16.52,4.32,187,47.62,8.31,-1,-1,20.91,8.64,32.52,8.5
221,1.1, 2017/11/15 11:58:59.064上午,16.87,4.29,190,47.95,8.36,-1,-1,21.14,8.51,33.2,8.44
222,1.105, 2017/11/15 11:58:59.069上午,16.65,4.33,198,47.61,8.18,-1,-1,20.89,8.79,32.78,8.51
223,1.11, 2017/11/15 11:58:59.074上午,16.68,4.25,184,47.68,8.12,-1,-1,21.07,8.57,32.83,8.37
224,1.115, 2017/11/15 11:58:59.079上午,16.36,4.31,180,48.11,8.12,-1,-1,21.03,8.73,32.2,8.48
225,1.12, 2017/11/15 11:58:59.084上午,16.83,4.4,191,47.61,8.17,-1,-1,20.88,9.06,33.12,8.65
226,1.125, 2017/11/15 11:58:59.089上午,16.59,4.28,180,47.51,8.13,-1,-1,21.03,8.67,32.65,8.43
227,1.13, 2017/11/15 11:58:59.094上午,16.19,4.39,171,47.35,8.62,-1,-1,21.23,8.66,31.88,8.64
228,1.135, 2017/11/15 11:58:59.099上午,16.86,4.33,207,47.49,8.38,-1,-1,20.94,8.65,33.19,8.52
229,1.14, 2017/11/15 11:58:59.104上午,15.33,4.4,172,48.22,8.38,-1,-1,20.92,8.8,30.18,8.66
230,1.145, 2017/11/15 11:58:59.109上午,16.52,4.47,179,47.61,8.4,-1,-1,20.84,9.09,32.52,8.79
231,1.15, 2017/11/15 11:58:59.114上午,15.86,4.32,179,47.41,8.27,-1,-1,20.92,8.65,31.22,8.5
232,1.155, 2017/11/15 11:58:59.119上午,15.97,4.38,167,47.43,8.43,-1,-1,21.22,8.73,31.44,8.62
233,1.16, 2017/11/15 11:58:59.124上午,16.34,4.35,199,47.27,8.43,-1,-1,20.88,8.65,32.16,8.56
234,1.165, 2017/11/15 11:58:59.129上午,16.63,4.23,184,47.7,8.16,-1,-1,21.11,8.46,32.73,8.33
235,1.17, 2017/11/15 11:58:59.134上午,15.76,4.42,180,47.35,8.62,-1,-1,20.97,8.75,31.02,8.7
236,1.175, 2017/11/15 11:58:59.139上午,16.05,4.35,184,47.24,8.43,-1,-1,20.89,8.66,31.6,8.57
237,1.18, 2017/11/15 11:58:59.144上午,16.05,4.24,159,47.08,8.23,-1,-1,21.24,8.42,31.6,8.34
238,1.185, 2017/11/15 11:58:59.149上午,16.27,4.35,199,47.67,8.32,-1,-1,20.86,8.75,32.03,8.57
239,1.19, 2017/11/15 11:58:59.154上午,16.26,4.39,188,47.61,8.4,-1,-1,20.94,8.81,32,8.64
240,1.195, 2017/11/15 11:58:59.159上午,15.89,4.33,182,47.58,8.27,-1,-1,20.91,8.67,31.27,8.51
241,1.2, 2017/11/15 11:58:59.164上午,16.24,4.28,184,47.47,8.1,-1,-1,21.07,8.64,31.96,8.42
242,1.205, 2017/11/15 11:58:59.169上午,15.61,4.38,186,47.88,8.54,-1,-1,20.94,8.68,30.73,8.63
243,1.21, 2017/11/15 11:58:59.174上午,16.69,4.42,188,47.28,8.44,-1,-1,20.84,8.93,32.85,8.71
244,1.215, 2017/11/15 11:58:59.179上午,15.96,4.31,181,47.58,8.27,-1,-1,21.05,8.61,31.42,8.48
245,1.22, 2017/11/15 11:58:59.184上午,16.22,4.27,180,47.5,8.07,-1,-1,21.15,8.64,31.93,8.41
246,1.225, 2017/11/15 11:58:59.189上午,16.13,4.41,174,47.84,8.54,-1,-1,21.25,8.79,31.76,8.69
247,1.23, 2017/11/15 11:58:59.194上午,16.39,4.3,191,47.71,8.2,-1,-1,20.9,8.67,32.25,8.47
248,1.235, 2017/11/15 11:58:59.199上午,16.91,4.3,200,47.83,8.1,-1,-1,21.02,8.79,33.28,8.47
249,1.24, 2017/11/15 11:58:59.204上午,16.13,4.39,175,47.88,8.52,-1,-1,21.14,8.72,31.76,8.64
250,1.245, 2017/11/15 11:58:59.209上午,16,4.33,184,47.32,8.31,-1,-1,20.93,8.65,31.49,8.51
251,1.25, 2017/11/15 11:58:59.214上午,16.68,4.32,195,47.67,8.23,-1,-1,21.05,8.72,32.84,8.51
252,1.255, 2017/11/15 11:58:59.219上午,16.24,4.36,206,47.91,8.37,-1,-1,20.96,8.73,31.97,8.58
253,1.26, 2017/11/15 11:58:59.224上午,16.25,4.26,188,47.52,8.11,-1,-1,20.98,8.59,31.99,8.39
254,1.265, 2017/11/15 11:58:59.229上午,16.55,4.27,193,47.7,8.16,-1,-1,21.14,8.6,32.58,8.41
255,1.27, 2017/11/15 11:58:59.234上午,16.67,4.36,208,47.77,8.38,-1,-1,20.92,8.75,32.81,8.58
256,1.275, 2017/11/15 11:58:59.239上午,16.5,4.27,178,47.55,8.08,-1,-1,21.2,8.65,32.47,8.41
257,1.28, 2017/11/15 11:58:59.244上午,16.05,4.29,196,48.08,8.15,-1,-1,21,8.65,31.59,8.45
258,1.285, 2017/11/15 11:58:59.249上午,16.71,4.36,185,47.59,8.32,-1,-1,21.12,8.78,32.89,8.57
259,1.29, 2017/11/15 11:58:59.254上午,15.96,4.32,182,47.58,8.29,-1,-1,20.93,8.66,31.42,8.51
260,1.295, 2017/11/15 11:58:59.259上午,16.5,4.35,191,47.7,8.17,-1,-1,20.99,8.86,32.48,8.56
261,1.3, 2017/11/15 11:58:59.264上午,15.94,4.4,190,47.66,8.32,-1,-1,21.03,8.88,31.38,8.66
262,1.305, 2017/11/15 11:58:59.269上午,16.29,4.3,176,47.61,8.31,-1,-1,21.11,8.58,32.07,8.47
263,1.31, 2017/11/15 11:58:59.274上午,16.17,4.28,192,47.72,8.13,-1,-1,20.9,8.63,31.83,8.42
264,1.315, 2017/11/15 11:58:59.279上午,15.38,4.42,185,47.87,8.43,-1,-1,20.87,8.84,30.27,8.7
265,1.32, 2017/11/15 11:58:59.284上午,16.77,4.32,197,47.75,8.32,-1,-1,21.05,8.67,33.02,8.51
266,1.325, 2017/11/15 11:58:59.289上午,16.29,4.28,182,47.56,8.1,-1,-1,20.93,8.66,32.06,8.43
267,1.33, 2017/11/15 11:58:59.294上午,15.89,4.28,184,47.49,8.09,-1,-1,20.9,8.63,31.28,8.42
268,1.335, 2017/11/15 11:58:59.299上午,16.91,4.44,195,47.57,8.4,-1,-1,20.88,9.04,33.28,8.74
269,1.34, 2017/11/15 11:58:59.304上午,15.87,4.3,183,47.5,8.07,-1,-1,20.93,8.71,31.23,8.46
270,1.345, 2017/11/15 11:58:59.309上午,16.09,4.36,191,47.71,8.23,-1,-1,20.86,8.82,31.68,8.58
271,1.35, 2017/11/15 11:58:59.314上午,15.81,4.33,183,47.38,8.27,-1,-1,20.9,8.67,31.13,8.51
272,1.355, 2017/11/15 11:58:59.319上午,16.2,4.32,175,47.52,8.06,-1,-1,20.96,8.8,31.9,8.5
273,1.36, 2017/11/15 11:58:59.324上午,16.51,4.35,182,47.5,8.42,-1,-1,21.19,8.68,32.5,8.57
274,1.365, 2017/11/15 11:58:59.329上午,16.12,4.32,175,47.4,8.32,-1,-1,21.05,8.63,31.74,8.5
275,1.37, 2017/11/15 11:58:59.334上午,16.06,4.33,196,47.57,8.22,-1,-1,20.88,8.73,31.62,8.52
276,1.375, 2017/11/15 11:58:59.339上午,15.49,4.35,175,47.37,8.35,-1,-1,20.95,8.68,30.49,8.56
277,1.38, 2017/11/15 11:58:59.344上午,16.24,4.32,177,47.35,8.17,-1,-1,21.04,8.73,31.97,8.5
278,1.385, 2017/11/15 11:58:59.349上午,16.12,4.38,183,47.81,8.6,-1,-1,21.07,8.64,31.74,8.62
279,1.39, 2017/11/15 11:58:59.354上午,16.2,4.42,180,47.47,8.2,-1,-1,20.89,9.05,31.88,8.7
280,1.395, 2017/11/15 11:58:59.359上午,15.96,4.29,179,47.38,8.11,-1,-1,20.91,8.65,31.42,8.44
281,1.4, 2017/11/15 11:58:59.364上午,15.56,4.38,181,47.95,8.4,-1,-1,20.88,8.74,30.63,8.62
282,1.405, 2017/11/15 11:58:59.369上午,15.8,4.39,185,47.8,8.59,-1,-1,20.87,8.66,31.11,8.63
283,1.41, 2017/11/15 11:58:59.374上午,16.59,4.42,161,47.61,8.38,-1,-1,21.29,8.93,32.66,8.69
284,1.415, 2017/11/15 11:58:59.379上午,15.93,4.26,179,47.32,8.1,-1,-1,21.08,8.57,31.35,8.39
285,1.42, 2017/11/15 11:58:59.384上午,16.47,4.35,189,47.72,8.16,-1,-1,20.99,8.86,32.42,8.56
286,1.425, 2017/11/15 11:58:59.389上午,16.34,4.41,186,48.12,8.56,-1,-1,20.94,8.76,32.17,8.68
287,1.43, 2017/11/15 11:58:59.394上午,16.33,4.23,172,47.35,8.14,-1,-1,21.22,8.45,32.14,8.32
288,1.435, 2017/11/15 11:58:59.399上午,15.75,4.35,183,47.95,8.38,-1,-1,20.93,8.68,31.01,8.57
289,1.44, 2017/11/15 11:58:59.404上午,15.85,4.3,183,47.35,8.13,-1,-1,20.9,8.66,31.19,8.46
290,1.445, 2017/11/15 11:58:59.409上午,15.78,4.34,185,47.94,8.4,-1,-1,20.9,8.63,31.06,8.55
291,1.45, 2017/11/15 11:58:59.414上午,15.8,4.42,176,47.82,8.51,-1,-1,20.94,8.83,31.1,8.71
292,1.455, 2017/11/15 11:58:59.419上午,16.39,4.31,181,47.49,8.1,-1,-1,21.03,8.76,32.25,8.48
293,1.46, 2017/11/15 11:58:59.424上午,15.56,4.4,182,47.86,8.44,-1,-1,20.83,8.77,30.63,8.65
294,1.465, 2017/11/15 11:58:59.429上午,15.64,4.35,185,47.43,8.28,-1,-1,20.87,8.72,30.79,8.56
295,1.47, 2017/11/15 11:58:59.434上午,15.63,4.35,178,47.87,8.42,-1,-1,20.87,8.64,30.76,8.56
296,1.475, 2017/11/15 11:58:59.439上午,15.65,4.41,173,47.88,8.41,-1,-1,20.95,8.83,30.81,8.67
297,1.48, 2017/11/15 11:58:59.444上午,15.55,4.35,176,47.41,8.36,-1,-1,20.97,8.67,30.62,8.56
298,1.485, 2017/11/15 11:58:59.449上午,15.31,4.37,177,47.16,8.26,-1,-1,20.91,8.77,30.14,8.59
299,1.49, 2017/11/15 11:58:59.454上午,16.15,4.39,175,47.8,8.6,-1,-1,21.18,8.66,31.79,8.64
300,1.495, 2017/11/15 11:58:59.459上午,16.54,4.28,196,47.49,8.2,-1,-1,20.86,8.61,32.56,8.43
301,1.5, 2017/11/15 11:58:59.464上午,15.84,4.27,182,47.28,8.04,-1,-1,20.99,8.63,31.19,8.4
302,1.505, 2017/11/15 11:58:59.469上午,15.67,4.33,193,47.45,8.16,-1,-1,20.93,8.75,30.85,8.53
303,1.51, 2017/11/15 11:58:59.474上午,16.46,4.48,186,47.35,8.43,-1,-1,20.86,9.12,32.41,8.82
304,1.515, 2017/11/15 11:58:59.479上午,15.93,4.31,180,47.36,8.26,-1,-1,21.06,8.65,31.35,8.49
305,1.52, 2017/11/15 11:58:59.484上午,16.19,4.33,199,47.74,8.16,-1,-1,20.84,8.77,31.87,8.52
306,1.525, 2017/11/15 11:58:59.489上午,16.26,4.42,173,47.81,8.6,-1,-1,21.11,8.76,32.01,8.69
307,1.53, 2017/11/15 11:58:59.494上午,15.94,4.32,180,47.49,8.14,-1,-1,20.95,8.73,31.37,8.5
308,1.535, 2017/11/15 11:58:59.499上午,15.45,4.6,156,47.61,8.7,-1,-1,20.98,9.26,30.41,9.06
309,1.54, 2017/11/15 11:58:59.504上午,15.77,4.32,183,47.38,8.27,-1,-1,20.88,8.65,31.04,8.51
310,1.545, 2017/11/15 11:58:59.509上午,15.56,4.37,184,47.99,8.36,-1,-1,20.85,8.73,30.63,8.6
311,1.55, 2017/11/15 11:58:59.514上午,16.43,4.35,200,47.15,8.47,-1,-1,20.88,8.63,32.35,8.56
312,1.555, 2017/11/15 11:58:59.519上午,16.1,4.27,183,47.47,8.16,-1,-1,21.07,8.59,31.7,8.41
313,1.56, 2017/11/15 11:58:59.524上午,15.59,4.61,167,47.55,8.89,-1,-1,20.89,9.18,30.68,9.08
314,1.565, 2017/11/15 11:58:59.529上午,16.02,4.34,186,47.23,8.34,-1,-1,20.89,8.67,31.53,8.54
315,1.57, 2017/11/15 11:58:59.534上午,16.05,4.35,166,47.89,8.42,-1,-1,21.22,8.66,31.6,8.57
316,1.575, 2017/11/15 11:58:59.539上午,16.46,4.35,193,47.31,8.44,-1,-1,20.92,8.67,32.4,8.57
317,1.58, 2017/11/15 11:58:59.544上午,16.19,4.29,187,47.61,8.16,-1,-1,20.95,8.65,31.87,8.45
318,1.585, 2017/11/15 11:58:59.549上午,16.21,4.34,191,47.72,8.22,-1,-1,20.84,8.76,31.92,8.54
319,1.59, 2017/11/15 11:58:59.554上午,16.24,4.45,178,47.63,8.31,-1,-1,20.85,9.08,31.97,8.76
320,1.595, 2017/11/15 11:58:59.559上午,15.87,4.34,179,47.38,8.27,-1,-1,21.05,8.72,31.25,8.54
321,1.6, 2017/11/15 11:58:59.564上午,16.43,4.32,178,47.47,8.11,-1,-1,21.09,8.8,32.33,8.5
322,1.605, 2017/11/15 11:58:59.569上午,15.66,4.53,164,47.58,8.9,-1,-1,21.06,8.94,30.83,8.92
323,1.61, 2017/11/15 11:58:59.574上午,16.21,4.31,191,47.12,8.26,-1,-1,20.91,8.66,31.92,8.49
324,1.615, 2017/11/15 11:58:59.579上午,15.45,4.36,177,47.15,8.23,-1,-1,20.91,8.78,30.41,8.58
325,1.62, 2017/11/15 11:58:59.584上午,16.3,4.33,190,48.01,8.18,-1,-1,20.82,8.77,32.09,8.52
326,1.625, 2017/11/15 11:58:59.589上午,14.93,4.48,168,47.18,8.87,-1,-1,20.94,8.8,29.38,8.82
327,1.63, 2017/11/15 11:58:59.594上午,15.95,4.3,185,47.31,8.19,-1,-1,20.91,8.66,31.4,8.47
328,1.635, 2017/11/15 11:58:59.599上午,15.86,4.35,169,47.93,8.41,-1,-1,21.18,8.66,31.21,8.56
329,1.64, 2017/11/15 11:58:59.604上午,16.96,4.35,203,47.75,8.45,-1,-1,20.89,8.65,33.39,8.56
330,1.645, 2017/11/15 11:58:59.609上午,15.87,4.36,177,47.36,8.25,-1,-1,21,8.78,31.24,8.58
331,1.65, 2017/11/15 11:58:59.614上午,15.98,4.34,167,47.89,8.39,-1,-1,21.1,8.64,31.46,8.54
332,1.655, 2017/11/15 11:58:59.619上午,16.86,4.37,192,47.66,8.2,-1,-1,20.85,8.93,33.19,8.59
333,1.66, 2017/11/15 11:58:59.624上午,15.4,4.33,169,47.96,8.25,-1,-1,21.07,8.67,30.31,8.53
334,1.665, 2017/11/15 11:58:59.629上午,15.37,4.56,156,47.61,8.69,-1,-1,20.79,9.13,30.25,8.98
335,1.67, 2017/11/15 11:58:59.634上午,15.84,4.29,178,47.36,8.1,-1,-1,20.88,8.67,31.18,8.45
336,1.675, 2017/11/15 11:58:59.639上午,15.24,4.38,176,48.21,8.38,-1,-1,20.87,8.73,30.01,8.62
337,1.68, 2017/11/15 11:58:59.644上午,15.71,4.52,165,47.55,8.89,-1,-1,21.06,8.91,30.93,8.9
338,1.685, 2017/11/15 11:58:59.649上午,15.57,4.39,177,47.58,8.37,-1,-1,20.9,8.8,30.66,8.64
339,1.69, 2017/11/15 11:58:59.654上午,16.13,4.26,173,47.27,8.01,-1,-1,21.04,8.65,31.75,8.39
340,1.695, 2017/11/15 11:58:59.659上午,15.74,4.37,195,47.65,8.32,-1,-1,20.67,8.77,30.99,8.6
341,1.7, 2017/11/15 11:58:59.664上午,15.51,4.35,181,47.89,8.41,-1,-1,20.97,8.64,30.52,8.56
342,1.705, 2017/11/15 11:58:59.669上午,16.74,4.4,187,47.73,8.57,-1,-1,21.08,8.72,32.95,8.65
343,1.71, 2017/11/15 11:58:59.674上午,15.29,4.31,175,47.1,8.19,-1,-1,20.95,8.63,30.09,8.48
344,1.715, 2017/11/15 11:58:59.679上午,15.79,4.34,186,47.44,8.16,-1,-1,20.85,8.78,31.09,8.54
345,1.72, 2017/11/15 11:58:59.684上午,15.39,4.38,179,47.92,8.4,-1,-1,20.87,8.72,30.3,8.61
346,1.725, 2017/11/15 11:58:59.689上午,16.06,4.41,179,47.75,8.57,-1,-1,21.31,8.74,31.61,8.67
347,1.73, 2017/11/15 11:58:59.694上午,16.68,4.35,200,47.56,8.39,-1,-1,20.9,8.69,32.83,8.56
348,1.735, 2017/11/15 11:58:59.699上午,15.37,4.33,174,47.1,8.19,-1,-1,20.93,8.7,30.26,8.52
349,1.74, 2017/11/15 11:58:59.704上午,15.21,4.4,174,47.67,8.63,-1,-1,20.87,8.67,29.95,8.66
350,1.745, 2017/11/15 11:58:59.709上午,15.6,4.41,179,47.9,8.42,-1,-1,20.87,8.84,30.71,8.69
351,1.75, 2017/11/15 11:58:59.714上午,15.8,4.33,178,47.41,8.25,-1,-1,20.88,8.68,31.1,8.52
352,1.755, 2017/11/15 11:58:59.719上午,15.44,4.4,183,47.63,8.35,-1,-1,20.86,8.84,30.39,8.67
353,1.76, 2017/11/15 11:58:59.724上午,15.56,4.3,163,47.61,8.36,-1,-1,21.14,8.53,30.63,8.47
354,1.765, 2017/11/15 11:58:59.729上午,16.16,4.29,187,47.55,8.09,-1,-1,20.9,8.69,31.81,8.45
355,1.77, 2017/11/15 11:58:59.734上午,15.83,4.33,163,47.17,8.26,-1,-1,21.18,8.67,31.15,8.51
356,1.775, 2017/11/15 11:58:59.739上午,15.46,4.38,179,47.88,8.41,-1,-1,20.85,8.76,30.43,8.63
357,1.78, 2017/11/15 11:58:59.744上午,16.76,4.34,194,47.46,8.13,-1,-1,21.08,8.87,32.99,8.54
358,1.785, 2017/11/15 11:58:59.749上午,15.85,4.3,181,47.32,8.13,-1,-1,20.9,8.67,31.19,8.46
359,1.79, 2017/11/15 11:58:59.754上午,16.4,4.28,179,47.47,8.11,-1,-1,21.04,8.67,32.28,8.43
360,1.795, 2017/11/15 11:58:59.759上午,15.4,4.44,178,47.92,8.4,-1,-1,20.76,8.91,30.31,8.73
361,1.8, 2017/11/15 11:58:59.764上午,16.55,4.37,192,47.55,8.28,-1,-1,20.86,8.85,32.58,8.6
362,1.805, 2017/11/15 11:58:59.769上午,16,4.32,191,46.93,8.24,-1,-1,20.94,8.68,31.49,8.5
363,1.81, 2017/11/15 11:58:59.774上午,16.01,4.25,173,47.33,8.08,-1,-1,21.12,8.55,31.52,8.36
364,1.815, 2017/11/15 11:58:59.779上午,15.9,4.32,185,47.34,8.18,-1,-1,20.91,8.7,31.3,8.5
365,1.82, 2017/11/15 11:58:59.784上午,15.5,4.37,166,47.6,8.34,-1,-1,21.03,8.76,30.51,8.61
366,1.825, 2017/11/15 11:58:59.789上午,15.84,4.44,182,47.8,8.6,-1,-1,20.87,8.82,31.19,8.73
367,1.83, 2017/11/15 11:58:59.794上午,16.05,4.27,180,47.54,8.04,-1,-1,20.97,8.65,31.59,8.41
368,1.835, 2017/11/15 11:58:59.799上午,15.83,4.37,186,47.37,8.15,-1,-1,20.8,8.88,31.16,8.6
369,1.84, 2017/11/15 11:58:59.804上午,16.54,4.32,185,47.29,8.17,-1,-1,21.07,8.75,32.56,8.5
370,1.845, 2017/11/15 11:58:59.809上午,15.68,4.29,183,47.43,8.1,-1,-1,20.94,8.64,30.87,8.44
371,1.85, 2017/11/15 11:58:59.814上午,16.5,4.29,194,47.72,8.17,-1,-1,21.07,8.65,32.48,8.44
372,1.855, 2017/11/15 11:58:59.819上午,16.28,4.33,197,47.63,8.24,-1,-1,20.9,8.74,32.06,8.53
373,1.86, 2017/11/15 11:58:59.824上午,16.09,4.37,183,47.7,8.54,-1,-1,21.05,8.63,31.67,8.6
374,1.865, 2017/11/15 11:58:59.829上午,15.59,4.32,176,47.71,8.3,-1,-1,20.85,8.63,30.69,8.51
375,1.87, 2017/11/15 11:58:59.834上午,15.87,4.45,162,47.55,8.89,-1,-1,21.23,8.67,31.24,8.75
376,1.875, 2017/11/15 11:58:59.839上午,16.13,4.52,173,47.8,8.6,-1,-1,20.88,9.1,31.76,8.9
377,1.88, 2017/11/15 11:58:59.844上午,15.9,4.3,172,47.38,8.27,-1,-1,21.07,8.58,31.29,8.46
378,1.885, 2017/11/15 11:58:59.849上午,15.68,4.3,185,47.42,8.11,-1,-1,20.9,8.66,30.87,8.46
379,1.89, 2017/11/15 11:58:59.854上午,16.38,4.3,179,48.28,8.36,-1,-1,21.21,8.54,32.24,8.46
380,1.895, 2017/11/15 11:58:59.859上午,15.62,4.39,182,47.41,8.45,-1,-1,20.86,8.75,30.76,8.64
381,1.9, 2017/11/15 11:58:59.864上午,16.05,4.27,174,47.36,8.1,-1,-1,21.04,8.6,31.59,8.4
382,1.905, 2017/11/15 11:58:59.869上午,15.71,4.34,190,47.9,8.1,-1,-1,20.91,8.82,30.93,8.55
383,1.91, 2017/11/15 11:58:59.874上午,15.75,4.41,177,47.82,8.51,-1,-1,20.86,8.8,31.01,8.69
384,1.915, 2017/11/15 11:58:59.879上午,15.59,4.33,172,47.32,8.36,-1,-1,20.91,8.63,30.7,8.53
385,1.92, 2017/11/15 11:58:59.884上午,15.36,4.3,178,47.14,8.21,-1,-1,20.91,8.59,30.24,8.46
386,1.925, 2017/11/15 11:58:59.889上午,15.91,4.32,173,47.87,8.42,-1,-1,21.21,8.55,31.32,8.5
387,1.93, 2017/11/15 11:58:59.894上午,16.11,4.31,189,47.52,8.09,-1,-1,20.88,8.76,31.71,8.49
388,1.935, 2017/11/15 11:58:59.899上午,15.88,4.31,180,47.39,8.15,-1,-1,20.87,8.71,31.25,8.49
389,1.94, 2017/11/15 11:58:59.904上午,15.29,4.42,172,48.23,8.36,-1,-1,20.83,8.87,30.09,8.7
390,1.945, 2017/11/15 11:58:59.909上午,16.04,4.29,181,47.61,8.28,-1,-1,21.08,8.55,31.58,8.44
391,1.95, 2017/11/15 11:58:59.914上午,15.51,4.34,186,47.43,8.08,-1,-1,20.89,8.82,30.54,8.55
392,1.955, 2017/11/15 11:58:59.919上午,16.95,4.32,186,47.89,8.36,-1,-1,21.23,8.64,33.37,8.51
393,1.96, 2017/11/15 11:58:59.924上午,15.92,4.33,176,47.61,8.37,-1,-1,21.06,8.63,31.33,8.53
394,1.965, 2017/11/15 11:58:59.929上午,15.78,4.26,184,47.38,8.16,-1,-1,21.1,8.53,31.06,8.39
395,1.97, 2017/11/15 11:58:59.934上午,16.04,4.46,179,47.8,8.6,-1,-1,21.15,8.91,31.58,8.79
396,1.975, 2017/11/15 11:58:59.939上午,15.88,4.3,181,47.29,8.19,-1,-1,20.94,8.65,31.26,8.47
397,1.98, 2017/11/15 11:58:59.944上午,15.29,4.35,173,47.1,8.19,-1,-1,20.9,8.76,30.1,8.56
398,1.985, 2017/11/15 11:58:59.949上午,16.15,4.32,194,48.03,8.16,-1,-1,20.86,8.74,31.79,8.51
399,1.99, 2017/11/15 11:58:59.954上午,15.59,4.41,188,47.84,8.52,-1,-1,20.89,8.76,30.69,8.67
400,1.995, 2017/11/15 11:58:59.959上午,15.86,4.35,179,47.54,8.45,-1,-1,20.93,8.65,31.23,8.57
401,2, 2017/11/15 11:58:59.964上午,15.25,4.34,180,47.14,8.23,-1,-1,20.89,8.69,30.03,8.53
402,2.005, 2017/11/15 11:58:59.969上午,15.49,4.36,179,47.93,8.44,-1,-1,20.93,8.67,30.5,8.59
403,2.01, 2017/11/15 11:58:59.974上午,15.86,4.4,181,47.75,8.57,-1,-1,20.85,8.71,31.22,8.66
404,2.015, 2017/11/15 11:58:59.979上午,15.33,4.37,165,47.61,8.61,-1,-1,21.05,8.61,30.17,8.61
405,2.02, 2017/11/15 11:58:59.984上午,15.69,4.31,188,47.33,8.11,-1,-1,20.94,8.7,30.89,8.48
406,2.025, 2017/11/15 11:58:59.989上午,15.97,4.36,169,47.89,8.41,-1,-1,21.21,8.69,31.44,8.58
407,2.03, 2017/11/15 11:58:59.994上午,16.04,4.37,190,47.6,8.38,-1,-1,20.86,8.75,31.57,8.61
408,2.035, 2017/11/15 11:58:59.999上午,16.1,4.29,185,47.45,8.09,-1,-1,20.93,8.7,31.7,8.45
409,2.04, 2017/11/15 11:59:00.004上午,15.44,4.36,179,48.04,8.37,-1,-1,20.93,8.69,30.39,8.58
410,2.045, 2017/11/15 11:59:00.009上午,15.77,4.35,187,48.16,8.34,-1,-1,20.85,8.7,31.05,8.57
411,2.05, 2017/11/15 11:59:00.014上午,15.41,4.26,173,47.1,8.2,-1,-1,21.06,8.48,30.33,8.38
412,2.055, 2017/11/15 11:59:00.019上午,15.9,4.34,186,47.49,8.07,-1,-1,21.12,8.83,31.3,8.54
413,2.06, 2017/11/15 11:59:00.024上午,15.79,4.45,188,47.77,8.58,-1,-1,21.01,8.86,31.09,8.75
414,2.065, 2017/11/15 11:59:00.029上午,15.71,4.35,179,47.62,8.37,-1,-1,20.93,8.69,30.92,8.57
415,2.07, 2017/11/15 11:59:00.034上午,16.01,4.26,188,47.45,8.09,-1,-1,20.92,8.58,31.52,8.38
416,2.075, 2017/11/15 11:59:00.039上午,15.54,4.41,183,47.79,8.49,-1,-1,20.95,8.8,30.59,8.69
417,2.08, 2017/11/15 11:59:00.044上午,15.24,4.31,172,47.05,8.19,-1,-1,20.95,8.64,29.99,8.49
418,2.085, 2017/11/15 11:59:00.049上午,15.82,4.25,180,47.5,8.03,-1,-1,20.9,8.58,31.14,8.37
419,2.09, 2017/11/15 11:59:00.054上午,15.32,4.37,167,47.64,8.34,-1,-1,21.04,8.74,30.16,8.6
420,2.095, 2017/11/15 11:59:00.059上午,16.3,4.53,170,47.75,8.57,-1,-1,21.08,9.16,32.1,8.92
421,2.1, 2017/11/15 11:59:00.064上午,15.89,4.33,186,46.92,8.25,-1,-1,20.87,8.71,31.29,8.53
422,2.105, 2017/11/15 11:59:00.069上午,15.33,4.3,175,47.12,8.26,-1,-1,20.95,8.59,30.18,8.47
423,2.11, 2017/11/15 11:59:00.074上午,15.25,4.41,179,47.92,8.4,-1,-1,20.87,8.84,30.02,8.69
424,2.115, 2017/11/15 11:59:00.079上午,16.37,4.5,163,47.79,8.47,-1,-1,21.36,9.11,32.23,8.85
425,2.12, 2017/11/15 11:59:00.084上午,15.6,4.36,179,47.58,8.34,-1,-1,20.89,8.71,30.71,8.57
426,2.125, 2017/11/15 11:59:00.089上午,15.25,4.33,175,47.13,8.2,-1,-1,20.94,8.69,30.01,8.52
427,2.13, 2017/11/15 11:59:00.094上午,15.32,4.3,164,48.26,8.32,-1,-1,21.16,8.54,30.17,8.46
428,2.135, 2017/11/15 11:59:00.099上午,15.55,4.57,167,47.15,8.62,-1,-1,20.89,9.21,30.61,8.99
429,2.14, 2017/11/15 11:59:00.104上午,15.63,4.37,181,47.31,8.24,-1,-1,20.91,8.81,30.77,8.6
430,2.145, 2017/11/15 11:59:00.109上午,15.09,4.42,168,48.26,8.32,-1,-1,20.81,8.87,29.7,8.69
431,2.15, 2017/11/15 11:59:00.114上午,15.72,4.32,179,47.42,8.25,-1,-1,20.94,8.65,30.95,8.5
432,2.155, 2017/11/15 11:59:00.119上午,15.59,4.36,165,47.13,8.2,-1,-1,21.09,8.81,30.68,8.58
433,2.16, 2017/11/15 11:59:00.124上午,15.24,4.46,176,47.5,8.84,-1,-1,20.86,8.74,30,8.77
434,2.165, 2017/11/15 11:59:00.129上午,15.65,4.32,177,47.38,8.25,-1,-1,20.94,8.66,30.81,8.5
435,2.17, 2017/11/15 11:59:00.134上午,15.26,4.32,177,47.1,8.18,-1,-1,20.91,8.68,30.03,8.5
436,2.175, 2017/11/15 11:59:00.139上午,15.32,4.48,175,47.5,8.84,-1,-1,21.01,8.82,30.15,8.82
437,2.18, 2017/11/15 11:59:00.144上午,15.77,4.38,187,47.22,8.4,-1,-1,20.9,8.76,31.04,8.62
438,2.185, 2017/11/15 11:59:00.149上午,15.3,4.29,176,47.1,8.18,-1,-1,20.96,8.59,30.12,8.45
439,2.19, 2017/11/15 11:59:00.154上午,15.28,4.42,177,48.11,8.35,-1,-1,20.74,8.89,30.09,8.7
440,2.195, 2017/11/15 11:59:00.159上午,15.75,4.44,182,47.81,8.49,-1,-1,21.08,8.9,31.01,8.75
441,2.2, 2017/11/15 11:59:00.164上午,15.66,4.32,177,47.38,8.25,-1,-1,20.92,8.65,30.82,8.5
442,2.205, 2017/11/15 11:59:00.169上午,15.94,4.32,191,47.45,8.08,-1,-1,20.8,8.78,31.38,8.5
443,2.21, 2017/11/15 11:59:00.174上午,15.01,4.45,182,47.66,8.61,-1,-1,20.81,8.85,29.55,8.77
444,2.215, 2017/11/15 11:59:00.179上午,16.06,4.39,185,47.76,8.39,-1,-1,20.81,8.82,31.61,8.65
445,2.22, 2017/11/15 11:59:00.184上午,15.77,4.34,179,47.42,8.25,-1,-1,21.06,8.72,31.04,8.54
446,2.225, 2017/11/15 11:59:00.189上午,15.9,4.34,197,47.63,8.17,-1,-1,20.94,8.79,31.3,8.55
447,2.23, 2017/11/15 11:59:00.194上午,15.01,4.34,181,47.53,8.43,-1,-1,21.03,8.6,29.55,8.55
448,2.235, 2017/11/15 11:59:00.199上午,15.27,4.35,172,47.07,8.17,-1,-1,20.88,8.79,30.06,8.57
449,2.24, 2017/11/15 11:59:00.204上午,15.6,4.35,182,47.5,8.12,-1,-1,20.85,8.84,30.71,8.57
450,2.245, 2017/11/15 11:59:00.209上午,14.89,4.44,175,47.54,8.75,-1,-1,20.81,8.73,29.31,8.74
451,2.25, 2017/11/15 11:59:00.214上午,14.84,4.31,170,46.93,8.21,-1,-1,20.98,8.62,29.22,8.49
452,2.255, 2017/11/15 11:59:00.219上午,15.08,4.35,183,47.12,8.22,-1,-1,20.98,8.73,29.69,8.56
453,2.26, 2017/11/15 11:59:00.224上午,15.24,4.43,181,47.52,8.86,-1,-1,20.92,8.65,29.99,8.72
454,2.265, 2017/11/15 11:59:00.229上午,15.63,4.31,177,47.18,8.12,-1,-1,20.93,8.71,30.78,8.49
455,2.27, 2017/11/15 11:59:00.234上午,14.76,4.44,164,47.19,8.54,-1,-1,20.94,8.83,29.06,8.74
456,2.275, 2017/11/15 11:59:00.239上午,15.21,4.43,183,47.51,8.86,-1,-1,20.98,8.65,29.94,8.72
457,2.28, 2017/11/15 11:59:00.244上午,15.55,4.35,181,47.37,8.27,-1,-1,20.93,8.75,30.61,8.57
458,2.285, 2017/11/15 11:59:00.249上午,15.36,4.27,172,47.12,8.22,-1,-1,20.95,8.5,30.25,8.4
459,2.29, 2017/11/15 11:59:00.254上午,15.2,4.37,176,48.3,8.3,-1,-1,20.87,8.76,29.92,8.61
460,2.295, 2017/11/15 11:59:00.259上午,15.19,4.46,176,47.52,8.77,-1,-1,21.09,8.79,29.91,8.79
461,2.3, 2017/11/15 11:59:00.264上午,15.35,4.42,175,47.04,8.69,-1,-1,20.9,8.7,30.21,8.69
462,2.305, 2017/11/15 11:59:00.269上午,15.37,4.33,172,47.12,8.22,-1,-1,20.91,8.68,30.25,8.52
463,2.31, 2017/11/15 11:59:00.274上午,15.3,4.38,175,48.29,8.32,-1,-1,20.83,8.78,30.12,8.62
464,2.315, 2017/11/15 11:59:00.279上午,15.16,4.46,171,47.52,8.76,-1,-1,21.03,8.8,29.84,8.79
465,2.32, 2017/11/15 11:59:00.284上午,15.66,4.32,178,47.46,8.36,-1,-1,20.91,8.59,30.84,8.51
466,2.325, 2017/11/15 11:59:00.289上午,15.34,4.33,174,47.12,8.22,-1,-1,20.99,8.68,30.2,8.52
467,2.33, 2017/11/15 11:59:00.294上午,15.63,4.39,177,47.37,8.31,-1,-1,20.84,8.84,30.77,8.64
468,2.335, 2017/11/15 11:59:00.299上午,15.67,4.43,190,46.99,8.51,-1,-1,20.87,8.86,30.85,8.72
469,2.34, 2017/11/15 11:59:00.304上午,14.8,4.33,179,47.19,8.61,-1,-1,20.99,8.49,29.14,8.53
470,2.345, 2017/11/15 11:59:00.309上午,14.98,4.42,173,48.23,8.34,-1,-1,20.77,8.86,29.49,8.69
471,2.35, 2017/11/15 11:59:00.314上午,15.32,4.37,172,47.76,8.59,-1,-1,20.91,8.6,30.16,8.6
472,2.355, 2017/11/15 11:59:00.319上午,14.68,4.35,171,47.48,8.36,-1,-1,20.85,8.66,28.89,8.57
473,2.36, 2017/11/15 11:59:00.324上午,15.39,4.4,179,48.03,8.53,-1,-1,20.87,8.75,30.29,8.67
474,2.365, 2017/11/15 11:59:00.329上午,15.72,4.32,176,47.51,8.22,-1,-1,20.92,8.69,30.95,8.51
475,2.37, 2017/11/15 11:59:00.334上午,15.14,4.36,183,47.2,8.19,-1,-1,20.9,8.77,29.8,8.57
476,2.375, 2017/11/15 11:59:00.339上午,15.04,4.47,180,47.57,8.79,-1,-1,20.93,8.82,29.61,8.81
477,2.38, 2017/11/15 11:59:00.344上午,15.08,4.46,169,47.44,8.65,-1,-1,20.92,8.83,29.69,8.77
478,2.385, 2017/11/15 11:59:00.349上午,15.49,4.35,183,47.37,8.26,-1,-1,20.89,8.72,30.49,8.56
479,2.39, 2017/11/15 11:59:00.354上午,15.57,4.34,191,47.73,8.27,-1,-1,20.93,8.71,30.66,8.55
480,2.395, 2017/11/15 11:59:00.359上午,15.57,4.46,185,47.81,8.49,-1,-1,20.86,8.93,30.65,8.77
481,2.4, 2017/11/15 11:59:00.364上午,15.61,4.38,179,47.37,8.27,-1,-1,20.92,8.83,30.72,8.62
482,2.405, 2017/11/15 11:59:00.369上午,14.77,4.35,169,47.48,8.36,-1,-1,20.96,8.64,29.08,8.55
483,2.41, 2017/11/15 11:59:00.374上午,13.97,4.4,171,47.62,8.52,-1,-1,20.88,8.71,27.5,8.66
484,2.415, 2017/11/15 11:59:00.379上午,15.9,4.42,193,47.4,8.63,-1,-1,20.95,8.74,31.29,8.69
485,2.42, 2017/11/15 11:59:00.384上午,15.48,4.36,184,47.37,8.27,-1,-1,20.9,8.77,30.48,8.59
486,2.425, 2017/11/15 11:59:00.389上午,15.07,4.36,181,47.64,8.34,-1,-1,20.72,8.72,29.67,8.59
487,2.43, 2017/11/15 11:59:00.394上午,14.55,4.46,169,47.13,8.76,-1,-1,20.94,8.8,28.65,8.79
488,2.435, 2017/11/15 11:59:00.399上午,15.07,4.43,170,47.55,8.6,-1,-1,20.86,8.77,29.67,8.72
489,2.44, 2017/11/15 11:59:00.404上午,14.7,4.34,171,47.95,8.25,-1,-1,20.89,8.68,28.93,8.55
490,2.445, 2017/11/15 11:59:00.409上午,14.65,4.37,168,48,8.59,-1,-1,21.02,8.6,28.84,8.59
491,2.45, 2017/11/15 11:59:00.414上午,15.4,4.37,172,47.41,8.45,-1,-1,21.07,8.69,30.32,8.61
492,2.455, 2017/11/15 11:59:00.419上午,15.15,4.43,179,47.53,8.37,-1,-1,20.87,8.89,29.81,8.72
493,2.46, 2017/11/15 11:59:00.424上午,14.63,4.29,167,47.93,8.26,-1,-1,20.92,8.53,28.8,8.45
494,2.465, 2017/11/15 11:59:00.429上午,15.62,4.32,179,47.37,8.27,-1,-1,20.91,8.63,30.75,8.5
495,2.47, 2017/11/15 11:59:00.434上午,15.36,4.36,177,47.12,8.24,-1,-1,21.09,8.76,30.23,8.58
496,2.475, 2017/11/15 11:59:00.439上午,15.08,4.49,185,47.56,8.88,-1,-1,20.88,8.81,29.69,8.83
497,2.48, 2017/11/15 11:59:00.444上午,15.4,4.4,177,47.36,8.36,-1,-1,20.8,8.84,30.31,8.67
498,2.485, 2017/11/15 11:59:00.449上午,15.51,4.31,171,47.09,8.2,-1,-1,21.02,8.64,30.53,8.48
499,2.49, 2017/11/15 11:59:00.454上午,15.24,4.31,176,47.64,8.05,-1,-1,21.07,8.71,30.01,8.49
500,2.495, 2017/11/15 11:59:00.459上午,14.84,4.42,181,47.57,8.78,-1,-1,21.04,8.65,29.22,8.69
501,2.5, 2017/11/15 11:59:00.464上午,16.26,4.3,199,47.56,8.23,-1,-1,20.91,8.63,32,8.46
502,2.505, 2017/11/15 11:59:00.469上午,15.68,4.3,181,47.4,8.27,-1,-1,21.01,8.58,30.87,8.46
503,2.51, 2017/11/15 11:59:00.474上午,15.43,4.38,185,47.39,8.14,-1,-1,20.87,8.89,30.37,8.62
504,2.515, 2017/11/15 11:59:00.479上午,14.8,4.38,175,47.6,8.71,-1,-1,20.95,8.59,29.13,8.63
505,2.52, 2017/11/15 11:59:00.484上午,15.86,4.36,177,47.4,8.44,-1,-1,20.91,8.67,31.22,8.58
506,2.525, 2017/11/15 11:59:00.489上午,15.19,4.33,176,47.04,8.19,-1,-1,20.91,8.7,29.9,8.52
507,2.53, 2017/11/15 11:59:00.494上午,15.31,4.42,172,47.53,8.87,-1,-1,21.25,8.62,30.15,8.7
508,2.535, 2017/11/15 11:59:00.499上午,16.35,4.29,201,47.85,8.34,-1,-1,20.91,8.52,32.19,8.45
509,2.54, 2017/11/15 11:59:00.504上午,14.66,4.35,171,47.43,8.37,-1,-1,20.94,8.66,28.86,8.57
510,2.545, 2017/11/15 11:59:00.509上午,14.46,4.39,169,48,8.68,-1,-1,21.03,8.63,28.46,8.64
511,2.55, 2017/11/15 11:59:00.514上午,15.25,4.47,173,47.55,8.89,-1,-1,20.86,8.75,30.02,8.8
512,2.555, 2017/11/15 11:59:00.519上午,15.48,4.29,183,47.36,8.18,-1,-1,20.91,8.59,30.48,8.44
513,2.56, 2017/11/15 11:59:00.524上午,14.73,4.48,162,47.96,8.63,-1,-1,20.87,8.9,28.99,8.82
514,2.565, 2017/11/15 11:59:00.529上午,16.08,4.34,192,47.9,8.16,-1,-1,20.85,8.8,31.65,8.54
515,2.57, 2017/11/15 11:59:00.534上午,15.5,4.27,189,47.53,8.05,-1,-1,20.88,8.62,30.51,8.42
516,2.575, 2017/11/15 11:59:00.539上午,14.18,4.36,162,47.62,8.52,-1,-1,20.93,8.59,27.92,8.58
517,2.58, 2017/11/15 11:59:00.544上午,14.94,4.44,175,47.57,8.77,-1,-1,20.86,8.71,29.41,8.73
518,2.585, 2017/11/15 11:59:00.549上午,15.23,4.31,176,47.3,8.29,-1,-1,20.93,8.58,29.99,8.48
519,2.59, 2017/11/15 11:59:00.554上午,14.88,4.38,184,47.12,8.25,-1,-1,20.83,8.79,29.28,8.62
520,2.595, 2017/11/15 11:59:00.559上午,14.49,4.42,171,47.95,8.61,-1,-1,20.98,8.73,28.52,8.69
521,2.6, 2017/11/15 11:59:00.564上午,15.01,4.4,176,47.55,8.8,-1,-1,20.95,8.59,29.55,8.66
522,2.605, 2017/11/15 11:59:00.569上午,15.37,4.33,171,47.04,8.19,-1,-1,21.09,8.69,30.26,8.51
523,2.61, 2017/11/15 11:59:00.574上午,15.21,4.34,174,47.15,8.25,-1,-1,21.12,8.7,29.95,8.54
524,2.615, 2017/11/15 11:59:00.579上午,14.83,4.34,160,47.41,8.72,-1,-1,21.21,8.47,29.19,8.55
525,2.62, 2017/11/15 11:59:00.584上午,15.96,4.34,185,47.51,8.37,-1,-1,20.93,8.66,31.41,8.55
526,2.625, 2017/11/15 11:59:00.589上午,15.12,4.33,180,47.1,8.22,-1,-1,21.02,8.68,29.77,8.53
527,2.63, 2017/11/15 11:59:00.594上午,15.17,4.4,185,47.52,8.54,-1,-1,20.9,8.73,29.85,8.66
528,2.635, 2017/11/15 11:59:00.599上午,15.51,4.28,184,47.37,8.27,-1,-1,20.98,8.52,30.53,8.43
529,2.64, 2017/11/15 11:59:00.604上午,15.15,4.29,180,47.12,8.22,-1,-1,20.95,8.57,29.83,8.45
530,2.645, 2017/11/15 11:59:00.609上午,15.83,4.39,188,47.63,8.27,-1,-1,20.87,8.86,31.16,8.64
531,2.65, 2017/11/15 11:59:00.614上午,15.59,4.31,179,47.18,8.12,-1,-1,20.91,8.7,30.69,8.49
532,2.655, 2017/11/15 11:59:00.619上午,14.57,4.42,169,47.41,8.73,-1,-1,20.86,8.68,28.68,8.7
533,2.66, 2017/11/15 11:59:00.624上午,14.49,4.44,161,47.24,8.68,-1,-1,20.91,8.77,28.52,8.75
534,2.665, 2017/11/15 11:59:00.629上午,16,4.38,187,47.78,8.4,-1,-1,20.88,8.75,31.49,8.61
535,2.67, 2017/11/15 11:59:00.634上午,14.48,4.3,177,47.39,8.31,-1,-1,20.92,8.53,28.51,8.47
536,2.675, 2017/11/15 11:59:00.639上午,14.08,4.41,159,47.6,8.63,-1,-1,20.97,8.71,27.71,8.69
537,2.68, 2017/11/15 11:59:00.644上午,16.04,4.37,194,47.59,8.38,-1,-1,20.89,8.75,31.58,8.6
538,2.685, 2017/11/15 11:59:00.649上午,14.97,4.31,184,47.04,8.19,-1,-1,20.89,8.63,29.47,8.48
539,2.69, 2017/11/15 11:59:00.654上午,14.29,4.42,160,47.62,8.55,-1,-1,20.86,8.77,28.14,8.71
540,2.695, 2017/11/15 11:59:00.659上午,15.15,4.47,173,47.55,8.83,-1,-1,20.88,8.78,29.82,8.8
541,2.7, 2017/11/15 11:59:00.664上午,15.67,4.28,180,47.37,8.27,-1,-1,21.09,8.51,30.84,8.42
542,2.705, 2017/11/15 11:59:00.669上午,15.07,4.36,183,47.12,8.22,-1,-1,20.89,8.76,29.67,8.58
543,2.71, 2017/11/15 11:59:00.674上午,14.61,4.41,172,47.92,8.28,-1,-1,20.98,8.84,28.77,8.68
544,2.715, 2017/11/15 11:59:00.679上午,14.57,4.42,169,47.17,8.78,-1,-1,20.93,8.67,28.68,8.7
545,2.72, 2017/11/15 11:59:00.684上午,15.48,4.33,176,47.36,8.36,-1,-1,20.91,8.61,30.47,8.52
546,2.725, 2017/11/15 11:59:00.689上午,15.06,4.34,172,47.01,8.28,-1,-1,20.93,8.67,29.64,8.54
547,2.73, 2017/11/15 11:59:00.694上午,14.83,4.32,181,47.65,8.14,-1,-1,20.91,8.66,29.2,8.5
548,2.735, 2017/11/15 11:59:00.699上午,16.17,4.42,189,47.72,8.49,-1,-1,20.9,8.84,31.83,8.7
549,2.74, 2017/11/15 11:59:00.704上午,15.4,4.31,169,47.33,8.29,-1,-1,21.09,8.6,30.32,8.49
550,2.745, 2017/11/15 11:59:00.709上午,15.2,4.39,172,48.22,8.35,-1,-1,20.86,8.78,29.92,8.64
551,2.75, 2017/11/15 11:59:00.714上午,15.24,4.44,175,47.46,8.68,-1,-1,20.87,8.76,30.01,8.73
552,2.755, 2017/11/15 11:59:00.719上午,15.08,4.32,174,47.03,8.28,-1,-1,20.97,8.63,29.68,8.51
553,2.76, 2017/11/15 11:59:00.724上午,14.88,4.41,177,47.57,8.82,-1,-1,20.85,8.61,29.28,8.68
554,2.765, 2017/11/15 11:59:00.729上午,15.67,4.36,182,47.33,8.44,-1,-1,20.89,8.68,30.85,8.59
555,2.77, 2017/11/15 11:59:00.734上午,15.83,4.3,183,47.31,8.27,-1,-1,20.99,8.58,31.15,8.46
556,2.775, 2017/11/15 11:59:00.739上午,15.43,4.45,159,47.52,8.79,-1,-1,21.26,8.75,30.38,8.76
557,2.78, 2017/11/15 11:59:00.744上午,14.85,4.41,166,47.53,8.54,-1,-1,20.88,8.76,29.23,8.69
558,2.785, 2017/11/15 11:59:00.749上午,14.72,4.34,172,47.48,8.36,-1,-1,20.98,8.63,28.97,8.55
559,2.79, 2017/11/15 11:59:00.754上午,14.61,4.36,178,47.95,8.29,-1,-1,20.94,8.69,28.76,8.58
560,2.795, 2017/11/15 11:59:00.759上午,16.02,4.4,195,47.59,8.37,-1,-1,20.93,8.84,31.53,8.65
561,2.8, 2017/11/15 11:59:00.764上午,15.3,4.3,173,47.14,8.19,-1,-1,20.97,8.62,30.12,8.47
562,2.805, 2017/11/15 11:59:00.769上午,15.15,4.31,185,47.1,8.26,-1,-1,20.89,8.61,29.83,8.49
563,2.81, 2017/11/15 11:59:00.774上午,14.94,4.36,180,47.57,8.81,-1,-1,20.98,8.48,29.41,8.58
564,2.815, 2017/11/15 11:59:00.779上午,15.27,4.41,180,47.29,8.59,-1,-1,20.91,8.75,30.06,8.69
565,2.82, 2017/11/15 11:59:00.784上午,14.79,4.3,170,47.48,8.36,-1,-1,21.05,8.5,29.1,8.46
566,2.825, 2017/11/15 11:59:00.789上午,14.21,4.41,160,47.62,8.52,-1,-1,20.87,8.74,27.97,8.68
567,2.83, 2017/11/15 11:59:00.794上午,15.5,4.43,171,47.49,8.79,-1,-1,20.92,8.68,30.51,8.72
568,2.835, 2017/11/15 11:59:00.799上午,15.21,4.32,179,47.12,8.22,-1,-1,20.98,8.65,29.95,8.51
569,2.84, 2017/11/15 11:59:00.804上午,14.96,4.51,172,47.57,8.79,-1,-1,20.88,8.91,29.45,8.87
570,2.845, 2017/11/15 11:59:00.809上午,16.03,4.34,182,47.21,8.42,-1,-1,21.02,8.63,31.56,8.54
571,2.85, 2017/11/15 11:59:00.814上午,14.17,4.43,162,47.62,8.52,-1,-1,20.88,8.78,27.9,8.71
572,2.855, 2017/11/15 11:59:00.819上午,15.89,4.36,187,47.62,8.29,-1,-1,20.87,8.76,31.28,8.57
573,2.86, 2017/11/15 11:59:00.824上午,14.95,4.35,163,47.61,8.36,-1,-1,20.91,8.66,29.42,8.56
574,2.865, 2017/11/15 11:59:00.829上午,14.74,4.45,153,47.31,8.78,-1,-1,21.14,8.74,29.02,8.75
575,2.87, 2017/11/15 11:59:00.834上午,15.96,4.42,184,47.38,8.79,-1,-1,20.95,8.65,31.42,8.7
576,2.875, 2017/11/15 11:59:00.839上午,14.71,4.36,177,48.08,8.3,-1,-1,20.79,8.71,28.96,8.59
577,2.88, 2017/11/15 11:59:00.844上午,16.06,4.31,174,47.78,8.61,-1,-1,21.24,8.41,31.61,8.49
578,2.885, 2017/11/15 11:59:00.849上午,15.41,4.36,178,47.36,8.35,-1,-1,20.91,8.71,30.34,8.58
579,2.89, 2017/11/15 11:59:00.854上午,15.3,4.28,183,47.58,8.08,-1,-1,20.91,8.62,30.13,8.43
580,2.895, 2017/11/15 11:59:00.859上午,14.92,4.43,170,47.61,8.7,-1,-1,20.87,8.74,29.36,8.73
581,2.9, 2017/11/15 11:59:00.864上午,15.77,4.39,193,47.8,8.43,-1,-1,20.9,8.76,31.05,8.63
582,2.905, 2017/11/15 11:59:00.869上午,15.38,4.3,175,47.09,8.2,-1,-1,20.95,8.63,30.28,8.47
583,2.91, 2017/11/15 11:59:00.874上午,14.02,4.38,169,47.62,8.52,-1,-1,20.85,8.66,27.59,8.63
584,2.915, 2017/11/15 11:59:00.879上午,15.16,4.47,173,47.52,8.88,-1,-1,20.85,8.75,29.85,8.8
585,2.92, 2017/11/15 11:59:00.884上午,15.39,4.37,179,47.36,8.36,-1,-1,20.93,8.73,30.3,8.59
586,2.925, 2017/11/15 11:59:00.889上午,15.26,4.31,177,47.12,8.22,-1,-1,20.97,8.63,30.04,8.49
587,2.93, 2017/11/15 11:59:00.894上午,14.9,4.35,167,48.03,8.21,-1,-1,20.87,8.73,29.33,8.57
588,2.935, 2017/11/15 11:59:00.899上午,15.21,4.43,187,48.02,8.53,-1,-1,20.94,8.83,29.95,8.73
589,2.94, 2017/11/15 11:59:00.904上午,15.16,4.28,178,47.04,8.19,-1,-1,20.98,8.54,29.84,8.42
590,2.945, 2017/11/15 11:59:00.909上午,15.42,4.36,187,47.52,8.11,-1,-1,20.95,8.84,30.36,8.58
591,2.95, 2017/11/15 11:59:00.914上午,15.11,4.44,172,47.57,8.76,-1,-1,20.88,8.74,29.74,8.75
592,2.955, 2017/11/15 11:59:00.919上午,14.85,4.32,164,47.44,8.35,-1,-1,21.02,8.56,29.23,8.5
593,2.96, 2017/11/15 11:59:00.924上午,14.96,4.34,188,47.12,8.22,-1,-1,20.91,8.7,29.44,8.55
594,2.965, 2017/11/15 11:59:00.929上午,16.21,4.39,192,47.59,8.37,-1,-1,21.23,8.82,31.91,8.64
595,2.97, 2017/11/15 11:59:00.934上午,15.05,4.33,173,47.01,8.28,-1,-1,20.96,8.63,29.64,8.52
596,2.975, 2017/11/15 11:59:00.939上午,14.82,4.39,167,47.39,8.62,-1,-1,20.95,8.65,29.17,8.64
597,2.98, 2017/11/15 11:59:00.944上午,15.15,4.42,172,47.53,8.87,-1,-1,20.92,8.63,29.82,8.71
598,2.985, 2017/11/15 11:59:00.949上午,15.37,4.41,180,47.51,8.3,-1,-1,20.88,8.88,30.26,8.68
599,2.99, 2017/11/15 11:59:00.954上午,15.16,4.34,178,47.15,8.22,-1,-1,20.95,8.71,29.85,8.55
600,2.995, 2017/11/15 11:59:00.959上午,14.92,4.34,160,47.93,8.26,-1,-1,21.12,8.67,29.36,8.54
@@,,,,,,,,,,,,,
