DATA_TYPE Graph,,,,,,,
VERSION Tekscan Pressure Measurement System 6.70-03,,,,,,,
HARDWARE 00114-3447,,,,,,,
MAP_VERSION 6.5,,,,,,,
HW_TYPE 4,,,,,,,
VersaPogoFsx 0,,,,,,,
檔案名 C:\Users\asus\Desktop\工研院_計畫\收案資料\Subject02\Plantar Pressure\R65B_STAND_RIGHT_1.fsx,,,,,,,
SENSOR_TYPE FSCAN,,,,,,,
ROWS 60,,,,,,,
COLS 21,,,,,,,
ROW_SPACING 0.508 centimeters,,,,,,,
COL_SPACING 0.508 centimeters,,,,,,,
SENSEL_AREA 0.258064 cm2,,,,,,,
NOISE_THRESHOLD 3,,,,,,,
SECONDS_PER_FRAME 0.005,,,,,,,
SECONDS_PER_FRAME 0,,,,,,,
MICRO_SECOND 0,,,,,,,
TIME 2017/11/15 11:32:58.152上午,,,,,,,
SATURATION_PRESSURE 2347.96 KPa ,,,,,,,
CALIBRATION_POINT_1 48.0001 (Kilograms) 1981 (Raw Sum) 199 (Number of Loaded Cells),,,,,,,
CALIBRATION_MODE_1 步態,,,,,,,
CALIBRATION_INFO C:\Users\asus\Desktop\工研院_計畫\收案資料\Subject02\Plantar Pressure\R65B_STAND_RIGHT_1.fsx,,,,,,,
SENSITIVITY 自定義,,,,,,,
MAP_INDEX 0,,,,,,,
SUBMAP 0,,,,,,,
Patient ID: ,,,,,,,
,,,,,,,
Speed of Gait: ,,,,,,,
,,,,,,,
Weight: ,,,,,,,
,,,,,,,
Gender: ,,,,,,,
,,,,,,,
Physician: ,,,,,,,
,,,,,,,
Technician: ,,,,,,,
,,,,,,,
Shoe: ,,,,,,,
,,,,,,,
START_FRAME 1,,,,,,,
END_FRAME 600,,,,,,,
UNITS KPa,,,,,,,
ASCII_DATA @@,,,,,,,
畫面(X), 時間(X), 絕對時間(X), Raw Sum, 峰值壓力(Y:天藍色), 峰值壓力(Y), 峰值壓力(Y), 峰值壓力(Y)
1,0, 2017/11/15 11:32:58.152上午,339,53,68,40,53
2,0.005, 2017/11/15 11:32:58.157上午,345,53,68,40,53
3,0.01, 2017/11/15 11:32:58.162上午,346,51,59,38,51
4,0.015, 2017/11/15 11:32:58.167上午,342,50,100,40,50
5,0.02, 2017/11/15 11:32:58.172上午,357,49,68,43,49
6,0.025, 2017/11/15 11:32:58.177上午,365,51,68,40,51
7,0.03, 2017/11/15 11:32:58.182上午,367,49,64,38,49
8,0.035, 2017/11/15 11:32:58.187上午,360,53,68,40,53
9,0.04, 2017/11/15 11:32:58.192上午,325,53,64,38,53
10,0.045, 2017/11/15 11:32:58.197上午,367,50,64,40,50
11,0.05, 2017/11/15 11:32:58.202上午,348,50,66,40,50
12,0.055, 2017/11/15 11:32:58.207上午,356,51,62,40,51
13,0.06, 2017/11/15 11:32:58.212上午,345,51,58,38,51
14,0.065, 2017/11/15 11:32:58.217上午,365,50,62,40,50
15,0.07, 2017/11/15 11:32:58.222上午,343,53,67,40,53
16,0.075, 2017/11/15 11:32:58.227上午,349,51,67,38,51
17,0.08, 2017/11/15 11:32:58.232上午,349,49,62,37,49
18,0.085, 2017/11/15 11:32:58.237上午,384,52,97,41,52
19,0.09, 2017/11/15 11:32:58.242上午,347,54,63,40,54
20,0.095, 2017/11/15 11:32:58.247上午,369,56,63,38,56
21,0.1, 2017/11/15 11:32:58.252上午,361,51,58,38,51
22,0.105, 2017/11/15 11:32:58.257上午,356,49,67,41,49
23,0.11, 2017/11/15 11:32:58.262上午,352,52,67,39,52
24,0.115, 2017/11/15 11:32:58.267上午,335,51,67,38,51
25,0.12, 2017/11/15 11:32:58.272上午,359,51,63,41,51
26,0.125, 2017/11/15 11:32:58.277上午,352,52,67,39,52
27,0.13, 2017/11/15 11:32:58.282上午,374,52,59,40,52
28,0.135, 2017/11/15 11:32:58.287上午,370,51,63,37,51
29,0.14, 2017/11/15 11:32:58.292上午,378,52,67,41,52
30,0.145, 2017/11/15 11:32:58.297上午,336,54,67,38,54
31,0.15, 2017/11/15 11:32:58.302上午,358,49,61,38,49
32,0.155, 2017/11/15 11:32:58.307上午,363,52,61,41,52
33,0.16, 2017/11/15 11:32:58.312上午,341,52,65,40,52
34,0.165, 2017/11/15 11:32:58.317上午,339,51,57,38,51
35,0.17, 2017/11/15 11:32:58.322上午,351,49,61,37,49
36,0.175, 2017/11/15 11:32:58.327上午,370,52,61,38,52
37,0.18, 2017/11/15 11:32:58.332上午,334,50,61,40,50
38,0.185, 2017/11/15 11:32:58.337上午,350,50,61,38,50
39,0.19, 2017/11/15 11:32:58.342上午,353,49,62,37,49
40,0.195, 2017/11/15 11:32:58.347上午,357,52,62,39,52
41,0.2, 2017/11/15 11:32:58.352上午,346,52,66,39,52
42,0.205, 2017/11/15 11:32:58.357上午,311,50,57,38,50
43,0.21, 2017/11/15 11:32:58.362上午,358,50,57,38,50
44,0.215, 2017/11/15 11:32:58.367上午,364,52,66,41,52
45,0.22, 2017/11/15 11:32:58.372上午,347,52,66,39,52
46,0.225, 2017/11/15 11:32:58.377上午,336,51,58,37,51
47,0.23, 2017/11/15 11:32:58.382上午,364,50,62,41,50
48,0.235, 2017/11/15 11:32:58.387上午,373,54,62,39,54
49,0.24, 2017/11/15 11:32:58.392上午,326,50,58,38,50
50,0.245, 2017/11/15 11:32:58.397上午,360,52,97,38,52
51,0.25, 2017/11/15 11:32:58.402上午,355,54,64,37,54
52,0.255, 2017/11/15 11:32:58.407上午,322,51,56,37,51
53,0.26, 2017/11/15 11:32:58.412上午,381,50,65,37,50
54,0.265, 2017/11/15 11:32:58.417上午,341,54,65,39,54
55,0.27, 2017/11/15 11:32:58.422上午,334,51,56,38,51
56,0.275, 2017/11/15 11:32:58.427上午,335,51,56,37,51
57,0.28, 2017/11/15 11:32:58.432上午,364,50,61,37,50
58,0.285, 2017/11/15 11:32:58.437上午,341,52,65,39,52
59,0.29, 2017/11/15 11:32:58.442上午,350,52,65,39,52
60,0.295, 2017/11/15 11:32:58.447上午,342,49,61,38,49
61,0.3, 2017/11/15 11:32:58.452上午,346,49,61,38,49
62,0.305, 2017/11/15 11:32:58.457上午,369,52,61,40,52
63,0.31, 2017/11/15 11:32:58.462上午,357,53,61,39,53
64,0.315, 2017/11/15 11:32:58.467上午,343,56,65,37,56
65,0.32, 2017/11/15 11:32:58.472上午,344,49,61,38,49
66,0.325, 2017/11/15 11:32:58.477上午,342,53,65,41,53
67,0.33, 2017/11/15 11:32:58.482上午,335,53,61,37,53
68,0.335, 2017/11/15 11:32:58.487上午,352,52,57,38,52
69,0.34, 2017/11/15 11:32:58.492上午,368,52,65,37,52
70,0.345, 2017/11/15 11:32:58.497上午,354,53,65,39,53
71,0.35, 2017/11/15 11:32:58.502上午,332,52,55,38,52
72,0.355, 2017/11/15 11:32:58.507上午,374,52,60,37,52
73,0.36, 2017/11/15 11:32:58.512上午,362,53,60,39,53
74,0.365, 2017/11/15 11:32:58.517上午,345,49,56,38,49
75,0.37, 2017/11/15 11:32:58.522上午,366,52,60,39,52
76,0.375, 2017/11/15 11:32:58.527上午,363,52,64,42,52
77,0.38, 2017/11/15 11:32:58.532上午,358,53,60,39,53
78,0.385, 2017/11/15 11:32:58.537上午,353,53,56,37,53
79,0.39, 2017/11/15 11:32:58.542上午,356,50,60,37,50
80,0.395, 2017/11/15 11:32:58.547上午,349,52,64,39,52
81,0.4, 2017/11/15 11:32:58.552上午,360,53,64,39,53
82,0.405, 2017/11/15 11:32:58.557上午,351,50,56,38,50
83,0.41, 2017/11/15 11:32:58.562上午,356,48,60,40,48
84,0.415, 2017/11/15 11:32:58.567上午,359,53,64,39,53
85,0.42, 2017/11/15 11:32:58.572上午,336,53,60,37,53
86,0.425, 2017/11/15 11:32:58.577上午,365,52,60,37,52
87,0.43, 2017/11/15 11:32:58.582上午,350,53,64,39,53
88,0.435, 2017/11/15 11:32:58.587上午,332,52,56,37,52
89,0.44, 2017/11/15 11:32:58.592上午,368,52,60,37,52
90,0.445, 2017/11/15 11:32:58.597上午,330,53,64,39,53
91,0.45, 2017/11/15 11:32:58.602上午,334,53,55,37,53
92,0.455, 2017/11/15 11:32:58.607上午,347,52,59,37,52
93,0.46, 2017/11/15 11:32:58.612上午,363,53,63,39,53
94,0.465, 2017/11/15 11:32:58.617上午,339,52,55,37,52
95,0.47, 2017/11/15 11:32:58.622上午,362,52,59,36,52
96,0.475, 2017/11/15 11:32:58.627上午,340,52,59,40,52
97,0.48, 2017/11/15 11:32:58.632上午,344,53,59,39,53
98,0.485, 2017/11/15 11:32:58.637上午,355,50,91,36,50
99,0.49, 2017/11/15 11:32:58.642上午,368,50,59,35,50
100,0.495, 2017/11/15 11:32:58.647上午,354,55,63,39,55
101,0.5, 2017/11/15 11:32:58.652上午,335,53,59,37,53
102,0.505, 2017/11/15 11:32:58.657上午,361,50,59,36,50
103,0.51, 2017/11/15 11:32:58.662上午,356,53,63,39,53
104,0.515, 2017/11/15 11:32:58.667上午,341,53,59,39,53
105,0.52, 2017/11/15 11:32:58.672上午,343,50,91,36,50
106,0.525, 2017/11/15 11:32:58.677上午,335,53,64,39,53
107,0.53, 2017/11/15 11:32:58.682上午,339,53,64,37,53
108,0.535, 2017/11/15 11:32:58.687上午,350,50,59,35,50
109,0.54, 2017/11/15 11:32:58.692上午,357,53,64,40,53
110,0.545, 2017/11/15 11:32:58.697上午,343,53,55,37,53
111,0.55, 2017/11/15 11:32:58.702上午,355,53,89,37,53
112,0.555, 2017/11/15 11:32:58.707上午,353,51,63,40,51
113,0.56, 2017/11/15 11:32:58.712上午,329,53,58,39,53
114,0.565, 2017/11/15 11:32:58.717上午,354,48,58,36,48
115,0.57, 2017/11/15 11:32:58.722上午,343,53,63,38,53
116,0.575, 2017/11/15 11:32:58.727上午,349,53,63,39,53
117,0.58, 2017/11/15 11:32:58.732上午,336,53,58,37,53
118,0.585, 2017/11/15 11:32:58.737上午,370,49,59,40,49
119,0.59, 2017/11/15 11:32:58.742上午,363,53,63,40,53
120,0.595, 2017/11/15 11:32:58.747上午,347,55,59,39,55
121,0.6, 2017/11/15 11:32:58.752上午,358,53,55,35,53
122,0.605, 2017/11/15 11:32:58.757上午,364,51,59,36,51
123,0.61, 2017/11/15 11:32:58.762上午,363,53,63,38,53
124,0.615, 2017/11/15 11:32:58.767上午,348,53,63,39,53
125,0.62, 2017/11/15 11:32:58.772上午,351,51,55,37,51
126,0.625, 2017/11/15 11:32:58.777上午,367,51,59,36,51
127,0.63, 2017/11/15 11:32:58.782上午,336,51,63,38,51
128,0.635, 2017/11/15 11:32:58.787上午,334,53,59,37,53
129,0.64, 2017/11/15 11:32:58.792上午,349,50,59,35,50
130,0.645, 2017/11/15 11:32:58.797上午,336,53,59,39,53
131,0.65, 2017/11/15 11:32:58.802上午,349,53,58,39,53
132,0.655, 2017/11/15 11:32:58.807上午,338,51,54,37,51
133,0.66, 2017/11/15 11:32:58.812上午,337,49,58,40,49
134,0.665, 2017/11/15 11:32:58.817上午,336,53,62,39,53
135,0.67, 2017/11/15 11:32:58.822上午,340,51,54,37,51
136,0.675, 2017/11/15 11:32:58.827上午,335,51,58,38,51
137,0.68, 2017/11/15 11:32:58.832上午,352,53,62,37,53
138,0.685, 2017/11/15 11:32:58.837上午,349,49,54,37,49
139,0.69, 2017/11/15 11:32:58.842上午,354,51,58,37,51
140,0.695, 2017/11/15 11:32:58.847上午,340,51,62,38,51
141,0.7, 2017/11/15 11:32:58.852上午,344,55,62,39,55
142,0.705, 2017/11/15 11:32:58.857上午,346,53,58,37,53
143,0.71, 2017/11/15 11:32:58.862上午,359,51,58,35,51
144,0.715, 2017/11/15 11:32:58.867上午,342,49,62,38,49
145,0.72, 2017/11/15 11:32:58.872上午,351,53,62,38,53
146,0.725, 2017/11/15 11:32:58.877上午,341,53,54,37,53
147,0.73, 2017/11/15 11:32:58.882上午,364,51,58,38,51
148,0.735, 2017/11/15 11:32:58.887上午,350,53,62,38,53
149,0.74, 2017/11/15 11:32:58.892上午,327,55,58,37,55
150,0.745, 2017/11/15 11:32:58.897上午,351,49,54,35,49
151,0.75, 2017/11/15 11:32:58.902上午,341,51,61,38,51
152,0.755, 2017/11/15 11:32:58.907上午,347,53,61,38,53
153,0.76, 2017/11/15 11:32:58.912上午,324,53,53,36,53
154,0.765, 2017/11/15 11:32:58.917上午,346,51,87,37,51
155,0.77, 2017/11/15 11:32:58.922上午,361,53,62,38,53
156,0.775, 2017/11/15 11:32:58.927上午,354,53,57,37,53
157,0.78, 2017/11/15 11:32:58.932上午,333,52,57,37,52
158,0.785, 2017/11/15 11:32:58.937上午,352,51,87,36,51
159,0.79, 2017/11/15 11:32:58.942上午,353,49,87,38,49
160,0.795, 2017/11/15 11:32:58.947上午,348,51,62,40,51
161,0.8, 2017/11/15 11:32:58.952上午,353,52,54,37,52
162,0.805, 2017/11/15 11:32:58.957上午,332,52,58,37,52
163,0.81, 2017/11/15 11:32:58.962上午,348,51,88,34,51
164,0.815, 2017/11/15 11:32:58.967上午,352,51,58,38,51
165,0.82, 2017/11/15 11:32:58.972上午,353,52,62,38,52
166,0.825, 2017/11/15 11:32:58.977上午,338,54,62,38,54
167,0.83, 2017/11/15 11:32:58.982上午,345,52,54,36,52
168,0.835, 2017/11/15 11:32:58.987上午,351,51,58,37,51
169,0.84, 2017/11/15 11:32:58.992上午,343,52,62,38,52
170,0.845, 2017/11/15 11:32:58.997上午,338,52,62,38,52
171,0.85, 2017/11/15 11:32:59.002上午,349,52,53,36,52
172,0.855, 2017/11/15 11:32:59.007上午,350,52,57,35,52
173,0.86, 2017/11/15 11:32:59.012上午,339,54,57,38,54
174,0.865, 2017/11/15 11:32:59.017上午,336,54,57,38,54
175,0.87, 2017/11/15 11:32:59.022上午,336,52,53,36,52
176,0.875, 2017/11/15 11:32:59.027上午,362,52,57,34,52
177,0.88, 2017/11/15 11:32:59.032上午,349,51,86,36,51
178,0.885, 2017/11/15 11:32:59.037上午,355,52,61,36,52
179,0.89, 2017/11/15 11:32:59.042上午,350,52,57,38,52
180,0.895, 2017/11/15 11:32:59.047上午,330,52,57,38,52
181,0.9, 2017/11/15 11:32:59.052上午,357,52,53,36,52
182,0.905, 2017/11/15 11:32:59.057上午,358,52,53,36,52
183,0.91, 2017/11/15 11:32:59.062上午,348,51,57,38,51
184,0.915, 2017/11/15 11:32:59.067上午,342,55,61,38,55
185,0.92, 2017/11/15 11:32:59.072上午,364,54,61,36,54
186,0.925, 2017/11/15 11:32:59.077上午,355,52,53,37,52
187,0.93, 2017/11/15 11:32:59.082上午,354,51,57,40,51
188,0.935, 2017/11/15 11:32:59.087上午,371,54,61,38,54
189,0.94, 2017/11/15 11:32:59.092上午,354,54,61,36,54
190,0.945, 2017/11/15 11:32:59.097上午,341,52,53,35,52
191,0.95, 2017/11/15 11:32:59.102上午,363,51,60,38,51
192,0.955, 2017/11/15 11:32:59.107上午,346,52,61,38,52
193,0.96, 2017/11/15 11:32:59.112上午,331,52,56,37,52
194,0.965, 2017/11/15 11:32:59.117上午,361,52,56,36,52
195,0.97, 2017/11/15 11:32:59.122上午,376,51,56,38,51
196,0.975, 2017/11/15 11:32:59.127上午,345,52,61,38,52
197,0.98, 2017/11/15 11:32:59.132上午,347,52,61,38,52
198,0.985, 2017/11/15 11:32:59.137上午,332,52,61,38,52
199,0.99, 2017/11/15 11:32:59.142上午,353,52,86,35,52
200,0.995, 2017/11/15 11:32:59.147上午,358,52,57,35,52
201,1, 2017/11/15 11:32:59.152上午,348,54,61,38,54
202,1.005, 2017/11/15 11:32:59.157上午,360,54,61,38,54
203,1.01, 2017/11/15 11:32:59.162上午,332,52,57,38,52
204,1.015, 2017/11/15 11:32:59.167上午,353,51,57,37,51
205,1.02, 2017/11/15 11:32:59.172上午,340,52,57,38,52
206,1.025, 2017/11/15 11:32:59.177上午,340,52,57,38,52
207,1.03, 2017/11/15 11:32:59.182上午,348,52,57,36,52
208,1.035, 2017/11/15 11:32:59.187上午,363,52,53,36,52
209,1.04, 2017/11/15 11:32:59.192上午,335,51,57,38,51
210,1.045, 2017/11/15 11:32:59.197上午,340,54,61,38,54
211,1.05, 2017/11/15 11:32:59.202上午,333,54,56,36,54
212,1.055, 2017/11/15 11:32:59.207上午,356,52,52,37,52
213,1.06, 2017/11/15 11:32:59.212上午,357,51,56,38,51
214,1.065, 2017/11/15 11:32:59.217上午,345,54,60,38,54
215,1.07, 2017/11/15 11:32:59.222上午,350,54,60,38,54
216,1.075, 2017/11/15 11:32:59.227上午,336,51,52,38,51
217,1.08, 2017/11/15 11:32:59.232上午,363,52,56,36,52
218,1.085, 2017/11/15 11:32:59.237上午,369,50,60,38,50
219,1.09, 2017/11/15 11:32:59.242上午,356,54,56,38,54
220,1.095, 2017/11/15 11:32:59.247上午,345,52,56,38,52
221,1.1, 2017/11/15 11:32:59.252上午,354,52,52,38,52
222,1.105, 2017/11/15 11:32:59.257上午,365,50,60,38,50
223,1.11, 2017/11/15 11:32:59.262上午,344,52,60,38,52
224,1.115, 2017/11/15 11:32:59.267上午,336,52,56,36,52
225,1.12, 2017/11/15 11:32:59.272上午,361,52,52,38,52
226,1.125, 2017/11/15 11:32:59.277上午,362,50,60,39,50
227,1.13, 2017/11/15 11:32:59.282上午,350,54,60,38,54
228,1.135, 2017/11/15 11:32:59.287上午,368,50,56,34,50
229,1.14, 2017/11/15 11:32:59.292上午,361,50,56,39,50
230,1.145, 2017/11/15 11:32:59.297上午,347,54,61,36,54
231,1.15, 2017/11/15 11:32:59.302上午,355,49,56,36,49
232,1.155, 2017/11/15 11:32:59.307上午,348,49,60,38,49
233,1.16, 2017/11/15 11:32:59.312上午,340,54,56,36,54
234,1.165, 2017/11/15 11:32:59.317上午,360,52,56,38,52
235,1.17, 2017/11/15 11:32:59.322上午,352,50,56,39,50
236,1.175, 2017/11/15 11:32:59.327上午,336,50,60,38,50
237,1.18, 2017/11/15 11:32:59.332上午,327,52,52,38,52
238,1.185, 2017/11/15 11:32:59.337上午,352,50,52,38,50
239,1.19, 2017/11/15 11:32:59.342上午,366,50,56,36,50
240,1.195, 2017/11/15 11:32:59.347上午,339,52,60,38,52
241,1.2, 2017/11/15 11:32:59.352上午,363,54,60,38,54
242,1.205, 2017/11/15 11:32:59.357上午,328,52,52,36,52
243,1.21, 2017/11/15 11:32:59.362上午,334,50,52,36,50
244,1.215, 2017/11/15 11:32:59.367上午,356,47,56,32,47
245,1.22, 2017/11/15 11:32:59.372上午,357,52,60,38,52
246,1.225, 2017/11/15 11:32:59.377上午,342,54,60,38,54
247,1.23, 2017/11/15 11:32:59.382上午,344,50,52,38,50
248,1.235, 2017/11/15 11:32:59.387上午,375,50,56,38,50
249,1.24, 2017/11/15 11:32:59.392上午,351,50,60,38,50
250,1.245, 2017/11/15 11:32:59.397上午,341,52,56,36,52
251,1.25, 2017/11/15 11:32:59.402上午,357,49,55,36,49
252,1.255, 2017/11/15 11:32:59.407上午,367,50,55,38,50
253,1.26, 2017/11/15 11:32:59.412上午,348,54,55,38,54
254,1.265, 2017/11/15 11:32:59.417上午,327,49,52,36,49
255,1.27, 2017/11/15 11:32:59.422上午,350,49,55,37,49
256,1.275, 2017/11/15 11:32:59.427上午,357,49,55,35,49
257,1.28, 2017/11/15 11:32:59.432上午,357,50,60,38,50
258,1.285, 2017/11/15 11:32:59.437上午,353,52,60,38,52
259,1.29, 2017/11/15 11:32:59.442上午,333,54,60,38,54
260,1.295, 2017/11/15 11:32:59.447上午,355,49,83,36,49
261,1.3, 2017/11/15 11:32:59.452上午,369,49,83,36,49
262,1.305, 2017/11/15 11:32:59.457上午,354,50,60,38,50
263,1.31, 2017/11/15 11:32:59.462上午,349,52,60,38,52
264,1.315, 2017/11/15 11:32:59.467上午,328,50,52,36,50
265,1.32, 2017/11/15 11:32:59.472上午,373,50,59,38,50
266,1.325, 2017/11/15 11:32:59.477上午,341,50,60,39,50
267,1.33, 2017/11/15 11:32:59.482上午,324,50,56,38,50
268,1.335, 2017/11/15 11:32:59.487上午,318,49,52,36,49
269,1.34, 2017/11/15 11:32:59.492上午,358,49,84,34,49
270,1.345, 2017/11/15 11:32:59.497上午,352,50,60,39,50
271,1.35, 2017/11/15 11:32:59.502上午,355,50,55,38,50
272,1.355, 2017/11/15 11:32:59.507上午,347,49,51,36,49
273,1.36, 2017/11/15 11:32:59.512上午,363,49,82,36,49
274,1.365, 2017/11/15 11:32:59.517上午,361,50,59,39,50
275,1.37, 2017/11/15 11:32:59.522上午,360,50,59,38,50
276,1.375, 2017/11/15 11:32:59.527上午,361,50,59,38,50
277,1.38, 2017/11/15 11:32:59.532上午,342,49,51,37,49
278,1.385, 2017/11/15 11:32:59.537上午,355,49,51,38,49
279,1.39, 2017/11/15 11:32:59.542上午,363,49,51,36,49
280,1.395, 2017/11/15 11:32:59.547上午,358,50,59,39,50
281,1.4, 2017/11/15 11:32:59.552上午,356,49,55,38,49
282,1.405, 2017/11/15 11:32:59.557上午,348,50,59,38,50
283,1.41, 2017/11/15 11:32:59.562上午,355,49,51,38,49
284,1.415, 2017/11/15 11:32:59.567上午,341,49,51,38,49
285,1.42, 2017/11/15 11:32:59.572上午,362,50,83,36,50
286,1.425, 2017/11/15 11:32:59.577上午,353,50,59,39,50
287,1.43, 2017/11/15 11:32:59.582上午,345,52,55,36,52
288,1.435, 2017/11/15 11:32:59.587上午,349,49,52,37,49
289,1.44, 2017/11/15 11:32:59.592上午,368,50,55,39,50
290,1.445, 2017/11/15 11:32:59.597上午,351,50,59,38,50
291,1.45, 2017/11/15 11:32:59.602上午,322,49,51,37,49
292,1.455, 2017/11/15 11:32:59.607上午,360,49,55,36,49
293,1.46, 2017/11/15 11:32:59.612上午,347,50,59,39,50
294,1.465, 2017/11/15 11:32:59.617上午,352,52,55,38,52
295,1.47, 2017/11/15 11:32:59.622上午,329,49,51,38,49
296,1.475, 2017/11/15 11:32:59.627上午,354,49,51,38,49
297,1.48, 2017/11/15 11:32:59.632上午,366,47,59,36,47
298,1.485, 2017/11/15 11:32:59.637上午,355,47,59,38,47
299,1.49, 2017/11/15 11:32:59.642上午,356,48,59,38,48
300,1.495, 2017/11/15 11:32:59.647上午,336,47,51,38,47
301,1.5, 2017/11/15 11:32:59.652上午,356,47,51,38,47
302,1.505, 2017/11/15 11:32:59.657上午,351,48,55,39,48
303,1.51, 2017/11/15 11:32:59.662上午,346,50,59,38,50
304,1.515, 2017/11/15 11:32:59.667上午,351,48,59,38,48
305,1.52, 2017/11/15 11:32:59.672上午,344,48,55,37,48
306,1.525, 2017/11/15 11:32:59.677上午,358,48,82,38,48
307,1.53, 2017/11/15 11:32:59.682上午,349,48,59,39,48
308,1.535, 2017/11/15 11:32:59.687上午,348,52,55,38,52
309,1.54, 2017/11/15 11:32:59.692上午,356,47,55,37,47
310,1.545, 2017/11/15 11:32:59.697上午,365,47,55,39,47
311,1.55, 2017/11/15 11:32:59.702上午,369,48,54,38,48
312,1.555, 2017/11/15 11:32:59.707上午,325,48,51,38,48
313,1.56, 2017/11/15 11:32:59.712上午,358,47,58,37,47
314,1.565, 2017/11/15 11:32:59.717上午,342,50,59,38,50
315,1.57, 2017/11/15 11:32:59.722上午,328,48,55,36,48
316,1.575, 2017/11/15 11:32:59.727上午,342,48,51,38,48
317,1.58, 2017/11/15 11:32:59.732上午,363,47,81,37,47
318,1.585, 2017/11/15 11:32:59.737上午,363,47,59,38,47
319,1.59, 2017/11/15 11:32:59.742上午,344,48,59,38,48
320,1.595, 2017/11/15 11:32:59.747上午,332,47,51,38,47
321,1.6, 2017/11/15 11:32:59.752上午,342,47,55,37,47
322,1.605, 2017/11/15 11:32:59.757上午,348,45,55,41,45
323,1.61, 2017/11/15 11:32:59.762上午,336,48,59,38,48
324,1.615, 2017/11/15 11:32:59.767上午,327,47,51,38,47
325,1.62, 2017/11/15 11:32:59.772上午,356,47,55,37,47
326,1.625, 2017/11/15 11:32:59.777上午,359,47,59,41,47
327,1.63, 2017/11/15 11:32:59.782上午,376,48,59,38,48
328,1.635, 2017/11/15 11:32:59.787上午,363,45,55,37,45
329,1.64, 2017/11/15 11:32:59.792上午,371,46,59,39,46
330,1.645, 2017/11/15 11:32:59.797上午,351,48,55,38,48
331,1.65, 2017/11/15 11:32:59.802上午,356,47,54,37,47
332,1.655, 2017/11/15 11:32:59.807上午,360,47,54,41,47
333,1.66, 2017/11/15 11:32:59.812上午,346,48,58,38,48
334,1.665, 2017/11/15 11:32:59.817上午,322,47,51,37,47
335,1.67, 2017/11/15 11:32:59.822上午,351,45,54,40,45
336,1.675, 2017/11/15 11:32:59.827上午,339,47,58,37,47
337,1.68, 2017/11/15 11:32:59.832上午,351,48,58,37,48
338,1.685, 2017/11/15 11:32:59.837上午,356,47,51,37,47
339,1.69, 2017/11/15 11:32:59.842上午,354,47,51,37,47
340,1.695, 2017/11/15 11:32:59.847上午,346,47,58,41,47
341,1.7, 2017/11/15 11:32:59.852上午,361,48,59,38,48
342,1.705, 2017/11/15 11:32:59.857上午,362,48,54,39,48
343,1.71, 2017/11/15 11:32:59.862上午,346,47,81,37,47
344,1.715, 2017/11/15 11:32:59.867上午,357,45,81,37,45
345,1.72, 2017/11/15 11:32:59.872上午,355,45,59,39,45
346,1.725, 2017/11/15 11:32:59.877上午,343,48,59,37,48
347,1.73, 2017/11/15 11:32:59.882上午,347,45,54,37,45
348,1.735, 2017/11/15 11:32:59.887上午,354,46,54,37,46
349,1.74, 2017/11/15 11:32:59.892上午,362,48,59,38,48
350,1.745, 2017/11/15 11:32:59.897上午,322,46,51,38,46
351,1.75, 2017/11/15 11:32:59.902上午,350,45,58,41,45
352,1.755, 2017/11/15 11:32:59.907上午,346,46,54,40,46
353,1.76, 2017/11/15 11:32:59.912上午,320,45,50,36,45
354,1.765, 2017/11/15 11:32:59.917上午,351,43,80,38,43
355,1.77, 2017/11/15 11:32:59.922上午,353,45,54,39,45
356,1.775, 2017/11/15 11:32:59.927上午,341,45,58,37,45
357,1.78, 2017/11/15 11:32:59.932上午,354,47,58,37,47
358,1.785, 2017/11/15 11:32:59.937上午,347,45,54,38,45
359,1.79, 2017/11/15 11:32:59.942上午,338,46,50,37,46
360,1.795, 2017/11/15 11:32:59.947上午,346,45,58,40,45
361,1.8, 2017/11/15 11:32:59.952上午,338,45,58,39,45
362,1.805, 2017/11/15 11:32:59.957上午,333,47,54,37,47
363,1.81, 2017/11/15 11:32:59.962上午,350,46,81,37,46
364,1.815, 2017/11/15 11:32:59.967上午,344,46,54,36,46
365,1.82, 2017/11/15 11:32:59.972上午,342,45,54,39,45
366,1.825, 2017/11/15 11:32:59.977上午,339,48,58,37,48
367,1.83, 2017/11/15 11:32:59.982上午,347,46,50,37,46
368,1.835, 2017/11/15 11:32:59.987上午,346,43,54,37,43
369,1.84, 2017/11/15 11:32:59.992上午,344,46,58,39,46
370,1.845, 2017/11/15 11:32:59.997上午,347,46,54,37,46
371,1.85, 2017/11/15 11:33:00.002上午,331,45,50,37,45
372,1.855, 2017/11/15 11:33:00.007上午,347,43,54,40,43
373,1.86, 2017/11/15 11:33:00.012上午,339,45,58,37,45
374,1.865, 2017/11/15 11:33:00.017上午,363,48,54,37,48
375,1.87, 2017/11/15 11:33:00.022上午,330,46,50,36,46
376,1.875, 2017/11/15 11:33:00.027上午,340,43,54,37,43
377,1.88, 2017/11/15 11:33:00.032上午,355,45,54,37,45
378,1.885, 2017/11/15 11:33:00.037上午,361,46,58,40,46
379,1.89, 2017/11/15 11:33:00.042上午,354,46,58,37,46
380,1.895, 2017/11/15 11:33:00.047上午,335,48,54,37,48
381,1.9, 2017/11/15 11:33:00.052上午,358,46,50,37,46
382,1.905, 2017/11/15 11:33:00.057上午,332,46,50,38,46
383,1.91, 2017/11/15 11:33:00.062上午,358,45,54,39,45
384,1.915, 2017/11/15 11:33:00.067上午,349,43,54,39,43
385,1.92, 2017/11/15 11:33:00.072上午,331,45,54,40,45
386,1.925, 2017/11/15 11:33:00.077上午,341,46,58,37,46
387,1.93, 2017/11/15 11:33:00.082上午,341,48,50,37,48
388,1.935, 2017/11/15 11:33:00.087上午,347,46,54,39,46
389,1.94, 2017/11/15 11:33:00.092上午,341,43,54,39,43
390,1.945, 2017/11/15 11:33:00.097上午,352,46,58,37,46
391,1.95, 2017/11/15 11:33:00.102上午,332,47,53,37,47
392,1.955, 2017/11/15 11:33:00.107上午,334,46,54,39,46
393,1.96, 2017/11/15 11:33:00.112上午,349,45,58,39,45
394,1.965, 2017/11/15 11:33:00.117上午,347,46,50,37,46
395,1.97, 2017/11/15 11:33:00.122上午,343,46,54,37,46
396,1.975, 2017/11/15 11:33:00.127上午,335,45,58,40,45
397,1.98, 2017/11/15 11:33:00.132上午,349,46,58,37,46
398,1.985, 2017/11/15 11:33:00.137上午,341,48,50,37,48
399,1.99, 2017/11/15 11:33:00.142上午,356,45,54,39,45
400,1.995, 2017/11/15 11:33:00.147上午,350,45,54,40,45
401,2, 2017/11/15 11:33:00.152上午,335,48,58,41,48
402,2.005, 2017/11/15 11:33:00.157上午,359,46,58,38,46
403,2.01, 2017/11/15 11:33:00.162上午,324,46,50,38,46
404,2.015, 2017/11/15 11:33:00.167上午,353,45,58,39,45
405,2.02, 2017/11/15 11:33:00.172上午,344,45,58,40,45
406,2.025, 2017/11/15 11:33:00.177上午,338,46,50,37,46
407,2.03, 2017/11/15 11:33:00.182上午,328,43,80,39,43
408,2.035, 2017/11/15 11:33:00.187上午,334,45,58,37,45
409,2.04, 2017/11/15 11:33:00.192上午,344,46,50,37,46
410,2.045, 2017/11/15 11:33:00.197上午,332,45,80,39,45
411,2.05, 2017/11/15 11:33:00.202上午,339,45,57,37,45
412,2.055, 2017/11/15 11:33:00.207上午,331,46,53,38,46
413,2.06, 2017/11/15 11:33:00.212上午,349,45,79,40,45
414,2.065, 2017/11/15 11:33:00.217上午,338,46,57,38,46
415,2.07, 2017/11/15 11:33:00.222上午,360,45,50,37,45
416,2.075, 2017/11/15 11:33:00.227上午,350,43,53,35,43
417,2.08, 2017/11/15 11:33:00.232上午,351,43,58,37,43
418,2.085, 2017/11/15 11:33:00.237上午,342,46,58,39,46
419,2.09, 2017/11/15 11:33:00.242上午,339,46,50,36,46
420,2.095, 2017/11/15 11:33:00.247上午,342,41,53,39,41
421,2.1, 2017/11/15 11:33:00.252上午,353,45,58,39,45
422,2.105, 2017/11/15 11:33:00.257上午,341,45,58,41,45
423,2.11, 2017/11/15 11:33:00.262上午,349,45,53,37,45
424,2.115, 2017/11/15 11:33:00.267上午,338,46,53,36,46
425,2.12, 2017/11/15 11:33:00.272上午,333,43,53,39,43
426,2.125, 2017/11/15 11:33:00.277上午,338,45,58,37,45
427,2.13, 2017/11/15 11:33:00.282上午,350,45,53,37,45
428,2.135, 2017/11/15 11:33:00.287上午,335,43,53,40,43
429,2.14, 2017/11/15 11:33:00.292上午,342,44,53,39,44
430,2.145, 2017/11/15 11:33:00.297上午,347,46,58,37,46
431,2.15, 2017/11/15 11:33:00.302上午,345,46,50,39,46
432,2.155, 2017/11/15 11:33:00.307上午,332,44,57,39,44
433,2.16, 2017/11/15 11:33:00.312上午,330,48,57,37,48
434,2.165, 2017/11/15 11:33:00.317上午,342,46,50,37,46
435,2.17, 2017/11/15 11:33:00.322上午,348,44,53,38,44
436,2.175, 2017/11/15 11:33:00.327上午,341,46,50,37,46
437,2.18, 2017/11/15 11:33:00.332上午,329,46,50,37,46
438,2.185, 2017/11/15 11:33:00.337上午,343,43,50,37,43
439,2.19, 2017/11/15 11:33:00.342上午,352,43,53,40,43
440,2.195, 2017/11/15 11:33:00.347上午,334,44,57,40,44
441,2.2, 2017/11/15 11:33:00.352上午,344,46,57,37,46
442,2.205, 2017/11/15 11:33:00.357上午,332,46,50,37,46
443,2.21, 2017/11/15 11:33:00.362上午,351,43,79,37,43
444,2.215, 2017/11/15 11:33:00.367上午,341,44,57,39,44
445,2.22, 2017/11/15 11:33:00.372上午,344,46,57,38,46
446,2.225, 2017/11/15 11:33:00.377上午,337,45,50,36,45
447,2.23, 2017/11/15 11:33:00.382上午,327,41,79,40,41
448,2.235, 2017/11/15 11:33:00.387上午,338,48,53,37,48
449,2.24, 2017/11/15 11:33:00.392上午,335,46,50,38,46
450,2.245, 2017/11/15 11:33:00.397上午,340,45,53,40,45
451,2.25, 2017/11/15 11:33:00.402上午,341,46,57,37,46
452,2.255, 2017/11/15 11:33:00.407上午,339,46,49,37,46
453,2.26, 2017/11/15 11:33:00.412上午,331,43,78,38,43
454,2.265, 2017/11/15 11:33:00.417上午,339,46,57,36,46
455,2.27, 2017/11/15 11:33:00.422上午,325,46,53,36,46
456,2.275, 2017/11/15 11:33:00.427上午,355,43,53,36,43
457,2.28, 2017/11/15 11:33:00.432上午,330,43,78,38,43
458,2.285, 2017/11/15 11:33:00.437上午,344,44,53,40,44
459,2.29, 2017/11/15 11:33:00.442上午,331,46,49,37,46
460,2.295, 2017/11/15 11:33:00.447上午,343,46,53,37,46
461,2.3, 2017/11/15 11:33:00.452上午,354,43,78,37,43
462,2.305, 2017/11/15 11:33:00.457上午,348,45,57,39,45
463,2.31, 2017/11/15 11:33:00.462上午,350,46,53,37,46
464,2.315, 2017/11/15 11:33:00.467上午,346,46,53,37,46
465,2.32, 2017/11/15 11:33:00.472上午,347,43,53,40,43
466,2.325, 2017/11/15 11:33:00.477上午,346,46,57,37,46
467,2.33, 2017/11/15 11:33:00.482上午,344,46,49,38,46
468,2.335, 2017/11/15 11:33:00.487上午,366,43,57,37,43
469,2.34, 2017/11/15 11:33:00.492上午,341,46,49,37,46
470,2.345, 2017/11/15 11:33:00.497上午,342,43,79,39,43
471,2.35, 2017/11/15 11:33:00.502上午,376,45,53,40,45
472,2.355, 2017/11/15 11:33:00.507上午,345,46,57,36,46
473,2.36, 2017/11/15 11:33:00.512上午,329,45,49,36,45
474,2.365, 2017/11/15 11:33:00.517上午,366,45,56,38,45
475,2.37, 2017/11/15 11:33:00.522上午,336,46,57,37,46
476,2.375, 2017/11/15 11:33:00.527上午,346,46,49,37,46
477,2.38, 2017/11/15 11:33:00.532上午,337,45,53,39,45
478,2.385, 2017/11/15 11:33:00.537上午,356,43,53,38,43
479,2.39, 2017/11/15 11:33:00.542上午,346,46,53,37,46
480,2.395, 2017/11/15 11:33:00.547上午,329,46,49,36,46
481,2.4, 2017/11/15 11:33:00.552上午,347,45,53,37,45
482,2.405, 2017/11/15 11:33:00.557上午,341,46,57,36,46
483,2.41, 2017/11/15 11:33:00.562上午,339,46,57,37,46
484,2.415, 2017/11/15 11:33:00.567上午,368,43,56,39,43
485,2.42, 2017/11/15 11:33:00.572上午,364,46,57,36,46
486,2.425, 2017/11/15 11:33:00.577上午,336,46,53,36,46
487,2.43, 2017/11/15 11:33:00.582上午,339,43,53,38,43
488,2.435, 2017/11/15 11:33:00.587上午,343,46,57,37,46
489,2.44, 2017/11/15 11:33:00.592上午,341,48,53,38,48
490,2.445, 2017/11/15 11:33:00.597上午,344,45,53,40,45
491,2.45, 2017/11/15 11:33:00.602上午,372,43,53,38,43
492,2.455, 2017/11/15 11:33:00.607上午,357,46,57,37,46
493,2.46, 2017/11/15 11:33:00.612上午,338,45,49,35,45
494,2.465, 2017/11/15 11:33:00.617上午,340,45,53,40,45
495,2.47, 2017/11/15 11:33:00.622上午,333,46,57,39,46
496,2.475, 2017/11/15 11:33:00.627上午,337,45,53,37,45
497,2.48, 2017/11/15 11:33:00.632上午,341,43,53,39,43
498,2.485, 2017/11/15 11:33:00.637上午,352,45,53,39,45
499,2.49, 2017/11/15 11:33:00.642上午,350,49,53,39,49
500,2.495, 2017/11/15 11:33:00.647上午,341,46,53,37,46
501,2.5, 2017/11/15 11:33:00.652上午,356,43,53,36,43
502,2.505, 2017/11/15 11:33:00.657上午,354,46,57,35,46
503,2.51, 2017/11/15 11:33:00.662上午,339,46,57,37,46
504,2.515, 2017/11/15 11:33:00.667上午,328,45,49,37,45
505,2.52, 2017/11/15 11:33:00.672上午,346,43,53,38,43
506,2.525, 2017/11/15 11:33:00.677上午,350,46,57,39,46
507,2.53, 2017/11/15 11:33:00.682上午,347,46,49,37,46
508,2.535, 2017/11/15 11:33:00.687上午,341,45,53,37,45
509,2.54, 2017/11/15 11:33:00.692上午,351,48,57,37,48
510,2.545, 2017/11/15 11:33:00.697上午,313,46,49,37,46
511,2.55, 2017/11/15 11:33:00.702上午,340,43,52,38,43
512,2.555, 2017/11/15 11:33:00.707上午,353,43,57,40,43
513,2.56, 2017/11/15 11:33:00.712上午,350,46,49,35,46
514,2.565, 2017/11/15 11:33:00.717上午,352,45,52,40,45
515,2.57, 2017/11/15 11:33:00.722上午,339,45,57,39,45
516,2.575, 2017/11/15 11:33:00.727上午,336,46,49,37,46
517,2.58, 2017/11/15 11:33:00.732上午,372,46,52,38,46
518,2.585, 2017/11/15 11:33:00.737上午,351,48,57,37,48
519,2.59, 2017/11/15 11:33:00.742上午,332,45,49,37,45
520,2.595, 2017/11/15 11:33:00.747上午,345,45,77,38,45
521,2.6, 2017/11/15 11:33:00.752上午,358,46,57,42,46
522,2.605, 2017/11/15 11:33:00.757上午,337,46,49,35,46
523,2.61, 2017/11/15 11:33:00.762上午,352,43,52,36,43
524,2.615, 2017/11/15 11:33:00.767上午,347,49,57,37,49
525,2.62, 2017/11/15 11:33:00.772上午,343,45,52,37,45
526,2.625, 2017/11/15 11:33:00.777上午,364,46,57,37,46
527,2.63, 2017/11/15 11:33:00.782上午,329,48,49,37,48
528,2.635, 2017/11/15 11:33:00.787上午,369,46,56,40,46
529,2.64, 2017/11/15 11:33:00.792上午,368,46,53,37,46
530,2.645, 2017/11/15 11:33:00.797上午,338,46,53,36,46
531,2.65, 2017/11/15 11:33:00.802上午,371,46,56,38,46
532,2.655, 2017/11/15 11:33:00.807上午,348,46,49,37,46
533,2.66, 2017/11/15 11:33:00.812上午,348,44,52,38,44
534,2.665, 2017/11/15 11:33:00.817上午,360,48,52,37,48
535,2.67, 2017/11/15 11:33:00.822上午,355,45,49,36,45
536,2.675, 2017/11/15 11:33:00.827上午,350,43,52,35,43
537,2.68, 2017/11/15 11:33:00.832上午,361,48,56,37,48
538,2.685, 2017/11/15 11:33:00.837上午,349,46,52,37,46
539,2.69, 2017/11/15 11:33:00.842上午,353,45,52,35,45
540,2.695, 2017/11/15 11:33:00.847上午,354,46,56,39,46
541,2.7, 2017/11/15 11:33:00.852上午,352,48,56,37,48
542,2.705, 2017/11/15 11:33:00.857上午,361,45,77,36,45
543,2.71, 2017/11/15 11:33:00.862上午,356,46,52,40,46
544,2.715, 2017/11/15 11:33:00.867上午,355,48,52,38,48
545,2.72, 2017/11/15 11:33:00.872上午,355,45,52,36,45
546,2.725, 2017/11/15 11:33:00.877上午,348,46,56,37,46
547,2.73, 2017/11/15 11:33:00.882上午,333,46,49,37,46
548,2.735, 2017/11/15 11:33:00.887上午,358,48,56,37,48
549,2.74, 2017/11/15 11:33:00.892上午,338,50,52,37,50
550,2.745, 2017/11/15 11:33:00.897上午,349,45,52,37,45
551,2.75, 2017/11/15 11:33:00.902上午,363,46,56,39,46
552,2.755, 2017/11/15 11:33:00.907上午,323,45,49,37,45
553,2.76, 2017/11/15 11:33:00.912上午,340,46,56,38,46
554,2.765, 2017/11/15 11:33:00.917上午,327,46,49,37,46
555,2.77, 2017/11/15 11:33:00.922上午,363,46,56,37,46
556,2.775, 2017/11/15 11:33:00.927上午,348,50,49,37,50
557,2.78, 2017/11/15 11:33:00.932上午,351,46,49,35,46
558,2.785, 2017/11/15 11:33:00.937上午,365,50,52,39,50
559,2.79, 2017/11/15 11:33:00.942上午,355,48,49,37,48
560,2.795, 2017/11/15 11:33:00.947上午,360,46,52,38,46
561,2.8, 2017/11/15 11:33:00.952上午,360,47,56,37,47
562,2.805, 2017/11/15 11:33:00.957上午,342,46,49,37,46
563,2.81, 2017/11/15 11:33:00.962上午,362,47,56,38,47
564,2.815, 2017/11/15 11:33:00.967上午,345,48,56,37,48
565,2.82, 2017/11/15 11:33:00.972上午,344,48,49,37,48
566,2.825, 2017/11/15 11:33:00.977上午,353,48,56,39,48
567,2.83, 2017/11/15 11:33:00.982上午,319,46,49,37,46
568,2.835, 2017/11/15 11:33:00.987上午,346,48,52,38,48
569,2.84, 2017/11/15 11:33:00.992上午,348,48,49,36,48
570,2.845, 2017/11/15 11:33:00.997上午,368,46,52,38,46
571,2.85, 2017/11/15 11:33:01.002上午,346,51,56,36,51
572,2.855, 2017/11/15 11:33:01.007上午,360,48,48,35,48
573,2.86, 2017/11/15 11:33:01.012上午,343,49,52,37,49
574,2.865, 2017/11/15 11:33:01.017上午,334,48,48,36,48
575,2.87, 2017/11/15 11:33:01.022上午,366,47,52,35,47
576,2.875, 2017/11/15 11:33:01.027上午,351,49,56,36,49
577,2.88, 2017/11/15 11:33:01.032上午,348,49,48,37,49
578,2.885, 2017/11/15 11:33:01.037上午,360,46,55,40,46
579,2.89, 2017/11/15 11:33:01.042上午,370,49,56,37,49
580,2.895, 2017/11/15 11:33:01.047上午,343,49,48,37,49
581,2.9, 2017/11/15 11:33:01.052上午,358,47,56,38,47
582,2.905, 2017/11/15 11:33:01.057上午,357,51,56,37,51
583,2.91, 2017/11/15 11:33:01.062上午,341,48,49,35,48
584,2.915, 2017/11/15 11:33:01.067上午,366,46,52,38,46
585,2.92, 2017/11/15 11:33:01.072上午,353,51,52,39,51
586,2.925, 2017/11/15 11:33:01.077上午,350,48,49,37,48
587,2.93, 2017/11/15 11:33:01.082上午,345,47,56,37,47
588,2.935, 2017/11/15 11:33:01.087上午,335,48,49,35,48
589,2.94, 2017/11/15 11:33:01.092上午,358,47,52,40,47
590,2.945, 2017/11/15 11:33:01.097上午,342,48,49,36,48
591,2.95, 2017/11/15 11:33:01.102上午,359,46,52,38,46
592,2.955, 2017/11/15 11:33:01.107上午,348,49,52,37,49
593,2.96, 2017/11/15 11:33:01.112上午,354,48,48,34,48
594,2.965, 2017/11/15 11:33:01.117上午,336,49,56,37,49
595,2.97, 2017/11/15 11:33:01.122上午,340,48,48,36,48
596,2.975, 2017/11/15 11:33:01.127上午,340,49,56,37,49
597,2.98, 2017/11/15 11:33:01.132上午,345,51,52,37,51
598,2.985, 2017/11/15 11:33:01.137上午,352,49,52,36,49
599,2.99, 2017/11/15 11:33:01.142上午,359,47,56,39,47
600,2.995, 2017/11/15 11:33:01.147上午,356,49,56,37,49
@@,,,,,,,
