DATA_TYPE Graph,,,,,,,
VERSION Tekscan Pressure Measurement System 6.70-03,,,,,,,
HARDWARE 00114-3447,,,,,,,
MAP_VERSION 6.5,,,,,,,
HW_TYPE 4,,,,,,,
VersaPogoFsx 0,,,,,,,
檔案名 C:\Users\asus\Desktop\工研院_計畫\收案資料\Subject02\Plantar Pressure\R65B_STAND_RIGHT_2.fsx,,,,,,,
SENSOR_TYPE FSCAN,,,,,,,
ROWS 60,,,,,,,
COLS 21,,,,,,,
ROW_SPACING 0.508 centimeters,,,,,,,
COL_SPACING 0.508 centimeters,,,,,,,
SENSEL_AREA 0.258064 cm2,,,,,,,
NOISE_THRESHOLD 3,,,,,,,
SECONDS_PER_FRAME 0.005,,,,,,,
SECONDS_PER_FRAME 0,,,,,,,
MICRO_SECOND 0,,,,,,,
TIME 2017/11/15 11:45:14.056上午,,,,,,,
SATURATION_PRESSURE 2347.96 KPa ,,,,,,,
CALIBRATION_POINT_1 48.0001 (Kilograms) 1981 (Raw Sum) 199 (Number of Loaded Cells),,,,,,,
CALIBRATION_MODE_1 步態,,,,,,,
CALIBRATION_INFO C:\Users\asus\Desktop\工研院_計畫\收案資料\Subject02\Plantar Pressure\R65B_STAND_RIGHT_2.fsx,,,,,,,
SENSITIVITY 自定義,,,,,,,
MAP_INDEX 0,,,,,,,
SUBMAP 0,,,,,,,
Patient ID: ,,,,,,,
,,,,,,,
Speed of Gait: ,,,,,,,
,,,,,,,
Weight: ,,,,,,,
,,,,,,,
Gender: ,,,,,,,
,,,,,,,
Physician: ,,,,,,,
,,,,,,,
Technician: ,,,,,,,
,,,,,,,
Shoe: ,,,,,,,
,,,,,,,
START_FRAME 1,,,,,,,
END_FRAME 600,,,,,,,
UNITS KPa,,,,,,,
ASCII_DATA @@,,,,,,,
畫面(X), 時間(X), 絕對時間(X), Raw Sum, 峰值壓力(Y:深藍色), 峰值壓力(Y), 峰值壓力(Y), 峰值壓力(Y)
1,0, 2017/11/15 11:45:14.056上午,280,54,0,47,54
2,0.005, 2017/11/15 11:45:14.061上午,308,54,32,49,54
3,0.01, 2017/11/15 11:45:14.066上午,309,46,0,50,50
4,0.015, 2017/11/15 11:45:14.071上午,289,49,0,45,49
5,0.02, 2017/11/15 11:45:14.076上午,301,52,32,47,52
6,0.025, 2017/11/15 11:45:14.081上午,288,54,0,49,54
7,0.03, 2017/11/15 11:45:14.086上午,304,52,0,47,52
8,0.035, 2017/11/15 11:45:14.091上午,292,49,0,46,49
9,0.04, 2017/11/15 11:45:14.096上午,290,49,0,44,49
10,0.045, 2017/11/15 11:45:14.101上午,305,49,30,44,49
11,0.05, 2017/11/15 11:45:14.106上午,300,53,0,46,53
12,0.055, 2017/11/15 11:45:14.111上午,299,53,0,46,53
13,0.06, 2017/11/15 11:45:14.116上午,290,50,0,46,50
14,0.065, 2017/11/15 11:45:14.121上午,298,45,0,47,47
15,0.07, 2017/11/15 11:45:14.126上午,294,48,0,47,48
16,0.075, 2017/11/15 11:45:14.131上午,310,49,30,47,49
17,0.08, 2017/11/15 11:45:14.136上午,293,49,0,44,49
18,0.085, 2017/11/15 11:45:14.141上午,296,49,0,44,49
19,0.09, 2017/11/15 11:45:14.146上午,301,53,0,47,53
20,0.095, 2017/11/15 11:45:14.151上午,294,51,0,46,51
21,0.1, 2017/11/15 11:45:14.156上午,294,48,0,49,49
22,0.105, 2017/11/15 11:45:14.161上午,292,49,0,47,49
23,0.11, 2017/11/15 11:45:14.166上午,307,49,32,47,49
24,0.115, 2017/11/15 11:45:14.171上午,301,53,28,45,53
25,0.12, 2017/11/15 11:45:14.176上午,300,51,0,47,51
26,0.125, 2017/11/15 11:45:14.181上午,293,48,0,44,48
27,0.13, 2017/11/15 11:45:14.186上午,294,49,0,48,49
28,0.135, 2017/11/15 11:45:14.191上午,308,52,28,44,52
29,0.14, 2017/11/15 11:45:14.196上午,299,53,0,50,53
30,0.145, 2017/11/15 11:45:14.201上午,297,48,0,46,48
31,0.15, 2017/11/15 11:45:14.206上午,300,45,0,46,46
32,0.155, 2017/11/15 11:45:14.211上午,317,48,30,48,48
33,0.16, 2017/11/15 11:45:14.216上午,295,48,0,46,48
34,0.165, 2017/11/15 11:45:14.221上午,320,48,30,44,48
35,0.17, 2017/11/15 11:45:14.226上午,316,50,28,48,50
36,0.175, 2017/11/15 11:45:14.231上午,315,52,28,46,52
37,0.18, 2017/11/15 11:45:14.236上午,286,49,0,48,49
38,0.185, 2017/11/15 11:45:14.241上午,295,48,0,46,48
39,0.19, 2017/11/15 11:45:14.246上午,308,48,0,46,48
40,0.195, 2017/11/15 11:45:14.251上午,294,50,0,46,50
41,0.2, 2017/11/15 11:45:14.256上午,283,52,0,46,52
42,0.205, 2017/11/15 11:45:14.261上午,303,47,0,46,47
43,0.21, 2017/11/15 11:45:14.266上午,307,48,0,44,48
44,0.215, 2017/11/15 11:45:14.271上午,299,48,0,46,48
45,0.22, 2017/11/15 11:45:14.276上午,294,53,0,48,53
46,0.225, 2017/11/15 11:45:14.281上午,303,51,0,46,51
47,0.23, 2017/11/15 11:45:14.286上午,298,48,0,45,48
48,0.235, 2017/11/15 11:45:14.291上午,288,48,0,45,48
49,0.24, 2017/11/15 11:45:14.296上午,285,53,0,45,53
50,0.245, 2017/11/15 11:45:14.301上午,296,50,30,47,50
51,0.25, 2017/11/15 11:45:14.306上午,296,47,0,45,47
52,0.255, 2017/11/15 11:45:14.311上午,310,49,0,45,49
53,0.26, 2017/11/15 11:45:14.316上午,290,48,0,47,48
54,0.265, 2017/11/15 11:45:14.321上午,292,50,0,45,50
55,0.27, 2017/11/15 11:45:14.326上午,302,52,0,45,52
56,0.275, 2017/11/15 11:45:14.331上午,291,49,0,45,49
57,0.28, 2017/11/15 11:45:14.336上午,297,50,30,47,50
58,0.285, 2017/11/15 11:45:14.341上午,296,47,0,46,47
59,0.29, 2017/11/15 11:45:14.346上午,294,47,0,46,47
60,0.295, 2017/11/15 11:45:14.351上午,296,48,0,46,48
61,0.3, 2017/11/15 11:45:14.356上午,294,52,28,44,52
62,0.305, 2017/11/15 11:45:14.361上午,301,52,0,48,52
63,0.31, 2017/11/15 11:45:14.366上午,289,48,0,46,48
64,0.315, 2017/11/15 11:45:14.371上午,302,48,0,46,48
65,0.32, 2017/11/15 11:45:14.376上午,319,48,30,48,48
66,0.325, 2017/11/15 11:45:14.381上午,297,52,0,43,52
67,0.33, 2017/11/15 11:45:14.386上午,295,50,32,45,50
68,0.335, 2017/11/15 11:45:14.391上午,291,47,0,47,47
69,0.34, 2017/11/15 11:45:14.396上午,294,46,0,47,47
70,0.345, 2017/11/15 11:45:14.401上午,293,48,0,45,48
71,0.35, 2017/11/15 11:45:14.406上午,289,48,0,45,48
72,0.355, 2017/11/15 11:45:14.411上午,296,52,0,43,52
73,0.36, 2017/11/15 11:45:14.416上午,298,48,32,45,48
74,0.365, 2017/11/15 11:45:14.421上午,289,50,0,45,50
75,0.37, 2017/11/15 11:45:14.426上午,296,50,0,47,50
76,0.375, 2017/11/15 11:45:14.431上午,291,52,32,45,52
77,0.38, 2017/11/15 11:45:14.436上午,292,46,0,47,47
78,0.385, 2017/11/15 11:45:14.441上午,309,46,0,45,46
79,0.39, 2017/11/15 11:45:14.446上午,293,47,0,47,47
80,0.395, 2017/11/15 11:45:14.451上午,297,46,0,45,46
81,0.4, 2017/11/15 11:45:14.456上午,294,48,0,45,48
82,0.405, 2017/11/15 11:45:14.461上午,299,48,0,45,48
83,0.41, 2017/11/15 11:45:14.466上午,290,50,0,47,50
84,0.415, 2017/11/15 11:45:14.471上午,282,52,0,45,52
85,0.42, 2017/11/15 11:45:14.476上午,289,49,0,47,49
86,0.425, 2017/11/15 11:45:14.481上午,289,47,0,47,47
87,0.43, 2017/11/15 11:45:14.486上午,296,47,0,47,47
88,0.435, 2017/11/15 11:45:14.491上午,318,48,30,45,48
89,0.44, 2017/11/15 11:45:14.496上午,290,50,0,47,50
90,0.445, 2017/11/15 11:45:14.501上午,285,50,0,45,50
91,0.45, 2017/11/15 11:45:14.506上午,281,51,0,45,51
92,0.455, 2017/11/15 11:45:14.511上午,294,48,0,46,48
93,0.46, 2017/11/15 11:45:14.516上午,275,44,0,44,44
94,0.465, 2017/11/15 11:45:14.521上午,298,46,0,44,46
95,0.47, 2017/11/15 11:45:14.526上午,286,44,0,46,46
96,0.475, 2017/11/15 11:45:14.531上午,296,47,0,47,47
97,0.48, 2017/11/15 11:45:14.536上午,287,44,0,47,47
98,0.485, 2017/11/15 11:45:14.541上午,304,47,0,45,47
99,0.49, 2017/11/15 11:45:14.546上午,293,49,0,45,49
100,0.495, 2017/11/15 11:45:14.551上午,302,48,28,47,48
101,0.5, 2017/11/15 11:45:14.556上午,293,45,0,47,47
102,0.505, 2017/11/15 11:45:14.561上午,294,46,0,45,46
103,0.51, 2017/11/15 11:45:14.566上午,284,47,0,45,47
104,0.515, 2017/11/15 11:45:14.571上午,291,51,0,45,51
105,0.52, 2017/11/15 11:45:14.576上午,293,46,0,45,46
106,0.525, 2017/11/15 11:45:14.581上午,285,46,0,45,46
107,0.53, 2017/11/15 11:45:14.586上午,294,44,0,48,48
108,0.535, 2017/11/15 11:45:14.591上午,291,46,0,46,46
109,0.54, 2017/11/15 11:45:14.596上午,303,47,0,46,47
110,0.545, 2017/11/15 11:45:14.601上午,293,45,0,44,45
111,0.55, 2017/11/15 11:45:14.606上午,294,47,0,46,47
112,0.555, 2017/11/15 11:45:14.611上午,310,47,28,44,47
113,0.56, 2017/11/15 11:45:14.616上午,309,47,30,46,47
114,0.565, 2017/11/15 11:45:14.621上午,294,49,32,44,49
115,0.57, 2017/11/15 11:45:14.626上午,281,49,0,46,49
116,0.575, 2017/11/15 11:45:14.631上午,301,48,30,44,48
117,0.58, 2017/11/15 11:45:14.636上午,290,44,0,46,46
118,0.585, 2017/11/15 11:45:14.641上午,291,44,0,46,46
119,0.59, 2017/11/15 11:45:14.646上午,291,45,0,46,46
120,0.595, 2017/11/15 11:45:14.651上午,297,47,0,46,47
121,0.6, 2017/11/15 11:45:14.656上午,300,51,28,46,51
122,0.605, 2017/11/15 11:45:14.661上午,283,46,0,46,46
123,0.61, 2017/11/15 11:45:14.666上午,279,46,0,44,46
124,0.615, 2017/11/15 11:45:14.671上午,291,45,0,44,45
125,0.62, 2017/11/15 11:45:14.676上午,309,47,0,46,47
126,0.625, 2017/11/15 11:45:14.681上午,298,49,32,46,49
127,0.63, 2017/11/15 11:45:14.686上午,292,46,0,46,46
128,0.635, 2017/11/15 11:45:14.691上午,294,44,0,44,44
129,0.64, 2017/11/15 11:45:14.696上午,294,47,0,46,47
130,0.645, 2017/11/15 11:45:14.701上午,291,51,0,46,51
131,0.65, 2017/11/15 11:45:14.706上午,282,49,0,44,49
132,0.655, 2017/11/15 11:45:14.711上午,286,49,0,46,49
133,0.66, 2017/11/15 11:45:14.716上午,290,46,0,46,46
134,0.665, 2017/11/15 11:45:14.721上午,303,46,30,46,46
135,0.67, 2017/11/15 11:45:14.726上午,284,44,0,46,46
136,0.675, 2017/11/15 11:45:14.731上午,296,44,0,46,46
137,0.68, 2017/11/15 11:45:14.736上午,296,47,0,46,47
138,0.685, 2017/11/15 11:45:14.741上午,297,51,0,44,51
139,0.69, 2017/11/15 11:45:14.746上午,287,49,0,46,49
140,0.695, 2017/11/15 11:45:14.751上午,297,47,32,46,47
141,0.7, 2017/11/15 11:45:14.756上午,296,44,0,44,44
142,0.705, 2017/11/15 11:45:14.761上午,302,47,0,46,47
143,0.71, 2017/11/15 11:45:14.766上午,297,49,32,44,49
144,0.715, 2017/11/15 11:45:14.771上午,287,51,0,46,51
145,0.72, 2017/11/15 11:45:14.776上午,307,44,0,44,44
146,0.725, 2017/11/15 11:45:14.781上午,289,47,0,44,47
147,0.73, 2017/11/15 11:45:14.786上午,311,47,30,45,47
148,0.735, 2017/11/15 11:45:14.791上午,283,49,0,45,49
149,0.74, 2017/11/15 11:45:14.796上午,296,46,0,47,47
150,0.745, 2017/11/15 11:45:14.801上午,285,44,0,44,44
151,0.75, 2017/11/15 11:45:14.806上午,316,46,30,43,46
152,0.755, 2017/11/15 11:45:14.811上午,292,47,0,43,47
153,0.76, 2017/11/15 11:45:14.816上午,297,47,0,43,47
154,0.765, 2017/11/15 11:45:14.821上午,279,50,0,43,50
155,0.77, 2017/11/15 11:45:14.826上午,289,50,0,45,50
156,0.775, 2017/11/15 11:45:14.831上午,288,47,0,45,47
157,0.78, 2017/11/15 11:45:14.836上午,303,47,0,43,47
158,0.785, 2017/11/15 11:45:14.841上午,302,47,0,41,47
159,0.79, 2017/11/15 11:45:14.846上午,309,47,32,44,47
160,0.795, 2017/11/15 11:45:14.851上午,292,50,28,43,50
161,0.8, 2017/11/15 11:45:14.856上午,300,47,0,45,47
162,0.805, 2017/11/15 11:45:14.861上午,306,47,0,45,47
163,0.81, 2017/11/15 11:45:14.866上午,318,47,32,44,47
164,0.815, 2017/11/15 11:45:14.871上午,293,50,0,44,50
165,0.82, 2017/11/15 11:45:14.876上午,295,45,0,46,46
166,0.825, 2017/11/15 11:45:14.881上午,297,47,0,45,47
167,0.83, 2017/11/15 11:45:14.886上午,298,47,0,43,47
168,0.835, 2017/11/15 11:45:14.891上午,290,51,0,45,51
169,0.84, 2017/11/15 11:45:14.896上午,299,49,0,45,49
170,0.845, 2017/11/15 11:45:14.901上午,295,46,0,45,46
171,0.85, 2017/11/15 11:45:14.906上午,287,46,0,45,46
172,0.855, 2017/11/15 11:45:14.911上午,289,49,0,43,49
173,0.86, 2017/11/15 11:45:14.916上午,300,48,30,43,48
174,0.865, 2017/11/15 11:45:14.921上午,284,50,0,45,50
175,0.87, 2017/11/15 11:45:14.926上午,287,43,0,45,45
176,0.875, 2017/11/15 11:45:14.931上午,291,45,0,45,45
177,0.88, 2017/11/15 11:45:14.936上午,301,46,0,43,46
178,0.885, 2017/11/15 11:45:14.941上午,296,48,0,43,48
179,0.89, 2017/11/15 11:45:14.946上午,293,48,0,45,48
180,0.895, 2017/11/15 11:45:14.951上午,285,50,0,45,50
181,0.9, 2017/11/15 11:45:14.956上午,297,47,0,43,47
182,0.905, 2017/11/15 11:45:14.961上午,293,47,0,43,47
183,0.91, 2017/11/15 11:45:14.966上午,309,46,32,45,46
184,0.915, 2017/11/15 11:45:14.971上午,298,47,0,43,47
185,0.92, 2017/11/15 11:45:14.976上午,298,45,0,43,45
186,0.925, 2017/11/15 11:45:14.981上午,289,46,0,45,46
187,0.93, 2017/11/15 11:45:14.986上午,291,47,0,45,47
188,0.935, 2017/11/15 11:45:14.991上午,301,45,0,45,45
189,0.94, 2017/11/15 11:45:14.996上午,298,46,0,43,46
190,0.945, 2017/11/15 11:45:15.001上午,315,46,30,43,46
191,0.95, 2017/11/15 11:45:15.006上午,295,50,0,45,50
192,0.955, 2017/11/15 11:45:15.011上午,289,50,0,45,50
193,0.96, 2017/11/15 11:45:15.016上午,288,48,0,43,48
194,0.965, 2017/11/15 11:45:15.021上午,289,46,0,45,46
195,0.97, 2017/11/15 11:45:15.026上午,292,46,0,43,46
196,0.975, 2017/11/15 11:45:15.031上午,299,46,0,43,46
197,0.98, 2017/11/15 11:45:15.036上午,305,50,28,45,50
198,0.985, 2017/11/15 11:45:15.041上午,305,47,28,45,47
199,0.99, 2017/11/15 11:45:15.046上午,295,48,0,45,48
200,0.995, 2017/11/15 11:45:15.051上午,298,45,0,43,45
201,1, 2017/11/15 11:45:15.056上午,308,46,30,45,46
202,1.005, 2017/11/15 11:45:15.061上午,295,48,28,43,48
203,1.01, 2017/11/15 11:45:15.066上午,309,46,28,43,46
204,1.015, 2017/11/15 11:45:15.071上午,290,45,0,43,45
205,1.02, 2017/11/15 11:45:15.076上午,295,46,0,45,46
206,1.025, 2017/11/15 11:45:15.081上午,322,48,32,43,48
207,1.03, 2017/11/15 11:45:15.086上午,297,50,32,45,50
208,1.035, 2017/11/15 11:45:15.091上午,287,46,0,43,46
209,1.04, 2017/11/15 11:45:15.096上午,296,43,0,45,45
210,1.045, 2017/11/15 11:45:15.101上午,301,46,0,45,46
211,1.05, 2017/11/15 11:45:15.106上午,294,46,0,43,46
212,1.055, 2017/11/15 11:45:15.111上午,301,50,0,43,50
213,1.06, 2017/11/15 11:45:15.116上午,287,45,0,45,45
214,1.065, 2017/11/15 11:45:15.121上午,285,46,0,45,46
215,1.07, 2017/11/15 11:45:15.126上午,300,46,0,42,46
216,1.075, 2017/11/15 11:45:15.131上午,292,46,0,45,46
217,1.08, 2017/11/15 11:45:15.136上午,309,46,30,45,46
218,1.085, 2017/11/15 11:45:15.141上午,288,49,0,44,49
219,1.09, 2017/11/15 11:45:15.146上午,302,49,0,43,49
220,1.095, 2017/11/15 11:45:15.151上午,298,46,0,43,46
221,1.1, 2017/11/15 11:45:15.156上午,311,46,30,44,46
222,1.105, 2017/11/15 11:45:15.161上午,295,47,0,44,47
223,1.11, 2017/11/15 11:45:15.166上午,298,46,0,43,46
224,1.115, 2017/11/15 11:45:15.171上午,284,50,0,43,50
225,1.12, 2017/11/15 11:45:15.176上午,295,49,0,45,49
226,1.125, 2017/11/15 11:45:15.181上午,296,46,0,45,46
227,1.13, 2017/11/15 11:45:15.186上午,297,46,0,41,46
228,1.135, 2017/11/15 11:45:15.191上午,282,50,0,42,50
229,1.14, 2017/11/15 11:45:15.196上午,308,48,0,44,48
230,1.145, 2017/11/15 11:45:15.201上午,307,44,0,40,44
231,1.15, 2017/11/15 11:45:15.206上午,317,46,30,44,46
232,1.155, 2017/11/15 11:45:15.211上午,309,49,32,42,49
233,1.16, 2017/11/15 11:45:15.216上午,316,49,28,42,49
234,1.165, 2017/11/15 11:45:15.221上午,303,46,0,44,46
235,1.17, 2017/11/15 11:45:15.226上午,320,46,0,44,46
236,1.175, 2017/11/15 11:45:15.231上午,295,46,0,44,46
237,1.18, 2017/11/15 11:45:15.236上午,290,50,0,43,50
238,1.185, 2017/11/15 11:45:15.241上午,282,50,0,42,50
239,1.19, 2017/11/15 11:45:15.246上午,300,47,0,43,47
240,1.195, 2017/11/15 11:45:15.251上午,300,46,0,42,46
241,1.2, 2017/11/15 11:45:15.256上午,298,50,0,43,50
242,1.205, 2017/11/15 11:45:15.261上午,287,49,0,42,49
243,1.21, 2017/11/15 11:45:15.266上午,296,46,0,44,46
244,1.215, 2017/11/15 11:45:15.271上午,294,46,0,43,46
245,1.22, 2017/11/15 11:45:15.276上午,300,50,0,43,50
246,1.225, 2017/11/15 11:45:15.281上午,304,50,28,44,50
247,1.23, 2017/11/15 11:45:15.286上午,299,46,0,42,46
248,1.235, 2017/11/15 11:45:15.291上午,299,46,0,42,46
249,1.24, 2017/11/15 11:45:15.296上午,308,50,32,45,50
250,1.245, 2017/11/15 11:45:15.301上午,295,48,0,44,48
251,1.25, 2017/11/15 11:45:15.306上午,293,49,0,44,49
252,1.255, 2017/11/15 11:45:15.311上午,318,46,0,42,46
253,1.26, 2017/11/15 11:45:15.316上午,304,46,0,42,46
254,1.265, 2017/11/15 11:45:15.321上午,299,46,0,42,46
255,1.27, 2017/11/15 11:45:15.326上午,292,49,0,42,49
256,1.275, 2017/11/15 11:45:15.331上午,295,49,0,42,49
257,1.28, 2017/11/15 11:45:15.336上午,312,48,0,42,48
258,1.285, 2017/11/15 11:45:15.341上午,303,46,0,44,46
259,1.29, 2017/11/15 11:45:15.346上午,304,47,0,42,47
260,1.295, 2017/11/15 11:45:15.351上午,302,49,0,44,49
261,1.3, 2017/11/15 11:45:15.356上午,279,48,0,42,48
262,1.305, 2017/11/15 11:45:15.361上午,300,49,0,42,49
263,1.31, 2017/11/15 11:45:15.366上午,321,46,0,42,46
264,1.315, 2017/11/15 11:45:15.371上午,306,46,0,44,46
265,1.32, 2017/11/15 11:45:15.376上午,289,49,0,44,49
266,1.325, 2017/11/15 11:45:15.381上午,311,49,0,44,49
267,1.33, 2017/11/15 11:45:15.386上午,306,46,0,42,46
268,1.335, 2017/11/15 11:45:15.391上午,311,46,30,44,46
269,1.34, 2017/11/15 11:45:15.396上午,285,48,0,42,48
270,1.345, 2017/11/15 11:45:15.401上午,297,49,0,44,49
271,1.35, 2017/11/15 11:45:15.406上午,303,47,0,42,47
272,1.355, 2017/11/15 11:45:15.411上午,318,45,0,42,45
273,1.36, 2017/11/15 11:45:15.416上午,306,45,0,42,45
274,1.365, 2017/11/15 11:45:15.421上午,297,49,0,42,49
275,1.37, 2017/11/15 11:45:15.426上午,302,49,0,42,49
276,1.375, 2017/11/15 11:45:15.431上午,315,49,30,42,49
277,1.38, 2017/11/15 11:45:15.436上午,315,46,0,44,46
278,1.385, 2017/11/15 11:45:15.441上午,315,46,0,40,46
279,1.39, 2017/11/15 11:45:15.446上午,303,45,0,44,45
280,1.395, 2017/11/15 11:45:15.451上午,296,49,0,42,49
281,1.4, 2017/11/15 11:45:15.456上午,294,49,0,42,49
282,1.405, 2017/11/15 11:45:15.461上午,313,47,0,41,47
283,1.41, 2017/11/15 11:45:15.466上午,305,45,0,42,45
284,1.415, 2017/11/15 11:45:15.471上午,310,49,28,43,49
285,1.42, 2017/11/15 11:45:15.476上午,305,46,0,41,46
286,1.425, 2017/11/15 11:45:15.481上午,298,48,0,44,48
287,1.43, 2017/11/15 11:45:15.486上午,299,49,0,42,49
288,1.435, 2017/11/15 11:45:15.491上午,296,46,0,41,46
289,1.44, 2017/11/15 11:45:15.496上午,314,45,0,44,45
290,1.445, 2017/11/15 11:45:15.501上午,277,49,0,42,49
291,1.45, 2017/11/15 11:45:15.506上午,313,49,32,42,49
292,1.455, 2017/11/15 11:45:15.511上午,314,48,0,44,48
293,1.46, 2017/11/15 11:45:15.516上午,312,45,0,44,45
294,1.465, 2017/11/15 11:45:15.521上午,317,45,0,42,45
295,1.47, 2017/11/15 11:45:15.526上午,297,49,0,42,49
296,1.475, 2017/11/15 11:45:15.531上午,295,49,0,44,49
297,1.48, 2017/11/15 11:45:15.536上午,291,48,0,42,48
298,1.485, 2017/11/15 11:45:15.541上午,317,45,0,42,45
299,1.49, 2017/11/15 11:45:15.546上午,329,49,0,42,49
300,1.495, 2017/11/15 11:45:15.551上午,309,49,0,44,49
301,1.5, 2017/11/15 11:45:15.556上午,295,47,0,41,47
302,1.505, 2017/11/15 11:45:15.561上午,316,42,0,42,42
303,1.51, 2017/11/15 11:45:15.566上午,311,48,0,42,48
304,1.515, 2017/11/15 11:45:15.571上午,279,49,0,44,49
305,1.52, 2017/11/15 11:45:15.576上午,308,47,0,42,47
306,1.525, 2017/11/15 11:45:15.581上午,309,45,0,44,45
307,1.53, 2017/11/15 11:45:15.586上午,318,49,30,40,49
308,1.535, 2017/11/15 11:45:15.591上午,315,48,28,43,48
309,1.54, 2017/11/15 11:45:15.596上午,310,42,0,41,42
310,1.545, 2017/11/15 11:45:15.601上午,308,43,0,40,43
311,1.55, 2017/11/15 11:45:15.606上午,309,45,32,43,45
312,1.555, 2017/11/15 11:45:15.611上午,300,49,0,43,49
313,1.56, 2017/11/15 11:45:15.616上午,294,49,0,42,49
314,1.565, 2017/11/15 11:45:15.621上午,302,43,0,42,43
315,1.57, 2017/11/15 11:45:15.626上午,311,44,0,42,44
316,1.575, 2017/11/15 11:45:15.631上午,307,45,30,42,45
317,1.58, 2017/11/15 11:45:15.636上午,290,49,0,42,49
318,1.585, 2017/11/15 11:45:15.641上午,312,48,28,43,48
319,1.59, 2017/11/15 11:45:15.646上午,304,45,0,41,45
320,1.595, 2017/11/15 11:45:15.651上午,298,49,0,42,49
321,1.6, 2017/11/15 11:45:15.656上午,291,49,0,42,49
322,1.605, 2017/11/15 11:45:15.661上午,310,46,0,40,46
323,1.61, 2017/11/15 11:45:15.666上午,295,45,0,42,45
324,1.615, 2017/11/15 11:45:15.671上午,282,49,0,42,49
325,1.62, 2017/11/15 11:45:15.676上午,293,46,0,43,46
326,1.625, 2017/11/15 11:45:15.681上午,298,45,0,41,45
327,1.63, 2017/11/15 11:45:15.686上午,293,49,0,41,49
328,1.635, 2017/11/15 11:45:15.691上午,287,48,0,42,48
329,1.64, 2017/11/15 11:45:15.696上午,307,46,0,41,46
330,1.645, 2017/11/15 11:45:15.701上午,292,47,0,42,47
331,1.65, 2017/11/15 11:45:15.706上午,293,49,0,43,49
332,1.655, 2017/11/15 11:45:15.711上午,285,44,0,41,44
333,1.66, 2017/11/15 11:45:15.716上午,307,45,0,43,45
334,1.665, 2017/11/15 11:45:15.721上午,300,44,0,41,44
335,1.67, 2017/11/15 11:45:15.726上午,282,49,0,43,49
336,1.675, 2017/11/15 11:45:15.731上午,293,49,0,42,49
337,1.68, 2017/11/15 11:45:15.736上午,292,44,0,40,44
338,1.685, 2017/11/15 11:45:15.741上午,300,45,0,43,45
339,1.69, 2017/11/15 11:45:15.746上午,309,47,30,41,47
340,1.695, 2017/11/15 11:45:15.751上午,284,47,0,41,47
341,1.7, 2017/11/15 11:45:15.756上午,303,42,0,43,43
342,1.705, 2017/11/15 11:45:15.761上午,282,45,0,41,45
343,1.71, 2017/11/15 11:45:15.766上午,292,47,32,42,47
344,1.715, 2017/11/15 11:45:15.771上午,298,44,0,43,44
345,1.72, 2017/11/15 11:45:15.776上午,293,45,32,42,45
346,1.725, 2017/11/15 11:45:15.781上午,283,49,0,41,49
347,1.73, 2017/11/15 11:45:15.786上午,303,42,0,43,43
348,1.735, 2017/11/15 11:45:15.791上午,308,45,30,43,45
349,1.74, 2017/11/15 11:45:15.796上午,290,46,0,43,46
350,1.745, 2017/11/15 11:45:15.801上午,291,42,0,43,43
351,1.75, 2017/11/15 11:45:15.806上午,291,42,0,41,42
352,1.755, 2017/11/15 11:45:15.811上午,293,42,0,41,42
353,1.76, 2017/11/15 11:45:15.816上午,307,45,32,41,45
354,1.765, 2017/11/15 11:45:15.821上午,281,44,0,41,44
355,1.77, 2017/11/15 11:45:15.826上午,292,45,28,42,45
356,1.775, 2017/11/15 11:45:15.831上午,296,46,0,43,46
357,1.78, 2017/11/15 11:45:15.836上午,299,44,0,43,44
358,1.785, 2017/11/15 11:45:15.841上午,294,42,0,43,43
359,1.79, 2017/11/15 11:45:15.846上午,308,48,28,40,48
360,1.795, 2017/11/15 11:45:15.851上午,284,43,0,43,43
361,1.8, 2017/11/15 11:45:15.856上午,290,42,0,41,42
362,1.805, 2017/11/15 11:45:15.861上午,297,45,0,41,45
363,1.81, 2017/11/15 11:45:15.866上午,300,47,28,43,47
364,1.815, 2017/11/15 11:45:15.871上午,292,44,0,42,44
365,1.82, 2017/11/15 11:45:15.876上午,292,42,0,41,42
366,1.825, 2017/11/15 11:45:15.881上午,306,45,0,43,45
367,1.83, 2017/11/15 11:45:15.886上午,294,45,0,43,45
368,1.835, 2017/11/15 11:45:15.891上午,284,42,0,41,42
369,1.84, 2017/11/15 11:45:15.896上午,315,45,30,43,45
370,1.845, 2017/11/15 11:45:15.901上午,275,42,0,43,43
371,1.85, 2017/11/15 11:45:15.906上午,298,45,32,43,45
372,1.855, 2017/11/15 11:45:15.911上午,284,42,0,41,42
373,1.86, 2017/11/15 11:45:15.916上午,297,45,0,41,45
374,1.865, 2017/11/15 11:45:15.921上午,294,45,0,43,45
375,1.87, 2017/11/15 11:45:15.926上午,280,43,0,41,43
376,1.875, 2017/11/15 11:45:15.931上午,297,43,28,43,43
377,1.88, 2017/11/15 11:45:15.936上午,284,42,0,41,42
378,1.885, 2017/11/15 11:45:15.941上午,288,42,0,41,42
379,1.89, 2017/11/15 11:45:15.946上午,286,42,0,41,42
380,1.895, 2017/11/15 11:45:15.951上午,288,45,0,43,45
381,1.9, 2017/11/15 11:45:15.956上午,283,45,0,43,45
382,1.905, 2017/11/15 11:45:15.961上午,306,42,0,43,43
383,1.91, 2017/11/15 11:45:15.966上午,291,42,0,43,43
384,1.915, 2017/11/15 11:45:15.971上午,286,45,0,41,45
385,1.92, 2017/11/15 11:45:15.976上午,295,47,28,43,47
386,1.925, 2017/11/15 11:45:15.981上午,288,42,0,41,42
387,1.93, 2017/11/15 11:45:15.986上午,291,45,0,43,45
388,1.935, 2017/11/15 11:45:15.991上午,282,45,0,43,45
389,1.94, 2017/11/15 11:45:15.996上午,288,43,32,43,43
390,1.945, 2017/11/15 11:45:16.001上午,299,43,30,43,43
391,1.95, 2017/11/15 11:45:16.006上午,288,41,0,42,42
392,1.955, 2017/11/15 11:45:16.011上午,288,45,0,41,45
393,1.96, 2017/11/15 11:45:16.016上午,304,41,0,43,43
394,1.965, 2017/11/15 11:45:16.021上午,311,43,30,41,43
395,1.97, 2017/11/15 11:45:16.026上午,293,42,0,41,42
396,1.975, 2017/11/15 11:45:16.031上午,289,41,0,41,41
397,1.98, 2017/11/15 11:45:16.036上午,286,44,0,39,44
398,1.985, 2017/11/15 11:45:16.041上午,285,43,0,41,43
399,1.99, 2017/11/15 11:45:16.046上午,287,44,0,44,44
400,1.995, 2017/11/15 11:45:16.051上午,286,42,0,43,43
401,2, 2017/11/15 11:45:16.056上午,288,43,0,43,43
402,2.005, 2017/11/15 11:45:16.061上午,275,43,0,39,43
403,2.01, 2017/11/15 11:45:16.066上午,289,45,32,42,45
404,2.015, 2017/11/15 11:45:16.071上午,274,43,0,41,43
405,2.02, 2017/11/15 11:45:16.076上午,287,42,0,41,42
406,2.025, 2017/11/15 11:45:16.081上午,291,45,0,41,45
407,2.03, 2017/11/15 11:45:16.086上午,284,45,0,41,45
408,2.035, 2017/11/15 11:45:16.091上午,277,43,0,41,43
409,2.04, 2017/11/15 11:45:16.096上午,277,42,0,43,43
410,2.045, 2017/11/15 11:45:16.101上午,291,42,0,43,43
411,2.05, 2017/11/15 11:45:16.106上午,307,42,30,41,42
412,2.055, 2017/11/15 11:45:16.111上午,299,43,28,41,43
413,2.06, 2017/11/15 11:45:16.116上午,286,43,0,43,43
414,2.065, 2017/11/15 11:45:16.121上午,279,46,0,40,46
415,2.07, 2017/11/15 11:45:16.126上午,282,42,0,40,42
416,2.075, 2017/11/15 11:45:16.131上午,296,45,0,43,45
417,2.08, 2017/11/15 11:45:16.136上午,284,43,0,41,43
418,2.085, 2017/11/15 11:45:16.141上午,284,43,0,39,43
419,2.09, 2017/11/15 11:45:16.146上午,271,43,0,43,43
420,2.095, 2017/11/15 11:45:16.151上午,285,41,0,44,44
421,2.1, 2017/11/15 11:45:16.156上午,292,41,0,43,43
422,2.105, 2017/11/15 11:45:16.161上午,320,45,30,43,45
423,2.11, 2017/11/15 11:45:16.166上午,290,45,28,43,45
424,2.115, 2017/11/15 11:45:16.171上午,284,44,0,41,44
425,2.12, 2017/11/15 11:45:16.176上午,280,41,0,41,41
426,2.125, 2017/11/15 11:45:16.181上午,296,43,0,43,43
427,2.13, 2017/11/15 11:45:16.186上午,285,43,0,42,43
428,2.135, 2017/11/15 11:45:16.191上午,273,41,0,42,42
429,2.14, 2017/11/15 11:45:16.196上午,286,42,0,40,42
430,2.145, 2017/11/15 11:45:16.201上午,289,43,0,42,43
431,2.15, 2017/11/15 11:45:16.206上午,290,43,0,41,43
432,2.155, 2017/11/15 11:45:16.211上午,288,43,28,41,43
433,2.16, 2017/11/15 11:45:16.216上午,296,43,28,42,43
434,2.165, 2017/11/15 11:45:16.221上午,274,41,0,41,41
435,2.17, 2017/11/15 11:45:16.226上午,297,45,0,42,45
436,2.175, 2017/11/15 11:45:16.231上午,283,41,0,42,42
437,2.18, 2017/11/15 11:45:16.236上午,303,45,28,41,45
438,2.185, 2017/11/15 11:45:16.241上午,268,43,0,42,43
439,2.19, 2017/11/15 11:45:16.246上午,282,43,0,41,43
440,2.195, 2017/11/15 11:45:16.251上午,289,41,0,40,41
441,2.2, 2017/11/15 11:45:16.256上午,306,45,30,41,45
442,2.205, 2017/11/15 11:45:16.261上午,300,45,32,42,45
443,2.21, 2017/11/15 11:45:16.266上午,298,43,28,44,44
444,2.215, 2017/11/15 11:45:16.271上午,285,41,0,43,43
445,2.22, 2017/11/15 11:45:16.276上午,300,43,0,41,43
446,2.225, 2017/11/15 11:45:16.281上午,284,45,0,42,45
447,2.23, 2017/11/15 11:45:16.286上午,283,43,0,40,43
448,2.235, 2017/11/15 11:45:16.291上午,275,41,0,41,41
449,2.24, 2017/11/15 11:45:16.296上午,292,44,0,41,44
450,2.245, 2017/11/15 11:45:16.301上午,302,43,30,42,43
451,2.25, 2017/11/15 11:45:16.306上午,302,43,32,40,43
452,2.255, 2017/11/15 11:45:16.311上午,284,43,0,40,43
453,2.26, 2017/11/15 11:45:16.316上午,288,44,0,42,44
454,2.265, 2017/11/15 11:45:16.321上午,291,44,0,42,44
455,2.27, 2017/11/15 11:45:16.326上午,281,47,0,42,47
456,2.275, 2017/11/15 11:45:16.331上午,286,43,0,42,43
457,2.28, 2017/11/15 11:45:16.336上午,283,41,0,42,42
458,2.285, 2017/11/15 11:45:16.341上午,286,43,0,42,43
459,2.29, 2017/11/15 11:45:16.346上午,284,44,0,41,44
460,2.295, 2017/11/15 11:45:16.351上午,283,45,0,42,45
461,2.3, 2017/11/15 11:45:16.356上午,285,43,0,41,43
462,2.305, 2017/11/15 11:45:16.361上午,289,45,0,41,45
463,2.31, 2017/11/15 11:45:16.366上午,300,46,0,41,46
464,2.315, 2017/11/15 11:45:16.371上午,288,43,0,42,43
465,2.32, 2017/11/15 11:45:16.376上午,282,41,0,41,41
466,2.325, 2017/11/15 11:45:16.381上午,292,43,0,42,43
467,2.33, 2017/11/15 11:45:16.386上午,287,45,0,40,45
468,2.335, 2017/11/15 11:45:16.391上午,285,43,0,41,43
469,2.34, 2017/11/15 11:45:16.396上午,294,43,0,42,43
470,2.345, 2017/11/15 11:45:16.401上午,277,45,0,40,45
471,2.35, 2017/11/15 11:45:16.406上午,294,45,28,42,45
472,2.355, 2017/11/15 11:45:16.411上午,286,41,0,40,41
473,2.36, 2017/11/15 11:45:16.416上午,287,45,0,40,45
474,2.365, 2017/11/15 11:45:16.421上午,297,43,0,42,43
475,2.37, 2017/11/15 11:45:16.426上午,292,44,0,43,44
476,2.375, 2017/11/15 11:45:16.431上午,289,43,0,40,43
477,2.38, 2017/11/15 11:45:16.436上午,319,44,28,41,44
478,2.385, 2017/11/15 11:45:16.441上午,283,45,0,41,45
479,2.39, 2017/11/15 11:45:16.446上午,281,45,0,40,45
480,2.395, 2017/11/15 11:45:16.451上午,283,43,0,41,43
481,2.4, 2017/11/15 11:45:16.456上午,284,41,0,40,41
482,2.405, 2017/11/15 11:45:16.461上午,288,44,0,40,44
483,2.41, 2017/11/15 11:45:16.466上午,284,44,28,40,44
484,2.415, 2017/11/15 11:45:16.471上午,297,43,28,42,43
485,2.42, 2017/11/15 11:45:16.476上午,281,43,0,40,43
486,2.425, 2017/11/15 11:45:16.481上午,289,44,0,42,44
487,2.43, 2017/11/15 11:45:16.486上午,286,41,0,40,41
488,2.435, 2017/11/15 11:45:16.491上午,288,44,0,42,44
489,2.44, 2017/11/15 11:45:16.496上午,283,43,0,42,43
490,2.445, 2017/11/15 11:45:16.501上午,309,44,28,40,44
491,2.45, 2017/11/15 11:45:16.506上午,289,44,0,42,44
492,2.455, 2017/11/15 11:45:16.511上午,278,44,0,40,44
493,2.46, 2017/11/15 11:45:16.516上午,285,41,0,40,41
494,2.465, 2017/11/15 11:45:16.521上午,278,41,0,40,41
495,2.47, 2017/11/15 11:45:16.526上午,306,44,0,42,44
496,2.475, 2017/11/15 11:45:16.531上午,301,44,28,42,44
497,2.48, 2017/11/15 11:45:16.536上午,301,44,28,42,44
498,2.485, 2017/11/15 11:45:16.541上午,289,43,30,42,43
499,2.49, 2017/11/15 11:45:16.546上午,283,44,0,42,44
500,2.495, 2017/11/15 11:45:16.551上午,292,41,0,42,42
501,2.5, 2017/11/15 11:45:16.556上午,289,41,0,41,41
502,2.505, 2017/11/15 11:45:16.561上午,305,43,28,40,43
503,2.51, 2017/11/15 11:45:16.566上午,280,41,0,42,42
504,2.515, 2017/11/15 11:45:16.571上午,281,43,0,42,43
505,2.52, 2017/11/15 11:45:16.576上午,288,41,0,42,42
506,2.525, 2017/11/15 11:45:16.581上午,299,43,0,42,43
507,2.53, 2017/11/15 11:45:16.586上午,282,43,0,42,43
508,2.535, 2017/11/15 11:45:16.591上午,282,43,32,40,43
509,2.54, 2017/11/15 11:45:16.596上午,276,41,0,42,42
510,2.545, 2017/11/15 11:45:16.601上午,286,41,0,42,42
511,2.55, 2017/11/15 11:45:16.606上午,293,41,0,42,42
512,2.555, 2017/11/15 11:45:16.611上午,287,44,0,42,44
513,2.56, 2017/11/15 11:45:16.616上午,295,43,0,42,43
514,2.565, 2017/11/15 11:45:16.621上午,291,43,0,40,43
515,2.57, 2017/11/15 11:45:16.626上午,277,44,0,42,44
516,2.575, 2017/11/15 11:45:16.631上午,273,41,0,42,42
517,2.58, 2017/11/15 11:45:16.636上午,285,41,0,42,42
518,2.585, 2017/11/15 11:45:16.641上午,290,43,0,42,43
519,2.59, 2017/11/15 11:45:16.646上午,294,41,0,42,42
520,2.595, 2017/11/15 11:45:16.651上午,306,43,0,40,43
521,2.6, 2017/11/15 11:45:16.656上午,302,43,32,42,43
522,2.605, 2017/11/15 11:45:16.661上午,282,45,0,42,45
523,2.61, 2017/11/15 11:45:16.666上午,289,41,0,42,42
524,2.615, 2017/11/15 11:45:16.671上午,318,43,30,40,43
525,2.62, 2017/11/15 11:45:16.676上午,284,43,0,43,43
526,2.625, 2017/11/15 11:45:16.681上午,287,44,0,42,44
527,2.63, 2017/11/15 11:45:16.686上午,286,41,0,42,42
528,2.635, 2017/11/15 11:45:16.691上午,294,44,0,42,44
529,2.64, 2017/11/15 11:45:16.696上午,283,45,0,43,45
530,2.645, 2017/11/15 11:45:16.701上午,284,44,0,40,44
531,2.65, 2017/11/15 11:45:16.706上午,272,41,0,42,42
532,2.655, 2017/11/15 11:45:16.711上午,290,43,0,41,43
533,2.66, 2017/11/15 11:45:16.716上午,285,41,0,43,43
534,2.665, 2017/11/15 11:45:16.721上午,314,43,30,44,44
535,2.67, 2017/11/15 11:45:16.726上午,294,43,0,42,43
536,2.675, 2017/11/15 11:45:16.731上午,300,43,28,43,43
537,2.68, 2017/11/15 11:45:16.736上午,298,43,32,42,43
538,2.685, 2017/11/15 11:45:16.741上午,284,41,0,42,42
539,2.69, 2017/11/15 11:45:16.746上午,302,43,32,42,43
540,2.695, 2017/11/15 11:45:16.751上午,313,43,28,40,43
541,2.7, 2017/11/15 11:45:16.756上午,302,43,32,42,43
542,2.705, 2017/11/15 11:45:16.761上午,279,41,0,42,42
543,2.71, 2017/11/15 11:45:16.766上午,294,41,0,44,44
544,2.715, 2017/11/15 11:45:16.771上午,287,43,0,44,44
545,2.72, 2017/11/15 11:45:16.776上午,314,43,28,42,43
546,2.725, 2017/11/15 11:45:16.781上午,304,44,28,42,44
547,2.73, 2017/11/15 11:45:16.786上午,291,41,0,41,41
548,2.735, 2017/11/15 11:45:16.791上午,294,43,0,42,43
549,2.74, 2017/11/15 11:45:16.796上午,309,45,28,42,45
550,2.745, 2017/11/15 11:45:16.801上午,292,43,0,42,43
551,2.75, 2017/11/15 11:45:16.806上午,286,45,0,42,45
552,2.755, 2017/11/15 11:45:16.811上午,277,41,0,42,42
553,2.76, 2017/11/15 11:45:16.816上午,284,41,0,40,41
554,2.765, 2017/11/15 11:45:16.821上午,297,41,0,42,42
555,2.77, 2017/11/15 11:45:16.826上午,290,45,0,42,45
556,2.775, 2017/11/15 11:45:16.831上午,298,45,28,42,45
557,2.78, 2017/11/15 11:45:16.836上午,299,43,32,41,43
558,2.785, 2017/11/15 11:45:16.841上午,286,41,0,41,41
559,2.79, 2017/11/15 11:45:16.846上午,291,41,0,43,43
560,2.795, 2017/11/15 11:45:16.851上午,316,44,30,42,44
561,2.8, 2017/11/15 11:45:16.856上午,290,43,32,42,43
562,2.805, 2017/11/15 11:45:16.861上午,284,41,0,42,42
563,2.81, 2017/11/15 11:45:16.866上午,323,42,30,40,42
564,2.815, 2017/11/15 11:45:16.871上午,286,43,0,42,43
565,2.82, 2017/11/15 11:45:16.876上午,295,41,0,41,41
566,2.825, 2017/11/15 11:45:16.881上午,296,43,32,42,43
567,2.83, 2017/11/15 11:45:16.886上午,297,43,32,41,43
568,2.835, 2017/11/15 11:45:16.891上午,296,41,0,42,42
569,2.84, 2017/11/15 11:45:16.896上午,304,43,32,40,43
570,2.845, 2017/11/15 11:45:16.901上午,308,43,28,40,43
571,2.85, 2017/11/15 11:45:16.906上午,277,42,0,41,42
572,2.855, 2017/11/15 11:45:16.911上午,293,43,0,42,43
573,2.86, 2017/11/15 11:45:16.916上午,295,44,0,41,44
574,2.865, 2017/11/15 11:45:16.921上午,279,46,0,40,46
575,2.87, 2017/11/15 11:45:16.926上午,287,43,30,42,43
576,2.875, 2017/11/15 11:45:16.931上午,290,42,0,39,42
577,2.88, 2017/11/15 11:45:16.936上午,302,44,0,40,44
578,2.885, 2017/11/15 11:45:16.941上午,284,42,0,40,42
579,2.89, 2017/11/15 11:45:16.946上午,294,43,0,42,43
580,2.895, 2017/11/15 11:45:16.951上午,283,41,0,41,41
581,2.9, 2017/11/15 11:45:16.956上午,296,43,0,42,43
582,2.905, 2017/11/15 11:45:16.961上午,280,42,0,41,42
583,2.91, 2017/11/15 11:45:16.966上午,272,41,0,42,42
584,2.915, 2017/11/15 11:45:16.971上午,282,41,0,43,43
585,2.92, 2017/11/15 11:45:16.976上午,303,44,28,42,44
586,2.925, 2017/11/15 11:45:16.981上午,278,45,0,42,45
587,2.93, 2017/11/15 11:45:16.986上午,284,41,0,41,41
588,2.935, 2017/11/15 11:45:16.991上午,300,43,0,44,44
589,2.94, 2017/11/15 11:45:16.996上午,307,43,30,41,43
590,2.945, 2017/11/15 11:45:17.001上午,285,41,0,41,41
591,2.95, 2017/11/15 11:45:17.006上午,291,43,0,40,43
592,2.955, 2017/11/15 11:45:17.011上午,299,43,0,41,43
593,2.96, 2017/11/15 11:45:17.016上午,276,44,0,41,44
594,2.965, 2017/11/15 11:45:17.021上午,286,43,0,41,43
595,2.97, 2017/11/15 11:45:17.026上午,299,43,0,41,43
596,2.975, 2017/11/15 11:45:17.031上午,306,43,32,42,43
597,2.98, 2017/11/15 11:45:17.036上午,299,43,32,40,43
598,2.985, 2017/11/15 11:45:17.041上午,291,41,0,41,41
599,2.99, 2017/11/15 11:45:17.046上午,292,41,0,41,41
600,2.995, 2017/11/15 11:45:17.051上午,294,44,0,40,44
@@,,,,,,,
