DATA_TYPE Graph
VERSION Tekscan Pressure Measurement System 6.70-03
HARDWARE 00114-3447
MAP_VERSION 6.5
HW_TYPE 4
VersaPogoFsx 0
檔案名 C:\Users\asus\Desktop\工研院_計畫\收案資料\Subject02\Plantar Pressure\FOAM_STAND_RIGHT_3.fsx
SENSOR_TYPE FSCAN
ROWS 60
COLS 21
ROW_SPACING 0.508 centimeters
COL_SPACING 0.508 centimeters
SENSEL_AREA 0.258064 cm2
NOISE_THRESHOLD 3
SECONDS_PER_FRAME 0.005
SECONDS_PER_FRAME 0
MICRO_SECOND 0
TIME 2017/11/15 12:03:28.695下午
SATURATION_PRESSURE 2347.96 KPa 
CALIBRATION_POINT_1 48.0001 (Kilograms) 1981 (Raw Sum) 199 (Number of Loaded Cells)
CALIBRATION_MODE_1 步態
CALIBRATION_INFO C:\Users\asus\Desktop\工研院_計畫\收案資料\Subject02\Plantar Pressure\FOAM_STAND_RIGHT_3.fsx
SENSITIVITY 自定義
MAP_INDEX 0
SUBMAP 0
Patient ID: 

Speed of Gait: 

Weight: 

Gender: 

Physician: 

Technician: 

Shoe: 

START_FRAME 1
END_FRAME 600
UNITS cm2
ASCII_DATA @@
畫面(X), 時間(X), 絕對時間(X), Raw Sum, 區域(Y:藍色), 區域(Y), 區域(Y), 區域(Y)
1, 0, 2017/11/15 12:03:28.695下午, 146.0, 6.97, 0.00, 3.87, 10.84
2, 0.005, 2017/11/15 12:03:28.7下午, 139.0, 6.71, 0.00, 3.35, 10.06
3, 0.01, 2017/11/15 12:03:28.705下午, 143.0, 5.68, 0.00, 4.39, 10.06
4, 0.015, 2017/11/15 12:03:28.71下午, 147.0, 5.68, 0.00, 4.90, 10.58
5, 0.02, 2017/11/15 12:03:28.715下午, 154.0, 5.68, 0.00, 5.42, 11.10
6, 0.025, 2017/11/15 12:03:28.72下午, 167.0, 7.23, 0.00, 5.16, 12.39
7, 0.03, 2017/11/15 12:03:28.725下午, 135.0, 5.94, 0.00, 3.61, 9.55
8, 0.035, 2017/11/15 12:03:28.73下午, 137.0, 4.90, 0.00, 4.90, 9.81
9, 0.04, 2017/11/15 12:03:28.735下午, 156.0, 6.19, 0.00, 5.16, 11.35
10, 0.045, 2017/11/15 12:03:28.74下午, 124.0, 6.19, 0.00, 2.32, 8.52
11, 0.05, 2017/11/15 12:03:28.745下午, 138.0, 6.45, 0.00, 3.35, 9.81
12, 0.055, 2017/11/15 12:03:28.75下午, 141.0, 5.68, 0.00, 4.39, 10.06
13, 0.06, 2017/11/15 12:03:28.755下午, 157.0, 6.45, 0.00, 5.16, 11.61
14, 0.065, 2017/11/15 12:03:28.76下午, 136.0, 5.94, 0.00, 3.61, 9.55
15, 0.07, 2017/11/15 12:03:28.765下午, 129.0, 4.90, 0.00, 4.13, 9.03
16, 0.075, 2017/11/15 12:03:28.77下午, 162.0, 6.71, 0.00, 5.42, 12.13
17, 0.08, 2017/11/15 12:03:28.775下午, 139.0, 6.19, 0.00, 3.61, 9.81
18, 0.085, 2017/11/15 12:03:28.78下午, 141.0, 5.68, 0.00, 4.65, 10.32
19, 0.09, 2017/11/15 12:03:28.785下午, 152.0, 5.94, 0.00, 5.16, 11.10
20, 0.095, 2017/11/15 12:03:28.79下午, 168.0, 7.48, 0.00, 4.90, 12.39
21, 0.1, 2017/11/15 12:03:28.795下午, 131.0, 4.65, 0.00, 4.39, 9.03
22, 0.105, 2017/11/15 12:03:28.8下午, 161.0, 6.19, 0.00, 5.68, 11.87
23, 0.11, 2017/11/15 12:03:28.805下午, 154.0, 6.19, 0.00, 5.16, 11.35
24, 0.115, 2017/11/15 12:03:28.81下午, 136.0, 6.45, 0.00, 3.10, 9.55
25, 0.12, 2017/11/15 12:03:28.815下午, 127.0, 4.65, 0.00, 4.39, 9.03
26, 0.125, 2017/11/15 12:03:28.82下午, 153.0, 5.94, 0.00, 5.16, 11.10
27, 0.13, 2017/11/15 12:03:28.825下午, 163.0, 7.23, 0.00, 4.90, 12.13
28, 0.135, 2017/11/15 12:03:28.83下午, 140.0, 5.16, 0.00, 4.39, 9.55
29, 0.14, 2017/11/15 12:03:28.835下午, 151.0, 6.19, 0.00, 4.90, 11.10
30, 0.145, 2017/11/15 12:03:28.84下午, 144.0, 6.19, 0.00, 4.13, 10.32
31, 0.15, 2017/11/15 12:03:28.845下午, 140.0, 5.94, 0.00, 4.13, 10.06
32, 0.155, 2017/11/15 12:03:28.85下午, 146.0, 5.94, 0.00, 4.90, 10.84
33, 0.16, 2017/11/15 12:03:28.855下午, 161.0, 7.48, 0.00, 4.39, 11.87
34, 0.165, 2017/11/15 12:03:28.86下午, 159.0, 5.94, 0.00, 5.42, 11.35
35, 0.17, 2017/11/15 12:03:28.865下午, 149.0, 5.94, 0.00, 5.16, 11.10
36, 0.175, 2017/11/15 12:03:28.87下午, 151.0, 6.45, 0.00, 4.39, 10.84
37, 0.18, 2017/11/15 12:03:28.875下午, 147.0, 5.68, 0.00, 4.90, 10.58
38, 0.185, 2017/11/15 12:03:28.88下午, 156.0, 5.94, 0.00, 5.68, 11.61
39, 0.19, 2017/11/15 12:03:28.885下午, 147.0, 6.45, 0.00, 4.13, 10.58
40, 0.195, 2017/11/15 12:03:28.89下午, 139.0, 5.16, 0.00, 4.90, 10.06
41, 0.2, 2017/11/15 12:03:28.895下午, 153.0, 5.68, 0.00, 5.68, 11.35
42, 0.205, 2017/11/15 12:03:28.9下午, 148.0, 6.71, 0.00, 4.13, 10.84
43, 0.21, 2017/11/15 12:03:28.905下午, 137.0, 5.42, 0.00, 4.13, 9.55
44, 0.215, 2017/11/15 12:03:28.91下午, 130.0, 4.13, 0.00, 4.90, 9.03
45, 0.22, 2017/11/15 12:03:28.915下午, 154.0, 5.94, 0.00, 5.68, 11.61
46, 0.225, 2017/11/15 12:03:28.92下午, 151.0, 7.48, 0.00, 3.61, 11.10
47, 0.23, 2017/11/15 12:03:28.925下午, 136.0, 5.42, 0.00, 4.39, 9.81
48, 0.235, 2017/11/15 12:03:28.93下午, 143.0, 5.42, 0.00, 4.65, 10.06
49, 0.24, 2017/11/15 12:03:28.935下午, 151.0, 6.19, 0.00, 5.16, 11.35
50, 0.245, 2017/11/15 12:03:28.94下午, 137.0, 6.45, 0.00, 3.35, 9.81
51, 0.25, 2017/11/15 12:03:28.945下午, 148.0, 5.68, 0.00, 4.90, 10.58
52, 0.255, 2017/11/15 12:03:28.95下午, 147.0, 6.97, 0.00, 3.87, 10.84
53, 0.26, 2017/11/15 12:03:28.955下午, 141.0, 6.45, 0.00, 3.61, 10.06
54, 0.265, 2017/11/15 12:03:28.96下午, 143.0, 5.68, 0.00, 4.65, 10.32
55, 0.27, 2017/11/15 12:03:28.965下午, 144.0, 6.19, 0.00, 4.39, 10.58
56, 0.275, 2017/11/15 12:03:28.97下午, 150.0, 7.23, 0.00, 3.61, 10.84
57, 0.28, 2017/11/15 12:03:28.975下午, 140.0, 6.19, 0.00, 4.13, 10.32
58, 0.285, 2017/11/15 12:03:28.98下午, 136.0, 5.68, 0.00, 4.39, 10.06
59, 0.29, 2017/11/15 12:03:28.985下午, 156.0, 6.97, 0.00, 4.65, 11.61
60, 0.295, 2017/11/15 12:03:28.99下午, 139.0, 5.16, 0.00, 4.39, 9.55
61, 0.3, 2017/11/15 12:03:28.995下午, 146.0, 5.42, 0.00, 5.16, 10.58
62, 0.305, 2017/11/15 12:03:29下午, 149.0, 5.94, 0.00, 5.16, 11.10
63, 0.31, 2017/11/15 12:03:29.005下午, 134.0, 6.71, 0.00, 2.84, 9.55
64, 0.315, 2017/11/15 12:03:29.01下午, 155.0, 6.97, 0.00, 4.39, 11.35
65, 0.32, 2017/11/15 12:03:29.015下午, 136.0, 5.16, 0.00, 4.39, 9.55
66, 0.325, 2017/11/15 12:03:29.02下午, 147.0, 6.19, 0.00, 4.90, 11.10
67, 0.33, 2017/11/15 12:03:29.025下午, 149.0, 6.71, 0.00, 4.13, 10.84
68, 0.335, 2017/11/15 12:03:29.03下午, 146.0, 6.19, 0.00, 4.65, 10.84
69, 0.34, 2017/11/15 12:03:29.035下午, 135.0, 4.90, 0.00, 4.65, 9.55
70, 0.345, 2017/11/15 12:03:29.04下午, 155.0, 6.71, 0.00, 4.90, 11.61
71, 0.35, 2017/11/15 12:03:29.045下午, 132.0, 6.19, 0.00, 3.35, 9.55
72, 0.355, 2017/11/15 12:03:29.05下午, 124.0, 4.39, 0.00, 4.39, 8.77
73, 0.36, 2017/11/15 12:03:29.055下午, 149.0, 6.19, 0.00, 4.90, 11.10
74, 0.365, 2017/11/15 12:03:29.06下午, 142.0, 6.19, 0.00, 3.87, 10.06
75, 0.37, 2017/11/15 12:03:29.065下午, 123.0, 4.13, 0.00, 4.39, 8.52
76, 0.375, 2017/11/15 12:03:29.07下午, 149.0, 5.68, 0.00, 5.42, 11.10
77, 0.38, 2017/11/15 12:03:29.075下午, 161.0, 6.19, 0.00, 5.68, 11.87
78, 0.385, 2017/11/15 12:03:29.08下午, 134.0, 5.94, 0.00, 3.87, 9.81
79, 0.39, 2017/11/15 12:03:29.085下午, 145.0, 5.68, 0.00, 4.90, 10.58
80, 0.395, 2017/11/15 12:03:29.09下午, 143.0, 6.45, 0.00, 3.87, 10.32
81, 0.4, 2017/11/15 12:03:29.095下午, 154.0, 6.71, 0.00, 4.65, 11.35
82, 0.405, 2017/11/15 12:03:29.1下午, 116.0, 4.65, 0.00, 3.35, 8.00
83, 0.41, 2017/11/15 12:03:29.105下午, 149.0, 5.68, 0.00, 5.42, 11.10
84, 0.415, 2017/11/15 12:03:29.11下午, 154.0, 5.94, 0.00, 5.68, 11.61
85, 0.42, 2017/11/15 12:03:29.115下午, 133.0, 5.94, 0.00, 3.61, 9.55
86, 0.425, 2017/11/15 12:03:29.12下午, 138.0, 4.90, 0.00, 4.90, 9.81
87, 0.43, 2017/11/15 12:03:29.125下午, 147.0, 5.68, 0.00, 5.16, 10.84
88, 0.435, 2017/11/15 12:03:29.13下午, 151.0, 6.19, 0.00, 4.90, 11.10
89, 0.44, 2017/11/15 12:03:29.135下午, 108.0, 4.13, 0.00, 3.35, 7.48
90, 0.445, 2017/11/15 12:03:29.14下午, 155.0, 5.94, 0.00, 5.68, 11.61
91, 0.45, 2017/11/15 12:03:29.145下午, 132.0, 6.19, 0.00, 3.35, 9.55
92, 0.455, 2017/11/15 12:03:29.15下午, 127.0, 4.90, 0.00, 4.13, 9.03
93, 0.46, 2017/11/15 12:03:29.155下午, 147.0, 5.68, 0.00, 5.16, 10.84
94, 0.465, 2017/11/15 12:03:29.16下午, 132.0, 6.19, 0.00, 3.10, 9.29
95, 0.47, 2017/11/15 12:03:29.165下午, 140.0, 5.42, 0.00, 4.39, 9.81
96, 0.475, 2017/11/15 12:03:29.17下午, 137.0, 4.90, 0.00, 4.90, 9.81
97, 0.48, 2017/11/15 12:03:29.175下午, 153.0, 5.94, 0.00, 5.68, 11.61
98, 0.485, 2017/11/15 12:03:29.18下午, 134.0, 6.19, 0.00, 3.35, 9.55
99, 0.49, 2017/11/15 12:03:29.185下午, 143.0, 5.68, 0.00, 4.65, 10.32
100, 0.495, 2017/11/15 12:03:29.19下午, 150.0, 6.19, 0.00, 4.90, 11.10
101, 0.5, 2017/11/15 12:03:29.195下午, 135.0, 5.16, 0.00, 4.65, 9.81
102, 0.505, 2017/11/15 12:03:29.2下午, 122.0, 4.39, 0.00, 4.39, 8.77
103, 0.51, 2017/11/15 12:03:29.205下午, 150.0, 5.68, 0.00, 5.42, 11.10
104, 0.515, 2017/11/15 12:03:29.21下午, 159.0, 5.94, 0.00, 6.19, 12.13
105, 0.52, 2017/11/15 12:03:29.215下午, 140.0, 6.19, 0.00, 3.87, 10.06
106, 0.525, 2017/11/15 12:03:29.22下午, 126.0, 3.87, 0.00, 4.90, 8.77
107, 0.53, 2017/11/15 12:03:29.225下午, 145.0, 5.68, 0.00, 5.16, 10.84
108, 0.535, 2017/11/15 12:03:29.23下午, 134.0, 6.19, 0.00, 3.35, 9.55
109, 0.54, 2017/11/15 12:03:29.235下午, 127.0, 5.42, 0.00, 3.61, 9.03
110, 0.545, 2017/11/15 12:03:29.24下午, 131.0, 4.65, 0.00, 4.90, 9.55
111, 0.55, 2017/11/15 12:03:29.245下午, 163.0, 6.71, 0.00, 5.68, 12.39
112, 0.555, 2017/11/15 12:03:29.25下午, 130.0, 4.65, 0.00, 4.65, 9.29
113, 0.56, 2017/11/15 12:03:29.255下午, 142.0, 5.42, 0.00, 4.90, 10.32
114, 0.565, 2017/11/15 12:03:29.26下午, 154.0, 5.94, 0.00, 5.68, 11.61
115, 0.57, 2017/11/15 12:03:29.265下午, 132.0, 4.65, 0.00, 4.90, 9.55
116, 0.575, 2017/11/15 12:03:29.27下午, 138.0, 4.90, 0.00, 4.90, 9.81
117, 0.58, 2017/11/15 12:03:29.275下午, 154.0, 5.42, 0.00, 6.19, 11.61
118, 0.585, 2017/11/15 12:03:29.28下午, 148.0, 6.19, 0.00, 4.90, 11.10
119, 0.59, 2017/11/15 12:03:29.285下午, 126.0, 4.39, 0.00, 4.65, 9.03
120, 0.595, 2017/11/15 12:03:29.29下午, 143.0, 5.68, 0.00, 4.65, 10.32
121, 0.6, 2017/11/15 12:03:29.295下午, 132.0, 6.19, 0.00, 3.10, 9.29
122, 0.605, 2017/11/15 12:03:29.3下午, 126.0, 5.42, 0.00, 3.87, 9.29
123, 0.61, 2017/11/15 12:03:29.305下午, 140.0, 4.90, 0.00, 4.65, 9.55
124, 0.615, 2017/11/15 12:03:29.31下午, 153.0, 5.68, 0.00, 5.68, 11.35
125, 0.62, 2017/11/15 12:03:29.315下午, 158.0, 6.71, 0.00, 5.16, 11.87
126, 0.625, 2017/11/15 12:03:29.32下午, 125.0, 4.39, 0.00, 4.39, 8.77
127, 0.63, 2017/11/15 12:03:29.325下午, 157.0, 6.19, 0.00, 5.68, 11.87
128, 0.635, 2017/11/15 12:03:29.33下午, 135.0, 5.16, 0.00, 4.90, 10.06
129, 0.64, 2017/11/15 12:03:29.335下午, 130.0, 4.90, 0.00, 4.39, 9.29
130, 0.645, 2017/11/15 12:03:29.34下午, 148.0, 5.42, 0.00, 5.68, 11.10
131, 0.65, 2017/11/15 12:03:29.345下午, 134.0, 5.42, 0.00, 4.13, 9.55
132, 0.655, 2017/11/15 12:03:29.35下午, 138.0, 5.68, 0.00, 4.39, 10.06
133, 0.66, 2017/11/15 12:03:29.355下午, 124.0, 5.42, 0.00, 3.87, 9.29
134, 0.665, 2017/11/15 12:03:29.36下午, 133.0, 4.65, 0.00, 4.65, 9.29
135, 0.67, 2017/11/15 12:03:29.365下午, 157.0, 5.94, 0.00, 5.68, 11.61
136, 0.675, 2017/11/15 12:03:29.37下午, 138.0, 5.42, 0.00, 4.90, 10.32
137, 0.68, 2017/11/15 12:03:29.375下午, 146.0, 5.16, 0.00, 5.42, 10.58
138, 0.685, 2017/11/15 12:03:29.38下午, 136.0, 4.13, 0.00, 5.68, 9.81
139, 0.69, 2017/11/15 12:03:29.385下午, 142.0, 6.19, 0.00, 4.65, 10.84
140, 0.695, 2017/11/15 12:03:29.39下午, 129.0, 3.87, 0.00, 5.16, 9.03
141, 0.7, 2017/11/15 12:03:29.395下午, 162.0, 5.94, 0.00, 6.19, 12.13
142, 0.705, 2017/11/15 12:03:29.4下午, 138.0, 5.68, 0.00, 4.39, 10.06
143, 0.71, 2017/11/15 12:03:29.405下午, 139.0, 5.16, 0.00, 4.90, 10.06
144, 0.715, 2017/11/15 12:03:29.41下午, 155.0, 5.42, 0.00, 6.19, 11.61
145, 0.72, 2017/11/15 12:03:29.415下午, 147.0, 6.19, 0.00, 4.65, 10.84
146, 0.725, 2017/11/15 12:03:29.42下午, 132.0, 4.65, 0.00, 4.65, 9.29
147, 0.73, 2017/11/15 12:03:29.425下午, 147.0, 5.68, 0.00, 5.16, 10.84
148, 0.735, 2017/11/15 12:03:29.43下午, 128.0, 5.94, 0.00, 3.35, 9.29
149, 0.74, 2017/11/15 12:03:29.435下午, 128.0, 5.68, 0.00, 3.35, 9.03
150, 0.745, 2017/11/15 12:03:29.44下午, 147.0, 4.90, 0.00, 5.68, 10.58
151, 0.75, 2017/11/15 12:03:29.445下午, 142.0, 5.68, 0.00, 4.90, 10.58
152, 0.755, 2017/11/15 12:03:29.45下午, 139.0, 5.16, 0.00, 4.65, 9.81
153, 0.76, 2017/11/15 12:03:29.455下午, 138.0, 4.65, 0.00, 5.68, 10.32
154, 0.765, 2017/11/15 12:03:29.46下午, 126.0, 4.90, 0.00, 4.39, 9.29
155, 0.77, 2017/11/15 12:03:29.465下午, 152.0, 5.68, 0.00, 5.16, 10.84
156, 0.775, 2017/11/15 12:03:29.47下午, 134.0, 5.68, 0.00, 3.87, 9.55
157, 0.78, 2017/11/15 12:03:29.475下午, 143.0, 5.68, 0.00, 4.65, 10.32
158, 0.785, 2017/11/15 12:03:29.48下午, 134.0, 4.13, 0.00, 5.42, 9.55
159, 0.79, 2017/11/15 12:03:29.485下午, 160.0, 6.19, 0.00, 5.94, 12.13
160, 0.795, 2017/11/15 12:03:29.49下午, 141.0, 5.68, 0.00, 4.65, 10.32
161, 0.8, 2017/11/15 12:03:29.495下午, 150.0, 5.68, 0.00, 5.42, 11.10
162, 0.805, 2017/11/15 12:03:29.5下午, 147.0, 5.68, 0.00, 5.16, 10.84
163, 0.81, 2017/11/15 12:03:29.505下午, 137.0, 5.16, 0.00, 4.90, 10.06
164, 0.815, 2017/11/15 12:03:29.51下午, 147.0, 5.16, 0.00, 5.68, 10.84
165, 0.82, 2017/11/15 12:03:29.515下午, 152.0, 5.42, 0.00, 6.19, 11.61
166, 0.825, 2017/11/15 12:03:29.52下午, 134.0, 5.16, 0.00, 4.65, 9.81
167, 0.83, 2017/11/15 12:03:29.525下午, 154.0, 5.68, 0.00, 5.68, 11.35
168, 0.835, 2017/11/15 12:03:29.53下午, 126.0, 4.90, 0.00, 4.39, 9.29
169, 0.84, 2017/11/15 12:03:29.535下午, 140.0, 4.90, 0.00, 5.16, 10.06
170, 0.845, 2017/11/15 12:03:29.54下午, 149.0, 4.90, 0.00, 6.19, 11.10
171, 0.85, 2017/11/15 12:03:29.545下午, 131.0, 5.16, 0.00, 4.39, 9.55
172, 0.855, 2017/11/15 12:03:29.55下午, 141.0, 4.90, 0.00, 5.16, 10.06
173, 0.86, 2017/11/15 12:03:29.555下午, 130.0, 5.16, 0.00, 4.65, 9.81
174, 0.865, 2017/11/15 12:03:29.56下午, 126.0, 4.39, 0.00, 4.65, 9.03
175, 0.87, 2017/11/15 12:03:29.565下午, 136.0, 4.90, 0.00, 4.90, 9.81
176, 0.875, 2017/11/15 12:03:29.57下午, 143.0, 5.68, 0.00, 5.16, 10.84
177, 0.88, 2017/11/15 12:03:29.575下午, 132.0, 4.39, 0.00, 4.90, 9.29
178, 0.885, 2017/11/15 12:03:29.58下午, 139.0, 4.65, 0.00, 5.42, 10.06
179, 0.89, 2017/11/15 12:03:29.585下午, 154.0, 5.68, 0.00, 6.19, 11.87
180, 0.895, 2017/11/15 12:03:29.59下午, 132.0, 4.13, 0.00, 5.16, 9.29
181, 0.9, 2017/11/15 12:03:29.595下午, 154.0, 5.68, 0.00, 5.68, 11.35
182, 0.905, 2017/11/15 12:03:29.6下午, 158.0, 6.19, 0.00, 5.68, 11.87
183, 0.91, 2017/11/15 12:03:29.605下午, 140.0, 5.68, 0.00, 4.39, 10.06
184, 0.915, 2017/11/15 12:03:29.61下午, 145.0, 4.90, 0.00, 5.68, 10.58
185, 0.92, 2017/11/15 12:03:29.615下午, 142.0, 4.65, 0.00, 5.68, 10.32
186, 0.925, 2017/11/15 12:03:29.62下午, 150.0, 6.19, 0.00, 5.16, 11.35
187, 0.93, 2017/11/15 12:03:29.625下午, 143.0, 4.90, 0.00, 5.16, 10.06
188, 0.935, 2017/11/15 12:03:29.63下午, 151.0, 5.68, 0.00, 5.68, 11.35
189, 0.94, 2017/11/15 12:03:29.635下午, 139.0, 5.16, 0.00, 4.90, 10.06
190, 0.945, 2017/11/15 12:03:29.64下午, 138.0, 5.16, 0.00, 4.90, 10.06
191, 0.95, 2017/11/15 12:03:29.645下午, 145.0, 5.42, 0.00, 4.90, 10.32
192, 0.955, 2017/11/15 12:03:29.65下午, 164.0, 5.94, 0.00, 6.71, 12.65
193, 0.96, 2017/11/15 12:03:29.655下午, 141.0, 5.68, 0.00, 4.65, 10.32
194, 0.965, 2017/11/15 12:03:29.66下午, 145.0, 5.42, 0.00, 5.16, 10.58
195, 0.97, 2017/11/15 12:03:29.665下午, 151.0, 5.68, 0.00, 5.68, 11.35
196, 0.975, 2017/11/15 12:03:29.67下午, 124.0, 3.87, 0.00, 4.90, 8.77
197, 0.98, 2017/11/15 12:03:29.675下午, 142.0, 4.65, 0.00, 5.68, 10.32
198, 0.985, 2017/11/15 12:03:29.68下午, 144.0, 5.16, 0.00, 5.16, 10.32
199, 0.99, 2017/11/15 12:03:29.685下午, 138.0, 5.68, 0.00, 4.39, 10.06
200, 0.995, 2017/11/15 12:03:29.69下午, 139.0, 4.90, 0.00, 4.65, 9.55
201, 1, 2017/11/15 12:03:29.695下午, 160.0, 6.19, 0.00, 5.68, 11.87
202, 1.005, 2017/11/15 12:03:29.7下午, 148.0, 5.94, 0.00, 4.90, 10.84
203, 1.01, 2017/11/15 12:03:29.705下午, 127.0, 4.39, 0.00, 4.65, 9.03
204, 1.015, 2017/11/15 12:03:29.71下午, 153.0, 5.42, 0.00, 5.68, 11.10
205, 1.02, 2017/11/15 12:03:29.715下午, 144.0, 5.16, 0.00, 5.68, 10.84
206, 1.025, 2017/11/15 12:03:29.72下午, 138.0, 5.68, 0.00, 4.39, 10.06
207, 1.03, 2017/11/15 12:03:29.725下午, 134.0, 4.90, 0.00, 4.39, 9.29
208, 1.035, 2017/11/15 12:03:29.73下午, 152.0, 5.68, 0.00, 5.68, 11.35
209, 1.04, 2017/11/15 12:03:29.735下午, 134.0, 5.68, 0.00, 4.39, 10.06
210, 1.045, 2017/11/15 12:03:29.74下午, 138.0, 4.90, 0.00, 4.90, 9.81
211, 1.05, 2017/11/15 12:03:29.745下午, 155.0, 5.42, 0.00, 5.94, 11.35
212, 1.055, 2017/11/15 12:03:29.75下午, 133.0, 5.68, 0.00, 3.87, 9.55
213, 1.06, 2017/11/15 12:03:29.755下午, 146.0, 5.42, 0.00, 4.65, 10.06
214, 1.065, 2017/11/15 12:03:29.76下午, 163.0, 5.94, 0.00, 6.19, 12.13
215, 1.07, 2017/11/15 12:03:29.765下午, 140.0, 5.68, 0.00, 4.65, 10.32
216, 1.075, 2017/11/15 12:03:29.77下午, 148.0, 5.16, 0.00, 5.68, 10.84
217, 1.08, 2017/11/15 12:03:29.775下午, 139.0, 5.68, 0.00, 4.65, 10.32
218, 1.085, 2017/11/15 12:03:29.78下午, 138.0, 4.65, 0.00, 5.16, 9.81
219, 1.09, 2017/11/15 12:03:29.785下午, 138.0, 3.87, 0.00, 6.19, 10.06
220, 1.095, 2017/11/15 12:03:29.79下午, 135.0, 5.16, 0.00, 4.65, 9.81
221, 1.1, 2017/11/15 12:03:29.795下午, 145.0, 5.68, 0.00, 4.90, 10.58
222, 1.105, 2017/11/15 12:03:29.8下午, 148.0, 5.94, 0.00, 5.16, 11.10
223, 1.11, 2017/11/15 12:03:29.805下午, 146.0, 6.19, 0.00, 4.65, 10.84
224, 1.115, 2017/11/15 12:03:29.81下午, 114.0, 4.39, 0.00, 3.61, 8.00
225, 1.12, 2017/11/15 12:03:29.815下午, 145.0, 4.90, 0.00, 5.68, 10.58
226, 1.125, 2017/11/15 12:03:29.82下午, 146.0, 5.16, 0.00, 5.68, 10.84
227, 1.13, 2017/11/15 12:03:29.825下午, 158.0, 6.45, 0.00, 4.90, 11.35
228, 1.135, 2017/11/15 12:03:29.83下午, 133.0, 4.65, 0.00, 4.65, 9.29
229, 1.14, 2017/11/15 12:03:29.835下午, 164.0, 6.19, 0.00, 6.19, 12.39
230, 1.145, 2017/11/15 12:03:29.84下午, 133.0, 4.90, 0.00, 4.65, 9.55
231, 1.15, 2017/11/15 12:03:29.845下午, 127.0, 4.13, 0.00, 4.65, 8.77
232, 1.155, 2017/11/15 12:03:29.85下午, 153.0, 5.94, 0.00, 5.42, 11.35
233, 1.16, 2017/11/15 12:03:29.855下午, 126.0, 4.39, 0.00, 4.65, 9.03
234, 1.165, 2017/11/15 12:03:29.86下午, 154.0, 5.42, 0.00, 5.94, 11.35
235, 1.17, 2017/11/15 12:03:29.865下午, 151.0, 5.94, 0.00, 5.16, 11.10
236, 1.175, 2017/11/15 12:03:29.87下午, 129.0, 4.90, 0.00, 4.39, 9.29
237, 1.18, 2017/11/15 12:03:29.875下午, 150.0, 5.94, 0.00, 5.16, 11.10
238, 1.185, 2017/11/15 12:03:29.88下午, 141.0, 5.94, 0.00, 4.39, 10.32
239, 1.19, 2017/11/15 12:03:29.885下午, 138.0, 5.42, 0.00, 4.39, 9.81
240, 1.195, 2017/11/15 12:03:29.89下午, 153.0, 5.42, 0.00, 5.68, 11.10
241, 1.2, 2017/11/15 12:03:29.895下午, 145.0, 6.71, 0.00, 3.87, 10.58
242, 1.205, 2017/11/15 12:03:29.9下午, 138.0, 4.90, 0.00, 4.90, 9.81
243, 1.21, 2017/11/15 12:03:29.905下午, 152.0, 5.68, 0.00, 5.68, 11.35
244, 1.215, 2017/11/15 12:03:29.91下午, 146.0, 5.94, 0.00, 4.39, 10.32
245, 1.22, 2017/11/15 12:03:29.915下午, 151.0, 5.16, 0.00, 5.68, 10.84
246, 1.225, 2017/11/15 12:03:29.92下午, 147.0, 5.68, 0.00, 5.16, 10.84
247, 1.23, 2017/11/15 12:03:29.925下午, 139.0, 5.68, 0.00, 4.39, 10.06
248, 1.235, 2017/11/15 12:03:29.93下午, 154.0, 5.94, 0.00, 5.42, 11.35
249, 1.24, 2017/11/15 12:03:29.935下午, 143.0, 6.45, 0.00, 3.87, 10.32
250, 1.245, 2017/11/15 12:03:29.94下午, 152.0, 5.68, 0.00, 5.42, 11.10
251, 1.25, 2017/11/15 12:03:29.945下午, 147.0, 4.90, 0.00, 6.19, 11.10
252, 1.255, 2017/11/15 12:03:29.95下午, 132.0, 6.19, 0.00, 3.35, 9.55
253, 1.26, 2017/11/15 12:03:29.955下午, 146.0, 4.90, 0.00, 5.42, 10.32
254, 1.265, 2017/11/15 12:03:29.96下午, 146.0, 5.94, 0.00, 4.65, 10.58
255, 1.27, 2017/11/15 12:03:29.965下午, 143.0, 5.16, 0.00, 4.65, 9.81
256, 1.275, 2017/11/15 12:03:29.97下午, 163.0, 6.19, 0.00, 6.19, 12.39
257, 1.28, 2017/11/15 12:03:29.975下午, 139.0, 5.16, 0.00, 4.65, 9.81
258, 1.285, 2017/11/15 12:03:29.98下午, 147.0, 5.68, 0.00, 5.16, 10.84
259, 1.29, 2017/11/15 12:03:29.985下午, 132.0, 6.19, 0.00, 3.10, 9.29
260, 1.295, 2017/11/15 12:03:29.99下午, 126.0, 4.39, 0.00, 4.39, 8.77
261, 1.3, 2017/11/15 12:03:29.995下午, 154.0, 5.94, 0.00, 5.68, 11.61
262, 1.305, 2017/11/15 12:03:30下午, 141.0, 5.94, 0.00, 4.39, 10.32
263, 1.31, 2017/11/15 12:03:30.005下午, 138.0, 5.16, 0.00, 4.39, 9.55
264, 1.315, 2017/11/15 12:03:30.01下午, 161.0, 6.19, 0.00, 5.68, 11.87
265, 1.32, 2017/11/15 12:03:30.015下午, 134.0, 5.94, 0.00, 3.87, 9.81
266, 1.325, 2017/11/15 12:03:30.02下午, 143.0, 5.68, 0.00, 4.39, 10.06
267, 1.33, 2017/11/15 12:03:30.025下午, 158.0, 5.94, 0.00, 5.68, 11.61
268, 1.335, 2017/11/15 12:03:30.03下午, 150.0, 6.71, 0.00, 4.13, 10.84
269, 1.34, 2017/11/15 12:03:30.035下午, 151.0, 5.68, 0.00, 5.16, 10.84
270, 1.345, 2017/11/15 12:03:30.04下午, 146.0, 6.19, 0.00, 4.39, 10.58
271, 1.35, 2017/11/15 12:03:30.045下午, 153.0, 6.97, 0.00, 4.13, 11.10
272, 1.355, 2017/11/15 12:03:30.05下午, 143.0, 4.90, 0.00, 5.68, 10.58
273, 1.36, 2017/11/15 12:03:30.055下午, 149.0, 5.94, 0.00, 4.90, 10.84
274, 1.365, 2017/11/15 12:03:30.06下午, 146.0, 4.90, 0.00, 5.42, 10.32
275, 1.37, 2017/11/15 12:03:30.065下午, 155.0, 6.19, 0.00, 4.90, 11.10
276, 1.375, 2017/11/15 12:03:30.07下午, 143.0, 5.42, 0.00, 4.65, 10.06
277, 1.38, 2017/11/15 12:03:30.075下午, 159.0, 6.19, 0.00, 5.94, 12.13
278, 1.385, 2017/11/15 12:03:30.08下午, 137.0, 6.19, 0.00, 3.61, 9.81
279, 1.39, 2017/11/15 12:03:30.085下午, 149.0, 4.90, 0.00, 5.68, 10.58
280, 1.395, 2017/11/15 12:03:30.09下午, 153.0, 5.94, 0.00, 5.16, 11.10
281, 1.4, 2017/11/15 12:03:30.095下午, 142.0, 6.19, 0.00, 3.87, 10.06
282, 1.405, 2017/11/15 12:03:30.1下午, 147.0, 5.68, 0.00, 5.16, 10.84
283, 1.41, 2017/11/15 12:03:30.105下午, 138.0, 5.94, 0.00, 4.13, 10.06
284, 1.415, 2017/11/15 12:03:30.11下午, 139.0, 5.42, 0.00, 4.65, 10.06
285, 1.42, 2017/11/15 12:03:30.115下午, 153.0, 6.19, 0.00, 5.16, 11.35
286, 1.425, 2017/11/15 12:03:30.12下午, 143.0, 5.68, 0.00, 4.65, 10.32
287, 1.43, 2017/11/15 12:03:30.125下午, 141.0, 5.16, 0.00, 4.65, 9.81
288, 1.435, 2017/11/15 12:03:30.13下午, 161.0, 5.94, 0.00, 6.19, 12.13
289, 1.44, 2017/11/15 12:03:30.135下午, 130.0, 4.65, 0.00, 4.65, 9.29
290, 1.445, 2017/11/15 12:03:30.14下午, 144.0, 5.94, 0.00, 4.65, 10.58
291, 1.45, 2017/11/15 12:03:30.145下午, 157.0, 6.71, 0.00, 4.90, 11.61
292, 1.455, 2017/11/15 12:03:30.15下午, 132.0, 4.65, 0.00, 4.65, 9.29
293, 1.46, 2017/11/15 12:03:30.155下午, 148.0, 6.19, 0.00, 4.39, 10.58
294, 1.465, 2017/11/15 12:03:30.16下午, 135.0, 5.16, 0.00, 4.39, 9.55
295, 1.47, 2017/11/15 12:03:30.165下午, 153.0, 6.19, 0.00, 5.16, 11.35
296, 1.475, 2017/11/15 12:03:30.17下午, 154.0, 6.45, 0.00, 4.65, 11.10
297, 1.48, 2017/11/15 12:03:30.175下午, 147.0, 5.16, 0.00, 5.16, 10.32
298, 1.485, 2017/11/15 12:03:30.18下午, 165.0, 6.19, 0.00, 6.19, 12.39
299, 1.49, 2017/11/15 12:03:30.185下午, 128.0, 5.16, 0.00, 3.61, 8.77
300, 1.495, 2017/11/15 12:03:30.19下午, 158.0, 6.19, 0.00, 5.68, 11.87
301, 1.5, 2017/11/15 12:03:30.195下午, 135.0, 6.19, 0.00, 3.35, 9.55
302, 1.505, 2017/11/15 12:03:30.2下午, 138.0, 5.42, 0.00, 4.65, 10.06
303, 1.51, 2017/11/15 12:03:30.205下午, 154.0, 5.94, 0.00, 5.68, 11.61
304, 1.515, 2017/11/15 12:03:30.21下午, 154.0, 5.94, 0.00, 5.16, 11.10
305, 1.52, 2017/11/15 12:03:30.215下午, 142.0, 5.42, 0.00, 4.39, 9.81
306, 1.525, 2017/11/15 12:03:30.22下午, 161.0, 6.19, 0.00, 5.68, 11.87
307, 1.53, 2017/11/15 12:03:30.225下午, 147.0, 5.94, 0.00, 4.39, 10.32
308, 1.535, 2017/11/15 12:03:30.23下午, 145.0, 4.90, 0.00, 5.42, 10.32
309, 1.54, 2017/11/15 12:03:30.235下午, 148.0, 5.94, 0.00, 4.65, 10.58
310, 1.545, 2017/11/15 12:03:30.24下午, 140.0, 5.16, 0.00, 4.65, 9.81
311, 1.55, 2017/11/15 12:03:30.245下午, 166.0, 6.19, 0.00, 6.19, 12.39
312, 1.555, 2017/11/15 12:03:30.25下午, 130.0, 5.94, 0.00, 3.35, 9.29
313, 1.56, 2017/11/15 12:03:30.255下午, 148.0, 5.42, 0.00, 5.16, 10.58
314, 1.565, 2017/11/15 12:03:30.26下午, 140.0, 6.19, 0.00, 3.87, 10.06
315, 1.57, 2017/11/15 12:03:30.265下午, 137.0, 4.90, 0.00, 4.39, 9.29
316, 1.575, 2017/11/15 12:03:30.27下午, 154.0, 5.94, 0.00, 5.68, 11.61
317, 1.58, 2017/11/15 12:03:30.275下午, 146.0, 5.68, 0.00, 4.90, 10.58
318, 1.585, 2017/11/15 12:03:30.28下午, 133.0, 4.39, 0.00, 4.65, 9.03
319, 1.59, 2017/11/15 12:03:30.285下午, 157.0, 6.19, 0.00, 5.68, 11.87
320, 1.595, 2017/11/15 12:03:30.29下午, 129.0, 5.94, 0.00, 3.10, 9.03
321, 1.6, 2017/11/15 12:03:30.295下午, 144.0, 5.42, 0.00, 4.90, 10.32
322, 1.605, 2017/11/15 12:03:30.3下午, 159.0, 5.68, 0.00, 6.19, 11.87
323, 1.61, 2017/11/15 12:03:30.305下午, 148.0, 6.71, 0.00, 4.13, 10.84
324, 1.615, 2017/11/15 12:03:30.31下午, 132.0, 4.65, 0.00, 4.39, 9.03
325, 1.62, 2017/11/15 12:03:30.315下午, 147.0, 5.42, 0.00, 5.16, 10.58
326, 1.625, 2017/11/15 12:03:30.32下午, 152.0, 6.19, 0.00, 4.90, 11.10
327, 1.63, 2017/11/15 12:03:30.325下午, 136.0, 5.16, 0.00, 4.39, 9.55
328, 1.635, 2017/11/15 12:03:30.33下午, 151.0, 5.94, 0.00, 5.16, 11.10
329, 1.64, 2017/11/15 12:03:30.335下午, 145.0, 6.19, 0.00, 4.13, 10.32
330, 1.645, 2017/11/15 12:03:30.34下午, 140.0, 6.45, 0.00, 3.61, 10.06
331, 1.65, 2017/11/15 12:03:30.345下午, 150.0, 5.68, 0.00, 5.16, 10.84
332, 1.655, 2017/11/15 12:03:30.35下午, 158.0, 6.19, 0.00, 5.68, 11.87
333, 1.66, 2017/11/15 12:03:30.355下午, 129.0, 4.90, 0.00, 4.39, 9.29
334, 1.665, 2017/11/15 12:03:30.36下午, 159.0, 5.94, 0.00, 5.68, 11.61
335, 1.67, 2017/11/15 12:03:30.365下午, 129.0, 5.94, 0.00, 3.10, 9.03
336, 1.675, 2017/11/15 12:03:30.37下午, 138.0, 5.16, 0.00, 4.39, 9.55
337, 1.68, 2017/11/15 12:03:30.375下午, 149.0, 6.71, 0.00, 4.13, 10.84
338, 1.685, 2017/11/15 12:03:30.38下午, 145.0, 5.94, 0.00, 4.39, 10.32
339, 1.69, 2017/11/15 12:03:30.385下午, 151.0, 4.90, 0.00, 5.94, 10.84
340, 1.695, 2017/11/15 12:03:30.39下午, 159.0, 6.19, 0.00, 5.68, 11.87
341, 1.7, 2017/11/15 12:03:30.395下午, 137.0, 5.68, 0.00, 3.87, 9.55
342, 1.705, 2017/11/15 12:03:30.4下午, 157.0, 5.94, 0.00, 5.68, 11.61
343, 1.71, 2017/11/15 12:03:30.405下午, 160.0, 6.97, 0.00, 4.65, 11.61
344, 1.715, 2017/11/15 12:03:30.41下午, 149.0, 5.94, 0.00, 4.65, 10.58
345, 1.72, 2017/11/15 12:03:30.415下午, 162.0, 6.19, 0.00, 5.68, 11.87
346, 1.725, 2017/11/15 12:03:30.42下午, 159.0, 6.71, 0.00, 4.90, 11.61
347, 1.73, 2017/11/15 12:03:30.425下午, 132.0, 4.90, 0.00, 4.39, 9.29
348, 1.735, 2017/11/15 12:03:30.43下午, 163.0, 6.71, 0.00, 5.68, 12.39
349, 1.74, 2017/11/15 12:03:30.435下午, 139.0, 5.16, 0.00, 4.65, 9.81
350, 1.745, 2017/11/15 12:03:30.44下午, 157.0, 5.42, 0.00, 6.19, 11.61
351, 1.75, 2017/11/15 12:03:30.445下午, 154.0, 6.19, 0.00, 4.90, 11.10
352, 1.755, 2017/11/15 12:03:30.45下午, 143.0, 5.94, 0.00, 4.13, 10.06
353, 1.76, 2017/11/15 12:03:30.455下午, 153.0, 5.94, 0.00, 5.42, 11.35
354, 1.765, 2017/11/15 12:03:30.46下午, 148.0, 6.71, 0.00, 3.87, 10.58
355, 1.77, 2017/11/15 12:03:30.465下午, 140.0, 5.16, 0.00, 4.39, 9.55
356, 1.775, 2017/11/15 12:03:30.47下午, 152.0, 5.94, 0.00, 5.16, 11.10
357, 1.78, 2017/11/15 12:03:30.475下午, 133.0, 4.65, 0.00, 4.39, 9.03
358, 1.785, 2017/11/15 12:03:30.48下午, 170.0, 5.94, 0.00, 6.97, 12.90
359, 1.79, 2017/11/15 12:03:30.485下午, 151.0, 6.19, 0.00, 4.90, 11.10
360, 1.795, 2017/11/15 12:03:30.49下午, 133.0, 4.65, 0.00, 4.39, 9.03
361, 1.8, 2017/11/15 12:03:30.495下午, 157.0, 6.19, 0.00, 5.42, 11.61
362, 1.805, 2017/11/15 12:03:30.5下午, 126.0, 5.68, 0.00, 3.10, 8.77
363, 1.81, 2017/11/15 12:03:30.505下午, 138.0, 5.68, 0.00, 4.13, 9.81
364, 1.815, 2017/11/15 12:03:30.51下午, 146.0, 5.68, 0.00, 4.90, 10.58
365, 1.82, 2017/11/15 12:03:30.515下午, 149.0, 6.71, 0.00, 4.13, 10.84
366, 1.825, 2017/11/15 12:03:30.52下午, 144.0, 5.68, 0.00, 4.39, 10.06
367, 1.83, 2017/11/15 12:03:30.525下午, 147.0, 5.68, 0.00, 4.90, 10.58
368, 1.835, 2017/11/15 12:03:30.53下午, 174.0, 6.19, 0.00, 6.71, 12.90
369, 1.84, 2017/11/15 12:03:30.535下午, 130.0, 5.68, 0.00, 3.61, 9.29
370, 1.845, 2017/11/15 12:03:30.54下午, 151.0, 5.94, 0.00, 4.90, 10.84
371, 1.85, 2017/11/15 12:03:30.545下午, 118.0, 6.19, 0.00, 2.06, 8.26
372, 1.855, 2017/11/15 12:03:30.55下午, 143.0, 5.68, 0.00, 4.39, 10.06
373, 1.86, 2017/11/15 12:03:30.555下午, 172.0, 6.19, 0.00, 6.71, 12.90
374, 1.865, 2017/11/15 12:03:30.56下午, 158.0, 6.71, 0.00, 4.90, 11.61
375, 1.87, 2017/11/15 12:03:30.565下午, 142.0, 5.68, 0.00, 4.39, 10.06
376, 1.875, 2017/11/15 12:03:30.57下午, 144.0, 5.42, 0.00, 5.16, 10.58
377, 1.88, 2017/11/15 12:03:30.575下午, 152.0, 6.71, 0.00, 4.39, 11.10
378, 1.885, 2017/11/15 12:03:30.58下午, 141.0, 5.16, 0.00, 4.65, 9.81
379, 1.89, 2017/11/15 12:03:30.585下午, 158.0, 6.19, 0.00, 5.68, 11.87
380, 1.895, 2017/11/15 12:03:30.59下午, 144.0, 6.19, 0.00, 4.39, 10.58
381, 1.9, 2017/11/15 12:03:30.595下午, 142.0, 5.68, 0.00, 4.39, 10.06
382, 1.905, 2017/11/15 12:03:30.6下午, 150.0, 5.42, 0.00, 5.42, 10.84
383, 1.91, 2017/11/15 12:03:30.605下午, 134.0, 6.19, 0.00, 3.35, 9.55
384, 1.915, 2017/11/15 12:03:30.61下午, 144.0, 6.45, 0.00, 4.13, 10.58
385, 1.92, 2017/11/15 12:03:30.615下午, 141.0, 5.16, 0.00, 4.65, 9.81
386, 1.925, 2017/11/15 12:03:30.62下午, 162.0, 5.94, 0.00, 6.19, 12.13
387, 1.93, 2017/11/15 12:03:30.625下午, 146.0, 6.19, 0.00, 4.39, 10.58
388, 1.935, 2017/11/15 12:03:30.63下午, 140.0, 4.90, 0.00, 4.65, 9.55
389, 1.94, 2017/11/15 12:03:30.635下午, 150.0, 5.94, 0.00, 5.16, 11.10
390, 1.945, 2017/11/15 12:03:30.64下午, 140.0, 6.71, 0.00, 3.35, 10.06
391, 1.95, 2017/11/15 12:03:30.645下午, 136.0, 4.65, 0.00, 4.90, 9.55
392, 1.955, 2017/11/15 12:03:30.65下午, 142.0, 6.19, 0.00, 3.87, 10.06
393, 1.96, 2017/11/15 12:03:30.655下午, 144.0, 5.42, 0.00, 4.65, 10.06
394, 1.965, 2017/11/15 12:03:30.66下午, 165.0, 6.19, 0.00, 6.19, 12.39
395, 1.97, 2017/11/15 12:03:30.665下午, 137.0, 6.71, 0.00, 3.35, 10.06
396, 1.975, 2017/11/15 12:03:30.67下午, 146.0, 5.94, 0.00, 4.39, 10.32
397, 1.98, 2017/11/15 12:03:30.675下午, 151.0, 4.90, 0.00, 5.94, 10.84
398, 1.985, 2017/11/15 12:03:30.68下午, 157.0, 5.94, 0.00, 5.68, 11.61
399, 1.99, 2017/11/15 12:03:30.685下午, 150.0, 5.94, 0.00, 5.16, 11.10
400, 1.995, 2017/11/15 12:03:30.69下午, 159.0, 6.19, 0.00, 5.68, 11.87
401, 2, 2017/11/15 12:03:30.695下午, 152.0, 6.71, 0.00, 4.13, 10.84
402, 2.005, 2017/11/15 12:03:30.7下午, 145.0, 5.42, 0.00, 4.90, 10.32
403, 2.01, 2017/11/15 12:03:30.705下午, 146.0, 5.42, 0.00, 4.90, 10.32
404, 2.015, 2017/11/15 12:03:30.71下午, 142.0, 5.16, 0.00, 5.16, 10.32
405, 2.02, 2017/11/15 12:03:30.715下午, 137.0, 6.71, 0.00, 3.10, 9.81
406, 2.025, 2017/11/15 12:03:30.72下午, 137.0, 5.16, 0.00, 4.39, 9.55
407, 2.03, 2017/11/15 12:03:30.725下午, 165.0, 6.19, 0.00, 6.19, 12.39
408, 2.035, 2017/11/15 12:03:30.73下午, 155.0, 6.71, 0.00, 4.65, 11.35
409, 2.04, 2017/11/15 12:03:30.735下午, 145.0, 5.42, 0.00, 4.90, 10.32
410, 2.045, 2017/11/15 12:03:30.74下午, 150.0, 5.68, 0.00, 5.16, 10.84
411, 2.05, 2017/11/15 12:03:30.745下午, 167.0, 6.19, 0.00, 6.19, 12.39
412, 2.055, 2017/11/15 12:03:30.75下午, 136.0, 5.16, 0.00, 4.65, 9.81
413, 2.06, 2017/11/15 12:03:30.755下午, 151.0, 5.42, 0.00, 5.42, 10.84
414, 2.065, 2017/11/15 12:03:30.76下午, 176.0, 7.23, 0.00, 5.94, 13.16
415, 2.07, 2017/11/15 12:03:30.765下午, 133.0, 5.42, 0.00, 4.13, 9.55
416, 2.075, 2017/11/15 12:03:30.77下午, 139.0, 4.90, 0.00, 4.90, 9.81
417, 2.08, 2017/11/15 12:03:30.775下午, 167.0, 6.19, 0.00, 6.19, 12.39
418, 2.085, 2017/11/15 12:03:30.78下午, 159.0, 6.97, 0.00, 4.39, 11.35
419, 2.09, 2017/11/15 12:03:30.785下午, 147.0, 5.94, 0.00, 4.65, 10.58
420, 2.095, 2017/11/15 12:03:30.79下午, 142.0, 5.42, 0.00, 4.65, 10.06
421, 2.1, 2017/11/15 12:03:30.795下午, 164.0, 6.19, 0.00, 6.19, 12.39
422, 2.105, 2017/11/15 12:03:30.8下午, 150.0, 6.45, 0.00, 4.65, 11.10
423, 2.11, 2017/11/15 12:03:30.805下午, 135.0, 5.16, 0.00, 4.65, 9.81
424, 2.115, 2017/11/15 12:03:30.81下午, 141.0, 5.42, 0.00, 4.90, 10.32
425, 2.12, 2017/11/15 12:03:30.815下午, 153.0, 5.68, 0.00, 5.68, 11.35
426, 2.125, 2017/11/15 12:03:30.82下午, 155.0, 6.19, 0.00, 5.16, 11.35
427, 2.13, 2017/11/15 12:03:30.825下午, 129.0, 4.13, 0.00, 4.65, 8.77
428, 2.135, 2017/11/15 12:03:30.83下午, 154.0, 5.68, 0.00, 5.42, 11.10
429, 2.14, 2017/11/15 12:03:30.835下午, 153.0, 6.19, 0.00, 4.90, 11.10
430, 2.145, 2017/11/15 12:03:30.84下午, 128.0, 5.42, 0.00, 3.61, 9.03
431, 2.15, 2017/11/15 12:03:30.845下午, 142.0, 5.68, 0.00, 4.65, 10.32
432, 2.155, 2017/11/15 12:03:30.85下午, 143.0, 4.90, 0.00, 5.16, 10.06
433, 2.16, 2017/11/15 12:03:30.855下午, 155.0, 5.68, 0.00, 5.68, 11.35
434, 2.165, 2017/11/15 12:03:30.86下午, 151.0, 5.94, 0.00, 4.90, 10.84
435, 2.17, 2017/11/15 12:03:30.865下午, 144.0, 4.90, 0.00, 5.42, 10.32
436, 2.175, 2017/11/15 12:03:30.87下午, 175.0, 6.19, 0.00, 6.97, 13.16
437, 2.18, 2017/11/15 12:03:30.875下午, 141.0, 5.16, 0.00, 5.16, 10.32
438, 2.185, 2017/11/15 12:03:30.88下午, 158.0, 5.94, 0.00, 5.68, 11.61
439, 2.19, 2017/11/15 12:03:30.885下午, 145.0, 5.94, 0.00, 4.39, 10.32
440, 2.195, 2017/11/15 12:03:30.89下午, 152.0, 6.45, 0.00, 4.65, 11.10
441, 2.2, 2017/11/15 12:03:30.895下午, 158.0, 5.68, 0.00, 5.16, 10.84
442, 2.205, 2017/11/15 12:03:30.9下午, 158.0, 6.19, 0.00, 5.68, 11.87
443, 2.21, 2017/11/15 12:03:30.905下午, 147.0, 6.19, 0.00, 4.65, 10.84
444, 2.215, 2017/11/15 12:03:30.91下午, 155.0, 6.45, 0.00, 4.90, 11.35
445, 2.22, 2017/11/15 12:03:30.915下午, 148.0, 5.16, 0.00, 5.16, 10.32
446, 2.225, 2017/11/15 12:03:30.92下午, 165.0, 5.42, 0.00, 6.97, 12.39
447, 2.23, 2017/11/15 12:03:30.925下午, 151.0, 6.19, 0.00, 4.65, 10.84
448, 2.235, 2017/11/15 12:03:30.93下午, 151.0, 6.19, 0.00, 4.65, 10.84
449, 2.24, 2017/11/15 12:03:30.935下午, 149.0, 5.42, 0.00, 5.16, 10.58
450, 2.245, 2017/11/15 12:03:30.94下午, 165.0, 6.19, 0.00, 6.19, 12.39
451, 2.25, 2017/11/15 12:03:30.945下午, 127.0, 5.16, 0.00, 3.61, 8.77
452, 2.255, 2017/11/15 12:03:30.95下午, 139.0, 4.65, 0.00, 5.16, 9.81
453, 2.26, 2017/11/15 12:03:30.955下午, 134.0, 6.19, 0.00, 3.35, 9.55
454, 2.265, 2017/11/15 12:03:30.96下午, 136.0, 4.90, 0.00, 4.65, 9.55
455, 2.27, 2017/11/15 12:03:30.965下午, 151.0, 5.42, 0.00, 5.68, 11.10
456, 2.275, 2017/11/15 12:03:30.97下午, 154.0, 6.71, 0.00, 4.65, 11.35
457, 2.28, 2017/11/15 12:03:30.975下午, 142.0, 4.90, 0.00, 5.16, 10.06
458, 2.285, 2017/11/15 12:03:30.98下午, 169.0, 6.19, 0.00, 6.71, 12.90
459, 2.29, 2017/11/15 12:03:30.985下午, 143.0, 5.68, 0.00, 4.39, 10.06
460, 2.295, 2017/11/15 12:03:30.99下午, 142.0, 4.65, 0.00, 5.42, 10.06
461, 2.3, 2017/11/15 12:03:30.995下午, 166.0, 5.94, 0.00, 6.45, 12.39
462, 2.305, 2017/11/15 12:03:31下午, 138.0, 6.19, 0.00, 3.87, 10.06
463, 2.31, 2017/11/15 12:03:31.005下午, 152.0, 5.42, 0.00, 5.68, 11.10
464, 2.315, 2017/11/15 12:03:31.01下午, 157.0, 5.94, 0.00, 5.68, 11.61
465, 2.32, 2017/11/15 12:03:31.015下午, 124.0, 5.42, 0.00, 3.35, 8.77
466, 2.325, 2017/11/15 12:03:31.02下午, 150.0, 5.42, 0.00, 5.42, 10.84
467, 2.33, 2017/11/15 12:03:31.025下午, 156.0, 5.42, 0.00, 6.19, 11.61
468, 2.335, 2017/11/15 12:03:31.03下午, 155.0, 6.71, 0.00, 4.65, 11.35
469, 2.34, 2017/11/15 12:03:31.035下午, 140.0, 4.65, 0.00, 5.16, 9.81
470, 2.345, 2017/11/15 12:03:31.04下午, 163.0, 5.94, 0.00, 6.19, 12.13
471, 2.35, 2017/11/15 12:03:31.045下午, 144.0, 5.42, 0.00, 4.65, 10.06
472, 2.355, 2017/11/15 12:03:31.05下午, 146.0, 4.39, 0.00, 6.19, 10.58
473, 2.36, 2017/11/15 12:03:31.055下午, 130.0, 6.19, 0.00, 3.10, 9.29
474, 2.365, 2017/11/15 12:03:31.06下午, 146.0, 5.16, 0.00, 5.16, 10.32
475, 2.37, 2017/11/15 12:03:31.065下午, 172.0, 5.94, 0.00, 6.97, 12.90
476, 2.375, 2017/11/15 12:03:31.07下午, 138.0, 5.16, 0.00, 4.65, 9.81
477, 2.38, 2017/11/15 12:03:31.075下午, 149.0, 5.94, 0.00, 4.65, 10.58
478, 2.385, 2017/11/15 12:03:31.08下午, 149.0, 4.90, 0.00, 5.68, 10.58
479, 2.39, 2017/11/15 12:03:31.085下午, 170.0, 6.71, 0.00, 6.19, 12.90
480, 2.395, 2017/11/15 12:03:31.09下午, 149.0, 5.68, 0.00, 4.90, 10.58
481, 2.4, 2017/11/15 12:03:31.095下午, 141.0, 4.13, 0.00, 5.94, 10.06
482, 2.405, 2017/11/15 12:03:31.1下午, 170.0, 5.94, 0.00, 6.97, 12.90
483, 2.41, 2017/11/15 12:03:31.105下午, 145.0, 5.42, 0.00, 4.90, 10.32
484, 2.415, 2017/11/15 12:03:31.11下午, 141.0, 5.16, 0.00, 4.65, 9.81
485, 2.42, 2017/11/15 12:03:31.115下午, 154.0, 5.68, 0.00, 5.68, 11.35
486, 2.425, 2017/11/15 12:03:31.12下午, 134.0, 5.68, 0.00, 3.87, 9.55
487, 2.43, 2017/11/15 12:03:31.125下午, 148.0, 5.68, 0.00, 4.65, 10.32
488, 2.435, 2017/11/15 12:03:31.13下午, 149.0, 4.90, 0.00, 5.94, 10.84
489, 2.44, 2017/11/15 12:03:31.135下午, 162.0, 6.71, 0.00, 5.16, 11.87
490, 2.445, 2017/11/15 12:03:31.14下午, 147.0, 5.42, 0.00, 5.16, 10.58
491, 2.45, 2017/11/15 12:03:31.145下午, 158.0, 5.68, 0.00, 5.68, 11.35
492, 2.455, 2017/11/15 12:03:31.15下午, 148.0, 6.19, 0.00, 4.39, 10.58
493, 2.46, 2017/11/15 12:03:31.155下午, 142.0, 5.42, 0.00, 4.65, 10.06
494, 2.465, 2017/11/15 12:03:31.16下午, 151.0, 5.16, 0.00, 5.94, 11.10
495, 2.47, 2017/11/15 12:03:31.165下午, 149.0, 6.45, 0.00, 4.39, 10.84
496, 2.475, 2017/11/15 12:03:31.17下午, 148.0, 6.19, 0.00, 4.65, 10.84
497, 2.48, 2017/11/15 12:03:31.175下午, 156.0, 5.68, 0.00, 5.68, 11.35
498, 2.485, 2017/11/15 12:03:31.18下午, 159.0, 6.45, 0.00, 5.42, 11.87
499, 2.49, 2017/11/15 12:03:31.185下午, 140.0, 4.90, 0.00, 4.90, 9.81
500, 2.495, 2017/11/15 12:03:31.19下午, 172.0, 5.94, 0.00, 6.97, 12.90
501, 2.5, 2017/11/15 12:03:31.195下午, 141.0, 6.71, 0.00, 3.35, 10.06
502, 2.505, 2017/11/15 12:03:31.2下午, 134.0, 5.16, 0.00, 4.65, 9.81
503, 2.51, 2017/11/15 12:03:31.205下午, 156.0, 5.68, 0.00, 5.68, 11.35
504, 2.515, 2017/11/15 12:03:31.21下午, 150.0, 5.68, 0.00, 5.16, 10.84
505, 2.52, 2017/11/15 12:03:31.215下午, 137.0, 5.68, 0.00, 4.13, 9.81
506, 2.525, 2017/11/15 12:03:31.22下午, 145.0, 5.42, 0.00, 5.16, 10.58
507, 2.53, 2017/11/15 12:03:31.225下午, 145.0, 5.42, 0.00, 5.16, 10.58
508, 2.535, 2017/11/15 12:03:31.23下午, 147.0, 6.19, 0.00, 4.39, 10.58
509, 2.54, 2017/11/15 12:03:31.235下午, 141.0, 5.68, 0.00, 4.65, 10.32
510, 2.545, 2017/11/15 12:03:31.24下午, 161.0, 5.94, 0.00, 5.68, 11.61
511, 2.55, 2017/11/15 12:03:31.245下午, 157.0, 6.45, 0.00, 5.16, 11.61
512, 2.555, 2017/11/15 12:03:31.25下午, 145.0, 5.42, 0.00, 4.65, 10.06
513, 2.56, 2017/11/15 12:03:31.255下午, 159.0, 5.94, 0.00, 5.68, 11.61
514, 2.565, 2017/11/15 12:03:31.26下午, 134.0, 5.42, 0.00, 4.13, 9.55
515, 2.57, 2017/11/15 12:03:31.265下午, 146.0, 5.42, 0.00, 4.65, 10.06
516, 2.575, 2017/11/15 12:03:31.27下午, 160.0, 6.19, 0.00, 5.68, 11.87
517, 2.58, 2017/11/15 12:03:31.275下午, 147.0, 6.71, 0.00, 3.87, 10.58
518, 2.585, 2017/11/15 12:03:31.28下午, 151.0, 5.68, 0.00, 4.90, 10.58
519, 2.59, 2017/11/15 12:03:31.285下午, 165.0, 6.19, 0.00, 5.94, 12.13
520, 2.595, 2017/11/15 12:03:31.29下午, 132.0, 5.68, 0.00, 3.87, 9.55
521, 2.6, 2017/11/15 12:03:31.295下午, 156.0, 5.16, 0.00, 5.68, 10.84
522, 2.605, 2017/11/15 12:03:31.3下午, 163.0, 5.94, 0.00, 6.19, 12.13
523, 2.61, 2017/11/15 12:03:31.305下午, 148.0, 6.19, 0.00, 4.39, 10.58
524, 2.615, 2017/11/15 12:03:31.31下午, 158.0, 5.42, 0.00, 5.94, 11.35
525, 2.62, 2017/11/15 12:03:31.315下午, 155.0, 5.94, 0.00, 5.68, 11.61
526, 2.625, 2017/11/15 12:03:31.32下午, 134.0, 6.19, 0.00, 3.35, 9.55
527, 2.63, 2017/11/15 12:03:31.325下午, 142.0, 4.90, 0.00, 5.16, 10.06
528, 2.635, 2017/11/15 12:03:31.33下午, 156.0, 6.19, 0.00, 5.16, 11.35
529, 2.64, 2017/11/15 12:03:31.335下午, 148.0, 6.71, 0.00, 3.87, 10.58
530, 2.645, 2017/11/15 12:03:31.34下午, 143.0, 5.16, 0.00, 4.65, 9.81
531, 2.65, 2017/11/15 12:03:31.345下午, 175.0, 6.19, 0.00, 6.97, 13.16
532, 2.655, 2017/11/15 12:03:31.35下午, 150.0, 5.42, 0.00, 5.16, 10.58
533, 2.66, 2017/11/15 12:03:31.355下午, 161.0, 6.19, 0.00, 5.42, 11.61
534, 2.665, 2017/11/15 12:03:31.36下午, 164.0, 6.71, 0.00, 5.16, 11.87
535, 2.67, 2017/11/15 12:03:31.365下午, 142.0, 5.16, 0.00, 4.65, 9.81
536, 2.675, 2017/11/15 12:03:31.37下午, 164.0, 6.19, 0.00, 5.94, 12.13
537, 2.68, 2017/11/15 12:03:31.375下午, 155.0, 5.94, 0.00, 4.90, 10.84
538, 2.685, 2017/11/15 12:03:31.38下午, 158.0, 5.68, 0.00, 5.42, 11.10
539, 2.69, 2017/11/15 12:03:31.385下午, 162.0, 6.71, 0.00, 5.16, 11.87
540, 2.695, 2017/11/15 12:03:31.39下午, 147.0, 4.90, 0.00, 5.42, 10.32
541, 2.7, 2017/11/15 12:03:31.395下午, 168.0, 6.19, 0.00, 6.19, 12.39
542, 2.705, 2017/11/15 12:03:31.4下午, 156.0, 6.71, 0.00, 4.65, 11.35
543, 2.71, 2017/11/15 12:03:31.405下午, 144.0, 5.16, 0.00, 4.65, 9.81
544, 2.715, 2017/11/15 12:03:31.41下午, 165.0, 6.45, 0.00, 5.68, 12.13
545, 2.72, 2017/11/15 12:03:31.415下午, 152.0, 6.71, 0.00, 4.39, 11.10
546, 2.725, 2017/11/15 12:03:31.42下午, 138.0, 4.90, 0.00, 4.65, 9.55
547, 2.73, 2017/11/15 12:03:31.425下午, 161.0, 6.97, 0.00, 4.65, 11.61
548, 2.735, 2017/11/15 12:03:31.43下午, 161.0, 6.45, 0.00, 4.90, 11.35
549, 2.74, 2017/11/15 12:03:31.435下午, 150.0, 5.16, 0.00, 5.68, 10.84
550, 2.745, 2017/11/15 12:03:31.44下午, 159.0, 6.97, 0.00, 4.65, 11.61
551, 2.75, 2017/11/15 12:03:31.445下午, 152.0, 5.68, 0.00, 4.90, 10.58
552, 2.755, 2017/11/15 12:03:31.45下午, 177.0, 6.97, 0.00, 6.19, 13.16
553, 2.76, 2017/11/15 12:03:31.455下午, 143.0, 4.90, 0.00, 4.90, 9.81
554, 2.765, 2017/11/15 12:03:31.46下午, 164.0, 5.94, 0.00, 6.19, 12.13
555, 2.77, 2017/11/15 12:03:31.465下午, 138.0, 6.19, 0.00, 3.35, 9.55
556, 2.775, 2017/11/15 12:03:31.47下午, 152.0, 5.68, 0.00, 5.42, 11.10
557, 2.78, 2017/11/15 12:03:31.475下午, 148.0, 5.68, 0.00, 4.90, 10.58
558, 2.785, 2017/11/15 12:03:31.48下午, 149.0, 5.94, 0.00, 4.65, 10.58
559, 2.79, 2017/11/15 12:03:31.485下午, 159.0, 5.68, 0.00, 6.19, 11.87
560, 2.795, 2017/11/15 12:03:31.49下午, 145.0, 5.68, 0.00, 4.65, 10.32
561, 2.8, 2017/11/15 12:03:31.495下午, 149.0, 5.16, 0.00, 5.16, 10.32
562, 2.805, 2017/11/15 12:03:31.5下午, 155.0, 6.19, 0.00, 5.16, 11.35
563, 2.81, 2017/11/15 12:03:31.505下午, 158.0, 6.71, 0.00, 4.90, 11.61
564, 2.815, 2017/11/15 12:03:31.51下午, 147.0, 5.42, 0.00, 4.90, 10.32
565, 2.82, 2017/11/15 12:03:31.515下午, 156.0, 5.42, 0.00, 5.68, 11.10
566, 2.825, 2017/11/15 12:03:31.52下午, 165.0, 6.71, 0.00, 5.68, 12.39
567, 2.83, 2017/11/15 12:03:31.525下午, 151.0, 6.19, 0.00, 4.65, 10.84
568, 2.835, 2017/11/15 12:03:31.53下午, 154.0, 5.42, 0.00, 5.42, 10.84
569, 2.84, 2017/11/15 12:03:31.535下午, 167.0, 6.19, 0.00, 6.19, 12.39
570, 2.845, 2017/11/15 12:03:31.54下午, 143.0, 6.45, 0.00, 3.87, 10.32
571, 2.85, 2017/11/15 12:03:31.545下午, 146.0, 5.16, 0.00, 4.90, 10.06
572, 2.855, 2017/11/15 12:03:31.55下午, 155.0, 5.42, 0.00, 5.94, 11.35
573, 2.86, 2017/11/15 12:03:31.555下午, 155.0, 6.97, 0.00, 4.65, 11.61
574, 2.865, 2017/11/15 12:03:31.56下午, 152.0, 5.16, 0.00, 5.42, 10.58
575, 2.87, 2017/11/15 12:03:31.565下午, 159.0, 5.94, 0.00, 5.68, 11.61
576, 2.875, 2017/11/15 12:03:31.57下午, 158.0, 6.45, 0.00, 5.16, 11.61
577, 2.88, 2017/11/15 12:03:31.575下午, 144.0, 4.90, 0.00, 4.90, 9.81
578, 2.885, 2017/11/15 12:03:31.58下午, 154.0, 5.42, 0.00, 5.68, 11.10
579, 2.89, 2017/11/15 12:03:31.585下午, 148.0, 5.68, 0.00, 5.16, 10.84
580, 2.895, 2017/11/15 12:03:31.59下午, 160.0, 6.45, 0.00, 5.16, 11.61
581, 2.9, 2017/11/15 12:03:31.595下午, 153.0, 5.68, 0.00, 4.90, 10.58
582, 2.905, 2017/11/15 12:03:31.6下午, 164.0, 5.94, 0.00, 6.19, 12.13
583, 2.91, 2017/11/15 12:03:31.605下午, 156.0, 5.42, 0.00, 6.19, 11.61
584, 2.915, 2017/11/15 12:03:31.61下午, 129.0, 5.68, 0.00, 3.35, 9.03
585, 2.92, 2017/11/15 12:03:31.615下午, 146.0, 5.42, 0.00, 4.65, 10.06
586, 2.925, 2017/11/15 12:03:31.62下午, 146.0, 5.16, 0.00, 5.42, 10.58
587, 2.93, 2017/11/15 12:03:31.625下午, 159.0, 5.68, 0.00, 6.19, 11.87
588, 2.935, 2017/11/15 12:03:31.63下午, 139.0, 5.42, 0.00, 4.65, 10.06
589, 2.94, 2017/11/15 12:03:31.635下午, 143.0, 4.90, 0.00, 5.16, 10.06
590, 2.945, 2017/11/15 12:03:31.64下午, 157.0, 5.68, 0.00, 5.68, 11.35
591, 2.95, 2017/11/15 12:03:31.645下午, 145.0, 6.19, 0.00, 4.39, 10.58
592, 2.955, 2017/11/15 12:03:31.65下午, 152.0, 5.94, 0.00, 4.90, 10.84
593, 2.96, 2017/11/15 12:03:31.655下午, 159.0, 5.68, 0.00, 5.94, 11.61
594, 2.965, 2017/11/15 12:03:31.66下午, 160.0, 6.97, 0.00, 4.65, 11.61
595, 2.97, 2017/11/15 12:03:31.665下午, 154.0, 6.19, 0.00, 4.90, 11.10
596, 2.975, 2017/11/15 12:03:31.67下午, 156.0, 5.68, 0.00, 5.68, 11.35
597, 2.98, 2017/11/15 12:03:31.675下午, 157.0, 6.45, 0.00, 5.16, 11.61
598, 2.985, 2017/11/15 12:03:31.68下午, 152.0, 5.68, 0.00, 5.16, 10.84
599, 2.99, 2017/11/15 12:03:31.685下午, 150.0, 5.42, 0.00, 5.68, 11.10
600, 2.995, 2017/11/15 12:03:31.69下午, 156.0, 6.71, 0.00, 4.65, 11.35
@@
