DATA_TYPE Graph
VERSION Tekscan Pressure Measurement System 6.70-03
HARDWARE 00114-3447
MAP_VERSION 6.5
HW_TYPE 4
VersaPogoFsx 0
檔案名 C:\Users\asus\Desktop\工研院_計畫\收案資料\Subject02\Plantar Pressure\FOAM_STAND_RIGHT_2.fsx
SENSOR_TYPE FSCAN
ROWS 60
COLS 21
ROW_SPACING 0.508 centimeters
COL_SPACING 0.508 centimeters
SENSEL_AREA 0.258064 cm2
NOISE_THRESHOLD 3
SECONDS_PER_FRAME 0.005
SECONDS_PER_FRAME 0
MICRO_SECOND 0
TIME 2017/11/15 12:00:58.372下午
SATURATION_PRESSURE 2347.96 KPa 
CALIBRATION_POINT_1 48.0001 (Kilograms) 1981 (Raw Sum) 199 (Number of Loaded Cells)
CALIBRATION_MODE_1 步態
CALIBRATION_INFO C:\Users\asus\Desktop\工研院_計畫\收案資料\Subject02\Plantar Pressure\FOAM_STAND_RIGHT_2.fsx
SENSITIVITY 自定義
MAP_INDEX 0
SUBMAP 0
Patient ID: 

Speed of Gait: 

Weight: 

Gender: 

Physician: 

Technician: 

Shoe: 

START_FRAME 1
END_FRAME 600
UNITS cm2
ASCII_DATA @@
畫面(X), 時間(X), 絕對時間(X), Raw Sum, 區域(Y:深藍色), 區域(Y), 區域(Y), 區域(Y)
1, 0, 2017/11/15 12:00:58.372下午, 203.0, 2.84, 0.26, 10.06, 13.16
2, 0.005, 2017/11/15 12:00:58.377下午, 202.0, 3.10, 0.26, 9.03, 12.39
3, 0.01, 2017/11/15 12:00:58.382下午, 186.0, 2.32, 0.26, 9.03, 11.61
4, 0.015, 2017/11/15 12:00:58.387下午, 195.0, 2.58, 0.26, 9.29, 12.13
5, 0.02, 2017/11/15 12:00:58.392下午, 180.0, 2.32, 0.26, 8.77, 11.35
6, 0.025, 2017/11/15 12:00:58.397下午, 173.0, 2.32, 0.26, 8.26, 10.84
7, 0.03, 2017/11/15 12:00:58.402下午, 177.0, 2.32, 0.26, 8.52, 11.10
8, 0.035, 2017/11/15 12:00:58.407下午, 187.0, 2.32, 0.26, 9.29, 11.87
9, 0.04, 2017/11/15 12:00:58.412下午, 184.0, 2.84, 0.26, 8.52, 11.61
10, 0.045, 2017/11/15 12:00:58.417下午, 176.0, 2.84, 0.26, 8.00, 11.10
11, 0.05, 2017/11/15 12:00:58.422下午, 187.0, 2.06, 0.26, 9.03, 11.35
12, 0.055, 2017/11/15 12:00:58.427下午, 177.0, 2.06, 0.26, 8.52, 10.84
13, 0.06, 2017/11/15 12:00:58.432下午, 190.0, 3.10, 0.26, 8.52, 11.87
14, 0.065, 2017/11/15 12:00:58.437下午, 176.0, 2.06, 0.26, 8.52, 10.84
15, 0.07, 2017/11/15 12:00:58.442下午, 192.0, 3.35, 0.26, 8.26, 11.87
16, 0.075, 2017/11/15 12:00:58.447下午, 210.0, 3.10, 0.26, 10.32, 13.68
17, 0.08, 2017/11/15 12:00:58.452下午, 196.0, 3.10, 0.26, 9.03, 12.39
18, 0.085, 2017/11/15 12:00:58.457下午, 201.0, 3.10, 0.26, 9.29, 12.65
19, 0.09, 2017/11/15 12:00:58.462下午, 192.0, 3.10, 0.26, 8.52, 11.87
20, 0.095, 2017/11/15 12:00:58.467下午, 191.0, 3.35, 0.26, 8.77, 12.39
21, 0.1, 2017/11/15 12:00:58.472下午, 174.0, 2.32, 0.26, 8.26, 10.84
22, 0.105, 2017/11/15 12:00:58.477下午, 187.0, 3.35, 0.26, 8.26, 11.87
23, 0.11, 2017/11/15 12:00:58.482下午, 186.0, 3.10, 0.26, 8.00, 11.35
24, 0.115, 2017/11/15 12:00:58.487下午, 192.0, 3.10, 0.26, 8.77, 12.13
25, 0.12, 2017/11/15 12:00:58.492下午, 181.0, 3.10, 0.26, 8.00, 11.35
26, 0.125, 2017/11/15 12:00:58.497下午, 167.0, 3.10, 0.26, 7.48, 10.84
27, 0.13, 2017/11/15 12:00:58.502下午, 176.0, 3.10, 0.26, 8.26, 11.61
28, 0.135, 2017/11/15 12:00:58.507下午, 190.0, 3.10, 0.26, 9.55, 12.90
29, 0.14, 2017/11/15 12:00:58.512下午, 198.0, 3.35, 0.26, 9.81, 13.42
30, 0.145, 2017/11/15 12:00:58.517下午, 178.0, 2.84, 0.26, 8.77, 11.87
31, 0.15, 2017/11/15 12:00:58.522下午, 184.0, 2.58, 0.26, 8.52, 11.35
32, 0.155, 2017/11/15 12:00:58.527下午, 189.0, 3.10, 0.26, 8.77, 12.13
33, 0.16, 2017/11/15 12:00:58.532下午, 184.0, 2.84, 0.26, 8.52, 11.61
34, 0.165, 2017/11/15 12:00:58.537下午, 179.0, 3.10, 0.26, 8.00, 11.35
35, 0.17, 2017/11/15 12:00:58.542下午, 187.0, 3.35, 0.26, 8.26, 11.87
36, 0.175, 2017/11/15 12:00:58.547下午, 176.0, 3.10, 0.26, 7.48, 10.84
37, 0.18, 2017/11/15 12:00:58.552下午, 182.0, 2.84, 0.26, 9.03, 12.13
38, 0.185, 2017/11/15 12:00:58.557下午, 193.0, 3.35, 0.26, 9.55, 13.16
39, 0.19, 2017/11/15 12:00:58.562下午, 195.0, 3.35, 0.26, 9.29, 12.90
40, 0.195, 2017/11/15 12:00:58.567下午, 183.0, 3.10, 0.26, 9.29, 12.65
41, 0.2, 2017/11/15 12:00:58.572下午, 171.0, 2.84, 0.26, 7.74, 10.84
42, 0.205, 2017/11/15 12:00:58.577下午, 185.0, 3.35, 0.26, 8.00, 11.61
43, 0.21, 2017/11/15 12:00:58.582下午, 171.0, 3.61, 0.26, 7.74, 11.61
44, 0.215, 2017/11/15 12:00:58.587下午, 168.0, 3.10, 0.26, 8.00, 11.35
45, 0.22, 2017/11/15 12:00:58.592下午, 181.0, 3.35, 0.26, 8.00, 11.61
46, 0.225, 2017/11/15 12:00:58.597下午, 190.0, 4.13, 0.26, 8.26, 12.65
47, 0.23, 2017/11/15 12:00:58.602下午, 185.0, 4.13, 0.26, 8.26, 12.65
48, 0.235, 2017/11/15 12:00:58.607下午, 180.0, 4.39, 0.26, 7.74, 12.39
49, 0.24, 2017/11/15 12:00:58.612下午, 183.0, 4.13, 0.26, 8.00, 12.39
50, 0.245, 2017/11/15 12:00:58.617下午, 178.0, 3.87, 0.26, 8.00, 12.13
51, 0.25, 2017/11/15 12:00:58.622下午, 184.0, 4.39, 0.26, 8.00, 12.65
52, 0.255, 2017/11/15 12:00:58.627下午, 181.0, 3.87, 0.26, 8.00, 12.13
53, 0.26, 2017/11/15 12:00:58.632下午, 181.0, 3.87, 0.26, 7.74, 11.87
54, 0.265, 2017/11/15 12:00:58.637下午, 187.0, 4.65, 0.26, 7.48, 12.39
55, 0.27, 2017/11/15 12:00:58.642下午, 188.0, 4.39, 0.26, 8.26, 12.90
56, 0.275, 2017/11/15 12:00:58.647下午, 177.0, 4.13, 0.26, 7.74, 12.13
57, 0.28, 2017/11/15 12:00:58.652下午, 187.0, 4.65, 0.26, 7.74, 12.65
58, 0.285, 2017/11/15 12:00:58.657下午, 167.0, 3.35, 0.26, 7.74, 11.35
59, 0.29, 2017/11/15 12:00:58.662下午, 184.0, 4.65, 0.26, 8.00, 12.90
60, 0.295, 2017/11/15 12:00:58.667下午, 179.0, 4.13, 0.26, 7.74, 12.13
61, 0.3, 2017/11/15 12:00:58.672下午, 161.0, 3.35, 0.26, 6.97, 10.58
62, 0.305, 2017/11/15 12:00:58.677下午, 192.0, 4.65, 0.26, 8.00, 12.90
63, 0.31, 2017/11/15 12:00:58.682下午, 193.0, 4.13, 0.26, 8.77, 13.16
64, 0.315, 2017/11/15 12:00:58.687下午, 176.0, 3.87, 0.26, 7.48, 11.61
65, 0.32, 2017/11/15 12:00:58.692下午, 190.0, 4.13, 0.26, 8.77, 13.16
66, 0.325, 2017/11/15 12:00:58.697下午, 177.0, 4.13, 0.26, 7.48, 11.87
67, 0.33, 2017/11/15 12:00:58.702下午, 185.0, 4.13, 0.26, 8.26, 12.65
68, 0.335, 2017/11/15 12:00:58.707下午, 179.0, 4.39, 0.26, 7.74, 12.39
69, 0.34, 2017/11/15 12:00:58.712下午, 187.0, 4.65, 0.26, 8.00, 12.90
70, 0.345, 2017/11/15 12:00:58.717下午, 185.0, 4.90, 0.26, 7.48, 12.65
71, 0.35, 2017/11/15 12:00:58.722下午, 189.0, 4.39, 0.26, 7.74, 12.39
72, 0.355, 2017/11/15 12:00:58.727下午, 180.0, 4.39, 0.26, 7.48, 12.13
73, 0.36, 2017/11/15 12:00:58.732下午, 190.0, 4.65, 0.26, 7.74, 12.65
74, 0.365, 2017/11/15 12:00:58.737下午, 188.0, 5.16, 0.26, 7.23, 12.65
75, 0.37, 2017/11/15 12:00:58.742下午, 193.0, 4.65, 0.26, 8.00, 12.90
76, 0.375, 2017/11/15 12:00:58.747下午, 179.0, 4.39, 0.26, 7.48, 12.13
77, 0.38, 2017/11/15 12:00:58.752下午, 174.0, 4.13, 0.26, 7.48, 11.87
78, 0.385, 2017/11/15 12:00:58.757下午, 200.0, 5.16, 0.26, 7.74, 13.16
79, 0.39, 2017/11/15 12:00:58.762下午, 178.0, 5.16, 0.26, 6.71, 12.13
80, 0.395, 2017/11/15 12:00:58.767下午, 207.0, 5.42, 0.26, 7.74, 13.42
81, 0.4, 2017/11/15 12:00:58.772下午, 186.0, 4.90, 0.26, 7.48, 12.65
82, 0.405, 2017/11/15 12:00:58.777下午, 188.0, 4.65, 0.26, 6.71, 11.61
83, 0.41, 2017/11/15 12:00:58.782下午, 212.0, 5.16, 0.26, 9.29, 14.71
84, 0.415, 2017/11/15 12:00:58.787下午, 185.0, 4.65, 0.26, 7.48, 12.39
85, 0.42, 2017/11/15 12:00:58.792下午, 193.0, 4.90, 0.26, 7.74, 12.90
86, 0.425, 2017/11/15 12:00:58.797下午, 197.0, 4.90, 0.26, 8.00, 13.16
87, 0.43, 2017/11/15 12:00:58.802下午, 175.0, 4.39, 0.26, 6.97, 11.61
88, 0.435, 2017/11/15 12:00:58.807下午, 190.0, 5.16, 0.26, 7.74, 13.16
89, 0.44, 2017/11/15 12:00:58.812下午, 191.0, 5.68, 0.26, 7.23, 13.16
90, 0.445, 2017/11/15 12:00:58.817下午, 188.0, 5.42, 0.26, 6.45, 12.13
91, 0.45, 2017/11/15 12:00:58.822下午, 179.0, 5.42, 0.26, 6.45, 12.13
92, 0.455, 2017/11/15 12:00:58.827下午, 197.0, 5.16, 0.26, 7.23, 12.65
93, 0.46, 2017/11/15 12:00:58.832下午, 180.0, 5.16, 0.26, 6.71, 12.13
94, 0.465, 2017/11/15 12:00:58.837下午, 179.0, 4.90, 0.26, 6.97, 12.13
95, 0.47, 2017/11/15 12:00:58.842下午, 196.0, 5.42, 0.26, 7.74, 13.42
96, 0.475, 2017/11/15 12:00:58.847下午, 203.0, 6.97, 0.26, 7.23, 14.45
97, 0.48, 2017/11/15 12:00:58.852下午, 194.0, 5.68, 0.26, 7.48, 13.42
98, 0.485, 2017/11/15 12:00:58.857下午, 183.0, 5.42, 0.26, 6.71, 12.39
99, 0.49, 2017/11/15 12:00:58.862下午, 197.0, 6.19, 0.26, 6.97, 13.42
100, 0.495, 2017/11/15 12:00:58.867下午, 178.0, 5.42, 0.26, 6.19, 11.87
101, 0.5, 2017/11/15 12:00:58.872下午, 186.0, 5.94, 0.26, 6.45, 12.65
102, 0.505, 2017/11/15 12:00:58.877下午, 208.0, 6.19, 0.26, 7.23, 13.68
103, 0.51, 2017/11/15 12:00:58.882下午, 203.0, 6.19, 0.26, 7.23, 13.68
104, 0.515, 2017/11/15 12:00:58.887下午, 179.0, 5.42, 0.26, 6.45, 12.13
105, 0.52, 2017/11/15 12:00:58.892下午, 190.0, 6.19, 0.26, 6.45, 12.90
106, 0.525, 2017/11/15 12:00:58.897下午, 191.0, 5.94, 0.26, 6.45, 12.65
107, 0.53, 2017/11/15 12:00:58.902下午, 191.0, 6.19, 0.26, 6.45, 12.90
108, 0.535, 2017/11/15 12:00:58.907下午, 196.0, 5.68, 0.26, 6.97, 12.90
109, 0.54, 2017/11/15 12:00:58.912下午, 187.0, 5.68, 0.26, 6.45, 12.39
110, 0.545, 2017/11/15 12:00:58.917下午, 200.0, 6.19, 0.26, 6.97, 13.42
111, 0.55, 2017/11/15 12:00:58.922下午, 181.0, 5.68, 0.26, 5.94, 11.87
112, 0.555, 2017/11/15 12:00:58.927下午, 197.0, 6.19, 0.26, 6.71, 13.16
113, 0.56, 2017/11/15 12:00:58.932下午, 204.0, 6.71, 0.26, 6.97, 13.94
114, 0.565, 2017/11/15 12:00:58.937下午, 192.0, 7.48, 0.26, 5.16, 12.90
115, 0.57, 2017/11/15 12:00:58.942下午, 197.0, 6.71, 0.26, 5.94, 12.90
116, 0.575, 2017/11/15 12:00:58.947下午, 202.0, 7.23, 0.26, 6.19, 13.68
117, 0.58, 2017/11/15 12:00:58.952下午, 185.0, 6.45, 0.26, 5.68, 12.39
118, 0.585, 2017/11/15 12:00:58.957下午, 216.0, 7.74, 0.26, 7.23, 15.23
119, 0.59, 2017/11/15 12:00:58.962下午, 224.0, 8.26, 0.26, 7.23, 15.74
120, 0.595, 2017/11/15 12:00:58.967下午, 204.0, 6.71, 0.26, 7.23, 14.19
121, 0.6, 2017/11/15 12:00:58.972下午, 220.0, 8.00, 0.26, 7.23, 15.48
122, 0.605, 2017/11/15 12:00:58.977下午, 211.0, 7.23, 0.26, 7.23, 14.71
123, 0.61, 2017/11/15 12:00:58.982下午, 208.0, 6.45, 0.26, 7.48, 14.19
124, 0.615, 2017/11/15 12:00:58.987下午, 207.0, 7.74, 0.26, 6.19, 14.19
125, 0.62, 2017/11/15 12:00:58.992下午, 207.0, 7.48, 0.26, 6.19, 13.94
126, 0.625, 2017/11/15 12:00:58.997下午, 204.0, 7.23, 0.26, 6.19, 13.68
127, 0.63, 2017/11/15 12:00:59.002下午, 193.0, 6.71, 0.26, 6.19, 13.16
128, 0.635, 2017/11/15 12:00:59.007下午, 200.0, 7.23, 0.26, 5.94, 13.42
129, 0.64, 2017/11/15 12:00:59.012下午, 197.0, 6.45, 0.26, 6.45, 13.16
130, 0.645, 2017/11/15 12:00:59.017下午, 195.0, 6.45, 0.26, 6.19, 12.90
131, 0.65, 2017/11/15 12:00:59.022下午, 183.0, 6.45, 0.26, 5.42, 12.13
132, 0.655, 2017/11/15 12:00:59.027下午, 194.0, 6.71, 0.26, 5.68, 12.65
133, 0.66, 2017/11/15 12:00:59.032下午, 206.0, 6.97, 0.26, 5.94, 13.16
134, 0.665, 2017/11/15 12:00:59.037下午, 192.0, 6.45, 0.26, 6.19, 12.90
135, 0.67, 2017/11/15 12:00:59.042下午, 198.0, 7.23, 0.26, 5.68, 13.16
136, 0.675, 2017/11/15 12:00:59.047下午, 193.0, 7.48, 0.26, 5.42, 13.16
137, 0.68, 2017/11/15 12:00:59.052下午, 199.0, 7.74, 0.26, 5.16, 13.16
138, 0.685, 2017/11/15 12:00:59.057下午, 196.0, 7.48, 0.26, 5.68, 13.42
139, 0.69, 2017/11/15 12:00:59.062下午, 200.0, 6.97, 0.26, 6.71, 13.94
140, 0.695, 2017/11/15 12:00:59.067下午, 200.0, 6.97, 0.26, 6.19, 13.42
141, 0.7, 2017/11/15 12:00:59.072下午, 202.0, 7.23, 0.26, 6.19, 13.68
142, 0.705, 2017/11/15 12:00:59.077下午, 205.0, 7.48, 0.26, 6.19, 13.94
143, 0.71, 2017/11/15 12:00:59.082下午, 196.0, 6.45, 0.26, 6.19, 12.90
144, 0.715, 2017/11/15 12:00:59.087下午, 205.0, 7.23, 0.26, 6.19, 13.68
145, 0.72, 2017/11/15 12:00:59.092下午, 194.0, 7.23, 0.26, 5.42, 12.90
146, 0.725, 2017/11/15 12:00:59.097下午, 212.0, 7.74, 0.26, 6.19, 14.19
147, 0.73, 2017/11/15 12:00:59.102下午, 196.0, 6.97, 0.26, 6.19, 13.42
148, 0.735, 2017/11/15 12:00:59.107下午, 195.0, 7.48, 0.26, 5.16, 12.90
149, 0.74, 2017/11/15 12:00:59.112下午, 212.0, 8.00, 0.26, 5.68, 13.94
150, 0.745, 2017/11/15 12:00:59.117下午, 218.0, 8.26, 0.26, 6.71, 15.23
151, 0.75, 2017/11/15 12:00:59.122下午, 218.0, 8.00, 0.26, 6.97, 15.23
152, 0.755, 2017/11/15 12:00:59.127下午, 209.0, 6.97, 0.26, 7.23, 14.45
153, 0.76, 2017/11/15 12:00:59.132下午, 221.0, 7.74, 0.26, 7.23, 15.23
154, 0.765, 2017/11/15 12:00:59.137下午, 223.0, 8.00, 0.26, 7.23, 15.48
155, 0.77, 2017/11/15 12:00:59.142下午, 212.0, 7.48, 0.26, 6.97, 14.71
156, 0.775, 2017/11/15 12:00:59.147下午, 201.0, 7.48, 0.26, 5.94, 13.68
157, 0.78, 2017/11/15 12:00:59.152下午, 207.0, 8.26, 0.26, 5.94, 14.45
158, 0.785, 2017/11/15 12:00:59.157下午, 202.0, 7.23, 0.26, 6.45, 13.94
159, 0.79, 2017/11/15 12:00:59.162下午, 199.0, 6.97, 0.26, 5.94, 13.16
160, 0.795, 2017/11/15 12:00:59.167下午, 210.0, 7.48, 0.26, 6.19, 13.94
161, 0.8, 2017/11/15 12:00:59.172下午, 198.0, 6.45, 0.26, 6.19, 12.90
162, 0.805, 2017/11/15 12:00:59.177下午, 193.0, 6.71, 0.26, 5.68, 12.65
163, 0.81, 2017/11/15 12:00:59.182下午, 193.0, 7.23, 0.26, 5.42, 12.90
164, 0.815, 2017/11/15 12:00:59.187下午, 200.0, 7.48, 0.26, 5.68, 13.42
165, 0.82, 2017/11/15 12:00:59.192下午, 196.0, 6.97, 0.26, 5.68, 12.90
166, 0.825, 2017/11/15 12:00:59.197下午, 185.0, 6.19, 0.26, 5.68, 12.13
167, 0.83, 2017/11/15 12:00:59.202下午, 212.0, 7.48, 0.26, 6.97, 14.71
168, 0.835, 2017/11/15 12:00:59.207下午, 221.0, 8.26, 0.26, 6.71, 15.23
169, 0.84, 2017/11/15 12:00:59.212下午, 203.0, 7.23, 0.26, 6.45, 13.94
170, 0.845, 2017/11/15 12:00:59.217下午, 210.0, 7.74, 0.26, 6.19, 14.19
171, 0.85, 2017/11/15 12:00:59.222下午, 202.0, 6.97, 0.26, 6.19, 13.42
172, 0.855, 2017/11/15 12:00:59.227下午, 195.0, 6.71, 0.26, 6.19, 13.16
173, 0.86, 2017/11/15 12:00:59.232下午, 202.0, 6.97, 0.26, 6.19, 13.42
174, 0.865, 2017/11/15 12:00:59.237下午, 204.0, 7.23, 0.26, 6.45, 13.94
175, 0.87, 2017/11/15 12:00:59.242下午, 185.0, 6.97, 0.26, 4.90, 12.13
176, 0.875, 2017/11/15 12:00:59.247下午, 229.0, 8.26, 0.26, 7.23, 15.74
177, 0.88, 2017/11/15 12:00:59.252下午, 208.0, 7.74, 0.26, 6.45, 14.45
178, 0.885, 2017/11/15 12:00:59.257下午, 216.0, 8.00, 0.26, 6.71, 14.97
179, 0.89, 2017/11/15 12:00:59.262下午, 207.0, 7.48, 0.26, 6.45, 14.19
180, 0.895, 2017/11/15 12:00:59.267下午, 199.0, 6.71, 0.26, 6.45, 13.42
181, 0.9, 2017/11/15 12:00:59.272下午, 200.0, 6.97, 0.26, 6.19, 13.42
182, 0.905, 2017/11/15 12:00:59.277下午, 193.0, 6.45, 0.26, 6.19, 12.90
183, 0.91, 2017/11/15 12:00:59.282下午, 197.0, 6.71, 0.26, 5.94, 12.90
184, 0.915, 2017/11/15 12:00:59.287下午, 195.0, 6.97, 0.26, 5.68, 12.90
185, 0.92, 2017/11/15 12:00:59.292下午, 194.0, 6.45, 0.26, 5.94, 12.65
186, 0.925, 2017/11/15 12:00:59.297下午, 208.0, 7.23, 0.26, 6.45, 13.94
187, 0.93, 2017/11/15 12:00:59.302下午, 208.0, 8.00, 0.26, 6.19, 14.45
188, 0.935, 2017/11/15 12:00:59.307下午, 221.0, 8.26, 0.26, 6.97, 15.48
189, 0.94, 2017/11/15 12:00:59.312下午, 219.0, 8.00, 0.26, 7.23, 15.48
190, 0.945, 2017/11/15 12:00:59.317下午, 206.0, 6.97, 0.26, 6.97, 14.19
191, 0.95, 2017/11/15 12:00:59.322下午, 220.0, 8.00, 0.26, 7.23, 15.48
192, 0.955, 2017/11/15 12:00:59.327下午, 191.0, 6.19, 0.26, 6.45, 12.90
193, 0.96, 2017/11/15 12:00:59.332下午, 189.0, 6.19, 0.26, 6.19, 12.65
194, 0.965, 2017/11/15 12:00:59.337下午, 202.0, 6.45, 0.26, 6.71, 13.42
195, 0.97, 2017/11/15 12:00:59.342下午, 193.0, 6.45, 0.26, 6.19, 12.90
196, 0.975, 2017/11/15 12:00:59.347下午, 193.0, 7.48, 0.26, 5.42, 13.16
197, 0.98, 2017/11/15 12:00:59.352下午, 203.0, 6.71, 0.26, 6.97, 13.94
198, 0.985, 2017/11/15 12:00:59.357下午, 216.0, 6.97, 0.26, 7.74, 14.97
199, 0.99, 2017/11/15 12:00:59.362下午, 208.0, 6.71, 0.26, 7.48, 14.45
200, 0.995, 2017/11/15 12:00:59.367下午, 212.0, 7.74, 0.26, 6.97, 14.97
201, 1, 2017/11/15 12:00:59.372下午, 219.0, 7.48, 0.26, 7.48, 15.23
202, 1.005, 2017/11/15 12:00:59.377下午, 200.0, 6.71, 0.26, 6.45, 13.42
203, 1.01, 2017/11/15 12:00:59.382下午, 201.0, 6.71, 0.26, 6.45, 13.42
204, 1.015, 2017/11/15 12:00:59.387下午, 195.0, 6.71, 0.26, 6.45, 13.42
205, 1.02, 2017/11/15 12:00:59.392下午, 196.0, 6.45, 0.26, 6.19, 12.90
206, 1.025, 2017/11/15 12:00:59.397下午, 200.0, 6.45, 0.26, 6.71, 13.42
207, 1.03, 2017/11/15 12:00:59.402下午, 203.0, 6.97, 0.26, 6.45, 13.68
208, 1.035, 2017/11/15 12:00:59.407下午, 194.0, 6.45, 0.26, 6.19, 12.90
209, 1.04, 2017/11/15 12:00:59.412下午, 188.0, 6.45, 0.26, 5.68, 12.39
210, 1.045, 2017/11/15 12:00:59.417下午, 204.0, 6.97, 0.26, 6.71, 13.94
211, 1.05, 2017/11/15 12:00:59.422下午, 196.0, 6.97, 0.26, 5.94, 13.16
212, 1.055, 2017/11/15 12:00:59.427下午, 190.0, 6.71, 0.26, 5.94, 12.90
213, 1.06, 2017/11/15 12:00:59.432下午, 202.0, 7.23, 0.26, 6.19, 13.68
214, 1.065, 2017/11/15 12:00:59.437下午, 212.0, 6.97, 0.26, 7.74, 14.97
215, 1.07, 2017/11/15 12:00:59.442下午, 195.0, 6.97, 0.26, 6.19, 13.42
216, 1.075, 2017/11/15 12:00:59.447下午, 212.0, 7.23, 0.26, 7.48, 14.97
217, 1.08, 2017/11/15 12:00:59.452下午, 207.0, 6.97, 0.26, 7.48, 14.71
218, 1.085, 2017/11/15 12:00:59.457下午, 206.0, 6.97, 0.26, 7.23, 14.45
219, 1.09, 2017/11/15 12:00:59.462下午, 189.0, 6.45, 0.26, 6.45, 13.16
220, 1.095, 2017/11/15 12:00:59.467下午, 200.0, 7.23, 0.26, 6.45, 13.94
221, 1.1, 2017/11/15 12:00:59.472下午, 210.0, 7.23, 0.26, 7.48, 14.97
222, 1.105, 2017/11/15 12:00:59.477下午, 205.0, 6.45, 0.26, 8.00, 14.71
223, 1.11, 2017/11/15 12:00:59.482下午, 197.0, 6.45, 0.26, 6.71, 13.42
224, 1.115, 2017/11/15 12:00:59.487下午, 186.0, 5.42, 0.26, 6.97, 12.65
225, 1.12, 2017/11/15 12:00:59.492下午, 214.0, 7.23, 0.26, 7.23, 14.71
226, 1.125, 2017/11/15 12:00:59.497下午, 199.0, 6.97, 0.26, 6.19, 13.42
227, 1.13, 2017/11/15 12:00:59.502下午, 201.0, 6.97, 0.26, 6.45, 13.68
228, 1.135, 2017/11/15 12:00:59.507下午, 187.0, 6.19, 0.26, 6.45, 12.90
229, 1.14, 2017/11/15 12:00:59.512下午, 197.0, 6.19, 0.26, 6.97, 13.42
230, 1.145, 2017/11/15 12:00:59.517下午, 200.0, 5.94, 0.26, 6.97, 13.16
231, 1.15, 2017/11/15 12:00:59.522下午, 205.0, 6.45, 0.26, 7.23, 13.94
232, 1.155, 2017/11/15 12:00:59.527下午, 200.0, 6.19, 0.26, 6.97, 13.42
233, 1.16, 2017/11/15 12:00:59.532下午, 195.0, 6.45, 0.26, 6.19, 12.90
234, 1.165, 2017/11/15 12:00:59.537下午, 200.0, 7.23, 0.26, 6.19, 13.68
235, 1.17, 2017/11/15 12:00:59.542下午, 194.0, 6.97, 0.26, 5.94, 13.16
236, 1.175, 2017/11/15 12:00:59.547下午, 204.0, 6.71, 0.26, 6.97, 13.94
237, 1.18, 2017/11/15 12:00:59.552下午, 210.0, 6.97, 0.26, 7.48, 14.71
238, 1.185, 2017/11/15 12:00:59.557下午, 199.0, 7.23, 0.26, 6.45, 13.94
239, 1.19, 2017/11/15 12:00:59.562下午, 205.0, 6.45, 0.26, 7.74, 14.45
240, 1.195, 2017/11/15 12:00:59.567下午, 217.0, 7.74, 0.26, 7.48, 15.48
241, 1.2, 2017/11/15 12:00:59.572下午, 194.0, 7.23, 0.26, 5.94, 13.42
242, 1.205, 2017/11/15 12:00:59.577下午, 203.0, 6.71, 0.26, 7.23, 14.19
243, 1.21, 2017/11/15 12:00:59.582下午, 188.0, 5.42, 0.26, 6.97, 12.65
244, 1.215, 2017/11/15 12:00:59.587下午, 186.0, 6.19, 0.26, 6.19, 12.65
245, 1.22, 2017/11/15 12:00:59.592下午, 204.0, 6.19, 0.26, 7.23, 13.68
246, 1.225, 2017/11/15 12:00:59.597下午, 205.0, 6.19, 0.26, 7.23, 13.68
247, 1.23, 2017/11/15 12:00:59.602下午, 201.0, 6.45, 0.26, 6.97, 13.68
248, 1.235, 2017/11/15 12:00:59.607下午, 203.0, 6.45, 0.26, 6.71, 13.42
249, 1.24, 2017/11/15 12:00:59.612下午, 192.0, 5.94, 0.26, 6.45, 12.65
250, 1.245, 2017/11/15 12:00:59.617下午, 190.0, 5.94, 0.26, 6.45, 12.65
251, 1.25, 2017/11/15 12:00:59.622下午, 196.0, 6.97, 0.26, 6.19, 13.42
252, 1.255, 2017/11/15 12:00:59.627下午, 213.0, 6.97, 0.26, 7.74, 14.97
253, 1.26, 2017/11/15 12:00:59.632下午, 200.0, 6.71, 0.26, 6.97, 13.94
254, 1.265, 2017/11/15 12:00:59.637下午, 205.0, 6.97, 0.26, 6.97, 14.19
255, 1.27, 2017/11/15 12:00:59.642下午, 182.0, 5.42, 0.26, 6.97, 12.65
256, 1.275, 2017/11/15 12:00:59.647下午, 187.0, 5.42, 0.26, 6.97, 12.65
257, 1.28, 2017/11/15 12:00:59.652下午, 193.0, 4.90, 0.26, 6.97, 12.13
258, 1.285, 2017/11/15 12:00:59.657下午, 189.0, 5.16, 0.26, 6.45, 11.87
259, 1.29, 2017/11/15 12:00:59.662下午, 183.0, 5.16, 0.26, 6.97, 12.39
260, 1.295, 2017/11/15 12:00:59.667下午, 178.0, 5.42, 0.26, 6.45, 12.13
261, 1.3, 2017/11/15 12:00:59.672下午, 191.0, 4.13, 0.26, 7.48, 11.87
262, 1.305, 2017/11/15 12:00:59.677下午, 180.0, 3.87, 0.26, 6.97, 11.10
263, 1.31, 2017/11/15 12:00:59.682下午, 173.0, 3.87, 0.26, 7.23, 11.35
264, 1.315, 2017/11/15 12:00:59.687下午, 186.0, 4.90, 0.26, 6.71, 11.87
265, 1.32, 2017/11/15 12:00:59.692下午, 192.0, 5.16, 0.26, 7.23, 12.65
266, 1.325, 2017/11/15 12:00:59.697下午, 210.0, 5.16, 0.26, 8.00, 13.42
267, 1.33, 2017/11/15 12:00:59.702下午, 199.0, 4.90, 0.26, 7.48, 12.65
268, 1.335, 2017/11/15 12:00:59.707下午, 189.0, 5.16, 0.26, 7.48, 12.90
269, 1.34, 2017/11/15 12:00:59.712下午, 197.0, 4.90, 0.26, 7.48, 12.65
270, 1.345, 2017/11/15 12:00:59.717下午, 169.0, 4.39, 0.26, 6.45, 11.10
271, 1.35, 2017/11/15 12:00:59.722下午, 193.0, 5.16, 0.26, 7.48, 12.90
272, 1.355, 2017/11/15 12:00:59.727下午, 199.0, 4.90, 0.26, 8.52, 13.68
273, 1.36, 2017/11/15 12:00:59.732下午, 186.0, 4.39, 0.26, 7.23, 11.87
274, 1.365, 2017/11/15 12:00:59.737下午, 174.0, 5.16, 0.26, 6.19, 11.61
275, 1.37, 2017/11/15 12:00:59.742下午, 209.0, 5.16, 0.26, 8.00, 13.42
276, 1.375, 2017/11/15 12:00:59.747下午, 211.0, 5.68, 0.26, 8.77, 14.71
277, 1.38, 2017/11/15 12:00:59.752下午, 197.0, 4.90, 0.26, 8.00, 13.16
278, 1.385, 2017/11/15 12:00:59.757下午, 188.0, 4.39, 0.26, 7.48, 12.13
279, 1.39, 2017/11/15 12:00:59.762下午, 198.0, 4.90, 0.26, 8.00, 13.16
280, 1.395, 2017/11/15 12:00:59.767下午, 205.0, 5.42, 0.26, 8.00, 13.68
281, 1.4, 2017/11/15 12:00:59.772下午, 181.0, 4.65, 0.26, 7.48, 12.39
282, 1.405, 2017/11/15 12:00:59.777下午, 192.0, 4.65, 0.26, 7.23, 12.13
283, 1.41, 2017/11/15 12:00:59.782下午, 186.0, 3.87, 0.26, 7.48, 11.61
284, 1.415, 2017/11/15 12:00:59.787下午, 182.0, 4.90, 0.26, 7.48, 12.65
285, 1.42, 2017/11/15 12:00:59.792下午, 172.0, 3.87, 0.26, 7.74, 11.87
286, 1.425, 2017/11/15 12:00:59.797下午, 184.0, 4.39, 0.26, 8.00, 12.65
287, 1.43, 2017/11/15 12:00:59.802下午, 172.0, 3.87, 0.26, 7.48, 11.61
288, 1.435, 2017/11/15 12:00:59.807下午, 199.0, 4.90, 0.26, 7.74, 12.90
289, 1.44, 2017/11/15 12:00:59.812下午, 187.0, 4.13, 0.26, 7.23, 11.61
290, 1.445, 2017/11/15 12:00:59.817下午, 179.0, 3.87, 0.26, 7.23, 11.35
291, 1.45, 2017/11/15 12:00:59.822下午, 174.0, 3.87, 0.26, 7.74, 11.87
292, 1.455, 2017/11/15 12:00:59.827下午, 183.0, 3.87, 0.26, 8.26, 12.39
293, 1.46, 2017/11/15 12:00:59.832下午, 192.0, 4.65, 0.26, 7.23, 12.13
294, 1.465, 2017/11/15 12:00:59.837下午, 188.0, 3.87, 0.26, 7.48, 11.61
295, 1.47, 2017/11/15 12:00:59.842下午, 180.0, 3.87, 0.26, 7.23, 11.35
296, 1.475, 2017/11/15 12:00:59.847下午, 202.0, 3.87, 0.26, 8.52, 12.65
297, 1.48, 2017/11/15 12:00:59.852下午, 204.0, 4.65, 0.26, 8.26, 13.16
298, 1.485, 2017/11/15 12:00:59.857下午, 201.0, 3.87, 0.26, 8.77, 12.90
299, 1.49, 2017/11/15 12:00:59.862下午, 204.0, 3.87, 0.26, 9.03, 13.16
300, 1.495, 2017/11/15 12:00:59.867下午, 198.0, 3.87, 0.26, 8.52, 12.65
301, 1.5, 2017/11/15 12:00:59.872下午, 196.0, 4.13, 0.26, 8.26, 12.65
302, 1.505, 2017/11/15 12:00:59.877下午, 192.0, 3.87, 0.26, 8.26, 12.39
303, 1.51, 2017/11/15 12:00:59.882下午, 192.0, 3.35, 0.26, 8.52, 12.13
304, 1.515, 2017/11/15 12:00:59.887下午, 179.0, 3.87, 0.26, 7.74, 11.87
305, 1.52, 2017/11/15 12:00:59.892下午, 183.0, 3.35, 0.26, 7.48, 11.10
306, 1.525, 2017/11/15 12:00:59.897下午, 202.0, 4.39, 0.26, 8.26, 12.90
307, 1.53, 2017/11/15 12:00:59.902下午, 206.0, 4.90, 0.26, 8.26, 13.42
308, 1.535, 2017/11/15 12:00:59.907下午, 190.0, 3.10, 0.26, 9.03, 12.39
309, 1.54, 2017/11/15 12:00:59.912下午, 189.0, 3.87, 0.26, 8.00, 12.13
310, 1.545, 2017/11/15 12:00:59.917下午, 194.0, 3.61, 0.26, 8.52, 12.39
311, 1.55, 2017/11/15 12:00:59.922下午, 165.0, 3.10, 0.26, 7.74, 11.10
312, 1.555, 2017/11/15 12:00:59.927下午, 203.0, 4.39, 0.26, 8.52, 13.16
313, 1.56, 2017/11/15 12:00:59.932下午, 193.0, 3.87, 0.26, 8.26, 12.39
314, 1.565, 2017/11/15 12:00:59.937下午, 187.0, 2.84, 0.26, 8.52, 11.61
315, 1.57, 2017/11/15 12:00:59.942下午, 190.0, 4.65, 0.26, 8.00, 12.90
316, 1.575, 2017/11/15 12:00:59.947下午, 210.0, 5.16, 0.26, 8.52, 13.94
317, 1.58, 2017/11/15 12:00:59.952下午, 196.0, 4.39, 0.26, 8.26, 12.90
318, 1.585, 2017/11/15 12:00:59.957下午, 191.0, 4.90, 0.26, 8.00, 13.16
319, 1.59, 2017/11/15 12:00:59.962下午, 185.0, 3.87, 0.26, 8.00, 12.13
320, 1.595, 2017/11/15 12:00:59.967下午, 187.0, 3.35, 0.26, 8.52, 12.13
321, 1.6, 2017/11/15 12:00:59.972下午, 202.0, 4.65, 0.26, 8.52, 13.42
322, 1.605, 2017/11/15 12:00:59.977下午, 180.0, 3.61, 0.26, 7.48, 11.35
323, 1.61, 2017/11/15 12:00:59.982下午, 197.0, 3.87, 0.26, 8.26, 12.39
324, 1.615, 2017/11/15 12:00:59.987下午, 190.0, 4.65, 0.26, 8.00, 12.90
325, 1.62, 2017/11/15 12:00:59.992下午, 201.0, 4.13, 0.26, 8.52, 12.90
326, 1.625, 2017/11/15 12:00:59.997下午, 201.0, 4.65, 0.26, 8.26, 13.16
327, 1.63, 2017/11/15 12:01:00.002下午, 186.0, 4.39, 0.26, 8.00, 12.65
328, 1.635, 2017/11/15 12:01:00.007下午, 187.0, 3.87, 0.26, 7.74, 11.87
329, 1.64, 2017/11/15 12:01:00.012下午, 193.0, 4.13, 0.26, 8.00, 12.39
330, 1.645, 2017/11/15 12:01:00.017下午, 196.0, 3.87, 0.26, 8.00, 12.13
331, 1.65, 2017/11/15 12:01:00.022下午, 206.0, 3.87, 0.26, 9.03, 13.16
332, 1.655, 2017/11/15 12:01:00.027下午, 183.0, 3.35, 0.26, 7.48, 11.10
333, 1.66, 2017/11/15 12:01:00.032下午, 201.0, 3.61, 0.26, 8.77, 12.65
334, 1.665, 2017/11/15 12:01:00.037下午, 190.0, 3.61, 0.26, 8.26, 12.13
335, 1.67, 2017/11/15 12:01:00.042下午, 193.0, 2.84, 0.26, 9.03, 12.13
336, 1.675, 2017/11/15 12:01:00.047下午, 197.0, 3.87, 0.26, 8.26, 12.39
337, 1.68, 2017/11/15 12:01:00.052下午, 202.0, 3.87, 0.26, 9.03, 13.16
338, 1.685, 2017/11/15 12:01:00.057下午, 194.0, 4.13, 0.26, 8.00, 12.39
339, 1.69, 2017/11/15 12:01:00.062下午, 186.0, 3.87, 0.26, 8.52, 12.65
340, 1.695, 2017/11/15 12:01:00.067下午, 188.0, 3.87, 0.26, 7.74, 11.87
341, 1.7, 2017/11/15 12:01:00.072下午, 192.0, 3.87, 0.26, 8.26, 12.39
342, 1.705, 2017/11/15 12:01:00.077下午, 187.0, 3.35, 0.26, 8.26, 11.87
343, 1.71, 2017/11/15 12:01:00.082下午, 191.0, 3.87, 0.26, 8.00, 12.13
344, 1.715, 2017/11/15 12:01:00.087下午, 189.0, 3.61, 0.26, 7.74, 11.61
345, 1.72, 2017/11/15 12:01:00.092下午, 191.0, 3.87, 0.26, 7.74, 11.87
346, 1.725, 2017/11/15 12:01:00.097下午, 203.0, 3.87, 0.26, 8.77, 12.90
347, 1.73, 2017/11/15 12:01:00.102下午, 191.0, 3.87, 0.26, 7.74, 11.87
348, 1.735, 2017/11/15 12:01:00.107下午, 185.0, 3.35, 0.26, 7.74, 11.35
349, 1.74, 2017/11/15 12:01:00.112下午, 205.0, 3.61, 0.26, 9.03, 12.90
350, 1.745, 2017/11/15 12:01:00.117下午, 191.0, 3.10, 0.26, 8.52, 11.87
351, 1.75, 2017/11/15 12:01:00.122下午, 184.0, 3.61, 0.26, 8.52, 12.39
352, 1.755, 2017/11/15 12:01:00.127下午, 188.0, 3.35, 0.26, 9.03, 12.65
353, 1.76, 2017/11/15 12:01:00.132下午, 192.0, 3.10, 0.26, 8.52, 11.87
354, 1.765, 2017/11/15 12:01:00.137下午, 180.0, 3.35, 0.26, 8.52, 12.13
355, 1.77, 2017/11/15 12:01:00.142下午, 204.0, 4.90, 0.26, 8.00, 13.16
356, 1.775, 2017/11/15 12:01:00.147下午, 204.0, 3.87, 0.26, 9.03, 13.16
357, 1.78, 2017/11/15 12:01:00.152下午, 184.0, 2.84, 0.26, 8.52, 11.61
358, 1.785, 2017/11/15 12:01:00.157下午, 210.0, 4.65, 0.26, 8.52, 13.42
359, 1.79, 2017/11/15 12:01:00.162下午, 188.0, 4.13, 0.26, 7.74, 12.13
360, 1.795, 2017/11/15 12:01:00.167下午, 186.0, 2.84, 0.26, 8.26, 11.35
361, 1.8, 2017/11/15 12:01:00.172下午, 192.0, 3.87, 0.26, 8.00, 12.13
362, 1.805, 2017/11/15 12:01:00.177下午, 212.0, 3.87, 0.26, 9.55, 13.68
363, 1.81, 2017/11/15 12:01:00.182下午, 189.0, 3.35, 0.26, 8.26, 11.87
364, 1.815, 2017/11/15 12:01:00.187下午, 202.0, 3.10, 0.26, 9.29, 12.65
365, 1.82, 2017/11/15 12:01:00.192下午, 202.0, 3.10, 0.26, 9.29, 12.65
366, 1.825, 2017/11/15 12:01:00.197下午, 188.0, 3.61, 0.26, 8.77, 12.65
367, 1.83, 2017/11/15 12:01:00.202下午, 178.0, 3.35, 0.26, 8.26, 11.87
368, 1.835, 2017/11/15 12:01:00.207下午, 194.0, 3.61, 0.26, 8.52, 12.39
369, 1.84, 2017/11/15 12:01:00.212下午, 190.0, 3.10, 0.26, 8.52, 11.87
370, 1.845, 2017/11/15 12:01:00.217下午, 202.0, 4.13, 0.26, 8.52, 12.90
371, 1.85, 2017/11/15 12:01:00.222下午, 212.0, 4.90, 0.26, 9.03, 14.19
372, 1.855, 2017/11/15 12:01:00.227下午, 205.0, 3.87, 0.26, 9.03, 13.16
373, 1.86, 2017/11/15 12:01:00.232下午, 189.0, 3.87, 0.26, 7.74, 11.87
374, 1.865, 2017/11/15 12:01:00.237下午, 187.0, 3.35, 0.26, 8.26, 11.87
375, 1.87, 2017/11/15 12:01:00.242下午, 194.0, 3.87, 0.26, 8.52, 12.65
376, 1.875, 2017/11/15 12:01:00.247下午, 193.0, 3.35, 0.26, 8.26, 11.87
377, 1.88, 2017/11/15 12:01:00.252下午, 190.0, 3.10, 0.26, 8.26, 11.61
378, 1.885, 2017/11/15 12:01:00.257下午, 180.0, 2.84, 0.26, 8.00, 11.10
379, 1.89, 2017/11/15 12:01:00.262下午, 199.0, 3.61, 0.26, 8.52, 12.39
380, 1.895, 2017/11/15 12:01:00.267下午, 204.0, 3.35, 0.26, 9.03, 12.65
381, 1.9, 2017/11/15 12:01:00.272下午, 189.0, 3.10, 0.26, 9.03, 12.39
382, 1.905, 2017/11/15 12:01:00.277下午, 201.0, 3.35, 0.26, 9.03, 12.65
383, 1.91, 2017/11/15 12:01:00.282下午, 194.0, 3.35, 0.26, 9.55, 13.16
384, 1.915, 2017/11/15 12:01:00.287下午, 187.0, 2.58, 0.26, 8.77, 11.61
385, 1.92, 2017/11/15 12:01:00.292下午, 214.0, 3.61, 0.26, 9.55, 13.42
386, 1.925, 2017/11/15 12:01:00.297下午, 182.0, 3.61, 0.26, 8.26, 12.13
387, 1.93, 2017/11/15 12:01:00.302下午, 190.0, 3.10, 0.26, 8.52, 11.87
388, 1.935, 2017/11/15 12:01:00.307下午, 183.0, 3.61, 0.26, 8.26, 12.13
389, 1.94, 2017/11/15 12:01:00.312下午, 191.0, 3.61, 0.26, 8.26, 12.13
390, 1.945, 2017/11/15 12:01:00.317下午, 188.0, 3.10, 0.26, 8.52, 11.87
391, 1.95, 2017/11/15 12:01:00.322下午, 197.0, 4.13, 0.26, 8.26, 12.65
392, 1.955, 2017/11/15 12:01:00.327下午, 204.0, 4.13, 0.26, 8.77, 13.16
393, 1.96, 2017/11/15 12:01:00.332下午, 196.0, 4.13, 0.26, 8.00, 12.39
394, 1.965, 2017/11/15 12:01:00.337下午, 206.0, 4.13, 0.26, 8.77, 13.16
395, 1.97, 2017/11/15 12:01:00.342下午, 200.0, 3.87, 0.26, 8.52, 12.65
396, 1.975, 2017/11/15 12:01:00.347下午, 202.0, 3.10, 0.26, 9.29, 12.65
397, 1.98, 2017/11/15 12:01:00.352下午, 201.0, 3.10, 0.26, 9.29, 12.65
398, 1.985, 2017/11/15 12:01:00.357下午, 209.0, 3.35, 0.26, 9.29, 12.90
399, 1.99, 2017/11/15 12:01:00.362下午, 194.0, 3.10, 0.26, 8.52, 11.87
400, 1.995, 2017/11/15 12:01:00.367下午, 198.0, 3.87, 0.26, 8.26, 12.39
401, 2, 2017/11/15 12:01:00.372下午, 198.0, 3.35, 0.26, 9.03, 12.65
402, 2.005, 2017/11/15 12:01:00.377下午, 213.0, 4.65, 0.26, 9.03, 13.94
403, 2.01, 2017/11/15 12:01:00.382下午, 190.0, 2.84, 0.26, 9.03, 12.13
404, 2.015, 2017/11/15 12:01:00.387下午, 199.0, 3.87, 0.26, 8.52, 12.65
405, 2.02, 2017/11/15 12:01:00.392下午, 193.0, 4.13, 0.26, 8.52, 12.90
406, 2.025, 2017/11/15 12:01:00.397下午, 198.0, 3.87, 0.26, 8.77, 12.90
407, 2.03, 2017/11/15 12:01:00.402下午, 182.0, 2.84, 0.26, 8.26, 11.35
408, 2.035, 2017/11/15 12:01:00.407下午, 192.0, 3.35, 0.26, 8.52, 12.13
409, 2.04, 2017/11/15 12:01:00.412下午, 200.0, 3.87, 0.26, 8.52, 12.65
410, 2.045, 2017/11/15 12:01:00.417下午, 190.0, 3.61, 0.26, 8.00, 11.87
411, 2.05, 2017/11/15 12:01:00.422下午, 189.0, 3.35, 0.26, 8.26, 11.87
412, 2.055, 2017/11/15 12:01:00.427下午, 203.0, 3.61, 0.26, 8.77, 12.65
413, 2.06, 2017/11/15 12:01:00.432下午, 205.0, 3.61, 0.26, 9.03, 12.90
414, 2.065, 2017/11/15 12:01:00.437下午, 201.0, 3.10, 0.26, 9.29, 12.65
415, 2.07, 2017/11/15 12:01:00.442下午, 203.0, 3.61, 0.26, 9.03, 12.90
416, 2.075, 2017/11/15 12:01:00.447下午, 209.0, 4.13, 0.26, 8.52, 12.90
417, 2.08, 2017/11/15 12:01:00.452下午, 200.0, 4.39, 0.26, 8.26, 12.90
418, 2.085, 2017/11/15 12:01:00.457下午, 204.0, 4.39, 0.26, 8.26, 12.90
419, 2.09, 2017/11/15 12:01:00.462下午, 196.0, 3.61, 0.26, 8.77, 12.65
420, 2.095, 2017/11/15 12:01:00.467下午, 195.0, 3.87, 0.26, 8.00, 12.13
421, 2.1, 2017/11/15 12:01:00.472下午, 190.0, 3.61, 0.26, 8.26, 12.13
422, 2.105, 2017/11/15 12:01:00.477下午, 197.0, 3.10, 0.26, 8.77, 12.13
423, 2.11, 2017/11/15 12:01:00.482下午, 197.0, 3.61, 0.26, 9.29, 13.16
424, 2.115, 2017/11/15 12:01:00.487下午, 188.0, 2.84, 0.26, 8.52, 11.61
425, 2.12, 2017/11/15 12:01:00.492下午, 214.0, 4.13, 0.26, 8.77, 13.16
426, 2.125, 2017/11/15 12:01:00.497下午, 211.0, 3.35, 0.26, 9.29, 12.90
427, 2.13, 2017/11/15 12:01:00.502下午, 199.0, 3.10, 0.26, 9.03, 12.39
428, 2.135, 2017/11/15 12:01:00.507下午, 200.0, 3.87, 0.26, 9.29, 13.42
429, 2.14, 2017/11/15 12:01:00.512下午, 210.0, 4.39, 0.26, 8.77, 13.42
430, 2.145, 2017/11/15 12:01:00.517下午, 206.0, 4.39, 0.26, 8.52, 13.16
431, 2.15, 2017/11/15 12:01:00.522下午, 207.0, 4.90, 0.26, 8.26, 13.42
432, 2.155, 2017/11/15 12:01:00.527下午, 208.0, 4.13, 0.26, 8.77, 13.16
433, 2.16, 2017/11/15 12:01:00.532下午, 205.0, 4.39, 0.26, 8.77, 13.42
434, 2.165, 2017/11/15 12:01:00.537下午, 177.0, 3.61, 0.26, 8.00, 11.87
435, 2.17, 2017/11/15 12:01:00.542下午, 204.0, 4.13, 0.26, 8.52, 12.90
436, 2.175, 2017/11/15 12:01:00.547下午, 197.0, 3.87, 0.26, 8.26, 12.39
437, 2.18, 2017/11/15 12:01:00.552下午, 198.0, 3.87, 0.26, 8.52, 12.65
438, 2.185, 2017/11/15 12:01:00.557下午, 199.0, 3.35, 0.26, 8.52, 12.13
439, 2.19, 2017/11/15 12:01:00.562下午, 212.0, 3.87, 0.26, 9.29, 13.42
440, 2.195, 2017/11/15 12:01:00.567下午, 201.0, 3.35, 0.26, 8.77, 12.39
441, 2.2, 2017/11/15 12:01:00.572下午, 191.0, 3.10, 0.26, 8.52, 11.87
442, 2.205, 2017/11/15 12:01:00.577下午, 200.0, 3.87, 0.26, 8.52, 12.65
443, 2.21, 2017/11/15 12:01:00.582下午, 211.0, 4.65, 0.26, 8.77, 13.68
444, 2.215, 2017/11/15 12:01:00.587下午, 192.0, 4.13, 0.26, 8.00, 12.39
445, 2.22, 2017/11/15 12:01:00.592下午, 189.0, 3.61, 0.26, 8.00, 11.87
446, 2.225, 2017/11/15 12:01:00.597下午, 203.0, 4.13, 0.26, 8.26, 12.65
447, 2.23, 2017/11/15 12:01:00.602下午, 186.0, 3.35, 0.26, 7.74, 11.35
448, 2.235, 2017/11/15 12:01:00.607下午, 192.0, 3.61, 0.26, 8.00, 11.87
449, 2.24, 2017/11/15 12:01:00.612下午, 199.0, 3.35, 0.26, 8.77, 12.39
450, 2.245, 2017/11/15 12:01:00.617下午, 198.0, 3.35, 0.26, 8.26, 11.87
451, 2.25, 2017/11/15 12:01:00.622下午, 190.0, 3.10, 0.26, 8.52, 11.87
452, 2.255, 2017/11/15 12:01:00.627下午, 202.0, 3.87, 0.26, 8.77, 12.90
453, 2.26, 2017/11/15 12:01:00.632下午, 204.0, 4.13, 0.26, 8.77, 13.16
454, 2.265, 2017/11/15 12:01:00.637下午, 206.0, 3.87, 0.26, 9.03, 13.16
455, 2.27, 2017/11/15 12:01:00.642下午, 185.0, 3.35, 0.26, 8.00, 11.61
456, 2.275, 2017/11/15 12:01:00.647下午, 195.0, 3.61, 0.26, 8.26, 12.13
457, 2.28, 2017/11/15 12:01:00.652下午, 201.0, 3.87, 0.26, 8.52, 12.65
458, 2.285, 2017/11/15 12:01:00.657下午, 196.0, 3.87, 0.26, 8.26, 12.39
459, 2.29, 2017/11/15 12:01:00.662下午, 190.0, 3.10, 0.26, 8.00, 11.35
460, 2.295, 2017/11/15 12:01:00.667下午, 198.0, 3.61, 0.26, 8.52, 12.39
461, 2.3, 2017/11/15 12:01:00.672下午, 179.0, 3.10, 0.26, 8.52, 11.87
462, 2.305, 2017/11/15 12:01:00.677下午, 196.0, 3.35, 0.26, 8.77, 12.39
463, 2.31, 2017/11/15 12:01:00.682下午, 209.0, 3.10, 0.26, 9.55, 12.90
464, 2.315, 2017/11/15 12:01:00.687下午, 206.0, 3.61, 0.26, 9.03, 12.90
465, 2.32, 2017/11/15 12:01:00.692下午, 209.0, 4.39, 0.26, 8.77, 13.42
466, 2.325, 2017/11/15 12:01:00.697下午, 189.0, 3.10, 0.26, 8.52, 11.87
467, 2.33, 2017/11/15 12:01:00.702下午, 197.0, 3.35, 0.26, 8.77, 12.39
468, 2.335, 2017/11/15 12:01:00.707下午, 203.0, 3.61, 0.26, 8.77, 12.65
469, 2.34, 2017/11/15 12:01:00.712下午, 195.0, 3.87, 0.26, 8.26, 12.39
470, 2.345, 2017/11/15 12:01:00.717下午, 191.0, 3.87, 0.26, 8.00, 12.13
471, 2.35, 2017/11/15 12:01:00.722下午, 199.0, 3.87, 0.26, 8.77, 12.90
472, 2.355, 2017/11/15 12:01:00.727下午, 196.0, 4.13, 0.26, 8.00, 12.39
473, 2.36, 2017/11/15 12:01:00.732下午, 204.0, 4.65, 0.26, 8.26, 13.16
474, 2.365, 2017/11/15 12:01:00.737下午, 187.0, 3.87, 0.26, 8.52, 12.65
475, 2.37, 2017/11/15 12:01:00.742下午, 186.0, 3.10, 0.26, 8.26, 11.61
476, 2.375, 2017/11/15 12:01:00.747下午, 193.0, 3.61, 0.26, 8.00, 11.87
477, 2.38, 2017/11/15 12:01:00.752下午, 202.0, 3.87, 0.26, 8.52, 12.65
478, 2.385, 2017/11/15 12:01:00.757下午, 191.0, 3.61, 0.26, 8.00, 11.87
479, 2.39, 2017/11/15 12:01:00.762下午, 197.0, 3.61, 0.26, 8.52, 12.39
480, 2.395, 2017/11/15 12:01:00.767下午, 206.0, 3.87, 0.26, 8.52, 12.65
481, 2.4, 2017/11/15 12:01:00.772下午, 211.0, 4.39, 0.26, 8.77, 13.42
482, 2.405, 2017/11/15 12:01:00.777下午, 210.0, 3.35, 0.26, 9.55, 13.16
483, 2.41, 2017/11/15 12:01:00.782下午, 191.0, 3.87, 0.26, 8.52, 12.65
484, 2.415, 2017/11/15 12:01:00.787下午, 200.0, 3.87, 0.26, 8.52, 12.65
485, 2.42, 2017/11/15 12:01:00.792下午, 197.0, 3.87, 0.26, 8.26, 12.39
486, 2.425, 2017/11/15 12:01:00.797下午, 200.0, 3.87, 0.26, 8.26, 12.39
487, 2.43, 2017/11/15 12:01:00.802下午, 210.0, 4.13, 0.26, 9.55, 13.94
488, 2.435, 2017/11/15 12:01:00.807下午, 214.0, 3.87, 0.26, 9.55, 13.68
489, 2.44, 2017/11/15 12:01:00.812下午, 204.0, 4.65, 0.26, 8.77, 13.68
490, 2.445, 2017/11/15 12:01:00.817下午, 217.0, 4.13, 0.26, 9.55, 13.94
491, 2.45, 2017/11/15 12:01:00.822下午, 217.0, 4.13, 0.26, 9.55, 13.94
492, 2.455, 2017/11/15 12:01:00.827下午, 207.0, 3.87, 0.26, 8.26, 12.39
493, 2.46, 2017/11/15 12:01:00.832下午, 204.0, 4.39, 0.26, 8.52, 13.16
494, 2.465, 2017/11/15 12:01:00.837下午, 202.0, 4.13, 0.26, 8.52, 12.90
495, 2.47, 2017/11/15 12:01:00.842下午, 208.0, 4.13, 0.26, 8.77, 13.16
496, 2.475, 2017/11/15 12:01:00.847下午, 209.0, 4.13, 0.26, 9.03, 13.42
497, 2.48, 2017/11/15 12:01:00.852下午, 194.0, 3.35, 0.26, 8.52, 12.13
498, 2.485, 2017/11/15 12:01:00.857下午, 198.0, 4.65, 0.26, 8.52, 13.42
499, 2.49, 2017/11/15 12:01:00.862下午, 213.0, 4.13, 0.26, 9.29, 13.68
500, 2.495, 2017/11/15 12:01:00.867下午, 211.0, 4.65, 0.26, 8.77, 13.68
501, 2.5, 2017/11/15 12:01:00.872下午, 204.0, 3.87, 0.26, 8.77, 12.90
502, 2.505, 2017/11/15 12:01:00.877下午, 208.0, 4.65, 0.26, 8.26, 13.16
503, 2.51, 2017/11/15 12:01:00.882下午, 200.0, 4.39, 0.26, 8.77, 13.42
504, 2.515, 2017/11/15 12:01:00.887下午, 207.0, 3.87, 0.26, 8.77, 12.90
505, 2.52, 2017/11/15 12:01:00.892下午, 207.0, 4.39, 0.26, 9.55, 14.19
506, 2.525, 2017/11/15 12:01:00.897下午, 212.0, 4.39, 0.26, 9.81, 14.45
507, 2.53, 2017/11/15 12:01:00.902下午, 215.0, 4.39, 0.26, 9.03, 13.68
508, 2.535, 2017/11/15 12:01:00.907下午, 216.0, 4.90, 0.26, 8.26, 13.42
509, 2.54, 2017/11/15 12:01:00.912下午, 208.0, 3.87, 0.26, 9.03, 13.16
510, 2.545, 2017/11/15 12:01:00.917下午, 197.0, 4.13, 0.26, 9.03, 13.42
511, 2.55, 2017/11/15 12:01:00.922下午, 188.0, 3.35, 0.26, 7.74, 11.35
512, 2.555, 2017/11/15 12:01:00.927下午, 209.0, 4.13, 0.26, 8.77, 13.16
513, 2.56, 2017/11/15 12:01:00.932下午, 225.0, 5.42, 0.26, 8.52, 14.19
514, 2.565, 2017/11/15 12:01:00.937下午, 215.0, 5.16, 0.26, 8.52, 13.94
515, 2.57, 2017/11/15 12:01:00.942下午, 197.0, 4.65, 0.26, 7.48, 12.39
516, 2.575, 2017/11/15 12:01:00.947下午, 197.0, 4.13, 0.26, 8.00, 12.39
517, 2.58, 2017/11/15 12:01:00.952下午, 201.0, 4.13, 0.26, 8.52, 12.90
518, 2.585, 2017/11/15 12:01:00.957下午, 209.0, 4.65, 0.26, 8.77, 13.68
519, 2.59, 2017/11/15 12:01:00.962下午, 209.0, 4.39, 0.26, 8.77, 13.42
520, 2.595, 2017/11/15 12:01:00.967下午, 212.0, 4.65, 0.26, 8.77, 13.68
521, 2.6, 2017/11/15 12:01:00.972下午, 210.0, 5.16, 0.26, 8.26, 13.68
522, 2.605, 2017/11/15 12:01:00.977下午, 192.0, 3.35, 0.26, 8.77, 12.39
523, 2.61, 2017/11/15 12:01:00.982下午, 206.0, 4.65, 0.26, 8.52, 13.42
524, 2.615, 2017/11/15 12:01:00.987下午, 201.0, 4.90, 0.26, 7.74, 12.90
525, 2.62, 2017/11/15 12:01:00.992下午, 212.0, 4.65, 0.26, 8.77, 13.68
526, 2.625, 2017/11/15 12:01:00.997下午, 219.0, 3.87, 0.26, 9.81, 13.94
527, 2.63, 2017/11/15 12:01:01.002下午, 201.0, 3.87, 0.26, 8.52, 12.65
528, 2.635, 2017/11/15 12:01:01.007下午, 212.0, 3.87, 0.26, 9.29, 13.42
529, 2.64, 2017/11/15 12:01:01.012下午, 221.0, 4.65, 0.26, 9.29, 14.19
530, 2.645, 2017/11/15 12:01:01.017下午, 209.0, 3.35, 0.26, 9.81, 13.42
531, 2.65, 2017/11/15 12:01:01.022下午, 207.0, 4.65, 0.26, 8.26, 13.16
532, 2.655, 2017/11/15 12:01:01.027下午, 194.0, 3.87, 0.26, 8.00, 12.13
533, 2.66, 2017/11/15 12:01:01.032下午, 203.0, 3.87, 0.26, 8.77, 12.90
534, 2.665, 2017/11/15 12:01:01.037下午, 193.0, 3.61, 0.26, 8.77, 12.65
535, 2.67, 2017/11/15 12:01:01.042下午, 209.0, 3.35, 0.26, 9.81, 13.42
536, 2.675, 2017/11/15 12:01:01.047下午, 193.0, 3.87, 0.26, 8.26, 12.39
537, 2.68, 2017/11/15 12:01:01.052下午, 210.0, 4.65, 0.26, 9.03, 13.94
538, 2.685, 2017/11/15 12:01:01.057下午, 226.0, 5.42, 0.26, 8.77, 14.45
539, 2.69, 2017/11/15 12:01:01.062下午, 205.0, 4.39, 0.26, 8.52, 13.16
540, 2.695, 2017/11/15 12:01:01.067下午, 199.0, 4.39, 0.26, 8.52, 13.16
541, 2.7, 2017/11/15 12:01:01.072下午, 221.0, 5.16, 0.26, 8.77, 14.19
542, 2.705, 2017/11/15 12:01:01.077下午, 212.0, 5.16, 0.26, 8.26, 13.68
543, 2.71, 2017/11/15 12:01:01.082下午, 212.0, 4.90, 0.26, 8.26, 13.42
544, 2.715, 2017/11/15 12:01:01.087下午, 211.0, 3.87, 0.26, 9.03, 13.16
545, 2.72, 2017/11/15 12:01:01.092下午, 199.0, 3.87, 0.26, 8.26, 12.39
546, 2.725, 2017/11/15 12:01:01.097下午, 204.0, 4.65, 0.26, 8.00, 12.90
547, 2.73, 2017/11/15 12:01:01.102下午, 209.0, 5.16, 0.26, 8.00, 13.42
548, 2.735, 2017/11/15 12:01:01.107下午, 196.0, 4.39, 0.26, 8.26, 12.90
549, 2.74, 2017/11/15 12:01:01.112下午, 195.0, 4.65, 0.26, 7.74, 12.65
550, 2.745, 2017/11/15 12:01:01.117下午, 190.0, 3.87, 0.26, 7.74, 11.87
551, 2.75, 2017/11/15 12:01:01.122下午, 187.0, 3.61, 0.26, 7.74, 11.61
552, 2.755, 2017/11/15 12:01:01.127下午, 210.0, 4.65, 0.26, 8.26, 13.16
553, 2.76, 2017/11/15 12:01:01.132下午, 200.0, 4.65, 0.26, 8.00, 12.90
554, 2.765, 2017/11/15 12:01:01.137下午, 176.0, 3.87, 0.26, 7.74, 11.87
555, 2.77, 2017/11/15 12:01:01.142下午, 209.0, 4.13, 0.26, 8.77, 13.16
556, 2.775, 2017/11/15 12:01:01.147下午, 206.0, 5.16, 0.26, 8.26, 13.68
557, 2.78, 2017/11/15 12:01:01.152下午, 212.0, 5.16, 0.26, 8.52, 13.94
558, 2.785, 2017/11/15 12:01:01.157下午, 203.0, 4.39, 0.26, 8.77, 13.42
559, 2.79, 2017/11/15 12:01:01.162下午, 200.0, 4.13, 0.26, 8.52, 12.90
560, 2.795, 2017/11/15 12:01:01.167下午, 215.0, 5.68, 0.26, 8.26, 14.19
561, 2.8, 2017/11/15 12:01:01.172下午, 205.0, 4.39, 0.26, 8.52, 13.16
562, 2.805, 2017/11/15 12:01:01.177下午, 206.0, 5.16, 0.26, 7.74, 13.16
563, 2.81, 2017/11/15 12:01:01.182下午, 208.0, 4.65, 0.26, 8.52, 13.42
564, 2.815, 2017/11/15 12:01:01.187下午, 196.0, 4.13, 0.26, 8.26, 12.65
565, 2.82, 2017/11/15 12:01:01.192下午, 208.0, 4.39, 0.26, 8.77, 13.42
566, 2.825, 2017/11/15 12:01:01.197下午, 212.0, 4.90, 0.26, 8.52, 13.68
567, 2.83, 2017/11/15 12:01:01.202下午, 203.0, 3.87, 0.26, 8.00, 12.13
568, 2.835, 2017/11/15 12:01:01.207下午, 213.0, 4.13, 0.26, 9.29, 13.68
569, 2.84, 2017/11/15 12:01:01.212下午, 228.0, 5.16, 0.26, 9.29, 14.71
570, 2.845, 2017/11/15 12:01:01.217下午, 213.0, 5.16, 0.26, 8.52, 13.94
571, 2.85, 2017/11/15 12:01:01.222下午, 198.0, 4.90, 0.26, 8.26, 13.42
572, 2.855, 2017/11/15 12:01:01.227下午, 207.0, 4.65, 0.26, 7.74, 12.65
573, 2.86, 2017/11/15 12:01:01.232下午, 214.0, 4.65, 0.26, 8.77, 13.68
574, 2.865, 2017/11/15 12:01:01.237下午, 224.0, 4.13, 0.26, 10.06, 14.45
575, 2.87, 2017/11/15 12:01:01.242下午, 215.0, 5.42, 0.26, 8.26, 13.94
576, 2.875, 2017/11/15 12:01:01.247下午, 217.0, 5.42, 0.26, 8.52, 14.19
577, 2.88, 2017/11/15 12:01:01.252下午, 190.0, 4.65, 0.26, 7.74, 12.65
578, 2.885, 2017/11/15 12:01:01.257下午, 213.0, 4.65, 0.26, 9.03, 13.94
579, 2.89, 2017/11/15 12:01:01.262下午, 202.0, 4.65, 0.26, 8.00, 12.90
580, 2.895, 2017/11/15 12:01:01.267下午, 204.0, 5.16, 0.26, 7.74, 13.16
581, 2.9, 2017/11/15 12:01:01.272下午, 206.0, 4.39, 0.26, 8.00, 12.65
582, 2.905, 2017/11/15 12:01:01.277下午, 211.0, 4.65, 0.26, 8.77, 13.68
583, 2.91, 2017/11/15 12:01:01.282下午, 213.0, 3.87, 0.26, 9.29, 13.42
584, 2.915, 2017/11/15 12:01:01.287下午, 209.0, 4.65, 0.26, 8.26, 13.16
585, 2.92, 2017/11/15 12:01:01.292下午, 207.0, 4.13, 0.26, 8.52, 12.90
586, 2.925, 2017/11/15 12:01:01.297下午, 215.0, 4.65, 0.26, 8.77, 13.68
587, 2.93, 2017/11/15 12:01:01.302下午, 219.0, 4.90, 0.26, 8.77, 13.94
588, 2.935, 2017/11/15 12:01:01.307下午, 216.0, 4.65, 0.26, 8.77, 13.68
589, 2.94, 2017/11/15 12:01:01.312下午, 206.0, 4.39, 0.26, 8.26, 12.90
590, 2.945, 2017/11/15 12:01:01.317下午, 184.0, 3.87, 0.26, 8.00, 12.13
591, 2.95, 2017/11/15 12:01:01.322下午, 194.0, 4.39, 0.26, 7.48, 12.13
592, 2.955, 2017/11/15 12:01:01.327下午, 212.0, 5.16, 0.26, 8.00, 13.42
593, 2.96, 2017/11/15 12:01:01.332下午, 223.0, 5.94, 0.26, 8.00, 14.19
594, 2.965, 2017/11/15 12:01:01.337下午, 205.0, 4.90, 0.26, 8.52, 13.68
595, 2.97, 2017/11/15 12:01:01.342下午, 207.0, 4.90, 0.26, 8.00, 13.16
596, 2.975, 2017/11/15 12:01:01.347下午, 190.0, 3.87, 0.26, 7.48, 11.61
597, 2.98, 2017/11/15 12:01:01.352下午, 209.0, 4.90, 0.26, 8.26, 13.42
598, 2.985, 2017/11/15 12:01:01.357下午, 203.0, 4.90, 0.26, 7.48, 12.65
599, 2.99, 2017/11/15 12:01:01.362下午, 196.0, 4.65, 0.26, 7.23, 12.13
600, 2.995, 2017/11/15 12:01:01.367下午, 199.0, 4.65, 0.26, 7.48, 12.39
@@
