DATA_TYPE Graph
VERSION Tekscan Pressure Measurement System 6.70-03
HARDWARE 00114-3447
MAP_VERSION 6.5
HW_TYPE 4
VersaPogoFsx 0
檔案名 C:\Users\asus\Desktop\工研院_計畫\收案資料\Subject02\Plantar Pressure\R65_STAND_RIGHT_3.fsx
SENSOR_TYPE FSCAN
ROWS 60
COLS 21
ROW_SPACING 0.508 centimeters
COL_SPACING 0.508 centimeters
SENSEL_AREA 0.258064 cm2
NOISE_THRESHOLD 3
SECONDS_PER_FRAME 0.005
SECONDS_PER_FRAME 0
MICRO_SECOND 0
TIME 2017/11/15 10:51:13.349上午
SATURATION_PRESSURE 2347.96 KPa 
CALIBRATION_POINT_1 48.0001 (Kilograms) 1981 (Raw Sum) 199 (Number of Loaded Cells)
CALIBRATION_MODE_1 步態
CALIBRATION_INFO C:\Users\asus\Desktop\工研院_計畫\收案資料\Subject02\Plantar Pressure\R65_STAND_RIGHT_3.fsx
SENSITIVITY 自定義
MAP_INDEX 0
SUBMAP 0
Patient ID: 

Speed of Gait: 

Weight: 

Gender: 

Physician: 

Technician: 

Shoe: 

START_FRAME 1
END_FRAME 600
UNITS cm2
ASCII_DATA @@
畫面(X), 時間(X), 絕對時間(X), Raw Sum, 區域(Y:藍色), 區域(Y), 區域(Y), 區域(Y)
1, 0, 2017/11/15 10:51:13.349上午, 606.0, 15.23, 3.87, 10.06, 29.16
2, 0.005, 2017/11/15 10:51:13.354上午, 635.0, 15.48, 5.16, 11.10, 31.74
3, 0.01, 2017/11/15 10:51:13.359上午, 626.0, 15.23, 5.16, 10.58, 30.97
4, 0.015, 2017/11/15 10:51:13.364上午, 631.0, 15.74, 5.16, 10.58, 31.48
5, 0.02, 2017/11/15 10:51:13.369上午, 617.0, 15.23, 4.65, 10.32, 30.19
6, 0.025, 2017/11/15 10:51:13.374上午, 635.0, 15.23, 5.42, 11.10, 31.74
7, 0.03, 2017/11/15 10:51:13.379上午, 627.0, 15.23, 4.65, 10.58, 30.45
8, 0.035, 2017/11/15 10:51:13.384上午, 639.0, 15.48, 5.42, 11.10, 32.00
9, 0.04, 2017/11/15 10:51:13.389上午, 623.0, 15.23, 4.39, 11.87, 31.48
10, 0.045, 2017/11/15 10:51:13.394上午, 627.0, 15.23, 4.90, 11.61, 31.74
11, 0.05, 2017/11/15 10:51:13.399上午, 652.0, 15.48, 5.68, 11.10, 32.26
12, 0.055, 2017/11/15 10:51:13.404上午, 628.0, 15.48, 4.90, 10.32, 30.71
13, 0.06, 2017/11/15 10:51:13.409上午, 633.0, 15.74, 5.42, 10.06, 31.23
14, 0.065, 2017/11/15 10:51:13.414上午, 624.0, 15.23, 4.90, 11.10, 31.23
15, 0.07, 2017/11/15 10:51:13.419上午, 628.0, 14.97, 4.90, 11.10, 30.97
16, 0.075, 2017/11/15 10:51:13.424上午, 633.0, 15.23, 5.68, 10.84, 31.74
17, 0.08, 2017/11/15 10:51:13.429上午, 625.0, 15.23, 5.42, 9.81, 30.45
18, 0.085, 2017/11/15 10:51:13.434上午, 621.0, 15.23, 4.65, 10.06, 29.94
19, 0.09, 2017/11/15 10:51:13.439上午, 634.0, 15.23, 5.42, 10.84, 31.48
20, 0.095, 2017/11/15 10:51:13.444上午, 637.0, 15.48, 4.39, 10.58, 30.45
21, 0.1, 2017/11/15 10:51:13.449上午, 630.0, 15.23, 4.90, 10.84, 30.97
22, 0.105, 2017/11/15 10:51:13.454上午, 637.0, 14.97, 4.90, 11.87, 31.74
23, 0.11, 2017/11/15 10:51:13.459上午, 645.0, 15.23, 5.16, 10.84, 31.23
24, 0.115, 2017/11/15 10:51:13.464上午, 639.0, 15.48, 5.42, 9.81, 30.71
25, 0.12, 2017/11/15 10:51:13.469上午, 613.0, 15.48, 4.39, 10.58, 30.45
26, 0.125, 2017/11/15 10:51:13.474上午, 647.0, 15.48, 5.42, 11.87, 32.77
27, 0.13, 2017/11/15 10:51:13.479上午, 655.0, 15.23, 5.68, 10.84, 31.74
28, 0.135, 2017/11/15 10:51:13.484上午, 645.0, 15.48, 5.68, 10.06, 31.23
29, 0.14, 2017/11/15 10:51:13.489上午, 631.0, 15.74, 4.90, 10.32, 30.97
30, 0.145, 2017/11/15 10:51:13.494上午, 635.0, 16.26, 4.13, 10.58, 30.97
31, 0.15, 2017/11/15 10:51:13.499上午, 652.0, 15.48, 4.90, 11.61, 32.00
32, 0.155, 2017/11/15 10:51:13.504上午, 643.0, 15.23, 5.42, 11.35, 32.00
33, 0.16, 2017/11/15 10:51:13.509上午, 641.0, 15.23, 5.42, 10.58, 31.23
34, 0.165, 2017/11/15 10:51:13.514上午, 627.0, 15.23, 4.90, 10.58, 30.71
35, 0.17, 2017/11/15 10:51:13.519上午, 632.0, 15.23, 4.90, 10.58, 30.71
36, 0.175, 2017/11/15 10:51:13.524上午, 601.0, 14.97, 4.39, 10.32, 29.68
37, 0.18, 2017/11/15 10:51:13.529上午, 640.0, 15.23, 5.16, 11.61, 32.00
38, 0.185, 2017/11/15 10:51:13.534上午, 636.0, 15.48, 5.42, 9.55, 30.45
39, 0.19, 2017/11/15 10:51:13.539上午, 634.0, 15.74, 5.16, 10.58, 31.48
40, 0.195, 2017/11/15 10:51:13.544上午, 642.0, 14.71, 6.19, 10.58, 31.48
41, 0.2, 2017/11/15 10:51:13.549上午, 651.0, 15.23, 5.16, 11.35, 31.74
42, 0.205, 2017/11/15 10:51:13.554上午, 646.0, 15.74, 4.90, 10.58, 31.23
43, 0.21, 2017/11/15 10:51:13.559上午, 641.0, 16.26, 4.90, 10.58, 31.74
44, 0.215, 2017/11/15 10:51:13.564上午, 619.0, 15.23, 4.65, 10.32, 30.19
45, 0.22, 2017/11/15 10:51:13.569上午, 657.0, 14.97, 5.42, 11.61, 32.00
46, 0.225, 2017/11/15 10:51:13.574上午, 653.0, 14.97, 5.68, 10.84, 31.48
47, 0.23, 2017/11/15 10:51:13.579上午, 642.0, 15.74, 4.90, 10.58, 31.23
48, 0.235, 2017/11/15 10:51:13.584上午, 632.0, 14.97, 5.42, 10.32, 30.71
49, 0.24, 2017/11/15 10:51:13.589上午, 640.0, 15.23, 4.65, 10.84, 30.71
50, 0.245, 2017/11/15 10:51:13.594上午, 635.0, 14.97, 5.68, 10.84, 31.48
51, 0.25, 2017/11/15 10:51:13.599上午, 648.0, 14.97, 5.16, 11.10, 31.23
52, 0.255, 2017/11/15 10:51:13.604上午, 651.0, 15.23, 5.42, 10.84, 31.48
53, 0.26, 2017/11/15 10:51:13.609上午, 639.0, 14.97, 5.68, 10.32, 30.97
54, 0.265, 2017/11/15 10:51:13.614上午, 649.0, 15.48, 5.42, 11.10, 32.00
55, 0.27, 2017/11/15 10:51:13.619上午, 629.0, 14.97, 5.16, 10.58, 30.71
56, 0.275, 2017/11/15 10:51:13.624上午, 618.0, 14.71, 5.94, 10.32, 30.97
57, 0.28, 2017/11/15 10:51:13.629上午, 642.0, 15.23, 5.16, 10.84, 31.23
58, 0.285, 2017/11/15 10:51:13.634上午, 640.0, 15.48, 5.16, 10.58, 31.23
59, 0.29, 2017/11/15 10:51:13.639上午, 640.0, 14.45, 6.45, 10.58, 31.48
60, 0.295, 2017/11/15 10:51:13.644上午, 644.0, 15.48, 5.16, 10.32, 30.97
61, 0.3, 2017/11/15 10:51:13.649上午, 657.0, 14.97, 5.68, 11.10, 31.74
62, 0.305, 2017/11/15 10:51:13.654上午, 644.0, 15.23, 5.94, 10.06, 31.23
63, 0.31, 2017/11/15 10:51:13.659上午, 621.0, 15.23, 5.42, 10.32, 30.97
64, 0.315, 2017/11/15 10:51:13.664上午, 637.0, 14.97, 5.42, 11.35, 31.74
65, 0.32, 2017/11/15 10:51:13.669上午, 639.0, 14.71, 5.42, 10.84, 30.97
66, 0.325, 2017/11/15 10:51:13.674上午, 646.0, 14.97, 5.68, 10.58, 31.23
67, 0.33, 2017/11/15 10:51:13.679上午, 637.0, 15.48, 5.94, 10.58, 32.00
68, 0.335, 2017/11/15 10:51:13.684上午, 652.0, 14.97, 5.94, 11.10, 32.00
69, 0.34, 2017/11/15 10:51:13.689上午, 633.0, 14.97, 5.16, 10.84, 30.97
70, 0.345, 2017/11/15 10:51:13.694上午, 645.0, 14.71, 5.68, 11.35, 31.74
71, 0.35, 2017/11/15 10:51:13.699上午, 646.0, 14.97, 5.68, 11.10, 31.74
72, 0.355, 2017/11/15 10:51:13.704上午, 641.0, 15.23, 5.16, 11.10, 31.48
73, 0.36, 2017/11/15 10:51:13.709上午, 625.0, 14.71, 4.90, 10.58, 30.19
74, 0.365, 2017/11/15 10:51:13.714上午, 631.0, 14.97, 5.42, 10.58, 30.97
75, 0.37, 2017/11/15 10:51:13.719上午, 616.0, 14.71, 4.90, 10.32, 29.94
76, 0.375, 2017/11/15 10:51:13.724上午, 647.0, 14.97, 5.94, 10.84, 31.74
77, 0.38, 2017/11/15 10:51:13.729上午, 627.0, 15.23, 5.16, 9.81, 30.19
78, 0.385, 2017/11/15 10:51:13.734上午, 637.0, 15.48, 5.94, 10.58, 32.00
79, 0.39, 2017/11/15 10:51:13.739上午, 636.0, 14.97, 5.16, 11.35, 31.48
80, 0.395, 2017/11/15 10:51:13.744上午, 642.0, 15.48, 5.94, 10.06, 31.48
81, 0.4, 2017/11/15 10:51:13.749上午, 647.0, 14.71, 5.68, 10.84, 31.23
82, 0.405, 2017/11/15 10:51:13.754上午, 639.0, 15.48, 5.42, 11.10, 32.00
83, 0.41, 2017/11/15 10:51:13.759上午, 654.0, 16.00, 4.90, 11.87, 32.77
84, 0.415, 2017/11/15 10:51:13.764上午, 646.0, 14.97, 5.42, 11.10, 31.48
85, 0.42, 2017/11/15 10:51:13.769上午, 646.0, 15.23, 5.42, 11.10, 31.74
86, 0.425, 2017/11/15 10:51:13.774上午, 628.0, 14.97, 4.90, 11.35, 31.23
87, 0.43, 2017/11/15 10:51:13.779上午, 630.0, 15.23, 4.90, 11.10, 31.23
88, 0.435, 2017/11/15 10:51:13.784上午, 643.0, 14.97, 5.16, 11.87, 32.00
89, 0.44, 2017/11/15 10:51:13.789上午, 635.0, 14.97, 5.68, 11.10, 31.74
90, 0.445, 2017/11/15 10:51:13.794上午, 629.0, 15.48, 4.90, 10.84, 31.23
91, 0.45, 2017/11/15 10:51:13.799上午, 651.0, 14.97, 5.94, 11.61, 32.52
92, 0.455, 2017/11/15 10:51:13.804上午, 620.0, 14.45, 5.42, 10.84, 30.71
93, 0.46, 2017/11/15 10:51:13.809上午, 637.0, 14.97, 5.42, 11.35, 31.74
94, 0.465, 2017/11/15 10:51:13.814上午, 624.0, 14.97, 5.16, 11.10, 31.23
95, 0.47, 2017/11/15 10:51:13.819上午, 644.0, 15.48, 5.68, 11.10, 32.26
96, 0.475, 2017/11/15 10:51:13.824上午, 629.0, 15.48, 5.16, 10.06, 30.71
97, 0.48, 2017/11/15 10:51:13.829上午, 615.0, 14.45, 5.68, 11.35, 31.48
98, 0.485, 2017/11/15 10:51:13.834上午, 629.0, 14.45, 5.42, 11.61, 31.48
99, 0.49, 2017/11/15 10:51:13.839上午, 636.0, 14.45, 5.16, 12.39, 32.00
100, 0.495, 2017/11/15 10:51:13.844上午, 631.0, 14.71, 5.42, 11.10, 31.23
101, 0.5, 2017/11/15 10:51:13.849上午, 624.0, 14.97, 5.68, 10.06, 30.71
102, 0.505, 2017/11/15 10:51:13.854上午, 606.0, 14.45, 4.90, 10.84, 30.19
103, 0.51, 2017/11/15 10:51:13.859上午, 603.0, 14.97, 4.39, 10.84, 30.19
104, 0.515, 2017/11/15 10:51:13.864上午, 637.0, 15.74, 5.16, 11.35, 32.26
105, 0.52, 2017/11/15 10:51:13.869上午, 616.0, 15.48, 5.16, 10.06, 30.71
106, 0.525, 2017/11/15 10:51:13.874上午, 638.0, 14.97, 5.16, 12.13, 32.26
107, 0.53, 2017/11/15 10:51:13.879上午, 622.0, 14.45, 5.68, 11.35, 31.48
108, 0.535, 2017/11/15 10:51:13.884上午, 644.0, 14.71, 5.68, 12.65, 33.03
109, 0.54, 2017/11/15 10:51:13.889上午, 626.0, 15.23, 4.90, 11.35, 31.48
110, 0.545, 2017/11/15 10:51:13.894上午, 612.0, 14.71, 5.42, 10.32, 30.45
111, 0.55, 2017/11/15 10:51:13.899上午, 632.0, 14.97, 5.42, 12.39, 32.77
112, 0.555, 2017/11/15 10:51:13.904上午, 626.0, 14.97, 5.68, 11.35, 32.00
113, 0.56, 2017/11/15 10:51:13.909上午, 635.0, 14.45, 5.16, 13.16, 32.77
114, 0.565, 2017/11/15 10:51:13.914上午, 632.0, 14.19, 5.68, 12.39, 32.26
115, 0.57, 2017/11/15 10:51:13.919上午, 632.0, 15.23, 5.68, 11.10, 32.00
116, 0.575, 2017/11/15 10:51:13.924上午, 624.0, 14.97, 5.42, 10.58, 30.97
117, 0.58, 2017/11/15 10:51:13.929上午, 613.0, 14.97, 5.16, 10.84, 30.97
118, 0.585, 2017/11/15 10:51:13.934上午, 627.0, 14.97, 5.16, 11.87, 32.00
119, 0.59, 2017/11/15 10:51:13.939上午, 628.0, 14.97, 5.42, 11.87, 32.26
120, 0.595, 2017/11/15 10:51:13.944上午, 630.0, 14.97, 5.68, 11.10, 31.74
121, 0.6, 2017/11/15 10:51:13.949上午, 627.0, 15.48, 5.16, 11.10, 31.74
122, 0.605, 2017/11/15 10:51:13.954上午, 620.0, 14.71, 5.94, 11.10, 31.74
123, 0.61, 2017/11/15 10:51:13.959上午, 632.0, 14.71, 5.68, 11.61, 32.00
124, 0.615, 2017/11/15 10:51:13.964上午, 628.0, 14.97, 5.68, 11.10, 31.74
125, 0.62, 2017/11/15 10:51:13.969上午, 626.0, 14.97, 5.16, 11.10, 31.23
126, 0.625, 2017/11/15 10:51:13.974上午, 618.0, 14.97, 5.42, 10.84, 31.23
127, 0.63, 2017/11/15 10:51:13.979上午, 627.0, 14.97, 5.94, 11.61, 32.52
128, 0.635, 2017/11/15 10:51:13.984上午, 622.0, 14.19, 5.42, 11.35, 30.97
129, 0.64, 2017/11/15 10:51:13.989上午, 636.0, 14.97, 5.68, 11.35, 32.00
130, 0.645, 2017/11/15 10:51:13.994上午, 637.0, 15.48, 5.68, 11.10, 32.26
131, 0.65, 2017/11/15 10:51:13.999上午, 633.0, 15.48, 5.94, 10.84, 32.26
132, 0.655, 2017/11/15 10:51:14.004上午, 635.0, 14.97, 5.94, 11.87, 32.77
133, 0.66, 2017/11/15 10:51:14.009上午, 602.0, 14.45, 4.90, 11.35, 30.71
134, 0.665, 2017/11/15 10:51:14.014上午, 625.0, 14.19, 5.68, 11.87, 31.74
135, 0.67, 2017/11/15 10:51:14.019上午, 619.0, 14.97, 5.68, 12.13, 32.77
136, 0.675, 2017/11/15 10:51:14.024上午, 625.0, 14.45, 5.16, 12.13, 31.74
137, 0.68, 2017/11/15 10:51:14.029上午, 626.0, 14.97, 5.16, 11.61, 31.74
138, 0.685, 2017/11/15 10:51:14.034上午, 636.0, 14.97, 6.19, 10.84, 32.00
139, 0.69, 2017/11/15 10:51:14.039上午, 638.0, 14.97, 5.94, 12.13, 33.03
140, 0.695, 2017/11/15 10:51:14.044上午, 611.0, 14.45, 5.68, 11.35, 31.48
141, 0.7, 2017/11/15 10:51:14.049上午, 594.0, 14.45, 4.39, 11.10, 29.94
142, 0.705, 2017/11/15 10:51:14.054上午, 627.0, 14.71, 5.16, 11.10, 30.97
143, 0.71, 2017/11/15 10:51:14.059上午, 623.0, 14.71, 5.42, 11.35, 31.48
144, 0.715, 2017/11/15 10:51:14.064上午, 633.0, 14.97, 5.94, 11.35, 32.26
145, 0.72, 2017/11/15 10:51:14.069上午, 628.0, 14.97, 5.94, 11.87, 32.77
146, 0.725, 2017/11/15 10:51:14.074上午, 622.0, 14.45, 6.71, 11.10, 32.26
147, 0.73, 2017/11/15 10:51:14.079上午, 631.0, 14.71, 5.94, 11.61, 32.26
148, 0.735, 2017/11/15 10:51:14.084上午, 632.0, 14.45, 5.42, 12.39, 32.26
149, 0.74, 2017/11/15 10:51:14.089上午, 636.0, 14.45, 6.45, 12.13, 33.03
150, 0.745, 2017/11/15 10:51:14.094上午, 633.0, 14.97, 5.94, 11.35, 32.26
151, 0.75, 2017/11/15 10:51:14.099上午, 641.0, 14.97, 6.19, 11.35, 32.52
152, 0.755, 2017/11/15 10:51:14.104上午, 624.0, 14.97, 5.42, 11.10, 31.48
153, 0.76, 2017/11/15 10:51:14.109上午, 607.0, 13.94, 6.19, 10.84, 30.97
154, 0.765, 2017/11/15 10:51:14.114上午, 613.0, 14.45, 4.90, 11.87, 31.23
155, 0.77, 2017/11/15 10:51:14.119上午, 628.0, 14.71, 5.68, 11.87, 32.26
156, 0.775, 2017/11/15 10:51:14.124上午, 625.0, 14.45, 5.94, 11.61, 32.00
157, 0.78, 2017/11/15 10:51:14.129上午, 622.0, 14.97, 5.16, 11.61, 31.74
158, 0.785, 2017/11/15 10:51:14.134上午, 625.0, 14.45, 5.94, 11.87, 32.26
159, 0.79, 2017/11/15 10:51:14.139上午, 627.0, 14.19, 5.68, 12.39, 32.26
160, 0.795, 2017/11/15 10:51:14.144上午, 634.0, 14.97, 5.16, 11.87, 32.00
161, 0.8, 2017/11/15 10:51:14.149上午, 623.0, 14.97, 5.16, 11.10, 31.23
162, 0.805, 2017/11/15 10:51:14.154上午, 643.0, 14.97, 5.94, 12.13, 33.03
163, 0.81, 2017/11/15 10:51:14.159上午, 629.0, 14.97, 6.45, 11.10, 32.52
164, 0.815, 2017/11/15 10:51:14.164上午, 628.0, 14.97, 5.42, 11.10, 31.48
165, 0.82, 2017/11/15 10:51:14.169上午, 651.0, 15.23, 6.19, 11.61, 33.03
166, 0.825, 2017/11/15 10:51:14.174上午, 628.0, 14.97, 5.16, 11.35, 31.48
167, 0.83, 2017/11/15 10:51:14.179上午, 637.0, 14.97, 5.94, 11.61, 32.52
168, 0.835, 2017/11/15 10:51:14.184上午, 622.0, 14.97, 5.42, 10.84, 31.23
169, 0.84, 2017/11/15 10:51:14.189上午, 610.0, 14.45, 4.90, 11.35, 30.71
170, 0.845, 2017/11/15 10:51:14.194上午, 626.0, 14.97, 4.90, 12.65, 32.52
171, 0.85, 2017/11/15 10:51:14.199上午, 634.0, 15.48, 5.68, 11.10, 32.26
172, 0.855, 2017/11/15 10:51:14.204上午, 639.0, 14.97, 6.19, 11.10, 32.26
173, 0.86, 2017/11/15 10:51:14.209上午, 635.0, 14.71, 5.42, 11.61, 31.74
174, 0.865, 2017/11/15 10:51:14.214上午, 629.0, 14.97, 5.94, 10.84, 31.74
175, 0.87, 2017/11/15 10:51:14.219上午, 630.0, 14.45, 6.19, 11.35, 32.00
176, 0.875, 2017/11/15 10:51:14.224上午, 631.0, 14.97, 4.90, 12.39, 32.26
177, 0.88, 2017/11/15 10:51:14.229上午, 636.0, 14.71, 5.16, 11.87, 31.74
178, 0.885, 2017/11/15 10:51:14.234上午, 641.0, 14.97, 5.68, 11.61, 32.26
179, 0.89, 2017/11/15 10:51:14.239上午, 636.0, 14.97, 5.94, 11.10, 32.00
180, 0.895, 2017/11/15 10:51:14.244上午, 622.0, 14.71, 5.42, 11.35, 31.48
181, 0.9, 2017/11/15 10:51:14.249上午, 634.0, 14.19, 5.68, 11.87, 31.74
182, 0.905, 2017/11/15 10:51:14.254上午, 634.0, 14.97, 5.42, 11.10, 31.48
183, 0.91, 2017/11/15 10:51:14.259上午, 637.0, 14.97, 5.94, 11.10, 32.00
184, 0.915, 2017/11/15 10:51:14.264上午, 627.0, 14.71, 5.16, 11.87, 31.74
185, 0.92, 2017/11/15 10:51:14.269上午, 640.0, 14.45, 6.19, 12.13, 32.77
186, 0.925, 2017/11/15 10:51:14.274上午, 636.0, 14.97, 4.90, 12.13, 32.00
187, 0.93, 2017/11/15 10:51:14.279上午, 650.0, 14.97, 5.42, 12.65, 33.03
188, 0.935, 2017/11/15 10:51:14.284上午, 642.0, 14.97, 6.19, 11.10, 32.26
189, 0.94, 2017/11/15 10:51:14.289上午, 646.0, 14.97, 5.94, 11.35, 32.26
190, 0.945, 2017/11/15 10:51:14.294上午, 629.0, 14.71, 6.45, 11.35, 32.52
191, 0.95, 2017/11/15 10:51:14.299上午, 641.0, 14.45, 6.71, 11.61, 32.77
192, 0.955, 2017/11/15 10:51:14.304上午, 642.0, 14.97, 4.90, 12.90, 32.77
193, 0.96, 2017/11/15 10:51:14.309上午, 643.0, 14.71, 5.16, 12.65, 32.52
194, 0.965, 2017/11/15 10:51:14.314上午, 644.0, 14.97, 6.45, 11.10, 32.52
195, 0.97, 2017/11/15 10:51:14.319上午, 644.0, 14.97, 5.94, 11.35, 32.26
196, 0.975, 2017/11/15 10:51:14.324上午, 639.0, 14.97, 5.94, 11.61, 32.52
197, 0.98, 2017/11/15 10:51:14.329上午, 649.0, 14.97, 5.42, 12.39, 32.77
198, 0.985, 2017/11/15 10:51:14.334上午, 633.0, 14.97, 4.65, 12.13, 31.74
199, 0.99, 2017/11/15 10:51:14.339上午, 635.0, 14.71, 5.68, 11.35, 31.74
200, 0.995, 2017/11/15 10:51:14.344上午, 632.0, 14.97, 5.68, 10.58, 31.23
201, 1, 2017/11/15 10:51:14.349上午, 631.0, 14.45, 6.19, 11.35, 32.00
202, 1.005, 2017/11/15 10:51:14.354上午, 631.0, 14.97, 4.90, 11.61, 31.48
203, 1.01, 2017/11/15 10:51:14.359上午, 644.0, 14.97, 5.68, 11.35, 32.00
204, 1.015, 2017/11/15 10:51:14.364上午, 629.0, 14.97, 5.42, 10.58, 30.97
205, 1.02, 2017/11/15 10:51:14.369上午, 636.0, 14.97, 5.42, 11.87, 32.26
206, 1.025, 2017/11/15 10:51:14.374上午, 633.0, 14.97, 5.68, 11.10, 31.74
207, 1.03, 2017/11/15 10:51:14.379上午, 645.0, 14.71, 5.42, 12.65, 32.77
208, 1.035, 2017/11/15 10:51:14.384上午, 653.0, 14.97, 6.19, 11.35, 32.52
209, 1.04, 2017/11/15 10:51:14.389上午, 644.0, 14.97, 5.94, 11.61, 32.52
210, 1.045, 2017/11/15 10:51:14.394上午, 625.0, 14.45, 6.45, 11.10, 32.00
211, 1.05, 2017/11/15 10:51:14.399上午, 646.0, 14.45, 6.19, 12.39, 33.03
212, 1.055, 2017/11/15 10:51:14.404上午, 633.0, 14.45, 4.90, 11.61, 30.97
213, 1.06, 2017/11/15 10:51:14.409上午, 626.0, 14.97, 4.90, 11.87, 31.74
214, 1.065, 2017/11/15 10:51:14.414上午, 646.0, 14.71, 5.42, 12.13, 32.26
215, 1.07, 2017/11/15 10:51:14.419上午, 652.0, 15.23, 5.94, 11.35, 32.52
216, 1.075, 2017/11/15 10:51:14.424上午, 649.0, 15.23, 5.42, 11.10, 31.74
217, 1.08, 2017/11/15 10:51:14.429上午, 632.0, 14.97, 5.68, 10.58, 31.23
218, 1.085, 2017/11/15 10:51:14.434上午, 649.0, 15.48, 5.94, 11.35, 32.77
219, 1.09, 2017/11/15 10:51:14.439上午, 615.0, 14.97, 5.16, 10.84, 30.97
220, 1.095, 2017/11/15 10:51:14.444上午, 626.0, 14.19, 5.16, 11.35, 30.71
221, 1.1, 2017/11/15 10:51:14.449上午, 645.0, 14.71, 5.68, 11.61, 32.00
222, 1.105, 2017/11/15 10:51:14.454上午, 649.0, 14.71, 5.16, 12.13, 32.00
223, 1.11, 2017/11/15 10:51:14.459上午, 642.0, 14.97, 5.94, 11.35, 32.26
224, 1.115, 2017/11/15 10:51:14.464上午, 650.0, 14.97, 6.45, 11.61, 33.03
225, 1.12, 2017/11/15 10:51:14.469上午, 639.0, 14.97, 6.19, 11.10, 32.26
226, 1.125, 2017/11/15 10:51:14.474上午, 619.0, 14.45, 4.90, 11.35, 30.71
227, 1.13, 2017/11/15 10:51:14.479上午, 638.0, 14.71, 5.16, 12.13, 32.00
228, 1.135, 2017/11/15 10:51:14.484上午, 637.0, 14.19, 5.68, 11.35, 31.23
229, 1.14, 2017/11/15 10:51:14.489上午, 641.0, 14.71, 5.68, 11.10, 31.48
230, 1.145, 2017/11/15 10:51:14.494上午, 654.0, 15.48, 6.45, 11.61, 33.55
231, 1.15, 2017/11/15 10:51:14.499上午, 650.0, 15.48, 6.19, 11.35, 33.03
232, 1.155, 2017/11/15 10:51:14.504上午, 640.0, 15.48, 5.94, 10.58, 32.00
233, 1.16, 2017/11/15 10:51:14.509上午, 639.0, 15.48, 5.42, 11.35, 32.26
234, 1.165, 2017/11/15 10:51:14.514上午, 649.0, 14.97, 6.19, 11.87, 33.03
235, 1.17, 2017/11/15 10:51:14.519上午, 633.0, 14.97, 5.68, 11.10, 31.74
236, 1.175, 2017/11/15 10:51:14.524上午, 634.0, 14.97, 5.16, 12.13, 32.26
237, 1.18, 2017/11/15 10:51:14.529上午, 663.0, 14.71, 6.71, 12.39, 33.81
238, 1.185, 2017/11/15 10:51:14.534上午, 647.0, 15.23, 5.16, 11.10, 31.48
239, 1.19, 2017/11/15 10:51:14.539上午, 624.0, 14.97, 5.16, 10.58, 30.71
240, 1.195, 2017/11/15 10:51:14.544上午, 622.0, 14.97, 5.42, 11.61, 32.00
241, 1.2, 2017/11/15 10:51:14.549上午, 641.0, 14.97, 6.19, 11.35, 32.52
242, 1.205, 2017/11/15 10:51:14.554上午, 641.0, 14.71, 5.68, 11.10, 31.48
243, 1.21, 2017/11/15 10:51:14.559上午, 637.0, 14.71, 5.68, 10.84, 31.23
244, 1.215, 2017/11/15 10:51:14.564上午, 635.0, 14.71, 5.16, 11.61, 31.48
245, 1.22, 2017/11/15 10:51:14.569上午, 644.0, 14.97, 6.45, 10.32, 31.74
246, 1.225, 2017/11/15 10:51:14.574上午, 650.0, 15.48, 6.19, 11.35, 33.03
247, 1.23, 2017/11/15 10:51:14.579上午, 643.0, 14.97, 4.90, 12.13, 32.00
248, 1.235, 2017/11/15 10:51:14.584上午, 647.0, 14.71, 5.42, 12.13, 32.26
249, 1.24, 2017/11/15 10:51:14.589上午, 650.0, 14.97, 5.42, 11.10, 31.48
250, 1.245, 2017/11/15 10:51:14.594上午, 650.0, 15.48, 5.42, 11.10, 32.00
251, 1.25, 2017/11/15 10:51:14.599上午, 655.0, 15.48, 5.94, 11.35, 32.77
252, 1.255, 2017/11/15 10:51:14.604上午, 661.0, 14.97, 6.45, 12.13, 33.55
253, 1.26, 2017/11/15 10:51:14.609上午, 645.0, 14.97, 5.68, 11.87, 32.52
254, 1.265, 2017/11/15 10:51:14.614上午, 652.0, 14.97, 5.94, 11.61, 32.52
255, 1.27, 2017/11/15 10:51:14.619上午, 648.0, 14.97, 5.16, 11.87, 32.00
256, 1.275, 2017/11/15 10:51:14.624上午, 649.0, 14.71, 5.68, 11.10, 31.48
257, 1.28, 2017/11/15 10:51:14.629上午, 646.0, 14.97, 5.94, 10.84, 31.74
258, 1.285, 2017/11/15 10:51:14.634上午, 647.0, 14.97, 6.71, 11.87, 33.55
259, 1.29, 2017/11/15 10:51:14.639上午, 670.0, 14.97, 6.45, 12.39, 33.81
260, 1.295, 2017/11/15 10:51:14.644上午, 645.0, 14.97, 5.16, 11.61, 31.74
261, 1.3, 2017/11/15 10:51:14.649上午, 665.0, 15.74, 5.16, 11.87, 32.77
262, 1.305, 2017/11/15 10:51:14.654上午, 656.0, 14.97, 6.19, 11.61, 32.77
263, 1.31, 2017/11/15 10:51:14.659上午, 645.0, 14.97, 6.71, 11.61, 33.29
264, 1.315, 2017/11/15 10:51:14.664上午, 640.0, 14.97, 4.90, 12.13, 32.00
265, 1.32, 2017/11/15 10:51:14.669上午, 648.0, 14.97, 5.42, 11.10, 31.48
266, 1.325, 2017/11/15 10:51:14.674上午, 664.0, 15.23, 6.19, 11.61, 33.03
267, 1.33, 2017/11/15 10:51:14.679上午, 638.0, 15.23, 5.16, 11.10, 31.48
268, 1.335, 2017/11/15 10:51:14.684上午, 647.0, 14.97, 5.68, 11.61, 32.26
269, 1.34, 2017/11/15 10:51:14.689上午, 636.0, 14.45, 4.90, 11.87, 31.23
270, 1.345, 2017/11/15 10:51:14.694上午, 643.0, 14.97, 5.16, 12.65, 32.77
271, 1.35, 2017/11/15 10:51:14.699上午, 656.0, 15.23, 5.68, 11.61, 32.52
272, 1.355, 2017/11/15 10:51:14.704上午, 639.0, 15.23, 5.16, 11.10, 31.48
273, 1.36, 2017/11/15 10:51:14.709上午, 645.0, 15.23, 5.42, 11.35, 32.00
274, 1.365, 2017/11/15 10:51:14.714上午, 648.0, 14.97, 5.94, 10.84, 31.74
275, 1.37, 2017/11/15 10:51:14.719上午, 643.0, 14.97, 6.19, 10.32, 31.48
276, 1.375, 2017/11/15 10:51:14.724上午, 639.0, 14.97, 5.16, 11.35, 31.48
277, 1.38, 2017/11/15 10:51:14.729上午, 650.0, 14.97, 5.42, 11.61, 32.00
278, 1.385, 2017/11/15 10:51:14.734上午, 643.0, 14.97, 5.16, 11.10, 31.23
279, 1.39, 2017/11/15 10:51:14.739上午, 658.0, 14.71, 5.68, 12.13, 32.52
280, 1.395, 2017/11/15 10:51:14.744上午, 647.0, 15.23, 5.42, 11.35, 32.00
281, 1.4, 2017/11/15 10:51:14.749上午, 643.0, 14.97, 5.68, 11.35, 32.00
282, 1.405, 2017/11/15 10:51:14.754上午, 651.0, 14.71, 5.94, 11.87, 32.52
283, 1.41, 2017/11/15 10:51:14.759上午, 643.0, 15.48, 5.16, 11.10, 31.74
284, 1.415, 2017/11/15 10:51:14.764上午, 647.0, 14.19, 5.42, 11.87, 31.48
285, 1.42, 2017/11/15 10:51:14.769上午, 650.0, 14.71, 5.68, 11.10, 31.48
286, 1.425, 2017/11/15 10:51:14.774上午, 655.0, 15.23, 5.42, 11.61, 32.26
287, 1.43, 2017/11/15 10:51:14.779上午, 648.0, 15.23, 5.68, 11.10, 32.00
288, 1.435, 2017/11/15 10:51:14.784上午, 658.0, 15.48, 5.42, 11.61, 32.52
289, 1.44, 2017/11/15 10:51:14.789上午, 657.0, 14.97, 6.45, 11.10, 32.52
290, 1.445, 2017/11/15 10:51:14.794上午, 649.0, 14.71, 6.71, 11.10, 32.52
291, 1.45, 2017/11/15 10:51:14.799上午, 638.0, 14.45, 5.94, 10.84, 31.23
292, 1.455, 2017/11/15 10:51:14.804上午, 630.0, 14.97, 4.90, 10.84, 30.71
293, 1.46, 2017/11/15 10:51:14.809上午, 623.0, 14.97, 4.65, 10.84, 30.45
294, 1.465, 2017/11/15 10:51:14.814上午, 631.0, 14.97, 4.39, 11.87, 31.23
295, 1.47, 2017/11/15 10:51:14.819上午, 659.0, 14.71, 5.94, 11.87, 32.52
296, 1.475, 2017/11/15 10:51:14.824上午, 646.0, 14.71, 5.42, 11.10, 31.23
297, 1.48, 2017/11/15 10:51:14.829上午, 664.0, 15.48, 5.68, 11.61, 32.77
298, 1.485, 2017/11/15 10:51:14.834上午, 656.0, 15.23, 5.68, 11.61, 32.52
299, 1.49, 2017/11/15 10:51:14.839上午, 659.0, 14.97, 6.45, 11.10, 32.52
300, 1.495, 2017/11/15 10:51:14.844上午, 658.0, 14.71, 5.94, 11.87, 32.52
301, 1.5, 2017/11/15 10:51:14.849上午, 638.0, 14.71, 6.71, 10.32, 31.74
302, 1.505, 2017/11/15 10:51:14.854上午, 637.0, 15.23, 5.42, 11.10, 31.74
303, 1.51, 2017/11/15 10:51:14.859上午, 650.0, 14.97, 5.68, 11.10, 31.74
304, 1.515, 2017/11/15 10:51:14.864上午, 659.0, 14.97, 5.68, 11.61, 32.26
305, 1.52, 2017/11/15 10:51:14.869上午, 638.0, 15.23, 5.16, 10.06, 30.45
306, 1.525, 2017/11/15 10:51:14.874上午, 649.0, 14.97, 6.19, 10.32, 31.48
307, 1.53, 2017/11/15 10:51:14.879上午, 627.0, 14.97, 5.16, 10.58, 30.71
308, 1.535, 2017/11/15 10:51:14.884上午, 648.0, 14.97, 5.42, 11.35, 31.74
309, 1.54, 2017/11/15 10:51:14.889上午, 655.0, 15.48, 5.42, 11.10, 32.00
310, 1.545, 2017/11/15 10:51:14.894上午, 654.0, 15.23, 5.68, 11.10, 32.00
311, 1.55, 2017/11/15 10:51:14.899上午, 646.0, 15.48, 6.19, 10.06, 31.74
312, 1.555, 2017/11/15 10:51:14.904上午, 639.0, 14.97, 6.19, 10.58, 31.74
313, 1.56, 2017/11/15 10:51:14.909上午, 639.0, 14.71, 5.68, 11.35, 31.74
314, 1.565, 2017/11/15 10:51:14.914上午, 665.0, 14.97, 6.19, 12.13, 33.29
315, 1.57, 2017/11/15 10:51:14.919上午, 657.0, 14.71, 5.42, 12.65, 32.77
316, 1.575, 2017/11/15 10:51:14.924上午, 661.0, 14.97, 5.68, 11.61, 32.26
317, 1.58, 2017/11/15 10:51:14.929上午, 654.0, 15.48, 5.42, 11.10, 32.00
318, 1.585, 2017/11/15 10:51:14.934上午, 658.0, 15.23, 6.19, 11.10, 32.52
319, 1.59, 2017/11/15 10:51:14.939上午, 617.0, 14.45, 5.42, 10.84, 30.71
320, 1.595, 2017/11/15 10:51:14.944上午, 639.0, 14.97, 4.65, 11.61, 31.23
321, 1.6, 2017/11/15 10:51:14.949上午, 644.0, 14.97, 5.42, 11.61, 32.00
322, 1.605, 2017/11/15 10:51:14.954上午, 661.0, 15.23, 5.94, 11.10, 32.26
323, 1.61, 2017/11/15 10:51:14.959上午, 637.0, 14.97, 5.94, 10.84, 31.74
324, 1.615, 2017/11/15 10:51:14.964上午, 646.0, 14.71, 5.68, 11.61, 32.00
325, 1.62, 2017/11/15 10:51:14.969上午, 641.0, 14.45, 4.90, 11.87, 31.23
326, 1.625, 2017/11/15 10:51:14.974上午, 638.0, 14.97, 5.42, 10.84, 31.23
327, 1.63, 2017/11/15 10:51:14.979上午, 653.0, 14.97, 5.42, 11.87, 32.26
328, 1.635, 2017/11/15 10:51:14.984上午, 668.0, 15.23, 5.68, 11.87, 32.77
329, 1.64, 2017/11/15 10:51:14.989上午, 655.0, 14.97, 5.42, 11.61, 32.00
330, 1.645, 2017/11/15 10:51:14.994上午, 650.0, 14.97, 5.94, 11.10, 32.00
331, 1.65, 2017/11/15 10:51:14.999上午, 651.0, 15.23, 5.42, 11.10, 31.74
332, 1.655, 2017/11/15 10:51:15.004上午, 627.0, 14.71, 5.16, 10.06, 29.94
333, 1.66, 2017/11/15 10:51:15.009上午, 642.0, 14.97, 5.68, 11.10, 31.74
334, 1.665, 2017/11/15 10:51:15.014上午, 664.0, 14.97, 6.71, 11.61, 33.29
335, 1.67, 2017/11/15 10:51:15.019上午, 629.0, 14.71, 5.42, 11.35, 31.48
336, 1.675, 2017/11/15 10:51:15.024上午, 647.0, 14.45, 5.16, 11.87, 31.48
337, 1.68, 2017/11/15 10:51:15.029上午, 646.0, 14.97, 5.16, 12.13, 32.26
338, 1.685, 2017/11/15 10:51:15.034上午, 646.0, 14.71, 5.42, 11.61, 31.74
339, 1.69, 2017/11/15 10:51:15.039上午, 651.0, 14.97, 5.42, 11.61, 32.00
340, 1.695, 2017/11/15 10:51:15.044上午, 654.0, 14.97, 5.68, 11.10, 31.74
341, 1.7, 2017/11/15 10:51:15.049上午, 654.0, 15.48, 5.16, 11.10, 31.74
342, 1.705, 2017/11/15 10:51:15.054上午, 648.0, 14.71, 5.68, 11.10, 31.48
343, 1.71, 2017/11/15 10:51:15.059上午, 641.0, 15.48, 5.16, 11.35, 32.00
344, 1.715, 2017/11/15 10:51:15.064上午, 637.0, 14.97, 4.90, 11.35, 31.23
345, 1.72, 2017/11/15 10:51:15.069上午, 655.0, 14.97, 5.42, 12.13, 32.52
346, 1.725, 2017/11/15 10:51:15.074上午, 652.0, 14.71, 5.68, 11.61, 32.00
347, 1.73, 2017/11/15 10:51:15.079上午, 651.0, 14.97, 5.42, 11.10, 31.48
348, 1.735, 2017/11/15 10:51:15.084上午, 666.0, 15.23, 6.45, 11.61, 33.29
349, 1.74, 2017/11/15 10:51:15.089上午, 659.0, 15.48, 5.42, 11.61, 32.52
350, 1.745, 2017/11/15 10:51:15.094上午, 645.0, 14.97, 5.94, 10.32, 31.23
351, 1.75, 2017/11/15 10:51:15.099上午, 645.0, 14.97, 5.94, 10.06, 30.97
352, 1.755, 2017/11/15 10:51:15.104上午, 649.0, 14.97, 5.94, 10.84, 31.74
353, 1.76, 2017/11/15 10:51:15.109上午, 625.0, 15.74, 4.65, 10.84, 31.23
354, 1.765, 2017/11/15 10:51:15.114上午, 643.0, 14.45, 5.16, 11.61, 31.23
355, 1.77, 2017/11/15 10:51:15.119上午, 656.0, 14.97, 5.94, 11.61, 32.52
356, 1.775, 2017/11/15 10:51:15.124上午, 659.0, 15.23, 5.68, 11.35, 32.26
357, 1.78, 2017/11/15 10:51:15.129上午, 644.0, 14.97, 6.19, 10.06, 31.23
358, 1.785, 2017/11/15 10:51:15.134上午, 659.0, 14.97, 6.45, 11.61, 33.03
359, 1.79, 2017/11/15 10:51:15.139上午, 637.0, 14.97, 5.16, 10.84, 30.97
360, 1.795, 2017/11/15 10:51:15.144上午, 656.0, 14.97, 5.94, 11.35, 32.26
361, 1.8, 2017/11/15 10:51:15.149上午, 653.0, 14.97, 4.90, 13.16, 33.03
362, 1.805, 2017/11/15 10:51:15.154上午, 654.0, 14.97, 5.16, 11.61, 31.74
363, 1.81, 2017/11/15 10:51:15.159上午, 655.0, 14.97, 5.94, 11.61, 32.52
364, 1.815, 2017/11/15 10:51:15.164上午, 642.0, 14.97, 5.42, 10.58, 30.97
365, 1.82, 2017/11/15 10:51:15.169上午, 653.0, 14.97, 6.45, 11.35, 32.77
366, 1.825, 2017/11/15 10:51:15.174上午, 649.0, 14.71, 6.19, 11.35, 32.26
367, 1.83, 2017/11/15 10:51:15.179上午, 627.0, 14.71, 5.68, 11.35, 31.74
368, 1.835, 2017/11/15 10:51:15.184上午, 640.0, 14.45, 5.16, 11.61, 31.23
369, 1.84, 2017/11/15 10:51:15.189上午, 665.0, 15.23, 5.68, 12.39, 33.29
370, 1.845, 2017/11/15 10:51:15.194上午, 660.0, 15.23, 5.68, 11.35, 32.26
371, 1.85, 2017/11/15 10:51:15.199上午, 658.0, 15.48, 5.68, 11.10, 32.26
372, 1.855, 2017/11/15 10:51:15.204上午, 649.0, 14.97, 5.94, 10.84, 31.74
373, 1.86, 2017/11/15 10:51:15.209上午, 652.0, 14.97, 5.94, 11.35, 32.26
374, 1.865, 2017/11/15 10:51:15.214上午, 627.0, 14.45, 5.16, 10.84, 30.45
375, 1.87, 2017/11/15 10:51:15.219上午, 661.0, 14.45, 5.42, 12.65, 32.52
376, 1.875, 2017/11/15 10:51:15.224上午, 651.0, 14.97, 5.42, 12.39, 32.77
377, 1.88, 2017/11/15 10:51:15.229上午, 639.0, 14.45, 5.16, 11.61, 31.23
378, 1.885, 2017/11/15 10:51:15.234上午, 651.0, 14.97, 5.16, 11.87, 32.00
379, 1.89, 2017/11/15 10:51:15.239上午, 657.0, 15.23, 5.42, 11.35, 32.00
380, 1.895, 2017/11/15 10:51:15.244上午, 646.0, 15.23, 4.90, 11.10, 31.23
381, 1.9, 2017/11/15 10:51:15.249上午, 670.0, 15.48, 6.19, 11.87, 33.55
382, 1.905, 2017/11/15 10:51:15.254上午, 649.0, 14.97, 5.42, 11.61, 32.00
383, 1.91, 2017/11/15 10:51:15.259上午, 653.0, 14.71, 5.42, 12.39, 32.52
384, 1.915, 2017/11/15 10:51:15.264上午, 647.0, 14.97, 5.16, 11.87, 32.00
385, 1.92, 2017/11/15 10:51:15.269上午, 648.0, 14.71, 5.42, 11.61, 31.74
386, 1.925, 2017/11/15 10:51:15.274上午, 659.0, 14.97, 6.45, 11.61, 33.03
387, 1.93, 2017/11/15 10:51:15.279上午, 657.0, 15.48, 4.90, 11.61, 32.00
388, 1.935, 2017/11/15 10:51:15.284上午, 643.0, 14.97, 5.68, 10.84, 31.48
389, 1.94, 2017/11/15 10:51:15.289上午, 663.0, 15.48, 5.94, 11.87, 33.29
390, 1.945, 2017/11/15 10:51:15.294上午, 640.0, 14.97, 5.42, 11.10, 31.48
391, 1.95, 2017/11/15 10:51:15.299上午, 636.0, 14.71, 4.90, 11.87, 31.48
392, 1.955, 2017/11/15 10:51:15.304上午, 653.0, 15.23, 5.42, 12.13, 32.77
393, 1.96, 2017/11/15 10:51:15.309上午, 643.0, 14.97, 4.90, 12.13, 32.00
394, 1.965, 2017/11/15 10:51:15.314上午, 656.0, 14.97, 5.42, 11.87, 32.26
395, 1.97, 2017/11/15 10:51:15.319上午, 646.0, 14.97, 5.16, 11.10, 31.23
396, 1.975, 2017/11/15 10:51:15.324上午, 668.0, 15.48, 6.19, 11.10, 32.77
397, 1.98, 2017/11/15 10:51:15.329上午, 645.0, 15.48, 5.68, 10.06, 31.23
398, 1.985, 2017/11/15 10:51:15.334上午, 651.0, 15.23, 6.19, 10.84, 32.26
399, 1.99, 2017/11/15 10:51:15.339上午, 651.0, 14.45, 5.16, 12.65, 32.26
400, 1.995, 2017/11/15 10:51:15.344上午, 645.0, 14.71, 5.68, 11.10, 31.48
401, 2, 2017/11/15 10:51:15.349上午, 650.0, 14.97, 5.68, 11.35, 32.00
402, 2.005, 2017/11/15 10:51:15.354上午, 657.0, 14.97, 5.94, 11.10, 32.00
403, 2.01, 2017/11/15 10:51:15.359上午, 640.0, 14.71, 5.42, 11.61, 31.74
404, 2.015, 2017/11/15 10:51:15.364上午, 648.0, 14.97, 5.68, 11.35, 32.00
405, 2.02, 2017/11/15 10:51:15.369上午, 632.0, 14.97, 5.42, 10.84, 31.23
406, 2.025, 2017/11/15 10:51:15.374上午, 659.0, 14.97, 5.68, 11.87, 32.52
407, 2.03, 2017/11/15 10:51:15.379上午, 651.0, 14.97, 5.68, 11.61, 32.26
408, 2.035, 2017/11/15 10:51:15.384上午, 659.0, 15.48, 5.68, 11.10, 32.26
409, 2.04, 2017/11/15 10:51:15.389上午, 647.0, 15.23, 5.42, 10.06, 30.71
410, 2.045, 2017/11/15 10:51:15.394上午, 646.0, 15.48, 5.16, 10.58, 31.23
411, 2.05, 2017/11/15 10:51:15.399上午, 640.0, 15.48, 5.68, 10.06, 31.23
412, 2.055, 2017/11/15 10:51:15.404上午, 645.0, 14.97, 5.94, 10.84, 31.74
413, 2.06, 2017/11/15 10:51:15.409上午, 653.0, 14.97, 5.16, 12.65, 32.77
414, 2.065, 2017/11/15 10:51:15.414上午, 651.0, 14.71, 5.94, 11.87, 32.52
415, 2.07, 2017/11/15 10:51:15.419上午, 642.0, 14.71, 5.94, 10.84, 31.48
416, 2.075, 2017/11/15 10:51:15.424上午, 640.0, 15.23, 5.16, 11.35, 31.74
417, 2.08, 2017/11/15 10:51:15.429上午, 663.0, 14.97, 5.94, 12.13, 33.03
418, 2.085, 2017/11/15 10:51:15.434上午, 677.0, 15.74, 6.45, 11.10, 33.29
419, 2.09, 2017/11/15 10:51:15.439上午, 660.0, 15.23, 5.68, 11.35, 32.26
420, 2.095, 2017/11/15 10:51:15.444上午, 652.0, 15.74, 5.42, 11.10, 32.26
421, 2.1, 2017/11/15 10:51:15.449上午, 639.0, 15.48, 5.16, 10.32, 30.97
422, 2.105, 2017/11/15 10:51:15.454上午, 649.0, 14.45, 5.94, 11.61, 32.00
423, 2.11, 2017/11/15 10:51:15.459上午, 646.0, 14.45, 5.16, 12.39, 32.00
424, 2.115, 2017/11/15 10:51:15.464上午, 635.0, 14.97, 4.65, 11.61, 31.23
425, 2.12, 2017/11/15 10:51:15.469上午, 669.0, 14.97, 6.45, 12.39, 33.81
426, 2.125, 2017/11/15 10:51:15.474上午, 652.0, 15.48, 5.42, 11.35, 32.26
427, 2.13, 2017/11/15 10:51:15.479上午, 646.0, 15.48, 5.94, 10.32, 31.74
428, 2.135, 2017/11/15 10:51:15.484上午, 646.0, 14.97, 5.94, 11.10, 32.00
429, 2.14, 2017/11/15 10:51:15.489上午, 638.0, 14.97, 4.90, 11.61, 31.48
430, 2.145, 2017/11/15 10:51:15.494上午, 642.0, 14.97, 5.68, 11.10, 31.74
431, 2.15, 2017/11/15 10:51:15.499上午, 642.0, 14.97, 5.68, 11.35, 32.00
432, 2.155, 2017/11/15 10:51:15.504上午, 651.0, 14.97, 6.19, 11.35, 32.52
433, 2.16, 2017/11/15 10:51:15.509上午, 642.0, 14.45, 5.42, 11.87, 31.74
434, 2.165, 2017/11/15 10:51:15.514上午, 649.0, 14.45, 5.16, 12.39, 32.00
435, 2.17, 2017/11/15 10:51:15.519上午, 656.0, 14.97, 5.42, 12.13, 32.52
436, 2.175, 2017/11/15 10:51:15.524上午, 646.0, 15.48, 6.19, 11.87, 33.55
437, 2.18, 2017/11/15 10:51:15.529上午, 657.0, 15.23, 5.94, 11.35, 32.52
438, 2.185, 2017/11/15 10:51:15.534上午, 637.0, 14.97, 5.42, 10.84, 31.23
439, 2.19, 2017/11/15 10:51:15.539上午, 640.0, 14.97, 5.94, 10.84, 31.74
440, 2.195, 2017/11/15 10:51:15.544上午, 644.0, 14.97, 5.68, 11.87, 32.52
441, 2.2, 2017/11/15 10:51:15.549上午, 624.0, 14.45, 4.39, 11.61, 30.45
442, 2.205, 2017/11/15 10:51:15.554上午, 649.0, 14.71, 5.42, 11.87, 32.00
443, 2.21, 2017/11/15 10:51:15.559上午, 646.0, 14.97, 5.42, 11.87, 32.26
444, 2.215, 2017/11/15 10:51:15.564上午, 651.0, 14.97, 5.94, 11.10, 32.00
445, 2.22, 2017/11/15 10:51:15.569上午, 653.0, 14.97, 6.45, 10.58, 32.00
446, 2.225, 2017/11/15 10:51:15.574上午, 642.0, 14.97, 5.68, 11.87, 32.52
447, 2.23, 2017/11/15 10:51:15.579上午, 636.0, 14.45, 6.19, 10.84, 31.48
448, 2.235, 2017/11/15 10:51:15.584上午, 662.0, 14.97, 6.19, 12.65, 33.81
449, 2.24, 2017/11/15 10:51:15.589上午, 657.0, 14.71, 5.68, 11.87, 32.26
450, 2.245, 2017/11/15 10:51:15.594上午, 646.0, 14.97, 5.68, 11.35, 32.00
451, 2.25, 2017/11/15 10:51:15.599上午, 645.0, 14.97, 5.94, 11.10, 32.00
452, 2.255, 2017/11/15 10:51:15.604上午, 650.0, 14.97, 6.45, 11.35, 32.77
453, 2.26, 2017/11/15 10:51:15.609上午, 646.0, 14.45, 4.90, 12.90, 32.26
454, 2.265, 2017/11/15 10:51:15.614上午, 635.0, 14.71, 4.39, 12.13, 31.23
455, 2.27, 2017/11/15 10:51:15.619上午, 652.0, 14.97, 6.19, 11.35, 32.52
456, 2.275, 2017/11/15 10:51:15.624上午, 646.0, 14.71, 6.45, 10.58, 31.74
457, 2.28, 2017/11/15 10:51:15.629上午, 639.0, 14.45, 5.94, 11.61, 32.00
458, 2.285, 2017/11/15 10:51:15.634上午, 639.0, 14.45, 5.42, 11.87, 31.74
459, 2.29, 2017/11/15 10:51:15.639上午, 636.0, 14.45, 5.42, 11.35, 31.23
460, 2.295, 2017/11/15 10:51:15.644上午, 645.0, 14.97, 5.94, 11.35, 32.26
461, 2.3, 2017/11/15 10:51:15.649上午, 655.0, 14.97, 6.71, 10.84, 32.52
462, 2.305, 2017/11/15 10:51:15.654上午, 635.0, 14.45, 6.19, 11.10, 31.74
463, 2.31, 2017/11/15 10:51:15.659上午, 628.0, 14.45, 4.90, 11.35, 30.71
464, 2.315, 2017/11/15 10:51:15.664上午, 655.0, 15.23, 5.68, 11.10, 32.00
465, 2.32, 2017/11/15 10:51:15.669上午, 649.0, 14.97, 6.19, 11.10, 32.26
466, 2.325, 2017/11/15 10:51:15.674上午, 644.0, 14.97, 6.19, 11.61, 32.77
467, 2.33, 2017/11/15 10:51:15.679上午, 640.0, 14.97, 5.68, 11.87, 32.52
468, 2.335, 2017/11/15 10:51:15.684上午, 637.0, 14.45, 4.90, 12.13, 31.48
469, 2.34, 2017/11/15 10:51:15.689上午, 649.0, 14.97, 6.19, 11.87, 33.03
470, 2.345, 2017/11/15 10:51:15.694上午, 659.0, 15.23, 5.94, 11.10, 32.26
471, 2.35, 2017/11/15 10:51:15.699上午, 642.0, 14.97, 5.94, 10.84, 31.74
472, 2.355, 2017/11/15 10:51:15.704上午, 641.0, 14.97, 5.94, 10.84, 31.74
473, 2.36, 2017/11/15 10:51:15.709上午, 644.0, 15.48, 6.19, 10.58, 32.26
474, 2.365, 2017/11/15 10:51:15.714上午, 637.0, 14.45, 5.42, 11.87, 31.74
475, 2.37, 2017/11/15 10:51:15.719上午, 647.0, 14.97, 5.16, 12.13, 32.26
476, 2.375, 2017/11/15 10:51:15.724上午, 660.0, 15.23, 5.68, 12.13, 33.03
477, 2.38, 2017/11/15 10:51:15.729上午, 662.0, 15.48, 6.45, 11.35, 33.29
478, 2.385, 2017/11/15 10:51:15.734上午, 656.0, 14.97, 6.19, 11.10, 32.26
479, 2.39, 2017/11/15 10:51:15.739上午, 639.0, 14.97, 5.68, 10.32, 30.97
480, 2.395, 2017/11/15 10:51:15.744上午, 640.0, 14.45, 5.16, 12.39, 32.00
481, 2.4, 2017/11/15 10:51:15.749上午, 639.0, 14.71, 5.16, 11.61, 31.48
482, 2.405, 2017/11/15 10:51:15.754上午, 654.0, 14.71, 5.94, 11.61, 32.26
483, 2.41, 2017/11/15 10:51:15.759上午, 635.0, 14.97, 5.16, 11.35, 31.48
484, 2.415, 2017/11/15 10:51:15.764上午, 651.0, 14.71, 6.45, 11.61, 32.77
485, 2.42, 2017/11/15 10:51:15.769上午, 642.0, 14.71, 6.19, 11.35, 32.26
486, 2.425, 2017/11/15 10:51:15.774上午, 647.0, 14.45, 5.68, 11.87, 32.00
487, 2.43, 2017/11/15 10:51:15.779上午, 658.0, 14.71, 5.68, 13.16, 33.55
488, 2.435, 2017/11/15 10:51:15.784上午, 650.0, 15.48, 5.68, 11.10, 32.26
489, 2.44, 2017/11/15 10:51:15.789上午, 664.0, 15.48, 5.68, 11.61, 32.77
490, 2.445, 2017/11/15 10:51:15.794上午, 674.0, 15.74, 6.45, 11.10, 33.29
491, 2.45, 2017/11/15 10:51:15.799上午, 644.0, 15.48, 5.68, 10.84, 32.00
492, 2.455, 2017/11/15 10:51:15.804上午, 652.0, 14.97, 5.94, 12.13, 33.03
493, 2.46, 2017/11/15 10:51:15.809上午, 639.0, 14.45, 6.19, 11.61, 32.26
494, 2.465, 2017/11/15 10:51:15.814上午, 650.0, 14.19, 5.16, 13.16, 32.52
495, 2.47, 2017/11/15 10:51:15.819上午, 650.0, 14.97, 5.16, 12.39, 32.52
496, 2.475, 2017/11/15 10:51:15.824上午, 659.0, 14.97, 5.94, 11.87, 32.77
497, 2.48, 2017/11/15 10:51:15.829上午, 642.0, 14.71, 5.68, 11.35, 31.74
498, 2.485, 2017/11/15 10:51:15.834上午, 642.0, 14.45, 6.19, 11.10, 31.74
499, 2.49, 2017/11/15 10:51:15.839上午, 633.0, 14.45, 6.19, 11.35, 32.00
500, 2.495, 2017/11/15 10:51:15.844上午, 638.0, 14.45, 5.94, 11.35, 31.74
501, 2.5, 2017/11/15 10:51:15.849上午, 635.0, 14.97, 5.16, 11.61, 31.74
502, 2.505, 2017/11/15 10:51:15.854上午, 657.0, 15.23, 6.19, 11.10, 32.52
503, 2.51, 2017/11/15 10:51:15.859上午, 676.0, 15.23, 6.45, 11.87, 33.55
504, 2.515, 2017/11/15 10:51:15.864上午, 646.0, 14.71, 6.45, 11.35, 32.52
505, 2.52, 2017/11/15 10:51:15.869上午, 640.0, 14.71, 6.19, 11.10, 32.00
506, 2.525, 2017/11/15 10:51:15.874上午, 646.0, 14.19, 6.19, 12.13, 32.52
507, 2.53, 2017/11/15 10:51:15.879上午, 635.0, 14.97, 4.39, 12.39, 31.74
508, 2.535, 2017/11/15 10:51:15.884上午, 647.0, 14.97, 5.42, 12.13, 32.52
509, 2.54, 2017/11/15 10:51:15.889上午, 636.0, 14.45, 5.16, 11.87, 31.48
510, 2.545, 2017/11/15 10:51:15.894上午, 655.0, 14.71, 5.94, 12.13, 32.77
511, 2.55, 2017/11/15 10:51:15.899上午, 658.0, 15.23, 5.94, 11.87, 33.03
512, 2.555, 2017/11/15 10:51:15.904上午, 651.0, 15.23, 5.94, 11.35, 32.52
513, 2.56, 2017/11/15 10:51:15.909上午, 662.0, 15.48, 6.45, 11.10, 33.03
514, 2.565, 2017/11/15 10:51:15.914上午, 633.0, 14.97, 5.42, 11.35, 31.74
515, 2.57, 2017/11/15 10:51:15.919上午, 648.0, 14.97, 6.45, 11.87, 33.29
516, 2.575, 2017/11/15 10:51:15.924上午, 647.0, 14.97, 5.68, 12.13, 32.77
517, 2.58, 2017/11/15 10:51:15.929上午, 645.0, 14.97, 5.16, 12.39, 32.52
518, 2.585, 2017/11/15 10:51:15.934上午, 648.0, 14.19, 5.94, 12.90, 33.03
519, 2.59, 2017/11/15 10:51:15.939上午, 665.0, 14.71, 6.71, 12.13, 33.55
520, 2.595, 2017/11/15 10:51:15.944上午, 655.0, 14.97, 5.68, 11.61, 32.26
521, 2.6, 2017/11/15 10:51:15.949上午, 657.0, 15.23, 6.45, 11.35, 33.03
522, 2.605, 2017/11/15 10:51:15.954上午, 647.0, 14.45, 6.19, 12.13, 32.77
523, 2.61, 2017/11/15 10:51:15.959上午, 668.0, 14.97, 6.19, 12.90, 34.06
524, 2.615, 2017/11/15 10:51:15.964上午, 645.0, 14.97, 4.90, 12.39, 32.26
525, 2.62, 2017/11/15 10:51:15.969上午, 636.0, 14.71, 5.42, 11.35, 31.48
526, 2.625, 2017/11/15 10:51:15.974上午, 661.0, 15.48, 5.94, 11.61, 33.03
527, 2.63, 2017/11/15 10:51:15.979上午, 654.0, 14.97, 6.19, 12.39, 33.55
528, 2.635, 2017/11/15 10:51:15.984上午, 657.0, 14.71, 6.45, 12.90, 34.06
529, 2.64, 2017/11/15 10:51:15.989上午, 655.0, 14.45, 6.45, 12.39, 33.29
530, 2.645, 2017/11/15 10:51:15.994上午, 645.0, 14.45, 5.16, 12.65, 32.26
531, 2.65, 2017/11/15 10:51:15.999上午, 648.0, 14.71, 5.42, 12.65, 32.77
532, 2.655, 2017/11/15 10:51:16.004上午, 664.0, 14.97, 6.45, 11.35, 32.77
533, 2.66, 2017/11/15 10:51:16.009上午, 651.0, 15.23, 6.45, 11.10, 32.77
534, 2.665, 2017/11/15 10:51:16.014上午, 639.0, 14.97, 5.68, 11.87, 32.52
535, 2.67, 2017/11/15 10:51:16.019上午, 657.0, 14.97, 6.19, 12.90, 34.06
536, 2.675, 2017/11/15 10:51:16.024上午, 634.0, 14.97, 4.90, 12.39, 32.26
537, 2.68, 2017/11/15 10:51:16.029上午, 648.0, 15.23, 5.42, 11.35, 32.00
538, 2.685, 2017/11/15 10:51:16.034上午, 649.0, 14.97, 5.94, 11.61, 32.52
539, 2.69, 2017/11/15 10:51:16.039上午, 634.0, 14.45, 6.19, 12.13, 32.77
540, 2.695, 2017/11/15 10:51:16.044上午, 658.0, 14.45, 5.94, 13.16, 33.55
541, 2.7, 2017/11/15 10:51:16.049上午, 654.0, 15.74, 5.68, 11.87, 33.29
542, 2.705, 2017/11/15 10:51:16.054上午, 649.0, 14.97, 6.19, 11.87, 33.03
543, 2.71, 2017/11/15 10:51:16.059上午, 660.0, 14.97, 5.94, 13.42, 34.32
544, 2.715, 2017/11/15 10:51:16.064上午, 641.0, 14.97, 5.16, 13.16, 33.29
545, 2.72, 2017/11/15 10:51:16.069上午, 636.0, 14.19, 5.42, 11.87, 31.48
546, 2.725, 2017/11/15 10:51:16.074上午, 652.0, 14.71, 5.94, 12.39, 33.03
547, 2.73, 2017/11/15 10:51:16.079上午, 667.0, 15.23, 6.45, 12.13, 33.81
548, 2.735, 2017/11/15 10:51:16.084上午, 655.0, 14.97, 6.71, 12.13, 33.81
549, 2.74, 2017/11/15 10:51:16.089上午, 631.0, 14.97, 4.90, 12.39, 32.26
550, 2.745, 2017/11/15 10:51:16.094上午, 649.0, 14.71, 5.94, 12.90, 33.55
551, 2.75, 2017/11/15 10:51:16.099上午, 648.0, 15.23, 5.68, 11.61, 32.52
552, 2.755, 2017/11/15 10:51:16.104上午, 646.0, 15.48, 6.19, 11.10, 32.77
553, 2.76, 2017/11/15 10:51:16.109上午, 637.0, 14.45, 6.19, 11.35, 32.00
554, 2.765, 2017/11/15 10:51:16.114上午, 634.0, 14.97, 5.42, 11.10, 31.48
555, 2.77, 2017/11/15 10:51:16.119上午, 646.0, 13.94, 5.68, 13.16, 32.77
556, 2.775, 2017/11/15 10:51:16.124上午, 658.0, 14.19, 6.71, 13.16, 34.06
557, 2.78, 2017/11/15 10:51:16.129上午, 654.0, 15.23, 6.45, 12.13, 33.81
558, 2.785, 2017/11/15 10:51:16.134上午, 646.0, 15.23, 6.45, 11.10, 32.77
559, 2.79, 2017/11/15 10:51:16.139上午, 641.0, 15.48, 5.42, 11.87, 32.77
560, 2.795, 2017/11/15 10:51:16.144上午, 655.0, 14.97, 6.71, 11.87, 33.55
561, 2.8, 2017/11/15 10:51:16.149上午, 640.0, 14.19, 5.42, 12.90, 32.52
562, 2.805, 2017/11/15 10:51:16.154上午, 643.0, 14.19, 5.68, 12.39, 32.26
563, 2.81, 2017/11/15 10:51:16.159上午, 642.0, 14.71, 5.94, 11.61, 32.26
564, 2.815, 2017/11/15 10:51:16.164上午, 640.0, 14.19, 6.19, 12.65, 33.03
565, 2.82, 2017/11/15 10:51:16.169上午, 647.0, 13.94, 6.45, 12.65, 33.03
566, 2.825, 2017/11/15 10:51:16.174上午, 633.0, 13.94, 5.42, 11.87, 31.23
567, 2.83, 2017/11/15 10:51:16.179上午, 643.0, 15.23, 6.45, 11.35, 33.03
568, 2.835, 2017/11/15 10:51:16.184上午, 651.0, 14.97, 6.71, 11.35, 33.03
569, 2.84, 2017/11/15 10:51:16.189上午, 639.0, 14.45, 6.19, 12.13, 32.77
570, 2.845, 2017/11/15 10:51:16.194上午, 639.0, 13.94, 5.16, 13.42, 32.52
571, 2.85, 2017/11/15 10:51:16.199上午, 643.0, 14.45, 5.68, 12.13, 32.26
572, 2.855, 2017/11/15 10:51:16.204上午, 665.0, 15.48, 6.45, 12.13, 34.06
573, 2.86, 2017/11/15 10:51:16.209上午, 629.0, 14.71, 6.19, 10.84, 31.74
574, 2.865, 2017/11/15 10:51:16.214上午, 630.0, 14.97, 6.19, 10.58, 31.74
575, 2.87, 2017/11/15 10:51:16.219上午, 640.0, 13.94, 5.94, 12.13, 32.00
576, 2.875, 2017/11/15 10:51:16.224上午, 637.0, 14.45, 5.42, 12.13, 32.00
577, 2.88, 2017/11/15 10:51:16.229上午, 630.0, 14.19, 5.42, 11.61, 31.23
578, 2.885, 2017/11/15 10:51:16.234上午, 648.0, 15.48, 5.94, 11.35, 32.77
579, 2.89, 2017/11/15 10:51:16.239上午, 645.0, 14.97, 5.68, 11.35, 32.00
580, 2.895, 2017/11/15 10:51:16.244上午, 647.0, 14.45, 5.42, 13.16, 33.03
581, 2.9, 2017/11/15 10:51:16.249上午, 631.0, 13.94, 5.42, 11.87, 31.23
582, 2.905, 2017/11/15 10:51:16.254上午, 635.0, 14.71, 5.68, 11.87, 32.26
583, 2.91, 2017/11/15 10:51:16.259上午, 642.0, 14.97, 5.94, 11.61, 32.52
584, 2.915, 2017/11/15 10:51:16.264上午, 644.0, 14.97, 5.94, 12.13, 33.03
585, 2.92, 2017/11/15 10:51:16.269上午, 626.0, 14.97, 5.68, 11.87, 32.52
586, 2.925, 2017/11/15 10:51:16.274上午, 640.0, 14.45, 5.68, 12.65, 32.77
587, 2.93, 2017/11/15 10:51:16.279上午, 662.0, 15.48, 6.45, 11.87, 33.81
588, 2.935, 2017/11/15 10:51:16.284上午, 643.0, 15.23, 5.68, 11.35, 32.26
589, 2.94, 2017/11/15 10:51:16.289上午, 644.0, 14.97, 5.94, 11.87, 32.77
590, 2.945, 2017/11/15 10:51:16.294上午, 643.0, 14.97, 5.68, 12.65, 33.29
591, 2.95, 2017/11/15 10:51:16.299上午, 639.0, 14.45, 5.94, 11.87, 32.26
592, 2.955, 2017/11/15 10:51:16.304上午, 631.0, 14.45, 4.65, 12.39, 31.48
593, 2.96, 2017/11/15 10:51:16.309上午, 660.0, 15.23, 5.94, 12.39, 33.55
594, 2.965, 2017/11/15 10:51:16.314上午, 650.0, 15.74, 5.68, 11.35, 32.77
595, 2.97, 2017/11/15 10:51:16.319上午, 627.0, 14.97, 5.16, 11.61, 31.74
596, 2.975, 2017/11/15 10:51:16.324上午, 618.0, 14.45, 5.42, 12.13, 32.00
597, 2.98, 2017/11/15 10:51:16.329上午, 651.0, 14.97, 6.45, 12.13, 33.55
598, 2.985, 2017/11/15 10:51:16.334上午, 633.0, 15.23, 5.16, 11.10, 31.48
599, 2.99, 2017/11/15 10:51:16.339上午, 635.0, 14.97, 5.94, 10.58, 31.48
600, 2.995, 2017/11/15 10:51:16.344上午, 628.0, 14.97, 5.16, 12.65, 32.77
@@
