DATA_TYPE Graph,,,,,,,
VERSION Tekscan Pressure Measurement System 6.70-03,,,,,,,
HARDWARE 00114-3447,,,,,,,
MAP_VERSION 6.5,,,,,,,
HW_TYPE 4,,,,,,,
VersaPogoFsx 0,,,,,,,
檔案名 C:\Users\asus\Desktop\工研院_計畫\收案資料\Subject02\Plantar Pressure\EVA_STAND_RIGHT_2.fsx,,,,,,,
SENSOR_TYPE FSCAN,,,,,,,
ROWS 60,,,,,,,
COLS 21,,,,,,,
ROW_SPACING 0.508 centimeters,,,,,,,
COL_SPACING 0.508 centimeters,,,,,,,
SENSEL_AREA 0.258064 cm2,,,,,,,
NOISE_THRESHOLD 3,,,,,,,
SECONDS_PER_FRAME 0.005,,,,,,,
SECONDS_PER_FRAME 0,,,,,,,
MICRO_SECOND 0,,,,,,,
TIME 2017/11/15 10:16:48.097上午,,,,,,,
SATURATION_PRESSURE 2347.96 KPa ,,,,,,,
CALIBRATION_POINT_1 48.0001 (Kilograms) 1981 (Raw Sum) 199 (Number of Loaded Cells),,,,,,,
CALIBRATION_MODE_1 步態,,,,,,,
CALIBRATION_INFO C:\Users\asus\Desktop\工研院_計畫\收案資料\Subject02\Plantar Pressure\EVA_STAND_RIGHT_2.fsx,,,,,,,
SENSITIVITY 自定義,,,,,,,
MAP_INDEX 0,,,,,,,
SUBMAP 0,,,,,,,
Patient ID: ,,,,,,,
,,,,,,,
Speed of Gait: ,,,,,,,
,,,,,,,
Weight: ,,,,,,,
,,,,,,,
Gender: ,,,,,,,
,,,,,,,
Physician: ,,,,,,,
,,,,,,,
Technician: ,,,,,,,
,,,,,,,
Shoe: ,,,,,,,
,,,,,,,
START_FRAME 1,,,,,,,
END_FRAME 600,,,,,,,
UNITS KPa,,,,,,,
ASCII_DATA @@,,,,,,,
畫面(X), 時間(X), 絕對時間(X), Raw Sum, 峰值壓力(Y:深藍色), 峰值壓力(Y), 峰值壓力(Y), 峰值壓力(Y)
1,0, 2017/11/15 10:16:48.097上午,1170,58,38,46,58
2,0.005, 2017/11/15 10:16:48.102上午,1149,63,38,50,63
3,0.01, 2017/11/15 10:16:48.107上午,1154,60,37,47,60
4,0.015, 2017/11/15 10:16:48.112上午,1188,60,38,47,60
5,0.02, 2017/11/15 10:16:48.117上午,1167,61,37,50,61
6,0.025, 2017/11/15 10:16:48.122上午,1186,60,38,49,60
7,0.03, 2017/11/15 10:16:48.127上午,1161,60,37,47,60
8,0.035, 2017/11/15 10:16:48.132上午,1167,61,37,50,61
9,0.04, 2017/11/15 10:16:48.137上午,1170,61,37,49,61
10,0.045, 2017/11/15 10:16:48.142上午,1151,63,38,47,63
11,0.05, 2017/11/15 10:16:48.147上午,1171,61,38,49,61
12,0.055, 2017/11/15 10:16:48.152上午,1167,63,37,49,63
13,0.06, 2017/11/15 10:16:48.157上午,1172,61,38,49,61
14,0.065, 2017/11/15 10:16:48.162上午,1165,60,38,46,60
15,0.07, 2017/11/15 10:16:48.167上午,1169,61,37,49,61
16,0.075, 2017/11/15 10:16:48.172上午,1156,63,37,49,63
17,0.08, 2017/11/15 10:16:48.177上午,1173,61,37,47,61
18,0.085, 2017/11/15 10:16:48.182上午,1159,63,37,49,63
19,0.09, 2017/11/15 10:16:48.187上午,1167,63,38,46,63
20,0.095, 2017/11/15 10:16:48.192上午,1180,61,37,49,61
21,0.1, 2017/11/15 10:16:48.197上午,1171,63,37,47,63
22,0.105, 2017/11/15 10:16:48.202上午,1169,61,37,47,61
23,0.11, 2017/11/15 10:16:48.207上午,1161,61,38,47,61
24,0.115, 2017/11/15 10:16:48.212上午,1168,63,37,47,63
25,0.12, 2017/11/15 10:16:48.217上午,1171,63,37,47,63
26,0.125, 2017/11/15 10:16:48.222上午,1174,63,38,47,63
27,0.13, 2017/11/15 10:16:48.227上午,1182,61,37,49,61
28,0.135, 2017/11/15 10:16:48.232上午,1160,63,37,47,63
29,0.14, 2017/11/15 10:16:48.237上午,1157,63,37,49,63
30,0.145, 2017/11/15 10:16:48.242上午,1156,63,37,49,63
31,0.15, 2017/11/15 10:16:48.247上午,1170,64,37,49,64
32,0.155, 2017/11/15 10:16:48.252上午,1161,63,37,46,63
33,0.16, 2017/11/15 10:16:48.257上午,1161,61,37,47,61
34,0.165, 2017/11/15 10:16:48.262上午,1158,63,37,47,63
35,0.17, 2017/11/15 10:16:48.267上午,1158,64,37,46,64
36,0.175, 2017/11/15 10:16:48.272上午,1166,63,38,46,63
37,0.18, 2017/11/15 10:16:48.277上午,1163,63,37,50,63
38,0.185, 2017/11/15 10:16:48.282上午,1181,64,38,47,64
39,0.19, 2017/11/15 10:16:48.287上午,1166,63,37,47,63
40,0.195, 2017/11/15 10:16:48.292上午,1177,64,37,49,64
41,0.2, 2017/11/15 10:16:48.297上午,1170,63,38,47,63
42,0.205, 2017/11/15 10:16:48.302上午,1177,63,37,47,63
43,0.21, 2017/11/15 10:16:48.307上午,1182,61,37,49,61
44,0.215, 2017/11/15 10:16:48.312上午,1169,64,37,49,64
45,0.22, 2017/11/15 10:16:48.317上午,1165,64,37,46,64
46,0.225, 2017/11/15 10:16:48.322上午,1144,63,37,47,63
47,0.23, 2017/11/15 10:16:48.327上午,1175,64,37,47,64
48,0.235, 2017/11/15 10:16:48.332上午,1153,63,37,49,63
49,0.24, 2017/11/15 10:16:48.337上午,1161,64,38,49,64
50,0.245, 2017/11/15 10:16:48.342上午,1159,64,38,46,64
51,0.25, 2017/11/15 10:16:48.347上午,1160,63,37,49,63
52,0.255, 2017/11/15 10:16:48.352上午,1155,63,38,47,63
53,0.26, 2017/11/15 10:16:48.357上午,1180,64,38,49,64
54,0.265, 2017/11/15 10:16:48.362上午,1173,63,38,46,63
55,0.27, 2017/11/15 10:16:48.367上午,1151,63,37,47,63
56,0.275, 2017/11/15 10:16:48.372上午,1172,64,38,47,64
57,0.28, 2017/11/15 10:16:48.377上午,1172,64,38,49,64
58,0.285, 2017/11/15 10:16:48.382上午,1169,63,38,47,63
59,0.29, 2017/11/15 10:16:48.387上午,1161,64,37,47,64
60,0.295, 2017/11/15 10:16:48.392上午,1207,64,38,49,64
61,0.3, 2017/11/15 10:16:48.397上午,1158,63,37,47,63
62,0.305, 2017/11/15 10:16:48.402上午,1183,64,37,49,64
63,0.31, 2017/11/15 10:16:48.407上午,1157,63,37,47,63
64,0.315, 2017/11/15 10:16:48.412上午,1158,64,38,47,64
65,0.32, 2017/11/15 10:16:48.417上午,1175,64,37,49,64
66,0.325, 2017/11/15 10:16:48.422上午,1150,66,37,46,66
67,0.33, 2017/11/15 10:16:48.427上午,1201,64,37,46,64
68,0.335, 2017/11/15 10:16:48.432上午,1145,63,37,46,63
69,0.34, 2017/11/15 10:16:48.437上午,1166,64,38,46,64
70,0.345, 2017/11/15 10:16:48.442上午,1161,63,37,47,63
71,0.35, 2017/11/15 10:16:48.447上午,1163,66,37,50,66
72,0.355, 2017/11/15 10:16:48.452上午,1168,63,37,47,63
73,0.36, 2017/11/15 10:16:48.457上午,1155,63,37,47,63
74,0.365, 2017/11/15 10:16:48.462上午,1169,64,37,47,64
75,0.37, 2017/11/15 10:16:48.467上午,1172,64,37,49,64
76,0.375, 2017/11/15 10:16:48.472上午,1170,63,37,47,63
77,0.38, 2017/11/15 10:16:48.477上午,1152,64,37,47,64
78,0.385, 2017/11/15 10:16:48.482上午,1184,64,38,49,64
79,0.39, 2017/11/15 10:16:48.487上午,1162,63,38,47,63
80,0.395, 2017/11/15 10:16:48.492上午,1164,64,37,47,64
81,0.4, 2017/11/15 10:16:48.497上午,1195,63,38,49,63
82,0.405, 2017/11/15 10:16:48.502上午,1169,63,38,47,63
83,0.41, 2017/11/15 10:16:48.507上午,1190,64,38,49,64
84,0.415, 2017/11/15 10:16:48.512上午,1152,63,38,47,63
85,0.42, 2017/11/15 10:16:48.517上午,1151,63,37,47,63
86,0.425, 2017/11/15 10:16:48.522上午,1159,63,38,49,63
87,0.43, 2017/11/15 10:16:48.527上午,1158,61,38,47,61
88,0.435, 2017/11/15 10:16:48.532上午,1184,63,37,49,63
89,0.44, 2017/11/15 10:16:48.537上午,1155,63,37,46,63
90,0.445, 2017/11/15 10:16:48.542上午,1151,63,38,47,63
91,0.45, 2017/11/15 10:16:48.547上午,1177,63,38,47,63
92,0.455, 2017/11/15 10:16:48.552上午,1184,61,37,49,61
93,0.46, 2017/11/15 10:16:48.557上午,1143,63,37,46,63
94,0.465, 2017/11/15 10:16:48.562上午,1169,63,37,49,63
95,0.47, 2017/11/15 10:16:48.567上午,1165,61,37,49,61
96,0.475, 2017/11/15 10:16:48.572上午,1164,63,38,47,63
97,0.48, 2017/11/15 10:16:48.577上午,1187,64,38,49,64
98,0.485, 2017/11/15 10:16:48.582上午,1169,63,38,47,63
99,0.49, 2017/11/15 10:16:48.587上午,1163,61,38,50,61
100,0.495, 2017/11/15 10:16:48.592上午,1145,61,38,47,61
101,0.5, 2017/11/15 10:16:48.597上午,1161,63,38,50,63
102,0.505, 2017/11/15 10:16:48.602上午,1173,61,37,47,61
103,0.51, 2017/11/15 10:16:48.607上午,1159,61,37,46,61
104,0.515, 2017/11/15 10:16:48.612上午,1180,63,38,47,63
105,0.52, 2017/11/15 10:16:48.617上午,1187,63,37,49,63
106,0.525, 2017/11/15 10:16:48.622上午,1185,63,38,49,63
107,0.53, 2017/11/15 10:16:48.627上午,1175,63,37,47,63
108,0.535, 2017/11/15 10:16:48.632上午,1164,63,37,47,63
109,0.54, 2017/11/15 10:16:48.637上午,1180,63,38,49,63
110,0.545, 2017/11/15 10:16:48.642上午,1166,63,38,47,63
111,0.55, 2017/11/15 10:16:48.647上午,1159,63,38,49,63
112,0.555, 2017/11/15 10:16:48.652上午,1172,63,38,49,63
113,0.56, 2017/11/15 10:16:48.657上午,1167,61,38,49,61
114,0.565, 2017/11/15 10:16:48.662上午,1176,61,37,49,61
115,0.57, 2017/11/15 10:16:48.667上午,1165,61,37,49,61
116,0.575, 2017/11/15 10:16:48.672上午,1155,61,37,49,61
117,0.58, 2017/11/15 10:16:48.677上午,1174,63,37,49,63
118,0.585, 2017/11/15 10:16:48.682上午,1157,61,37,47,61
119,0.59, 2017/11/15 10:16:48.687上午,1166,63,38,49,63
120,0.595, 2017/11/15 10:16:48.692上午,1181,60,37,49,60
121,0.6, 2017/11/15 10:16:48.697上午,1179,63,37,49,63
122,0.605, 2017/11/15 10:16:48.702上午,1179,63,37,47,63
123,0.61, 2017/11/15 10:16:48.707上午,1156,63,37,47,63
124,0.615, 2017/11/15 10:16:48.712上午,1170,63,37,49,63
125,0.62, 2017/11/15 10:16:48.717上午,1154,61,37,49,61
126,0.625, 2017/11/15 10:16:48.722上午,1169,61,38,49,61
127,0.63, 2017/11/15 10:16:48.727上午,1186,60,37,49,60
128,0.635, 2017/11/15 10:16:48.732上午,1159,60,37,47,60
129,0.64, 2017/11/15 10:16:48.737上午,1178,63,38,49,63
130,0.645, 2017/11/15 10:16:48.742上午,1172,63,37,49,63
131,0.65, 2017/11/15 10:16:48.747上午,1168,60,38,49,60
132,0.655, 2017/11/15 10:16:48.752上午,1161,63,37,52,63
133,0.66, 2017/11/15 10:16:48.757上午,1164,61,37,49,61
134,0.665, 2017/11/15 10:16:48.762上午,1182,60,37,47,60
135,0.67, 2017/11/15 10:16:48.767上午,1149,61,37,49,61
136,0.675, 2017/11/15 10:16:48.772上午,1169,61,37,49,61
137,0.68, 2017/11/15 10:16:48.777上午,1181,60,38,49,60
138,0.685, 2017/11/15 10:16:48.782上午,1162,63,38,50,63
139,0.69, 2017/11/15 10:16:48.787上午,1166,60,38,50,60
140,0.695, 2017/11/15 10:16:48.792上午,1161,60,37,49,60
141,0.7, 2017/11/15 10:16:48.797上午,1191,64,38,49,64
142,0.705, 2017/11/15 10:16:48.802上午,1185,61,37,47,61
143,0.71, 2017/11/15 10:16:48.807上午,1182,61,40,49,61
144,0.715, 2017/11/15 10:16:48.812上午,1176,63,37,47,63
145,0.72, 2017/11/15 10:16:48.817上午,1197,61,38,47,61
146,0.725, 2017/11/15 10:16:48.822上午,1177,63,38,50,63
147,0.73, 2017/11/15 10:16:48.827上午,1171,60,38,49,60
148,0.735, 2017/11/15 10:16:48.832上午,1159,61,37,49,61
149,0.74, 2017/11/15 10:16:48.837上午,1182,63,38,47,63
150,0.745, 2017/11/15 10:16:48.842上午,1178,60,38,49,60
151,0.75, 2017/11/15 10:16:48.847上午,1182,63,38,47,63
152,0.755, 2017/11/15 10:16:48.852上午,1170,61,38,49,61
153,0.76, 2017/11/15 10:16:48.857上午,1184,60,38,49,60
154,0.765, 2017/11/15 10:16:48.862上午,1170,61,38,49,61
155,0.77, 2017/11/15 10:16:48.867上午,1174,61,38,49,61
156,0.775, 2017/11/15 10:16:48.872上午,1157,63,38,49,63
157,0.78, 2017/11/15 10:16:48.877上午,1171,60,38,50,60
158,0.785, 2017/11/15 10:16:48.882上午,1181,63,38,49,63
159,0.79, 2017/11/15 10:16:48.887上午,1158,60,38,47,60
160,0.795, 2017/11/15 10:16:48.892上午,1192,64,38,50,64
161,0.8, 2017/11/15 10:16:48.897上午,1173,60,38,47,60
162,0.805, 2017/11/15 10:16:48.902上午,1171,61,38,49,61
163,0.81, 2017/11/15 10:16:48.907上午,1165,60,38,49,60
164,0.815, 2017/11/15 10:16:48.912上午,1172,61,38,49,61
165,0.82, 2017/11/15 10:16:48.917上午,1173,63,38,49,63
166,0.825, 2017/11/15 10:16:48.922上午,1169,60,38,47,60
167,0.83, 2017/11/15 10:16:48.927上午,1177,63,38,47,63
168,0.835, 2017/11/15 10:16:48.932上午,1175,60,38,49,60
169,0.84, 2017/11/15 10:16:48.937上午,1189,63,38,50,63
170,0.845, 2017/11/15 10:16:48.942上午,1168,60,38,49,60
171,0.85, 2017/11/15 10:16:48.947上午,1167,60,38,47,60
172,0.855, 2017/11/15 10:16:48.952上午,1178,63,38,50,63
173,0.86, 2017/11/15 10:16:48.957上午,1181,60,38,50,60
174,0.865, 2017/11/15 10:16:48.962上午,1187,61,38,47,61
175,0.87, 2017/11/15 10:16:48.967上午,1181,63,38,49,63
176,0.875, 2017/11/15 10:16:48.972上午,1205,61,38,49,61
177,0.88, 2017/11/15 10:16:48.977上午,1167,60,38,49,60
178,0.885, 2017/11/15 10:16:48.982上午,1182,63,38,49,63
179,0.89, 2017/11/15 10:16:48.987上午,1212,63,38,49,63
180,0.895, 2017/11/15 10:16:48.992上午,1167,60,38,47,60
181,0.9, 2017/11/15 10:16:48.997上午,1176,61,38,49,61
182,0.905, 2017/11/15 10:16:49.002上午,1168,61,37,49,61
183,0.91, 2017/11/15 10:16:49.007上午,1171,61,38,49,61
184,0.915, 2017/11/15 10:16:49.012上午,1195,61,38,49,61
185,0.92, 2017/11/15 10:16:49.017上午,1159,61,38,49,61
186,0.925, 2017/11/15 10:16:49.022上午,1181,63,37,49,63
187,0.93, 2017/11/15 10:16:49.027上午,1196,63,37,49,63
188,0.935, 2017/11/15 10:16:49.032上午,1161,58,37,49,58
189,0.94, 2017/11/15 10:16:49.037上午,1186,63,38,50,63
190,0.945, 2017/11/15 10:16:49.042上午,1179,60,38,50,60
191,0.95, 2017/11/15 10:16:49.047上午,1183,61,37,49,61
192,0.955, 2017/11/15 10:16:49.052上午,1189,63,38,49,63
193,0.96, 2017/11/15 10:16:49.057上午,1186,63,38,49,63
194,0.965, 2017/11/15 10:16:49.062上午,1172,60,38,49,60
195,0.97, 2017/11/15 10:16:49.067上午,1170,63,37,49,63
196,0.975, 2017/11/15 10:16:49.072上午,1204,61,38,49,61
197,0.98, 2017/11/15 10:16:49.077上午,1182,61,38,47,61
198,0.985, 2017/11/15 10:16:49.082上午,1191,63,40,49,63
199,0.99, 2017/11/15 10:16:49.087上午,1171,63,37,49,63
200,0.995, 2017/11/15 10:16:49.092上午,1185,63,40,47,63
201,1, 2017/11/15 10:16:49.097上午,1211,63,38,50,63
202,1.005, 2017/11/15 10:16:49.102上午,1159,61,38,47,61
203,1.01, 2017/11/15 10:16:49.107上午,1186,63,38,50,63
204,1.015, 2017/11/15 10:16:49.112上午,1185,63,38,49,63
205,1.02, 2017/11/15 10:16:49.117上午,1178,61,38,49,61
206,1.025, 2017/11/15 10:16:49.122上午,1203,63,38,49,63
207,1.03, 2017/11/15 10:16:49.127上午,1173,60,37,49,60
208,1.035, 2017/11/15 10:16:49.132上午,1189,64,37,49,64
209,1.04, 2017/11/15 10:16:49.137上午,1182,61,37,49,61
210,1.045, 2017/11/15 10:16:49.142上午,1197,63,37,49,63
211,1.05, 2017/11/15 10:16:49.147上午,1207,63,37,49,63
212,1.055, 2017/11/15 10:16:49.152上午,1205,61,38,49,61
213,1.06, 2017/11/15 10:16:49.157上午,1184,63,38,50,63
214,1.065, 2017/11/15 10:16:49.162上午,1199,63,38,49,63
215,1.07, 2017/11/15 10:16:49.167上午,1189,61,38,49,61
216,1.075, 2017/11/15 10:16:49.172上午,1183,63,40,49,63
217,1.08, 2017/11/15 10:16:49.177上午,1194,64,38,49,64
218,1.085, 2017/11/15 10:16:49.182上午,1174,61,38,50,61
219,1.09, 2017/11/15 10:16:49.187上午,1200,64,38,49,64
220,1.095, 2017/11/15 10:16:49.192上午,1184,64,38,49,64
221,1.1, 2017/11/15 10:16:49.197上午,1191,63,40,49,63
222,1.105, 2017/11/15 10:16:49.202上午,1181,64,38,49,64
223,1.11, 2017/11/15 10:16:49.207上午,1199,61,37,47,61
224,1.115, 2017/11/15 10:16:49.212上午,1195,64,38,49,64
225,1.12, 2017/11/15 10:16:49.217上午,1207,64,38,47,64
226,1.125, 2017/11/15 10:16:49.222上午,1184,64,37,49,64
227,1.13, 2017/11/15 10:16:49.227上午,1200,64,37,49,64
228,1.135, 2017/11/15 10:16:49.232上午,1165,61,38,47,61
229,1.14, 2017/11/15 10:16:49.237上午,1185,64,38,49,64
230,1.145, 2017/11/15 10:16:49.242上午,1183,63,37,49,63
231,1.15, 2017/11/15 10:16:49.247上午,1199,63,40,49,63
232,1.155, 2017/11/15 10:16:49.252上午,1179,63,38,47,63
233,1.16, 2017/11/15 10:16:49.257上午,1173,63,37,47,63
234,1.165, 2017/11/15 10:16:49.262上午,1190,63,37,49,63
235,1.17, 2017/11/15 10:16:49.267上午,1184,63,38,49,63
236,1.175, 2017/11/15 10:16:49.272上午,1190,63,38,50,63
237,1.18, 2017/11/15 10:16:49.277上午,1184,63,38,46,63
238,1.185, 2017/11/15 10:16:49.282上午,1179,61,38,46,61
239,1.19, 2017/11/15 10:16:49.287上午,1179,64,38,49,64
240,1.195, 2017/11/15 10:16:49.292上午,1200,64,37,49,64
241,1.2, 2017/11/15 10:16:49.297上午,1201,64,38,49,64
242,1.205, 2017/11/15 10:16:49.302上午,1175,63,38,46,63
243,1.21, 2017/11/15 10:16:49.307上午,1202,64,38,47,64
244,1.215, 2017/11/15 10:16:49.312上午,1172,63,37,47,63
245,1.22, 2017/11/15 10:16:49.317上午,1162,63,37,49,63
246,1.225, 2017/11/15 10:16:49.322上午,1175,63,38,47,63
247,1.23, 2017/11/15 10:16:49.327上午,1165,63,37,50,63
248,1.235, 2017/11/15 10:16:49.332上午,1184,66,38,47,66
249,1.24, 2017/11/15 10:16:49.337上午,1161,63,38,47,63
250,1.245, 2017/11/15 10:16:49.342上午,1195,66,38,49,66
251,1.25, 2017/11/15 10:16:49.347上午,1194,63,37,49,63
252,1.255, 2017/11/15 10:16:49.352上午,1175,64,38,49,64
253,1.26, 2017/11/15 10:16:49.357上午,1180,63,38,49,63
254,1.265, 2017/11/15 10:16:49.362上午,1172,63,40,47,63
255,1.27, 2017/11/15 10:16:49.367上午,1204,64,38,49,64
256,1.275, 2017/11/15 10:16:49.372上午,1197,63,37,47,63
257,1.28, 2017/11/15 10:16:49.377上午,1200,64,38,47,64
258,1.285, 2017/11/15 10:16:49.382上午,1200,64,37,49,64
259,1.29, 2017/11/15 10:16:49.387上午,1169,63,37,46,63
260,1.295, 2017/11/15 10:16:49.392上午,1181,63,38,47,63
261,1.3, 2017/11/15 10:16:49.397上午,1163,64,37,47,64
262,1.305, 2017/11/15 10:16:49.402上午,1198,64,38,46,64
263,1.31, 2017/11/15 10:16:49.407上午,1166,63,37,46,63
264,1.315, 2017/11/15 10:16:49.412上午,1182,64,38,46,64
265,1.32, 2017/11/15 10:16:49.417上午,1182,64,38,46,64
266,1.325, 2017/11/15 10:16:49.422上午,1207,64,38,49,64
267,1.33, 2017/11/15 10:16:49.427上午,1175,63,38,47,63
268,1.335, 2017/11/15 10:16:49.432上午,1175,64,37,49,64
269,1.34, 2017/11/15 10:16:49.437上午,1183,63,37,49,63
270,1.345, 2017/11/15 10:16:49.442上午,1169,64,37,47,64
271,1.35, 2017/11/15 10:16:49.447上午,1193,64,38,49,64
272,1.355, 2017/11/15 10:16:49.452上午,1195,63,38,47,63
273,1.36, 2017/11/15 10:16:49.457上午,1167,64,37,47,64
274,1.365, 2017/11/15 10:16:49.462上午,1182,64,38,49,64
275,1.37, 2017/11/15 10:16:49.467上午,1178,64,37,47,64
276,1.375, 2017/11/15 10:16:49.472上午,1164,66,40,47,66
277,1.38, 2017/11/15 10:16:49.477上午,1210,64,37,49,64
278,1.385, 2017/11/15 10:16:49.482上午,1157,63,37,46,63
279,1.39, 2017/11/15 10:16:49.487上午,1182,64,37,49,64
280,1.395, 2017/11/15 10:16:49.492上午,1168,64,38,49,64
281,1.4, 2017/11/15 10:16:49.497上午,1177,64,37,49,64
282,1.405, 2017/11/15 10:16:49.502上午,1166,64,37,47,64
283,1.41, 2017/11/15 10:16:49.507上午,1163,64,37,49,64
284,1.415, 2017/11/15 10:16:49.512上午,1147,63,37,49,63
285,1.42, 2017/11/15 10:16:49.517上午,1145,63,37,47,63
286,1.425, 2017/11/15 10:16:49.522上午,1168,64,37,46,64
287,1.43, 2017/11/15 10:16:49.527上午,1159,63,37,46,63
288,1.435, 2017/11/15 10:16:49.532上午,1196,64,38,49,64
289,1.44, 2017/11/15 10:16:49.537上午,1151,63,37,47,63
290,1.445, 2017/11/15 10:16:49.542上午,1165,66,37,46,66
291,1.45, 2017/11/15 10:16:49.547上午,1168,64,37,47,64
292,1.455, 2017/11/15 10:16:49.552上午,1174,63,37,47,63
293,1.46, 2017/11/15 10:16:49.557上午,1168,64,38,49,64
294,1.465, 2017/11/15 10:16:49.562上午,1167,64,37,46,64
295,1.47, 2017/11/15 10:16:49.567上午,1154,63,37,46,63
296,1.475, 2017/11/15 10:16:49.572上午,1166,66,38,47,66
297,1.48, 2017/11/15 10:16:49.577上午,1173,63,38,46,63
298,1.485, 2017/11/15 10:16:49.582上午,1164,64,37,49,64
299,1.49, 2017/11/15 10:16:49.587上午,1182,63,37,47,63
300,1.495, 2017/11/15 10:16:49.592上午,1167,66,38,46,66
301,1.5, 2017/11/15 10:16:49.597上午,1179,64,37,46,64
302,1.505, 2017/11/15 10:16:49.602上午,1145,64,37,49,64
303,1.51, 2017/11/15 10:16:49.607上午,1172,64,37,47,64
304,1.515, 2017/11/15 10:16:49.612上午,1138,64,37,46,64
305,1.52, 2017/11/15 10:16:49.617上午,1182,64,38,47,64
306,1.525, 2017/11/15 10:16:49.622上午,1164,63,37,46,63
307,1.53, 2017/11/15 10:16:49.627上午,1177,64,38,46,64
308,1.535, 2017/11/15 10:16:49.632上午,1160,63,37,46,63
309,1.54, 2017/11/15 10:16:49.637上午,1163,64,37,49,64
310,1.545, 2017/11/15 10:16:49.642上午,1157,64,37,47,64
311,1.55, 2017/11/15 10:16:49.647上午,1153,63,37,46,63
312,1.555, 2017/11/15 10:16:49.652上午,1165,63,37,47,63
313,1.56, 2017/11/15 10:16:49.657上午,1146,63,37,46,63
314,1.565, 2017/11/15 10:16:49.662上午,1177,64,37,47,64
315,1.57, 2017/11/15 10:16:49.667上午,1152,64,37,46,64
316,1.575, 2017/11/15 10:16:49.672上午,1147,63,37,47,63
317,1.58, 2017/11/15 10:16:49.677上午,1173,64,37,47,64
318,1.585, 2017/11/15 10:16:49.682上午,1149,63,37,47,63
319,1.59, 2017/11/15 10:16:49.687上午,1173,64,37,47,64
320,1.595, 2017/11/15 10:16:49.692上午,1171,63,37,47,63
321,1.6, 2017/11/15 10:16:49.697上午,1164,64,38,47,64
322,1.605, 2017/11/15 10:16:49.702上午,1139,63,37,46,63
323,1.61, 2017/11/15 10:16:49.707上午,1169,64,37,49,64
324,1.615, 2017/11/15 10:16:49.712上午,1149,63,37,47,63
325,1.62, 2017/11/15 10:16:49.717上午,1169,63,37,49,63
326,1.625, 2017/11/15 10:16:49.722上午,1156,63,37,47,63
327,1.63, 2017/11/15 10:16:49.727上午,1153,64,37,49,64
328,1.635, 2017/11/15 10:16:49.732上午,1166,64,37,49,64
329,1.64, 2017/11/15 10:16:49.737上午,1167,64,37,46,64
330,1.645, 2017/11/15 10:16:49.742上午,1177,64,37,49,64
331,1.65, 2017/11/15 10:16:49.747上午,1169,63,37,47,63
332,1.655, 2017/11/15 10:16:49.752上午,1155,63,37,50,63
333,1.66, 2017/11/15 10:16:49.757上午,1171,63,37,49,63
334,1.665, 2017/11/15 10:16:49.762上午,1165,61,37,47,61
335,1.67, 2017/11/15 10:16:49.767上午,1177,63,37,47,63
336,1.675, 2017/11/15 10:16:49.772上午,1146,63,37,46,63
337,1.68, 2017/11/15 10:16:49.777上午,1169,63,37,49,63
338,1.685, 2017/11/15 10:16:49.782上午,1204,64,37,49,64
339,1.69, 2017/11/15 10:16:49.787上午,1175,61,37,47,61
340,1.695, 2017/11/15 10:16:49.792上午,1171,63,37,46,63
341,1.7, 2017/11/15 10:16:49.797上午,1149,61,37,47,61
342,1.705, 2017/11/15 10:16:49.802上午,1138,63,38,47,63
343,1.71, 2017/11/15 10:16:49.807上午,1146,59,37,47,59
344,1.715, 2017/11/15 10:16:49.812上午,1169,64,38,47,64
345,1.72, 2017/11/15 10:16:49.817上午,1159,63,37,47,63
346,1.725, 2017/11/15 10:16:49.822上午,1147,63,37,49,63
347,1.73, 2017/11/15 10:16:49.827上午,1154,63,37,47,63
348,1.735, 2017/11/15 10:16:49.832上午,1146,63,37,49,63
349,1.74, 2017/11/15 10:16:49.837上午,1155,63,38,46,63
350,1.745, 2017/11/15 10:16:49.842上午,1151,61,37,47,61
351,1.75, 2017/11/15 10:16:49.847上午,1147,63,37,47,63
352,1.755, 2017/11/15 10:16:49.852上午,1163,63,37,49,63
353,1.76, 2017/11/15 10:16:49.857上午,1146,61,37,47,61
354,1.765, 2017/11/15 10:16:49.862上午,1159,63,38,47,63
355,1.77, 2017/11/15 10:16:49.867上午,1155,61,38,46,61
356,1.775, 2017/11/15 10:16:49.872上午,1156,63,37,49,63
357,1.78, 2017/11/15 10:16:49.877上午,1150,63,37,47,63
358,1.785, 2017/11/15 10:16:49.882上午,1144,59,37,49,59
359,1.79, 2017/11/15 10:16:49.887上午,1168,64,38,49,64
360,1.795, 2017/11/15 10:16:49.892上午,1149,61,38,47,61
361,1.8, 2017/11/15 10:16:49.897上午,1157,63,38,47,63
362,1.805, 2017/11/15 10:16:49.902上午,1151,59,37,46,59
363,1.81, 2017/11/15 10:16:49.907上午,1145,63,37,49,63
364,1.815, 2017/11/15 10:16:49.912上午,1151,61,37,49,61
365,1.82, 2017/11/15 10:16:49.917上午,1144,63,37,49,63
366,1.825, 2017/11/15 10:16:49.922上午,1160,61,37,47,61
367,1.83, 2017/11/15 10:16:49.927上午,1154,61,38,50,61
368,1.835, 2017/11/15 10:16:49.932上午,1176,61,37,49,61
369,1.84, 2017/11/15 10:16:49.937上午,1148,61,40,49,61
370,1.845, 2017/11/15 10:16:49.942上午,1165,64,37,49,64
371,1.85, 2017/11/15 10:16:49.947上午,1159,61,37,47,61
372,1.855, 2017/11/15 10:16:49.952上午,1167,63,38,50,63
373,1.86, 2017/11/15 10:16:49.957上午,1152,61,37,49,61
374,1.865, 2017/11/15 10:16:49.962上午,1148,59,37,49,59
375,1.87, 2017/11/15 10:16:49.967上午,1175,62,37,47,62
376,1.875, 2017/11/15 10:16:49.972上午,1155,61,37,47,61
377,1.88, 2017/11/15 10:16:49.977上午,1175,62,37,49,62
378,1.885, 2017/11/15 10:16:49.982上午,1145,61,37,47,61
379,1.89, 2017/11/15 10:16:49.987上午,1153,61,38,50,61
380,1.895, 2017/11/15 10:16:49.992上午,1158,61,37,49,61
381,1.9, 2017/11/15 10:16:49.997上午,1159,62,38,49,62
382,1.905, 2017/11/15 10:16:50.002上午,1156,62,38,47,62
383,1.91, 2017/11/15 10:16:50.007上午,1153,59,38,47,59
384,1.915, 2017/11/15 10:16:50.012上午,1155,62,37,47,62
385,1.92, 2017/11/15 10:16:50.017上午,1159,59,37,47,59
386,1.925, 2017/11/15 10:16:50.022上午,1175,63,37,47,63
387,1.93, 2017/11/15 10:16:50.027上午,1162,63,37,49,63
388,1.935, 2017/11/15 10:16:50.032上午,1172,63,37,49,63
389,1.94, 2017/11/15 10:16:50.037上午,1169,61,37,49,61
390,1.945, 2017/11/15 10:16:50.042上午,1139,63,38,46,63
391,1.95, 2017/11/15 10:16:50.047上午,1167,63,37,47,63
392,1.955, 2017/11/15 10:16:50.052上午,1142,61,37,47,61
393,1.96, 2017/11/15 10:16:50.057上午,1162,63,38,47,63
394,1.965, 2017/11/15 10:16:50.062上午,1191,62,38,47,62
395,1.97, 2017/11/15 10:16:50.067上午,1148,59,38,47,59
396,1.975, 2017/11/15 10:16:50.072上午,1177,62,38,46,62
397,1.98, 2017/11/15 10:16:50.077上午,1180,62,37,47,62
398,1.985, 2017/11/15 10:16:50.082上午,1154,62,37,49,62
399,1.99, 2017/11/15 10:16:50.087上午,1153,64,38,47,64
400,1.995, 2017/11/15 10:16:50.092上午,1177,62,37,49,62
401,2, 2017/11/15 10:16:50.097上午,1170,64,38,47,64
402,2.005, 2017/11/15 10:16:50.102上午,1146,62,38,47,62
403,2.01, 2017/11/15 10:16:50.107上午,1148,61,38,47,61
404,2.015, 2017/11/15 10:16:50.112上午,1169,62,37,49,62
405,2.02, 2017/11/15 10:16:50.117上午,1154,62,37,47,62
406,2.025, 2017/11/15 10:16:50.122上午,1160,62,38,49,62
407,2.03, 2017/11/15 10:16:50.127上午,1152,61,37,47,61
408,2.035, 2017/11/15 10:16:50.132上午,1165,62,37,47,62
409,2.04, 2017/11/15 10:16:50.137上午,1161,62,37,47,62
410,2.045, 2017/11/15 10:16:50.142上午,1151,61,37,49,61
411,2.05, 2017/11/15 10:16:50.147上午,1179,62,38,47,62
412,2.055, 2017/11/15 10:16:50.152上午,1159,62,37,47,62
413,2.06, 2017/11/15 10:16:50.157上午,1159,62,37,49,62
414,2.065, 2017/11/15 10:16:50.162上午,1183,62,38,49,62
415,2.07, 2017/11/15 10:16:50.167上午,1160,62,37,46,62
416,2.075, 2017/11/15 10:16:50.172上午,1162,62,38,49,62
417,2.08, 2017/11/15 10:16:50.177上午,1165,62,37,49,62
418,2.085, 2017/11/15 10:16:50.182上午,1157,62,37,47,62
419,2.09, 2017/11/15 10:16:50.187上午,1176,62,37,49,62
420,2.095, 2017/11/15 10:16:50.192上午,1170,64,37,47,64
421,2.1, 2017/11/15 10:16:50.197上午,1155,62,40,49,62
422,2.105, 2017/11/15 10:16:50.202上午,1185,64,38,49,64
423,2.11, 2017/11/15 10:16:50.207上午,1168,61,37,47,61
424,2.115, 2017/11/15 10:16:50.212上午,1176,64,38,49,64
425,2.12, 2017/11/15 10:16:50.217上午,1176,64,37,47,64
426,2.125, 2017/11/15 10:16:50.222上午,1158,64,37,47,64
427,2.13, 2017/11/15 10:16:50.227上午,1172,64,38,47,64
428,2.135, 2017/11/15 10:16:50.232上午,1164,62,37,47,62
429,2.14, 2017/11/15 10:16:50.237上午,1170,64,38,47,64
430,2.145, 2017/11/15 10:16:50.242上午,1168,62,37,47,62
431,2.15, 2017/11/15 10:16:50.247上午,1170,62,37,47,62
432,2.155, 2017/11/15 10:16:50.252上午,1177,64,38,49,64
433,2.16, 2017/11/15 10:16:50.257上午,1184,62,37,49,62
434,2.165, 2017/11/15 10:16:50.262上午,1152,62,37,46,62
435,2.17, 2017/11/15 10:16:50.267上午,1180,64,37,49,64
436,2.175, 2017/11/15 10:16:50.272上午,1187,62,37,47,62
437,2.18, 2017/11/15 10:16:50.277上午,1183,62,37,49,62
438,2.185, 2017/11/15 10:16:50.282上午,1189,64,38,47,64
439,2.19, 2017/11/15 10:16:50.287上午,1163,62,37,49,62
440,2.195, 2017/11/15 10:16:50.292上午,1176,64,38,49,64
441,2.2, 2017/11/15 10:16:50.297上午,1185,62,37,49,62
442,2.205, 2017/11/15 10:16:50.302上午,1153,62,38,49,62
443,2.21, 2017/11/15 10:16:50.307上午,1178,62,37,47,62
444,2.215, 2017/11/15 10:16:50.312上午,1154,62,37,46,62
445,2.22, 2017/11/15 10:16:50.317上午,1168,64,37,46,64
446,2.225, 2017/11/15 10:16:50.322上午,1144,62,37,46,62
447,2.23, 2017/11/15 10:16:50.327上午,1177,64,38,46,64
448,2.235, 2017/11/15 10:16:50.332上午,1186,62,37,47,62
449,2.24, 2017/11/15 10:16:50.337上午,1183,64,38,49,64
450,2.245, 2017/11/15 10:16:50.342上午,1167,62,37,46,62
451,2.25, 2017/11/15 10:16:50.347上午,1152,64,37,46,64
452,2.255, 2017/11/15 10:16:50.352上午,1179,64,37,47,64
453,2.26, 2017/11/15 10:16:50.357上午,1159,64,37,46,64
454,2.265, 2017/11/15 10:16:50.362上午,1176,64,37,46,64
455,2.27, 2017/11/15 10:16:50.367上午,1175,64,37,49,64
456,2.275, 2017/11/15 10:16:50.372上午,1146,62,37,49,62
457,2.28, 2017/11/15 10:16:50.377上午,1181,64,35,46,64
458,2.285, 2017/11/15 10:16:50.382上午,1166,64,37,46,64
459,2.29, 2017/11/15 10:16:50.387上午,1191,64,37,49,64
460,2.295, 2017/11/15 10:16:50.392上午,1169,64,37,47,64
461,2.3, 2017/11/15 10:16:50.397上午,1146,66,37,47,66
462,2.305, 2017/11/15 10:16:50.402上午,1178,64,37,46,64
463,2.31, 2017/11/15 10:16:50.407上午,1171,64,37,46,64
464,2.315, 2017/11/15 10:16:50.412上午,1192,66,38,44,66
465,2.32, 2017/11/15 10:16:50.417上午,1160,62,37,47,62
466,2.325, 2017/11/15 10:16:50.422上午,1162,64,38,47,64
467,2.33, 2017/11/15 10:16:50.427上午,1175,64,37,47,64
468,2.335, 2017/11/15 10:16:50.432上午,1156,66,37,47,66
469,2.34, 2017/11/15 10:16:50.437上午,1174,62,37,46,62
470,2.345, 2017/11/15 10:16:50.442上午,1144,64,37,46,64
471,2.35, 2017/11/15 10:16:50.447上午,1188,64,38,46,64
472,2.355, 2017/11/15 10:16:50.452上午,1164,62,37,47,62
473,2.36, 2017/11/15 10:16:50.457上午,1171,66,37,47,66
474,2.365, 2017/11/15 10:16:50.462上午,1180,66,37,47,66
475,2.37, 2017/11/15 10:16:50.467上午,1165,62,37,47,62
476,2.375, 2017/11/15 10:16:50.472上午,1177,64,37,46,64
477,2.38, 2017/11/15 10:16:50.477上午,1167,62,38,46,62
478,2.385, 2017/11/15 10:16:50.482上午,1153,64,37,47,64
479,2.39, 2017/11/15 10:16:50.487上午,1164,64,37,47,64
480,2.395, 2017/11/15 10:16:50.492上午,1164,66,37,46,66
481,2.4, 2017/11/15 10:16:50.497上午,1165,64,35,46,64
482,2.405, 2017/11/15 10:16:50.502上午,1159,66,37,49,66
483,2.41, 2017/11/15 10:16:50.507上午,1188,66,37,46,66
484,2.415, 2017/11/15 10:16:50.512上午,1151,64,37,47,64
485,2.42, 2017/11/15 10:16:50.517上午,1163,64,38,46,64
486,2.425, 2017/11/15 10:16:50.522上午,1161,64,37,49,64
487,2.43, 2017/11/15 10:16:50.527上午,1162,64,37,46,64
488,2.435, 2017/11/15 10:16:50.532上午,1175,66,37,47,66
489,2.44, 2017/11/15 10:16:50.537上午,1166,66,37,47,66
490,2.445, 2017/11/15 10:16:50.542上午,1148,66,37,46,66
491,2.45, 2017/11/15 10:16:50.547上午,1170,66,37,47,66
492,2.455, 2017/11/15 10:16:50.552上午,1160,66,37,46,66
493,2.46, 2017/11/15 10:16:50.557上午,1194,66,37,44,66
494,2.465, 2017/11/15 10:16:50.562上午,1166,66,37,46,66
495,2.47, 2017/11/15 10:16:50.567上午,1185,66,37,46,66
496,2.475, 2017/11/15 10:16:50.572上午,1170,67,37,46,67
497,2.48, 2017/11/15 10:16:50.577上午,1166,66,37,46,66
498,2.485, 2017/11/15 10:16:50.582上午,1158,69,37,47,69
499,2.49, 2017/11/15 10:16:50.587上午,1163,67,37,47,67
500,2.495, 2017/11/15 10:16:50.592上午,1173,67,37,46,67
501,2.5, 2017/11/15 10:16:50.597上午,1164,67,37,46,67
502,2.505, 2017/11/15 10:16:50.602上午,1183,69,38,46,69
503,2.51, 2017/11/15 10:16:50.607上午,1158,67,38,44,67
504,2.515, 2017/11/15 10:16:50.612上午,1160,67,37,46,67
505,2.52, 2017/11/15 10:16:50.617上午,1164,66,37,46,66
506,2.525, 2017/11/15 10:16:50.622上午,1179,69,37,46,69
507,2.53, 2017/11/15 10:16:50.627上午,1169,67,38,46,67
508,2.535, 2017/11/15 10:16:50.632上午,1164,66,38,44,66
509,2.54, 2017/11/15 10:16:50.637上午,1158,67,37,46,67
510,2.545, 2017/11/15 10:16:50.642上午,1185,69,37,46,69
511,2.55, 2017/11/15 10:16:50.647上午,1159,67,37,46,67
512,2.555, 2017/11/15 10:16:50.652上午,1171,69,35,46,69
513,2.56, 2017/11/15 10:16:50.657上午,1164,69,37,44,69
514,2.565, 2017/11/15 10:16:50.662上午,1169,69,37,46,69
515,2.57, 2017/11/15 10:16:50.667上午,1182,69,38,46,69
516,2.575, 2017/11/15 10:16:50.672上午,1151,65,37,46,65
517,2.58, 2017/11/15 10:16:50.677上午,1161,69,35,44,69
518,2.585, 2017/11/15 10:16:50.682上午,1175,67,37,46,67
519,2.59, 2017/11/15 10:16:50.687上午,1158,67,37,46,67
520,2.595, 2017/11/15 10:16:50.692上午,1178,69,38,46,69
521,2.6, 2017/11/15 10:16:50.697上午,1155,69,37,46,69
522,2.605, 2017/11/15 10:16:50.702上午,1174,69,37,46,69
523,2.61, 2017/11/15 10:16:50.707上午,1158,66,37,47,66
524,2.615, 2017/11/15 10:16:50.712上午,1191,69,38,44,69
525,2.62, 2017/11/15 10:16:50.717上午,1161,69,37,44,69
526,2.625, 2017/11/15 10:16:50.722上午,1172,69,37,46,69
527,2.63, 2017/11/15 10:16:50.727上午,1154,67,37,46,67
528,2.635, 2017/11/15 10:16:50.732上午,1173,69,37,46,69
529,2.64, 2017/11/15 10:16:50.737上午,1165,67,37,46,67
530,2.645, 2017/11/15 10:16:50.742上午,1171,69,38,46,69
531,2.65, 2017/11/15 10:16:50.747上午,1155,67,37,46,67
532,2.655, 2017/11/15 10:16:50.752上午,1168,69,38,46,69
533,2.66, 2017/11/15 10:16:50.757上午,1156,67,37,44,67
534,2.665, 2017/11/15 10:16:50.762上午,1184,70,35,44,70
535,2.67, 2017/11/15 10:16:50.767上午,1172,69,37,44,69
536,2.675, 2017/11/15 10:16:50.772上午,1161,67,37,46,67
537,2.68, 2017/11/15 10:16:50.777上午,1188,69,38,46,69
538,2.685, 2017/11/15 10:16:50.782上午,1155,69,37,47,69
539,2.69, 2017/11/15 10:16:50.787上午,1181,69,38,46,69
540,2.695, 2017/11/15 10:16:50.792上午,1166,67,37,44,67
541,2.7, 2017/11/15 10:16:50.797上午,1169,69,37,46,69
542,2.705, 2017/11/15 10:16:50.802上午,1162,67,37,46,67
543,2.71, 2017/11/15 10:16:50.807上午,1176,70,37,44,70
544,2.715, 2017/11/15 10:16:50.812上午,1162,67,37,46,67
545,2.72, 2017/11/15 10:16:50.817上午,1182,69,38,46,69
546,2.725, 2017/11/15 10:16:50.822上午,1161,67,37,44,67
547,2.73, 2017/11/15 10:16:50.827上午,1183,69,37,46,69
548,2.735, 2017/11/15 10:16:50.832上午,1163,65,37,46,65
549,2.74, 2017/11/15 10:16:50.837上午,1168,69,37,46,69
550,2.745, 2017/11/15 10:16:50.842上午,1171,65,37,44,65
551,2.75, 2017/11/15 10:16:50.847上午,1170,69,38,46,69
552,2.755, 2017/11/15 10:16:50.852上午,1165,69,37,44,69
553,2.76, 2017/11/15 10:16:50.857上午,1165,67,37,47,67
554,2.765, 2017/11/15 10:16:50.862上午,1163,69,37,46,69
555,2.77, 2017/11/15 10:16:50.867上午,1157,65,37,46,65
556,2.775, 2017/11/15 10:16:50.872上午,1175,67,38,46,67
557,2.78, 2017/11/15 10:16:50.877上午,1160,67,37,44,67
558,2.785, 2017/11/15 10:16:50.882上午,1165,67,37,44,67
559,2.79, 2017/11/15 10:16:50.887上午,1167,67,37,44,67
560,2.795, 2017/11/15 10:16:50.892上午,1158,67,37,47,67
561,2.8, 2017/11/15 10:16:50.897上午,1174,67,37,47,67
562,2.805, 2017/11/15 10:16:50.902上午,1184,67,35,46,67
563,2.81, 2017/11/15 10:16:50.907上午,1171,67,37,44,67
564,2.815, 2017/11/15 10:16:50.912上午,1170,69,37,46,69
565,2.82, 2017/11/15 10:16:50.917上午,1162,67,37,44,67
566,2.825, 2017/11/15 10:16:50.922上午,1164,65,38,47,65
567,2.83, 2017/11/15 10:16:50.927上午,1185,65,38,47,65
568,2.835, 2017/11/15 10:16:50.932上午,1162,65,37,46,65
569,2.84, 2017/11/15 10:16:50.937上午,1188,65,37,47,65
570,2.845, 2017/11/15 10:16:50.942上午,1173,65,37,44,65
571,2.85, 2017/11/15 10:16:50.947上午,1180,67,37,46,67
572,2.855, 2017/11/15 10:16:50.952上午,1171,65,37,44,65
573,2.86, 2017/11/15 10:16:50.957上午,1159,65,37,47,65
574,2.865, 2017/11/15 10:16:50.962上午,1186,67,38,46,67
575,2.87, 2017/11/15 10:16:50.967上午,1158,65,37,46,65
576,2.875, 2017/11/15 10:16:50.972上午,1177,65,37,46,65
577,2.88, 2017/11/15 10:16:50.977上午,1183,65,38,46,65
578,2.885, 2017/11/15 10:16:50.982上午,1159,65,37,46,65
579,2.89, 2017/11/15 10:16:50.987上午,1175,64,37,46,64
580,2.895, 2017/11/15 10:16:50.992上午,1147,65,37,47,65
581,2.9, 2017/11/15 10:16:50.997上午,1176,67,37,46,67
582,2.905, 2017/11/15 10:16:51.002上午,1152,65,37,46,65
583,2.91, 2017/11/15 10:16:51.007上午,1181,65,38,46,65
584,2.915, 2017/11/15 10:16:51.012上午,1165,64,37,46,64
585,2.92, 2017/11/15 10:16:51.017上午,1190,65,38,46,65
586,2.925, 2017/11/15 10:16:51.022上午,1171,64,37,46,64
587,2.93, 2017/11/15 10:16:51.027上午,1155,65,37,47,65
588,2.935, 2017/11/15 10:16:51.032上午,1179,62,37,47,62
589,2.94, 2017/11/15 10:16:51.037上午,1162,65,37,47,65
590,2.945, 2017/11/15 10:16:51.042上午,1167,64,38,49,64
591,2.95, 2017/11/15 10:16:51.047上午,1161,64,37,46,64
592,2.955, 2017/11/15 10:16:51.052上午,1159,65,38,47,65
593,2.96, 2017/11/15 10:16:51.057上午,1174,64,37,46,64
594,2.965, 2017/11/15 10:16:51.062上午,1144,62,37,47,62
595,2.97, 2017/11/15 10:16:51.067上午,1180,64,38,47,64
596,2.975, 2017/11/15 10:16:51.072上午,1189,64,38,47,64
597,2.98, 2017/11/15 10:16:51.077上午,1164,64,37,46,64
598,2.985, 2017/11/15 10:16:51.082上午,1203,65,38,47,65
599,2.99, 2017/11/15 10:16:51.087上午,1177,64,37,47,64
600,2.995, 2017/11/15 10:16:51.092上午,1160,65,37,49,65
@@,,,,,,,
