DATA_TYPE Graph
VERSION Tekscan Pressure Measurement System 6.70-03
HARDWARE 00114-3443
MAP_VERSION 6.5
HW_TYPE 4
VersaPogoFsx 0
FILENAME C:\Users\User\Desktop\Subject01\plantar pressure\EVA_STAND_LEFT_SUPPORT_1.fsx
SENSOR_TYPE FSCAN
ROWS 60
COLS 21
ROW_SPACING 0.508 centimeters
COL_SPACING 0.508 centimeters
SENSEL_AREA 0.258064 cm2
NOISE_THRESHOLD 3
SECONDS_PER_FRAME 0.005
SECONDS_PER_FRAME 0
MICRO_SECOND 0
TIME 2017/11/14 06:15:32.458下午
SATURATION_PRESSURE 2976.18 KPa 
CALIBRATION_POINT_1 59.0001 (Kilograms) 1921 (Raw Sum) 193 (Number of Loaded Cells)
CALIBRATION_MODE_1 Step
CALIBRATION_INFO C:\Users\User\Desktop\Subject01\plantar pressure\EVA_STAND_LEFT_SUPPORT_1.fsx
SENSITIVITY Custom
MAP_INDEX 1
SUBMAP 1
Patient ID: 

Speed of Gait: 

Weight: 

Gender: 

Physician: 

Technician: 

Shoe: 

START_FRAME 1
END_FRAME 600
UNITS cm2
ASCII_DATA @@
Frames(X), Time(X), Absolute Time(X), Raw Sum, Area(Y:blue), Area(Y), Area(Y), Area(Y)
1, 0, 2017/11/14 06:15:32.458下午, 584.0, 16.77, 7.74, 6.45, 30.97
2, 0.005, 2017/11/14 06:15:32.463下午, 581.0, 16.26, 7.74, 7.48, 31.48
3, 0.01, 2017/11/14 06:15:32.468下午, 587.0, 16.77, 8.26, 6.71, 31.74
4, 0.015, 2017/11/14 06:15:32.473下午, 601.0, 16.77, 8.77, 6.97, 32.52
5, 0.02, 2017/11/14 06:15:32.478下午, 587.0, 16.26, 8.77, 6.45, 31.48
6, 0.025, 2017/11/14 06:15:32.483下午, 578.0, 16.26, 8.77, 5.68, 30.71
7, 0.03, 2017/11/14 06:15:32.488下午, 583.0, 16.52, 9.03, 5.68, 31.23
8, 0.035, 2017/11/14 06:15:32.493下午, 584.0, 16.52, 9.03, 5.42, 30.97
9, 0.04, 2017/11/14 06:15:32.498下午, 580.0, 16.52, 8.77, 5.68, 30.97
10, 0.045, 2017/11/14 06:15:32.503下午, 569.0, 16.52, 8.52, 5.16, 30.19
11, 0.05, 2017/11/14 06:15:32.508下午, 566.0, 16.26, 8.00, 5.68, 29.94
12, 0.055, 2017/11/14 06:15:32.513下午, 580.0, 16.52, 8.00, 6.45, 30.97
13, 0.06, 2017/11/14 06:15:32.518下午, 563.0, 16.77, 7.74, 5.42, 29.94
14, 0.065, 2017/11/14 06:15:32.523下午, 588.0, 16.52, 8.26, 6.71, 31.48
15, 0.07, 2017/11/14 06:15:32.528下午, 587.0, 16.52, 8.52, 6.71, 31.74
16, 0.075, 2017/11/14 06:15:32.533下午, 600.0, 16.52, 8.77, 6.71, 32.00
17, 0.08, 2017/11/14 06:15:32.538下午, 571.0, 16.77, 8.26, 4.90, 29.94
18, 0.085, 2017/11/14 06:15:32.543下午, 584.0, 16.52, 9.29, 5.68, 31.48
19, 0.09, 2017/11/14 06:15:32.548下午, 565.0, 16.52, 8.26, 4.90, 29.68
20, 0.095, 2017/11/14 06:15:32.553下午, 586.0, 16.52, 9.55, 5.42, 31.48
21, 0.1, 2017/11/14 06:15:32.558下午, 588.0, 16.52, 9.03, 6.45, 32.00
22, 0.105, 2017/11/14 06:15:32.563下午, 586.0, 16.52, 9.55, 5.16, 31.23
23, 0.11, 2017/11/14 06:15:32.568下午, 590.0, 16.52, 9.81, 5.16, 31.48
24, 0.115, 2017/11/14 06:15:32.573下午, 585.0, 16.52, 8.77, 5.68, 30.97
25, 0.12, 2017/11/14 06:15:32.578下午, 577.0, 16.52, 9.29, 5.16, 30.97
26, 0.125, 2017/11/14 06:15:32.583下午, 573.0, 16.52, 8.26, 5.16, 29.94
27, 0.13, 2017/11/14 06:15:32.588下午, 583.0, 16.52, 9.03, 5.68, 31.23
28, 0.135, 2017/11/14 06:15:32.593下午, 575.0, 16.52, 8.77, 5.16, 30.45
29, 0.14, 2017/11/14 06:15:32.598下午, 578.0, 16.00, 9.03, 5.94, 30.97
30, 0.145, 2017/11/14 06:15:32.603下午, 570.0, 16.00, 8.00, 6.19, 30.19
31, 0.15, 2017/11/14 06:15:32.608下午, 572.0, 16.00, 8.26, 6.71, 30.97
32, 0.155, 2017/11/14 06:15:32.613下午, 569.0, 16.52, 8.00, 5.94, 30.45
33, 0.16, 2017/11/14 06:15:32.618下午, 597.0, 16.26, 8.77, 7.48, 32.52
34, 0.165, 2017/11/14 06:15:32.623下午, 592.0, 16.52, 8.26, 7.23, 32.00
35, 0.17, 2017/11/14 06:15:32.628下午, 599.0, 16.26, 8.77, 8.00, 33.03
36, 0.175, 2017/11/14 06:15:32.633下午, 566.0, 16.52, 8.77, 4.90, 30.19
37, 0.18, 2017/11/14 06:15:32.638下午, 567.0, 16.52, 9.03, 4.90, 30.45
38, 0.185, 2017/11/14 06:15:32.643下午, 600.0, 16.52, 8.77, 7.23, 32.52
39, 0.19, 2017/11/14 06:15:32.648下午, 574.0, 16.77, 9.03, 4.90, 30.71
40, 0.195, 2017/11/14 06:15:32.653下午, 584.0, 16.26, 8.77, 6.97, 32.00
41, 0.2, 2017/11/14 06:15:32.658下午, 576.0, 16.26, 8.77, 5.42, 30.45
42, 0.205, 2017/11/14 06:15:32.663下午, 565.0, 16.52, 8.77, 4.90, 30.19
43, 0.21, 2017/11/14 06:15:32.668下午, 564.0, 16.52, 8.77, 4.90, 30.19
44, 0.215, 2017/11/14 06:15:32.673下午, 572.0, 16.52, 8.00, 6.19, 30.71
45, 0.22, 2017/11/14 06:15:32.678下午, 576.0, 16.52, 9.29, 4.90, 30.71
46, 0.225, 2017/11/14 06:15:32.683下午, 580.0, 16.52, 9.55, 4.90, 30.97
47, 0.23, 2017/11/14 06:15:32.688下午, 563.0, 16.00, 8.52, 5.16, 29.68
48, 0.235, 2017/11/14 06:15:32.693下午, 576.0, 16.26, 9.03, 5.68, 30.97
49, 0.24, 2017/11/14 06:15:32.698下午, 559.0, 15.74, 8.00, 5.94, 29.68
50, 0.245, 2017/11/14 06:15:32.703下午, 571.0, 16.26, 8.00, 6.45, 30.71
51, 0.25, 2017/11/14 06:15:32.708下午, 576.0, 16.00, 8.77, 6.71, 31.48
52, 0.255, 2017/11/14 06:15:32.713下午, 598.0, 16.52, 9.03, 7.48, 33.03
53, 0.26, 2017/11/14 06:15:32.718下午, 575.0, 16.52, 8.52, 5.94, 30.97
54, 0.265, 2017/11/14 06:15:32.723下午, 582.0, 16.26, 8.77, 6.45, 31.48
55, 0.27, 2017/11/14 06:15:32.728下午, 569.0, 16.26, 8.77, 5.68, 30.71
56, 0.275, 2017/11/14 06:15:32.733下午, 574.0, 16.52, 9.55, 4.90, 30.97
57, 0.28, 2017/11/14 06:15:32.738下午, 565.0, 16.52, 8.52, 5.68, 30.71
58, 0.285, 2017/11/14 06:15:32.743下午, 575.0, 16.52, 8.77, 5.42, 30.71
59, 0.29, 2017/11/14 06:15:32.748下午, 566.0, 16.52, 8.00, 5.68, 30.19
60, 0.295, 2017/11/14 06:15:32.753下午, 579.0, 15.74, 9.29, 6.45, 31.48
61, 0.3, 2017/11/14 06:15:32.758下午, 576.0, 16.26, 8.52, 6.45, 31.23
62, 0.305, 2017/11/14 06:15:32.763下午, 584.0, 16.52, 8.52, 6.97, 32.00
63, 0.31, 2017/11/14 06:15:32.768下午, 581.0, 16.00, 9.03, 6.97, 32.00
64, 0.315, 2017/11/14 06:15:32.773下午, 563.0, 16.52, 8.00, 6.19, 30.71
65, 0.32, 2017/11/14 06:15:32.778下午, 569.0, 16.77, 9.03, 4.90, 30.71
66, 0.325, 2017/11/14 06:15:32.783下午, 579.0, 16.52, 8.77, 6.19, 31.48
67, 0.33, 2017/11/14 06:15:32.788下午, 553.0, 16.52, 8.26, 4.90, 29.68
68, 0.335, 2017/11/14 06:15:32.793下午, 571.0, 16.52, 9.55, 5.16, 31.23
69, 0.34, 2017/11/14 06:15:32.798下午, 569.0, 16.00, 9.03, 5.68, 30.71
70, 0.345, 2017/11/14 06:15:32.803下午, 564.0, 16.26, 8.52, 5.68, 30.45
71, 0.35, 2017/11/14 06:15:32.808下午, 555.0, 15.48, 7.74, 6.45, 29.68
72, 0.355, 2017/11/14 06:15:32.813下午, 576.0, 16.00, 8.77, 6.97, 31.74
73, 0.36, 2017/11/14 06:15:32.818下午, 589.0, 15.74, 8.77, 7.48, 32.00
74, 0.365, 2017/11/14 06:15:32.823下午, 563.0, 16.52, 8.77, 4.90, 30.19
75, 0.37, 2017/11/14 06:15:32.828下午, 559.0, 16.00, 8.77, 5.42, 30.19
76, 0.375, 2017/11/14 06:15:32.833下午, 581.0, 16.52, 9.29, 5.94, 31.74
77, 0.38, 2017/11/14 06:15:32.838下午, 563.0, 16.52, 9.55, 4.90, 30.97
78, 0.385, 2017/11/14 06:15:32.843下午, 568.0, 15.48, 9.03, 5.94, 30.45
79, 0.39, 2017/11/14 06:15:32.848下午, 571.0, 15.74, 9.03, 6.19, 30.97
80, 0.395, 2017/11/14 06:15:32.853下午, 551.0, 16.52, 8.00, 5.16, 29.68
81, 0.4, 2017/11/14 06:15:32.858下午, 566.0, 15.48, 8.77, 6.45, 30.71
82, 0.405, 2017/11/14 06:15:32.863下午, 567.0, 16.00, 8.00, 6.45, 30.45
83, 0.41, 2017/11/14 06:15:32.868下午, 560.0, 15.74, 8.26, 6.45, 30.45
84, 0.415, 2017/11/14 06:15:32.873下午, 571.0, 15.74, 9.03, 6.97, 31.74
85, 0.42, 2017/11/14 06:15:32.878下午, 585.0, 16.26, 8.77, 7.48, 32.52
86, 0.425, 2017/11/14 06:15:32.883下午, 553.0, 16.52, 8.77, 4.90, 30.19
87, 0.43, 2017/11/14 06:15:32.888下午, 560.0, 16.00, 8.77, 5.94, 30.71
88, 0.435, 2017/11/14 06:15:32.893下午, 554.0, 16.52, 8.26, 5.42, 30.19
89, 0.44, 2017/11/14 06:15:32.898下午, 564.0, 16.00, 9.55, 5.16, 30.71
90, 0.445, 2017/11/14 06:15:32.903下午, 564.0, 15.48, 9.29, 5.68, 30.45
91, 0.45, 2017/11/14 06:15:32.908下午, 586.0, 16.00, 9.29, 7.23, 32.52
92, 0.455, 2017/11/14 06:15:32.913下午, 557.0, 16.26, 8.52, 5.16, 29.94
93, 0.46, 2017/11/14 06:15:32.918下午, 571.0, 16.52, 9.03, 5.68, 31.23
94, 0.465, 2017/11/14 06:15:32.923下午, 563.0, 15.74, 8.00, 6.45, 30.19
95, 0.47, 2017/11/14 06:15:32.928下午, 566.0, 16.00, 8.00, 6.97, 30.97
96, 0.475, 2017/11/14 06:15:32.933下午, 565.0, 16.00, 8.52, 6.71, 31.23
97, 0.48, 2017/11/14 06:15:32.938下午, 567.0, 15.74, 8.52, 6.97, 31.23
98, 0.485, 2017/11/14 06:15:32.943下午, 588.0, 16.26, 8.77, 7.48, 32.52
99, 0.49, 2017/11/14 06:15:32.948下午, 559.0, 16.77, 8.77, 4.90, 30.45
100, 0.495, 2017/11/14 06:15:32.953下午, 558.0, 16.26, 8.77, 5.68, 30.71
101, 0.5, 2017/11/14 06:15:32.958下午, 567.0, 16.00, 9.81, 5.42, 31.23
102, 0.505, 2017/11/14 06:15:32.963下午, 558.0, 15.23, 9.29, 5.68, 30.19
103, 0.51, 2017/11/14 06:15:32.968下午, 575.0, 16.00, 9.55, 5.68, 31.23
104, 0.515, 2017/11/14 06:15:32.973下午, 563.0, 16.00, 8.77, 5.68, 30.45
105, 0.52, 2017/11/14 06:15:32.978下午, 555.0, 15.74, 8.00, 6.45, 30.19
106, 0.525, 2017/11/14 06:15:32.983下午, 575.0, 16.00, 8.26, 6.97, 31.23
107, 0.53, 2017/11/14 06:15:32.988下午, 577.0, 16.00, 8.77, 7.48, 32.26
108, 0.535, 2017/11/14 06:15:32.993下午, 564.0, 16.52, 9.03, 5.94, 31.48
109, 0.54, 2017/11/14 06:15:32.998下午, 558.0, 16.52, 9.03, 4.90, 30.45
110, 0.545, 2017/11/14 06:15:33.003下午, 577.0, 16.52, 9.55, 5.42, 31.48
111, 0.55, 2017/11/14 06:15:33.008下午, 564.0, 15.48, 9.29, 5.68, 30.45
112, 0.555, 2017/11/14 06:15:33.013下午, 544.0, 15.48, 8.77, 5.16, 29.42
113, 0.56, 2017/11/14 06:15:33.018下午, 568.0, 15.74, 9.29, 5.68, 30.71
114, 0.565, 2017/11/14 06:15:33.023下午, 564.0, 15.74, 9.29, 5.68, 30.71
115, 0.57, 2017/11/14 06:15:33.028下午, 548.0, 15.48, 7.74, 6.19, 29.42
116, 0.575, 2017/11/14 06:15:33.033下午, 558.0, 16.00, 8.26, 6.45, 30.71
117, 0.58, 2017/11/14 06:15:33.038下午, 571.0, 16.00, 8.26, 7.48, 31.74
118, 0.585, 2017/11/14 06:15:33.043下午, 556.0, 15.74, 8.00, 6.45, 30.19
119, 0.59, 2017/11/14 06:15:33.048下午, 572.0, 16.26, 8.77, 6.19, 31.23
120, 0.595, 2017/11/14 06:15:33.053下午, 574.0, 16.52, 8.26, 6.45, 31.23
121, 0.6, 2017/11/14 06:15:33.058下午, 578.0, 15.74, 8.77, 7.48, 32.00
122, 0.605, 2017/11/14 06:15:33.063下午, 560.0, 16.77, 8.26, 5.94, 30.97
123, 0.61, 2017/11/14 06:15:33.068下午, 555.0, 16.52, 9.03, 4.90, 30.45
124, 0.615, 2017/11/14 06:15:33.073下午, 553.0, 16.00, 9.29, 5.42, 30.71
125, 0.62, 2017/11/14 06:15:33.078下午, 567.0, 16.00, 9.29, 5.68, 30.97
126, 0.625, 2017/11/14 06:15:33.083下午, 561.0, 16.52, 8.77, 5.16, 30.45
127, 0.63, 2017/11/14 06:15:33.088下午, 581.0, 15.74, 9.55, 6.71, 32.00
128, 0.635, 2017/11/14 06:15:33.093下午, 551.0, 16.00, 8.52, 5.68, 30.19
129, 0.64, 2017/11/14 06:15:33.098下午, 556.0, 16.26, 8.00, 5.94, 30.19
130, 0.645, 2017/11/14 06:15:33.103下午, 563.0, 16.00, 8.52, 6.45, 30.97
131, 0.65, 2017/11/14 06:15:33.108下午, 568.0, 15.74, 8.26, 7.23, 31.23
132, 0.655, 2017/11/14 06:15:33.113下午, 588.0, 16.26, 8.77, 7.74, 32.77
133, 0.66, 2017/11/14 06:15:33.118下午, 558.0, 16.52, 9.03, 4.90, 30.45
134, 0.665, 2017/11/14 06:15:33.123下午, 563.0, 16.52, 8.77, 5.42, 30.71
135, 0.67, 2017/11/14 06:15:33.128下午, 552.0, 16.00, 8.26, 5.68, 29.94
136, 0.675, 2017/11/14 06:15:33.133下午, 563.0, 16.00, 8.77, 5.68, 30.45
137, 0.68, 2017/11/14 06:15:33.138下午, 578.0, 16.00, 9.81, 5.94, 31.74
138, 0.685, 2017/11/14 06:15:33.143下午, 562.0, 16.00, 9.03, 5.68, 30.71
139, 0.69, 2017/11/14 06:15:33.148下午, 570.0, 16.00, 9.29, 5.68, 30.97
140, 0.695, 2017/11/14 06:15:33.153下午, 560.0, 16.00, 8.52, 5.68, 30.19
141, 0.7, 2017/11/14 06:15:33.158下午, 579.0, 16.00, 9.03, 6.97, 32.00
142, 0.705, 2017/11/14 06:15:33.163下午, 569.0, 15.48, 9.29, 6.19, 30.97
143, 0.71, 2017/11/14 06:15:33.168下午, 566.0, 15.48, 8.77, 6.45, 30.71
144, 0.715, 2017/11/14 06:15:33.173下午, 572.0, 16.26, 9.29, 5.68, 31.23
145, 0.72, 2017/11/14 06:15:33.178下午, 580.0, 15.74, 8.26, 7.48, 31.48
146, 0.725, 2017/11/14 06:15:33.183下午, 565.0, 16.00, 8.52, 6.45, 30.97
147, 0.73, 2017/11/14 06:15:33.188下午, 583.0, 16.00, 8.52, 7.48, 32.00
148, 0.735, 2017/11/14 06:15:33.193下午, 574.0, 16.26, 8.26, 7.23, 31.74
149, 0.74, 2017/11/14 06:15:33.198下午, 573.0, 16.52, 9.03, 6.19, 31.74
150, 0.745, 2017/11/14 06:15:33.203下午, 552.0, 16.52, 8.77, 4.90, 30.19
151, 0.75, 2017/11/14 06:15:33.208下午, 564.0, 16.52, 9.29, 4.90, 30.71
152, 0.755, 2017/11/14 06:15:33.213下午, 575.0, 16.52, 9.29, 5.42, 31.23
153, 0.76, 2017/11/14 06:15:33.218下午, 563.0, 16.52, 8.77, 4.90, 30.19
154, 0.765, 2017/11/14 06:15:33.223下午, 566.0, 16.52, 9.29, 4.90, 30.71
155, 0.77, 2017/11/14 06:15:33.228下午, 570.0, 16.26, 8.52, 5.68, 30.45
156, 0.775, 2017/11/14 06:15:33.233下午, 566.0, 16.00, 8.52, 5.68, 30.19
157, 0.78, 2017/11/14 06:15:33.238下午, 590.0, 16.26, 9.55, 6.45, 32.26
158, 0.785, 2017/11/14 06:15:33.243下午, 561.0, 15.74, 8.52, 5.68, 29.94
159, 0.79, 2017/11/14 06:15:33.248下午, 558.0, 16.00, 7.74, 6.45, 30.19
160, 0.795, 2017/11/14 06:15:33.253下午, 572.0, 15.74, 9.03, 5.94, 30.71
161, 0.8, 2017/11/14 06:15:33.258下午, 567.0, 15.74, 8.77, 6.45, 30.97
162, 0.805, 2017/11/14 06:15:33.263下午, 588.0, 16.26, 8.77, 7.23, 32.26
163, 0.81, 2017/11/14 06:15:33.268下午, 574.0, 16.52, 9.03, 6.19, 31.74
164, 0.815, 2017/11/14 06:15:33.273下午, 570.0, 16.52, 8.77, 5.42, 30.71
165, 0.82, 2017/11/14 06:15:33.278下午, 567.0, 16.52, 8.52, 5.68, 30.71
166, 0.825, 2017/11/14 06:15:33.283下午, 575.0, 16.26, 9.55, 5.68, 31.48
167, 0.83, 2017/11/14 06:15:33.288下午, 568.0, 16.26, 9.03, 5.42, 30.71
168, 0.835, 2017/11/14 06:15:33.293下午, 556.0, 15.74, 8.52, 5.16, 29.42
169, 0.84, 2017/11/14 06:15:33.298下午, 555.0, 15.74, 8.26, 5.68, 29.68
170, 0.845, 2017/11/14 06:15:33.303下午, 560.0, 16.00, 8.52, 5.94, 30.45
171, 0.85, 2017/11/14 06:15:33.308下午, 558.0, 15.74, 8.77, 5.94, 30.45
172, 0.855, 2017/11/14 06:15:33.313下午, 599.0, 16.26, 9.03, 8.26, 33.55
173, 0.86, 2017/11/14 06:15:33.318下午, 563.0, 16.52, 8.77, 4.90, 30.19
174, 0.865, 2017/11/14 06:15:33.323下午, 557.0, 16.26, 8.77, 4.90, 29.94
175, 0.87, 2017/11/14 06:15:33.328下午, 579.0, 16.52, 9.03, 5.94, 31.48
176, 0.875, 2017/11/14 06:15:33.333下午, 572.0, 16.52, 9.29, 4.90, 30.71
177, 0.88, 2017/11/14 06:15:33.338下午, 583.0, 16.52, 9.29, 5.68, 31.48
178, 0.885, 2017/11/14 06:15:33.343下午, 592.0, 16.52, 9.81, 5.68, 32.00
179, 0.89, 2017/11/14 06:15:33.348下午, 580.0, 16.26, 9.03, 5.68, 30.97
180, 0.895, 2017/11/14 06:15:33.353下午, 588.0, 16.00, 9.29, 6.45, 31.74
181, 0.9, 2017/11/14 06:15:33.358下午, 583.0, 16.52, 9.55, 5.68, 31.74
182, 0.905, 2017/11/14 06:15:33.363下午, 565.0, 16.26, 8.52, 5.16, 29.94
183, 0.91, 2017/11/14 06:15:33.368下午, 565.0, 16.52, 7.74, 5.94, 30.19
184, 0.915, 2017/11/14 06:15:33.373下午, 571.0, 16.00, 8.00, 7.48, 31.48
185, 0.92, 2017/11/14 06:15:33.378下午, 572.0, 16.52, 7.74, 6.97, 31.23
186, 0.925, 2017/11/14 06:15:33.383下午, 571.0, 15.74, 8.52, 6.97, 31.23
187, 0.93, 2017/11/14 06:15:33.388下午, 582.0, 15.74, 8.26, 7.48, 31.48
188, 0.935, 2017/11/14 06:15:33.393下午, 588.0, 16.26, 8.77, 6.71, 31.74
189, 0.94, 2017/11/14 06:15:33.398下午, 611.0, 16.52, 8.77, 8.77, 34.06
190, 0.945, 2017/11/14 06:15:33.403下午, 565.0, 16.52, 8.77, 4.90, 30.19
191, 0.95, 2017/11/14 06:15:33.408下午, 581.0, 16.52, 9.29, 4.90, 30.71
192, 0.955, 2017/11/14 06:15:33.413下午, 586.0, 16.52, 9.81, 5.68, 32.00
193, 0.96, 2017/11/14 06:15:33.418下午, 577.0, 16.26, 9.03, 5.68, 30.97
194, 0.965, 2017/11/14 06:15:33.423下午, 565.0, 15.74, 9.03, 5.16, 29.94
195, 0.97, 2017/11/14 06:15:33.428下午, 602.0, 16.26, 9.03, 6.97, 32.26
196, 0.975, 2017/11/14 06:15:33.433下午, 577.0, 16.26, 9.03, 5.68, 30.97
197, 0.98, 2017/11/14 06:15:33.438下午, 565.0, 16.26, 8.26, 5.68, 30.19
198, 0.985, 2017/11/14 06:15:33.443下午, 581.0, 15.74, 8.52, 6.97, 31.23
199, 0.99, 2017/11/14 06:15:33.448下午, 574.0, 16.52, 8.52, 5.68, 30.71
200, 0.995, 2017/11/14 06:15:33.453下午, 560.0, 16.26, 8.26, 5.68, 30.19
201, 1, 2017/11/14 06:15:33.458下午, 573.0, 15.74, 8.52, 6.45, 30.71
202, 1.005, 2017/11/14 06:15:33.463下午, 560.0, 15.48, 8.52, 5.68, 29.68
203, 1.01, 2017/11/14 06:15:33.468下午, 568.0, 16.52, 8.26, 5.68, 30.45
204, 1.015, 2017/11/14 06:15:33.473下午, 572.0, 16.26, 8.77, 5.94, 30.97
205, 1.02, 2017/11/14 06:15:33.478下午, 594.0, 16.26, 9.03, 7.48, 32.77
206, 1.025, 2017/11/14 06:15:33.483下午, 587.0, 16.77, 7.74, 7.23, 31.74
207, 1.03, 2017/11/14 06:15:33.488下午, 591.0, 16.26, 8.77, 7.23, 32.26
208, 1.035, 2017/11/14 06:15:33.493下午, 570.0, 16.52, 9.03, 4.90, 30.45
209, 1.04, 2017/11/14 06:15:33.498下午, 574.0, 16.52, 8.77, 5.42, 30.71
210, 1.045, 2017/11/14 06:15:33.503下午, 578.0, 16.52, 9.03, 5.68, 31.23
211, 1.05, 2017/11/14 06:15:33.508下午, 588.0, 16.26, 9.29, 5.68, 31.23
212, 1.055, 2017/11/14 06:15:33.513下午, 585.0, 16.52, 9.29, 5.68, 31.48
213, 1.06, 2017/11/14 06:15:33.518下午, 586.0, 16.52, 9.81, 5.42, 31.74
214, 1.065, 2017/11/14 06:15:33.523下午, 569.0, 16.26, 8.52, 5.68, 30.45
215, 1.07, 2017/11/14 06:15:33.528下午, 568.0, 16.00, 8.00, 6.45, 30.45
216, 1.075, 2017/11/14 06:15:33.533下午, 580.0, 16.52, 7.74, 7.23, 31.48
217, 1.08, 2017/11/14 06:15:33.538下午, 577.0, 16.52, 8.00, 6.71, 31.23
218, 1.085, 2017/11/14 06:15:33.543下午, 580.0, 16.00, 8.77, 6.71, 31.48
219, 1.09, 2017/11/14 06:15:33.548下午, 578.0, 16.52, 8.77, 6.19, 31.48
220, 1.095, 2017/11/14 06:15:33.553下午, 585.0, 16.52, 8.77, 6.45, 31.74
221, 1.1, 2017/11/14 06:15:33.558下午, 591.0, 16.26, 8.77, 6.97, 32.00
222, 1.105, 2017/11/14 06:15:33.563下午, 567.0, 16.52, 9.03, 4.90, 30.45
223, 1.11, 2017/11/14 06:15:33.568下午, 562.0, 16.26, 8.26, 5.42, 29.94
224, 1.115, 2017/11/14 06:15:33.573下午, 573.0, 16.52, 8.77, 5.68, 30.97
225, 1.12, 2017/11/14 06:15:33.578下午, 585.0, 16.26, 8.77, 6.19, 31.23
226, 1.125, 2017/11/14 06:15:33.583下午, 557.0, 15.74, 8.00, 5.68, 29.42
227, 1.13, 2017/11/14 06:15:33.588下午, 576.0, 16.00, 8.77, 6.45, 31.23
228, 1.135, 2017/11/14 06:15:33.593下午, 586.0, 16.52, 8.77, 6.19, 31.48
229, 1.14, 2017/11/14 06:15:33.598下午, 572.0, 16.77, 8.26, 5.94, 30.97
230, 1.145, 2017/11/14 06:15:33.603下午, 584.0, 16.52, 8.77, 5.94, 31.23
231, 1.15, 2017/11/14 06:15:33.608下午, 586.0, 16.52, 9.29, 5.16, 30.97
232, 1.155, 2017/11/14 06:15:33.613下午, 575.0, 16.52, 8.52, 5.68, 30.71
233, 1.16, 2017/11/14 06:15:33.618下午, 583.0, 16.26, 9.29, 5.68, 31.23
234, 1.165, 2017/11/14 06:15:33.623下午, 610.0, 16.52, 9.29, 7.48, 33.29
235, 1.17, 2017/11/14 06:15:33.628下午, 566.0, 16.26, 8.00, 5.68, 29.94
236, 1.175, 2017/11/14 06:15:33.633下午, 571.0, 16.52, 8.52, 5.68, 30.71
237, 1.18, 2017/11/14 06:15:33.638下午, 570.0, 16.26, 7.74, 6.45, 30.45
238, 1.185, 2017/11/14 06:15:33.643下午, 577.0, 15.74, 8.00, 6.97, 30.71
239, 1.19, 2017/11/14 06:15:33.648下午, 585.0, 16.00, 8.77, 6.97, 31.74
240, 1.195, 2017/11/14 06:15:33.653下午, 586.0, 16.26, 8.00, 7.48, 31.74
241, 1.2, 2017/11/14 06:15:33.658下午, 592.0, 16.00, 9.03, 6.97, 32.00
242, 1.205, 2017/11/14 06:15:33.663下午, 592.0, 16.52, 8.26, 7.23, 32.00
243, 1.21, 2017/11/14 06:15:33.668下午, 582.0, 16.52, 8.77, 5.68, 30.97
244, 1.215, 2017/11/14 06:15:33.673下午, 569.0, 16.52, 8.52, 4.90, 29.94
245, 1.22, 2017/11/14 06:15:33.678下午, 570.0, 16.52, 8.77, 5.16, 30.45
246, 1.225, 2017/11/14 06:15:33.683下午, 571.0, 16.52, 8.77, 4.90, 30.19
247, 1.23, 2017/11/14 06:15:33.688下午, 573.0, 16.26, 8.77, 5.42, 30.45
248, 1.235, 2017/11/14 06:15:33.693下午, 566.0, 16.52, 8.26, 5.68, 30.45
249, 1.24, 2017/11/14 06:15:33.698下午, 562.0, 16.00, 8.26, 5.68, 29.94
250, 1.245, 2017/11/14 06:15:33.703下午, 586.0, 16.26, 8.77, 6.45, 31.48
251, 1.25, 2017/11/14 06:15:33.708下午, 586.0, 16.52, 8.77, 6.19, 31.48
252, 1.255, 2017/11/14 06:15:33.713下午, 572.0, 16.52, 8.77, 4.90, 30.19
253, 1.26, 2017/11/14 06:15:33.718下午, 573.0, 16.52, 8.77, 5.42, 30.71
254, 1.265, 2017/11/14 06:15:33.723下午, 587.0, 16.26, 9.29, 5.68, 31.23
255, 1.27, 2017/11/14 06:15:33.728下午, 606.0, 16.52, 8.77, 7.48, 32.77
256, 1.275, 2017/11/14 06:15:33.733下午, 567.0, 16.26, 8.00, 5.68, 29.94
257, 1.28, 2017/11/14 06:15:33.738下午, 581.0, 16.52, 8.26, 6.45, 31.23
258, 1.285, 2017/11/14 06:15:33.743下午, 578.0, 16.26, 8.77, 5.94, 30.97
259, 1.29, 2017/11/14 06:15:33.748下午, 571.0, 16.77, 8.77, 4.90, 30.45
260, 1.295, 2017/11/14 06:15:33.753下午, 585.0, 16.26, 8.77, 6.97, 32.00
261, 1.3, 2017/11/14 06:15:33.758下午, 590.0, 16.52, 9.03, 6.19, 31.74
262, 1.305, 2017/11/14 06:15:33.763下午, 577.0, 16.52, 8.77, 5.42, 30.71
263, 1.31, 2017/11/14 06:15:33.768下午, 580.0, 16.52, 9.03, 5.42, 30.97
264, 1.315, 2017/11/14 06:15:33.773下午, 581.0, 16.52, 9.29, 5.42, 31.23
265, 1.32, 2017/11/14 06:15:33.778下午, 561.0, 16.52, 8.52, 5.16, 30.19
266, 1.325, 2017/11/14 06:15:33.783下午, 567.0, 16.26, 8.00, 5.68, 29.94
267, 1.33, 2017/11/14 06:15:33.788下午, 585.0, 16.26, 8.52, 6.97, 31.74
268, 1.335, 2017/11/14 06:15:33.793下午, 563.0, 16.52, 8.52, 4.90, 29.94
269, 1.34, 2017/11/14 06:15:33.798下午, 563.0, 16.52, 8.77, 4.90, 30.19
270, 1.345, 2017/11/14 06:15:33.803下午, 559.0, 16.52, 8.26, 4.90, 29.68
271, 1.35, 2017/11/14 06:15:33.808下午, 572.0, 16.52, 8.77, 5.42, 30.71
272, 1.355, 2017/11/14 06:15:33.813下午, 572.0, 16.26, 8.77, 5.68, 30.71
273, 1.36, 2017/11/14 06:15:33.818下午, 575.0, 16.52, 9.03, 4.90, 30.45
274, 1.365, 2017/11/14 06:15:33.823下午, 586.0, 16.52, 9.81, 4.90, 31.23
275, 1.37, 2017/11/14 06:15:33.828下午, 571.0, 16.26, 8.52, 5.42, 30.19
276, 1.375, 2017/11/14 06:15:33.833下午, 578.0, 16.26, 9.29, 5.42, 30.97
277, 1.38, 2017/11/14 06:15:33.838下午, 580.0, 16.52, 8.77, 5.68, 30.97
278, 1.385, 2017/11/14 06:15:33.843下午, 589.0, 16.52, 9.55, 5.68, 31.74
279, 1.39, 2017/11/14 06:15:33.848下午, 566.0, 16.26, 8.52, 5.42, 30.19
280, 1.395, 2017/11/14 06:15:33.853下午, 582.0, 16.52, 9.03, 5.68, 31.23
281, 1.4, 2017/11/14 06:15:33.858下午, 580.0, 16.26, 9.55, 5.42, 31.23
282, 1.405, 2017/11/14 06:15:33.863下午, 570.0, 16.26, 8.26, 5.68, 30.19
283, 1.41, 2017/11/14 06:15:33.868下午, 563.0, 16.26, 8.00, 5.68, 29.94
284, 1.415, 2017/11/14 06:15:33.873下午, 591.0, 16.26, 9.29, 6.19, 31.74
285, 1.42, 2017/11/14 06:15:33.878下午, 579.0, 16.26, 9.03, 5.94, 31.23
286, 1.425, 2017/11/14 06:15:33.883下午, 563.0, 16.00, 8.52, 5.16, 29.68
287, 1.43, 2017/11/14 06:15:33.888下午, 558.0, 16.52, 8.00, 5.16, 29.68
288, 1.435, 2017/11/14 06:15:33.893下午, 576.0, 16.00, 8.00, 6.45, 30.45
289, 1.44, 2017/11/14 06:15:33.898下午, 587.0, 16.77, 8.77, 6.45, 32.00
290, 1.445, 2017/11/14 06:15:33.903下午, 575.0, 16.00, 8.77, 6.19, 30.97
291, 1.45, 2017/11/14 06:15:33.908下午, 586.0, 16.26, 8.77, 6.71, 31.74
292, 1.455, 2017/11/14 06:15:33.913下午, 600.0, 16.52, 8.77, 7.48, 32.77
293, 1.46, 2017/11/14 06:15:33.918下午, 583.0, 16.52, 8.77, 5.94, 31.23
294, 1.465, 2017/11/14 06:15:33.923下午, 569.0, 16.52, 9.03, 4.90, 30.45
295, 1.47, 2017/11/14 06:15:33.928下午, 586.0, 16.52, 9.03, 5.94, 31.48
296, 1.475, 2017/11/14 06:15:33.933下午, 586.0, 16.26, 8.77, 6.19, 31.23
297, 1.48, 2017/11/14 06:15:33.938下午, 592.0, 16.52, 8.26, 7.23, 32.00
298, 1.485, 2017/11/14 06:15:33.943下午, 576.0, 16.52, 9.29, 4.90, 30.71
299, 1.49, 2017/11/14 06:15:33.948下午, 589.0, 16.77, 8.77, 5.94, 31.48
300, 1.495, 2017/11/14 06:15:33.953下午, 566.0, 16.52, 8.26, 4.90, 29.68
301, 1.5, 2017/11/14 06:15:33.958下午, 582.0, 16.52, 9.29, 5.42, 31.23
302, 1.505, 2017/11/14 06:15:33.963下午, 579.0, 16.52, 8.77, 5.68, 30.97
303, 1.51, 2017/11/14 06:15:33.968下午, 579.0, 16.52, 8.52, 5.68, 30.71
304, 1.515, 2017/11/14 06:15:33.973下午, 592.0, 16.52, 9.81, 5.42, 31.74
305, 1.52, 2017/11/14 06:15:33.978下午, 578.0, 16.52, 9.03, 5.68, 31.23
306, 1.525, 2017/11/14 06:15:33.983下午, 581.0, 16.26, 8.77, 5.68, 30.71
307, 1.53, 2017/11/14 06:15:33.988下午, 585.0, 16.00, 9.29, 5.94, 31.23
308, 1.535, 2017/11/14 06:15:33.993下午, 596.0, 16.52, 9.03, 6.71, 32.26
309, 1.54, 2017/11/14 06:15:33.998下午, 579.0, 16.26, 8.00, 6.97, 31.23
310, 1.545, 2017/11/14 06:15:34.003下午, 564.0, 16.52, 8.26, 4.90, 29.68
311, 1.55, 2017/11/14 06:15:34.008下午, 577.0, 16.77, 9.03, 5.42, 31.23
312, 1.555, 2017/11/14 06:15:34.013下午, 582.0, 16.77, 8.77, 5.68, 31.23
313, 1.56, 2017/11/14 06:15:34.018下午, 568.0, 16.77, 8.26, 5.42, 30.45
314, 1.565, 2017/11/14 06:15:34.023下午, 575.0, 16.52, 9.29, 4.90, 30.71
315, 1.57, 2017/11/14 06:15:34.028下午, 576.0, 16.26, 8.77, 5.42, 30.45
316, 1.575, 2017/11/14 06:15:34.033下午, 587.0, 16.52, 9.29, 5.68, 31.48
317, 1.58, 2017/11/14 06:15:34.038下午, 585.0, 16.52, 9.55, 5.16, 31.23
318, 1.585, 2017/11/14 06:15:34.043下午, 582.0, 16.52, 9.03, 5.68, 31.23
319, 1.59, 2017/11/14 06:15:34.048下午, 582.0, 15.74, 8.52, 6.71, 30.97
320, 1.595, 2017/11/14 06:15:34.053下午, 584.0, 16.52, 9.29, 5.42, 31.23
321, 1.6, 2017/11/14 06:15:34.058下午, 574.0, 16.52, 8.77, 5.16, 30.45
322, 1.605, 2017/11/14 06:15:34.063下午, 571.0, 16.26, 8.00, 5.94, 30.19
323, 1.61, 2017/11/14 06:15:34.068下午, 573.0, 15.48, 8.52, 6.45, 30.45
324, 1.615, 2017/11/14 06:15:34.073下午, 568.0, 15.74, 8.00, 6.45, 30.19
325, 1.62, 2017/11/14 06:15:34.078下午, 571.0, 16.52, 7.74, 6.45, 30.71
326, 1.625, 2017/11/14 06:15:34.083下午, 579.0, 15.74, 8.77, 6.45, 30.97
327, 1.63, 2017/11/14 06:15:34.088下午, 599.0, 15.74, 9.03, 8.00, 32.77
328, 1.635, 2017/11/14 06:15:34.093下午, 596.0, 16.52, 8.77, 7.48, 32.77
329, 1.64, 2017/11/14 06:15:34.098下午, 588.0, 15.74, 8.77, 7.48, 32.00
330, 1.645, 2017/11/14 06:15:34.103下午, 593.0, 16.26, 9.03, 6.97, 32.26
331, 1.65, 2017/11/14 06:15:34.108下午, 602.0, 16.26, 8.77, 8.00, 33.03
332, 1.655, 2017/11/14 06:15:34.113下午, 560.0, 16.52, 8.26, 4.90, 29.68
333, 1.66, 2017/11/14 06:15:34.118下午, 574.0, 16.52, 8.77, 5.94, 31.23
334, 1.665, 2017/11/14 06:15:34.123下午, 585.0, 16.52, 8.77, 6.71, 32.00
335, 1.67, 2017/11/14 06:15:34.128下午, 574.0, 16.52, 8.52, 5.68, 30.71
336, 1.675, 2017/11/14 06:15:34.133下午, 581.0, 16.52, 9.55, 4.90, 30.97
337, 1.68, 2017/11/14 06:15:34.138下午, 593.0, 16.52, 9.81, 5.68, 32.00
338, 1.685, 2017/11/14 06:15:34.143下午, 608.0, 16.77, 9.81, 6.71, 33.29
339, 1.69, 2017/11/14 06:15:34.148下午, 575.0, 16.26, 8.77, 5.68, 30.71
340, 1.695, 2017/11/14 06:15:34.153下午, 583.0, 15.74, 8.77, 6.97, 31.48
341, 1.7, 2017/11/14 06:15:34.158下午, 575.0, 16.26, 9.03, 5.68, 30.97
342, 1.705, 2017/11/14 06:15:34.163下午, 573.0, 15.74, 8.52, 6.45, 30.71
343, 1.71, 2017/11/14 06:15:34.168下午, 585.0, 16.52, 8.52, 6.97, 32.00
344, 1.715, 2017/11/14 06:15:34.173下午, 578.0, 16.00, 8.77, 6.97, 31.74
345, 1.72, 2017/11/14 06:15:34.178下午, 593.0, 16.52, 9.03, 6.97, 32.52
346, 1.725, 2017/11/14 06:15:34.183下午, 603.0, 16.52, 8.26, 8.00, 32.77
347, 1.73, 2017/11/14 06:15:34.188下午, 591.0, 16.52, 8.77, 7.23, 32.52
348, 1.735, 2017/11/14 06:15:34.193下午, 595.0, 16.77, 8.77, 6.97, 32.52
349, 1.74, 2017/11/14 06:15:34.198下午, 570.0, 16.77, 8.77, 5.42, 30.97
350, 1.745, 2017/11/14 06:15:34.203下午, 576.0, 16.52, 8.52, 6.19, 31.23
351, 1.75, 2017/11/14 06:15:34.208下午, 581.0, 16.52, 9.55, 5.42, 31.48
352, 1.755, 2017/11/14 06:15:34.213下午, 579.0, 16.26, 9.29, 5.94, 31.48
353, 1.76, 2017/11/14 06:15:34.218下午, 584.0, 16.52, 8.52, 6.19, 31.23
354, 1.765, 2017/11/14 06:15:34.223下午, 561.0, 16.26, 8.00, 5.16, 29.42
355, 1.77, 2017/11/14 06:15:34.228下午, 581.0, 16.00, 8.77, 6.97, 31.74
356, 1.775, 2017/11/14 06:15:34.233下午, 595.0, 16.52, 9.03, 6.97, 32.52
357, 1.78, 2017/11/14 06:15:34.238下午, 575.0, 16.00, 8.26, 6.97, 31.23
358, 1.785, 2017/11/14 06:15:34.243下午, 597.0, 16.52, 8.77, 7.48, 32.77
359, 1.79, 2017/11/14 06:15:34.248下午, 590.0, 16.52, 8.26, 8.00, 32.77
360, 1.795, 2017/11/14 06:15:34.253下午, 604.0, 16.52, 8.77, 8.00, 33.29
361, 1.8, 2017/11/14 06:15:34.258下午, 565.0, 16.52, 8.77, 4.90, 30.19
362, 1.805, 2017/11/14 06:15:34.263下午, 587.0, 16.52, 8.77, 6.45, 31.74
363, 1.81, 2017/11/14 06:15:34.268下午, 575.0, 16.52, 8.52, 5.68, 30.71
364, 1.815, 2017/11/14 06:15:34.273下午, 589.0, 16.52, 9.81, 5.68, 32.00
365, 1.82, 2017/11/14 06:15:34.278下午, 579.0, 16.26, 8.77, 5.68, 30.71
366, 1.825, 2017/11/14 06:15:34.283下午, 581.0, 16.26, 9.29, 5.68, 31.23
367, 1.83, 2017/11/14 06:15:34.288下午, 575.0, 16.26, 8.77, 5.68, 30.71
368, 1.835, 2017/11/14 06:15:34.293下午, 588.0, 16.26, 8.77, 6.97, 32.00
369, 1.84, 2017/11/14 06:15:34.298下午, 602.0, 16.77, 8.77, 7.48, 33.03
370, 1.845, 2017/11/14 06:15:34.303下午, 571.0, 16.00, 8.26, 6.45, 30.71
371, 1.85, 2017/11/14 06:15:34.308下午, 583.0, 16.26, 7.74, 8.00, 32.00
372, 1.855, 2017/11/14 06:15:34.313下午, 585.0, 16.52, 8.00, 7.48, 32.00
373, 1.86, 2017/11/14 06:15:34.318下午, 587.0, 16.52, 8.52, 6.97, 32.00
374, 1.865, 2017/11/14 06:15:34.323下午, 606.0, 16.52, 8.77, 8.00, 33.29
375, 1.87, 2017/11/14 06:15:34.328下午, 596.0, 16.26, 9.29, 7.23, 32.77
376, 1.875, 2017/11/14 06:15:34.333下午, 575.0, 16.52, 9.03, 5.94, 31.48
377, 1.88, 2017/11/14 06:15:34.338下午, 584.0, 16.52, 9.29, 6.19, 32.00
378, 1.885, 2017/11/14 06:15:34.343下午, 574.0, 16.52, 9.03, 4.90, 30.45
379, 1.89, 2017/11/14 06:15:34.348下午, 601.0, 16.52, 9.81, 6.45, 32.77
380, 1.895, 2017/11/14 06:15:34.353下午, 570.0, 16.52, 8.26, 5.94, 30.71
381, 1.9, 2017/11/14 06:15:34.358下午, 585.0, 16.52, 9.29, 5.68, 31.48
382, 1.905, 2017/11/14 06:15:34.363下午, 583.0, 16.52, 9.29, 5.68, 31.48
383, 1.91, 2017/11/14 06:15:34.368下午, 590.0, 15.74, 9.29, 6.97, 32.00
384, 1.915, 2017/11/14 06:15:34.373下午, 579.0, 15.48, 8.77, 6.97, 31.23
385, 1.92, 2017/11/14 06:15:34.378下午, 575.0, 15.74, 8.52, 6.97, 31.23
386, 1.925, 2017/11/14 06:15:34.383下午, 577.0, 15.74, 8.77, 6.97, 31.48
387, 1.93, 2017/11/14 06:15:34.388下午, 586.0, 15.74, 8.77, 8.00, 32.52
388, 1.935, 2017/11/14 06:15:34.393下午, 601.0, 16.52, 8.77, 8.00, 33.29
389, 1.94, 2017/11/14 06:15:34.398下午, 590.0, 16.26, 8.77, 7.48, 32.52
390, 1.945, 2017/11/14 06:15:34.403下午, 599.0, 16.26, 8.77, 8.00, 33.03
391, 1.95, 2017/11/14 06:15:34.408下午, 580.0, 16.52, 9.03, 5.94, 31.48
392, 1.955, 2017/11/14 06:15:34.413下午, 582.0, 16.00, 9.81, 6.19, 32.00
393, 1.96, 2017/11/14 06:15:34.418下午, 578.0, 16.52, 9.29, 5.68, 31.48
394, 1.965, 2017/11/14 06:15:34.423下午, 577.0, 16.52, 8.77, 5.68, 30.97
395, 1.97, 2017/11/14 06:15:34.428下午, 595.0, 16.26, 9.29, 6.45, 32.00
396, 1.975, 2017/11/14 06:15:34.433下午, 577.0, 16.26, 9.29, 5.68, 31.23
397, 1.98, 2017/11/14 06:15:34.438下午, 580.0, 16.26, 8.26, 6.97, 31.48
398, 1.985, 2017/11/14 06:15:34.443下午, 589.0, 16.26, 8.77, 7.23, 32.26
399, 1.99, 2017/11/14 06:15:34.448下午, 567.0, 15.74, 8.52, 6.19, 30.45
400, 1.995, 2017/11/14 06:15:34.453下午, 561.0, 16.00, 7.74, 6.45, 30.19
401, 2, 2017/11/14 06:15:34.458下午, 585.0, 15.74, 9.29, 6.97, 32.00
402, 2.005, 2017/11/14 06:15:34.463下午, 586.0, 16.00, 9.03, 7.48, 32.52
403, 2.01, 2017/11/14 06:15:34.468下午, 592.0, 16.26, 8.77, 7.74, 32.77
404, 2.015, 2017/11/14 06:15:34.473下午, 570.0, 16.52, 8.77, 5.68, 30.97
405, 2.02, 2017/11/14 06:15:34.478下午, 583.0, 16.52, 9.29, 5.94, 31.74
406, 2.025, 2017/11/14 06:15:34.483下午, 571.0, 16.52, 9.03, 5.68, 31.23
407, 2.03, 2017/11/14 06:15:34.488下午, 567.0, 16.52, 8.77, 4.90, 30.19
408, 2.035, 2017/11/14 06:15:34.493下午, 577.0, 16.00, 8.52, 6.19, 30.71
409, 2.04, 2017/11/14 06:15:34.498下午, 607.0, 16.52, 9.81, 6.97, 33.29
410, 2.045, 2017/11/14 06:15:34.503下午, 588.0, 16.26, 9.29, 5.94, 31.48
411, 2.05, 2017/11/14 06:15:34.508下午, 576.0, 15.74, 8.77, 6.97, 31.48
412, 2.055, 2017/11/14 06:15:34.513下午, 599.0, 16.77, 8.77, 7.48, 33.03
413, 2.06, 2017/11/14 06:15:34.518下午, 582.0, 16.00, 8.77, 7.48, 32.26
414, 2.065, 2017/11/14 06:15:34.523下午, 589.0, 16.52, 9.03, 7.23, 32.77
415, 2.07, 2017/11/14 06:15:34.528下午, 574.0, 16.77, 9.03, 5.68, 31.48
416, 2.075, 2017/11/14 06:15:34.533下午, 609.0, 16.77, 8.77, 8.00, 33.55
417, 2.08, 2017/11/14 06:15:34.538下午, 593.0, 16.52, 9.03, 6.97, 32.52
418, 2.085, 2017/11/14 06:15:34.543下午, 581.0, 16.00, 9.81, 5.68, 31.48
419, 2.09, 2017/11/14 06:15:34.548下午, 572.0, 16.00, 9.03, 5.94, 30.97
420, 2.095, 2017/11/14 06:15:34.553下午, 589.0, 15.74, 9.55, 6.71, 32.00
421, 2.1, 2017/11/14 06:15:34.558下午, 589.0, 15.74, 9.29, 7.23, 32.26
422, 2.105, 2017/11/14 06:15:34.563下午, 578.0, 15.48, 8.77, 6.97, 31.23
423, 2.11, 2017/11/14 06:15:34.568下午, 577.0, 15.74, 8.52, 6.97, 31.23
424, 2.115, 2017/11/14 06:15:34.573下午, 586.0, 16.00, 8.77, 7.48, 32.26
425, 2.12, 2017/11/14 06:15:34.578下午, 594.0, 16.52, 8.77, 7.48, 32.77
426, 2.125, 2017/11/14 06:15:34.583下午, 601.0, 16.52, 9.29, 7.74, 33.55
427, 2.13, 2017/11/14 06:15:34.588下午, 585.0, 16.52, 9.55, 6.19, 32.26
428, 2.135, 2017/11/14 06:15:34.593下午, 567.0, 15.48, 9.29, 5.68, 30.45
429, 2.14, 2017/11/14 06:15:34.598下午, 575.0, 16.00, 8.77, 6.45, 31.23
430, 2.145, 2017/11/14 06:15:34.603下午, 594.0, 16.00, 9.03, 7.48, 32.52
431, 2.15, 2017/11/14 06:15:34.608下午, 594.0, 16.26, 7.74, 8.52, 32.52
432, 2.155, 2017/11/14 06:15:34.613下午, 596.0, 16.77, 8.77, 7.48, 33.03
433, 2.16, 2017/11/14 06:15:34.618下午, 575.0, 16.26, 8.77, 6.45, 31.48
434, 2.165, 2017/11/14 06:15:34.623下午, 577.0, 16.26, 9.55, 5.68, 31.48
435, 2.17, 2017/11/14 06:15:34.628下午, 582.0, 15.74, 8.00, 7.74, 31.48
436, 2.175, 2017/11/14 06:15:34.633下午, 571.0, 15.74, 8.26, 7.48, 31.48
437, 2.18, 2017/11/14 06:15:34.638下午, 590.0, 16.52, 8.77, 7.48, 32.77
438, 2.185, 2017/11/14 06:15:34.643下午, 585.0, 16.52, 8.77, 7.23, 32.52
439, 2.19, 2017/11/14 06:15:34.648下午, 576.0, 16.00, 9.55, 6.19, 31.74
440, 2.195, 2017/11/14 06:15:34.653下午, 587.0, 16.52, 9.29, 6.71, 32.52
441, 2.2, 2017/11/14 06:15:34.658下午, 584.0, 16.52, 9.81, 5.42, 31.74
442, 2.205, 2017/11/14 06:15:34.663下午, 569.0, 15.48, 8.77, 6.45, 30.71
443, 2.21, 2017/11/14 06:15:34.668下午, 587.0, 15.74, 9.29, 6.97, 32.00
444, 2.215, 2017/11/14 06:15:34.673下午, 590.0, 16.00, 8.52, 8.00, 32.52
445, 2.22, 2017/11/14 06:15:34.678下午, 583.0, 16.00, 8.26, 8.00, 32.26
446, 2.225, 2017/11/14 06:15:34.683下午, 581.0, 15.74, 8.77, 8.00, 32.52
447, 2.23, 2017/11/14 06:15:34.688下午, 586.0, 16.52, 8.77, 6.71, 32.00
448, 2.235, 2017/11/14 06:15:34.693下午, 575.0, 16.52, 9.03, 5.68, 31.23
449, 2.24, 2017/11/14 06:15:34.698下午, 598.0, 16.52, 9.81, 6.45, 32.77
450, 2.245, 2017/11/14 06:15:34.703下午, 566.0, 16.00, 9.29, 5.42, 30.71
451, 2.25, 2017/11/14 06:15:34.708下午, 572.0, 16.00, 8.26, 6.45, 30.71
452, 2.255, 2017/11/14 06:15:34.713下午, 570.0, 15.74, 8.26, 6.97, 30.97
453, 2.26, 2017/11/14 06:15:34.718下午, 575.0, 15.74, 7.74, 8.00, 31.48
454, 2.265, 2017/11/14 06:15:34.723下午, 590.0, 16.77, 8.52, 7.48, 32.77
455, 2.27, 2017/11/14 06:15:34.728下午, 573.0, 16.52, 8.77, 5.94, 31.23
456, 2.275, 2017/11/14 06:15:34.733下午, 584.0, 16.52, 8.77, 6.71, 32.00
457, 2.28, 2017/11/14 06:15:34.738下午, 585.0, 16.00, 9.29, 6.45, 31.74
458, 2.285, 2017/11/14 06:15:34.743下午, 580.0, 16.52, 9.03, 5.68, 31.23
459, 2.29, 2017/11/14 06:15:34.748下午, 577.0, 16.26, 8.77, 5.94, 30.97
460, 2.295, 2017/11/14 06:15:34.753下午, 567.0, 16.00, 8.00, 6.45, 30.45
461, 2.3, 2017/11/14 06:15:34.758下午, 587.0, 16.00, 8.52, 7.48, 32.00
462, 2.305, 2017/11/14 06:15:34.763下午, 579.0, 16.00, 8.77, 7.48, 32.26
463, 2.31, 2017/11/14 06:15:34.768下午, 565.0, 16.00, 8.77, 6.19, 30.97
464, 2.315, 2017/11/14 06:15:34.773下午, 583.0, 16.52, 9.03, 6.71, 32.26
465, 2.32, 2017/11/14 06:15:34.778下午, 559.0, 15.74, 9.03, 5.42, 30.19
466, 2.325, 2017/11/14 06:15:34.783下午, 572.0, 15.74, 9.03, 5.68, 30.45
467, 2.33, 2017/11/14 06:15:34.788下午, 581.0, 15.74, 9.29, 6.71, 31.74
468, 2.335, 2017/11/14 06:15:34.793下午, 561.0, 15.48, 8.00, 6.45, 29.94
469, 2.34, 2017/11/14 06:15:34.798下午, 582.0, 16.52, 8.00, 7.48, 32.00
470, 2.345, 2017/11/14 06:15:34.803下午, 586.0, 16.52, 8.52, 7.74, 32.77
471, 2.35, 2017/11/14 06:15:34.808下午, 598.0, 16.52, 8.77, 8.00, 33.29
472, 2.355, 2017/11/14 06:15:34.813下午, 587.0, 16.52, 8.77, 7.23, 32.52
473, 2.36, 2017/11/14 06:15:34.818下午, 587.0, 16.52, 8.77, 7.23, 32.52
474, 2.365, 2017/11/14 06:15:34.823下午, 587.0, 16.52, 9.03, 6.45, 32.00
475, 2.37, 2017/11/14 06:15:34.828下午, 590.0, 16.52, 9.55, 6.97, 33.03
476, 2.375, 2017/11/14 06:15:34.833下午, 586.0, 15.74, 9.29, 6.97, 32.00
477, 2.38, 2017/11/14 06:15:34.838下午, 577.0, 15.74, 8.52, 6.97, 31.23
478, 2.385, 2017/11/14 06:15:34.843下午, 566.0, 15.74, 8.52, 6.45, 30.71
479, 2.39, 2017/11/14 06:15:34.848下午, 592.0, 16.52, 8.26, 8.00, 32.77
480, 2.395, 2017/11/14 06:15:34.853下午, 588.0, 15.48, 8.77, 8.00, 32.26
481, 2.4, 2017/11/14 06:15:34.858下午, 592.0, 16.00, 8.77, 8.00, 32.77
482, 2.405, 2017/11/14 06:15:34.863下午, 597.0, 16.52, 8.77, 7.74, 33.03
483, 2.41, 2017/11/14 06:15:34.868下午, 572.0, 16.52, 9.55, 5.68, 31.74
484, 2.415, 2017/11/14 06:15:34.873下午, 583.0, 16.52, 9.29, 6.19, 32.00
485, 2.42, 2017/11/14 06:15:34.878下午, 581.0, 16.52, 9.81, 5.68, 32.00
486, 2.425, 2017/11/14 06:15:34.883下午, 569.0, 16.00, 9.81, 5.42, 31.23
487, 2.43, 2017/11/14 06:15:34.888下午, 569.0, 16.26, 8.77, 5.68, 30.71
488, 2.435, 2017/11/14 06:15:34.893下午, 576.0, 16.26, 8.77, 6.97, 32.00
489, 2.44, 2017/11/14 06:15:34.898下午, 589.0, 15.74, 8.77, 8.00, 32.52
490, 2.445, 2017/11/14 06:15:34.903下午, 583.0, 16.26, 8.77, 6.97, 32.00
491, 2.45, 2017/11/14 06:15:34.908下午, 584.0, 16.52, 9.03, 6.97, 32.52
492, 2.455, 2017/11/14 06:15:34.913下午, 581.0, 16.00, 9.29, 6.19, 31.48
493, 2.46, 2017/11/14 06:15:34.918下午, 581.0, 15.74, 9.03, 6.97, 31.74
494, 2.465, 2017/11/14 06:15:34.923下午, 586.0, 15.74, 9.29, 7.23, 32.26
495, 2.47, 2017/11/14 06:15:34.928下午, 573.0, 15.74, 8.26, 6.97, 30.97
496, 2.475, 2017/11/14 06:15:34.933下午, 577.0, 15.74, 8.77, 7.48, 32.00
497, 2.48, 2017/11/14 06:15:34.938下午, 579.0, 16.52, 8.77, 6.97, 32.26
498, 2.485, 2017/11/14 06:15:34.943下午, 572.0, 16.52, 9.03, 5.68, 31.23
499, 2.49, 2017/11/14 06:15:34.948下午, 580.0, 16.52, 8.77, 6.97, 32.26
500, 2.495, 2017/11/14 06:15:34.953下午, 574.0, 16.00, 9.29, 6.45, 31.74
501, 2.5, 2017/11/14 06:15:34.958下午, 569.0, 16.00, 8.77, 6.19, 30.97
502, 2.505, 2017/11/14 06:15:34.963下午, 577.0, 16.52, 8.52, 6.45, 31.48
503, 2.51, 2017/11/14 06:15:34.968下午, 566.0, 16.26, 8.52, 5.68, 30.45
504, 2.515, 2017/11/14 06:15:34.973下午, 578.0, 16.26, 8.26, 6.97, 31.48
505, 2.52, 2017/11/14 06:15:34.978下午, 581.0, 16.00, 7.74, 8.00, 31.74
506, 2.525, 2017/11/14 06:15:34.983下午, 587.0, 16.52, 8.52, 7.48, 32.52
507, 2.53, 2017/11/14 06:15:34.988下午, 587.0, 16.26, 9.03, 8.00, 33.29
508, 2.535, 2017/11/14 06:15:34.993下午, 580.0, 16.52, 8.77, 6.97, 32.26
509, 2.54, 2017/11/14 06:15:34.998下午, 563.0, 16.52, 8.26, 5.94, 30.71
510, 2.545, 2017/11/14 06:15:35.003下午, 601.0, 16.52, 9.81, 7.23, 33.55
511, 2.55, 2017/11/14 06:15:35.008下午, 593.0, 16.52, 9.55, 6.19, 32.26
512, 2.555, 2017/11/14 06:15:35.013下午, 562.0, 16.52, 8.00, 5.68, 30.19
513, 2.56, 2017/11/14 06:15:35.018下午, 574.0, 16.26, 8.52, 6.97, 31.74
514, 2.565, 2017/11/14 06:15:35.023下午, 604.0, 16.52, 9.03, 8.00, 33.55
515, 2.57, 2017/11/14 06:15:35.028下午, 572.0, 16.52, 8.77, 5.94, 31.23
516, 2.575, 2017/11/14 06:15:35.033下午, 577.0, 16.52, 8.77, 6.19, 31.48
517, 2.58, 2017/11/14 06:15:35.038下午, 583.0, 16.52, 9.03, 6.19, 31.74
518, 2.585, 2017/11/14 06:15:35.043下午, 569.0, 16.26, 8.52, 5.68, 30.45
519, 2.59, 2017/11/14 06:15:35.048下午, 592.0, 15.74, 9.29, 7.74, 32.77
520, 2.595, 2017/11/14 06:15:35.053下午, 586.0, 16.00, 8.52, 7.74, 32.26
521, 2.6, 2017/11/14 06:15:35.058下午, 570.0, 16.00, 7.74, 7.48, 31.23
522, 2.605, 2017/11/14 06:15:35.063下午, 582.0, 16.52, 7.74, 7.48, 31.74
523, 2.61, 2017/11/14 06:15:35.068下午, 583.0, 15.74, 8.77, 8.00, 32.52
524, 2.615, 2017/11/14 06:15:35.073下午, 590.0, 16.52, 8.77, 7.23, 32.52
525, 2.62, 2017/11/14 06:15:35.078下午, 591.0, 16.52, 8.52, 7.48, 32.52
526, 2.625, 2017/11/14 06:15:35.083下午, 592.0, 16.52, 9.81, 6.19, 32.52
527, 2.63, 2017/11/14 06:15:35.088下午, 565.0, 16.26, 8.26, 5.68, 30.19
528, 2.635, 2017/11/14 06:15:35.093下午, 587.0, 15.74, 8.77, 7.74, 32.26
529, 2.64, 2017/11/14 06:15:35.098下午, 582.0, 16.00, 9.03, 7.23, 32.26
530, 2.645, 2017/11/14 06:15:35.103下午, 592.0, 16.52, 8.77, 7.48, 32.77
531, 2.65, 2017/11/14 06:15:35.108下午, 568.0, 16.52, 8.52, 5.94, 30.97
532, 2.655, 2017/11/14 06:15:35.113下午, 572.0, 16.52, 8.77, 5.68, 30.97
533, 2.66, 2017/11/14 06:15:35.118下午, 587.0, 16.52, 8.77, 7.23, 32.52
534, 2.665, 2017/11/14 06:15:35.123下午, 582.0, 16.52, 9.55, 5.68, 31.74
535, 2.67, 2017/11/14 06:15:35.128下午, 572.0, 16.00, 8.52, 6.45, 30.97
536, 2.675, 2017/11/14 06:15:35.133下午, 582.0, 16.52, 8.52, 6.97, 32.00
537, 2.68, 2017/11/14 06:15:35.138下午, 578.0, 16.00, 8.26, 7.48, 31.74
538, 2.685, 2017/11/14 06:15:35.143下午, 573.0, 16.00, 8.00, 7.48, 31.48
539, 2.69, 2017/11/14 06:15:35.148下午, 599.0, 16.52, 8.77, 7.48, 32.77
540, 2.695, 2017/11/14 06:15:35.153下午, 566.0, 16.52, 8.77, 5.68, 30.97
541, 2.7, 2017/11/14 06:15:35.158下午, 584.0, 16.52, 8.77, 7.23, 32.52
542, 2.705, 2017/11/14 06:15:35.163下午, 583.0, 16.52, 9.81, 5.94, 32.26
543, 2.71, 2017/11/14 06:15:35.168下午, 574.0, 16.26, 8.77, 5.94, 30.97
544, 2.715, 2017/11/14 06:15:35.173下午, 595.0, 16.26, 9.29, 6.97, 32.52
545, 2.72, 2017/11/14 06:15:35.178下午, 583.0, 15.74, 9.03, 6.97, 31.74
546, 2.725, 2017/11/14 06:15:35.183下午, 558.0, 15.74, 8.00, 6.45, 30.19
547, 2.73, 2017/11/14 06:15:35.188下午, 578.0, 15.74, 8.77, 6.97, 31.48
548, 2.735, 2017/11/14 06:15:35.193下午, 585.0, 16.26, 8.26, 7.48, 32.00
549, 2.74, 2017/11/14 06:15:35.198下午, 587.0, 16.52, 8.77, 7.23, 32.52
550, 2.745, 2017/11/14 06:15:35.203下午, 588.0, 16.52, 9.81, 6.19, 32.52
551, 2.75, 2017/11/14 06:15:35.208下午, 565.0, 16.26, 8.52, 5.68, 30.45
552, 2.755, 2017/11/14 06:15:35.213下午, 568.0, 16.00, 8.00, 6.97, 30.97
553, 2.76, 2017/11/14 06:15:35.218下午, 576.0, 16.00, 7.74, 8.00, 31.74
554, 2.765, 2017/11/14 06:15:35.223下午, 587.0, 16.52, 8.77, 7.23, 32.52
555, 2.77, 2017/11/14 06:15:35.228下午, 571.0, 16.52, 8.77, 5.68, 30.97
556, 2.775, 2017/11/14 06:15:35.233下午, 596.0, 16.52, 8.77, 8.00, 33.29
557, 2.78, 2017/11/14 06:15:35.238下午, 590.0, 16.52, 9.55, 5.94, 32.00
558, 2.785, 2017/11/14 06:15:35.243下午, 573.0, 16.52, 8.52, 5.94, 30.97
559, 2.79, 2017/11/14 06:15:35.248下午, 584.0, 16.52, 9.29, 5.94, 31.74
560, 2.795, 2017/11/14 06:15:35.253下午, 583.0, 16.52, 9.29, 6.19, 32.00
561, 2.8, 2017/11/14 06:15:35.258下午, 586.0, 16.52, 9.55, 5.94, 32.00
562, 2.805, 2017/11/14 06:15:35.263下午, 580.0, 16.52, 9.29, 6.19, 32.00
563, 2.81, 2017/11/14 06:15:35.268下午, 576.0, 16.26, 9.29, 5.94, 31.48
564, 2.815, 2017/11/14 06:15:35.273下午, 586.0, 16.00, 8.77, 7.23, 32.00
565, 2.82, 2017/11/14 06:15:35.278下午, 578.0, 15.74, 8.52, 7.48, 31.74
566, 2.825, 2017/11/14 06:15:35.283下午, 569.0, 15.74, 8.00, 6.97, 30.71
567, 2.83, 2017/11/14 06:15:35.288下午, 563.0, 15.74, 8.77, 5.68, 30.19
568, 2.835, 2017/11/14 06:15:35.293下午, 593.0, 16.26, 8.77, 7.48, 32.52
569, 2.84, 2017/11/14 06:15:35.298下午, 570.0, 16.77, 8.52, 5.68, 30.97
570, 2.845, 2017/11/14 06:15:35.303下午, 586.0, 16.52, 9.29, 5.94, 31.74
571, 2.85, 2017/11/14 06:15:35.308下午, 593.0, 16.52, 9.81, 5.94, 32.26
572, 2.855, 2017/11/14 06:15:35.313下午, 579.0, 16.26, 9.03, 5.68, 30.97
573, 2.86, 2017/11/14 06:15:35.318下午, 587.0, 16.26, 9.03, 7.48, 32.77
574, 2.865, 2017/11/14 06:15:35.323下午, 589.0, 16.52, 8.77, 6.97, 32.26
575, 2.87, 2017/11/14 06:15:35.328下午, 595.0, 16.26, 8.52, 8.00, 32.77
576, 2.875, 2017/11/14 06:15:35.333下午, 573.0, 16.26, 8.00, 6.97, 31.23
577, 2.88, 2017/11/14 06:15:35.338下午, 585.0, 16.52, 8.77, 6.97, 32.26
578, 2.885, 2017/11/14 06:15:35.343下午, 590.0, 16.52, 8.77, 6.97, 32.26
579, 2.89, 2017/11/14 06:15:35.348下午, 601.0, 16.52, 8.77, 8.00, 33.29
580, 2.895, 2017/11/14 06:15:35.353下午, 588.0, 16.52, 8.26, 7.48, 32.26
581, 2.9, 2017/11/14 06:15:35.358下午, 581.0, 16.52, 9.29, 5.94, 31.74
582, 2.905, 2017/11/14 06:15:35.363下午, 576.0, 16.52, 8.77, 5.68, 30.97
583, 2.91, 2017/11/14 06:15:35.368下午, 583.0, 16.52, 9.55, 5.94, 32.00
584, 2.915, 2017/11/14 06:15:35.373下午, 579.0, 16.52, 9.29, 5.42, 31.23
585, 2.92, 2017/11/14 06:15:35.378下午, 570.0, 16.26, 8.52, 5.68, 30.45
586, 2.925, 2017/11/14 06:15:35.383下午, 584.0, 16.00, 8.52, 7.23, 31.74
587, 2.93, 2017/11/14 06:15:35.388下午, 585.0, 16.00, 8.52, 7.48, 32.00
588, 2.935, 2017/11/14 06:15:35.393下午, 581.0, 16.26, 7.74, 7.48, 31.48
589, 2.94, 2017/11/14 06:15:35.398下午, 580.0, 16.26, 8.26, 7.48, 32.00
590, 2.945, 2017/11/14 06:15:35.403下午, 605.0, 16.52, 9.03, 8.26, 33.81
591, 2.95, 2017/11/14 06:15:35.408下午, 584.0, 16.52, 9.29, 5.94, 31.74
592, 2.955, 2017/11/14 06:15:35.413下午, 581.0, 16.52, 9.03, 6.19, 31.74
593, 2.96, 2017/11/14 06:15:35.418下午, 583.0, 16.52, 9.03, 6.19, 31.74
594, 2.965, 2017/11/14 06:15:35.423下午, 586.0, 16.52, 9.55, 5.68, 31.74
595, 2.97, 2017/11/14 06:15:35.428下午, 557.0, 16.26, 8.00, 5.68, 29.94
596, 2.975, 2017/11/14 06:15:35.433下午, 583.0, 16.00, 8.52, 7.23, 31.74
597, 2.98, 2017/11/14 06:15:35.438下午, 580.0, 16.52, 8.00, 7.23, 31.74
598, 2.985, 2017/11/14 06:15:35.443下午, 599.0, 16.52, 8.77, 8.00, 33.29
599, 2.99, 2017/11/14 06:15:35.448下午, 592.0, 16.52, 8.77, 7.48, 32.77
600, 2.995, 2017/11/14 06:15:35.453下午, 572.0, 16.52, 8.77, 5.68, 30.97
@@
