DATA_TYPE Graph
VERSION Tekscan Pressure Measurement System 6.70-03
HARDWARE 00114-3447
MAP_VERSION 6.5
HW_TYPE 4
VersaPogoFsx 0
FILENAME C:\Users\User\Desktop\Subject01\plantar pressure\EVA_STAND_RIGHT_SUPPORT_2.fsx
SENSOR_TYPE FSCAN
ROWS 60
COLS 21
ROW_SPACING 0.508 centimeters
COL_SPACING 0.508 centimeters
SENSEL_AREA 0.258064 cm2
NOISE_THRESHOLD 3
SECONDS_PER_FRAME 0.005
SECONDS_PER_FRAME 0
MICRO_SECOND 0
TIME 2017/11/14 06:17:05.372下午
SATURATION_PRESSURE 2514.18 KPa 
CALIBRATION_POINT_1 59.0001 (Kilograms) 2274 (Raw Sum) 286 (Number of Loaded Cells)
CALIBRATION_MODE_1 Step
CALIBRATION_INFO C:\Users\User\Desktop\Subject01\plantar pressure\EVA_STAND_RIGHT_SUPPORT_2.fsx
SENSITIVITY Custom
MAP_INDEX 0
SUBMAP 0
Patient ID: 

Speed of Gait: 

Weight: 

Gender: 

Physician: 

Technician: 

Shoe: 

START_FRAME 1
END_FRAME 600
UNITS KPa
ASCII_DATA @@
Frames(X), Time(X), Absolute Time(X), Raw Sum, Pressure(Y:blue), Pressure(Y), Pressure(Y), Pressure(Y)
1, 0, 2017/11/14 06:17:05.372下午, 314.0, 0, 40, 36, 37
2, 0.005, 2017/11/14 06:17:05.377下午, 289.0, 0, 41, 38, 39
3, 0.01, 2017/11/14 06:17:05.382下午, 298.0, 0, 42, 36, 38
4, 0.015, 2017/11/14 06:17:05.387下午, 305.0, 0, 42, 36, 38
5, 0.02, 2017/11/14 06:17:05.392下午, 304.0, 0, 41, 37, 38
6, 0.025, 2017/11/14 06:17:05.397下午, 296.0, 0, 42, 38, 40
7, 0.03, 2017/11/14 06:17:05.402下午, 305.0, 0, 42, 37, 38
8, 0.035, 2017/11/14 06:17:05.407下午, 307.0, 0, 41, 38, 39
9, 0.04, 2017/11/14 06:17:05.412下午, 302.0, 0, 41, 37, 38
10, 0.045, 2017/11/14 06:17:05.417下午, 315.0, 0, 41, 37, 38
11, 0.05, 2017/11/14 06:17:05.422下午, 302.0, 0, 41, 36, 38
12, 0.055, 2017/11/14 06:17:05.427下午, 291.0, 0, 42, 38, 39
13, 0.06, 2017/11/14 06:17:05.432下午, 326.0, 0, 41, 36, 38
14, 0.065, 2017/11/14 06:17:05.437下午, 294.0, 0, 42, 37, 39
15, 0.07, 2017/11/14 06:17:05.442下午, 300.0, 0, 40, 37, 38
16, 0.075, 2017/11/14 06:17:05.447下午, 300.0, 0, 41, 38, 39
17, 0.08, 2017/11/14 06:17:05.452下午, 315.0, 0, 41, 37, 38
18, 0.085, 2017/11/14 06:17:05.457下午, 298.0, 0, 40, 38, 39
19, 0.09, 2017/11/14 06:17:05.462下午, 306.0, 0, 40, 37, 38
20, 0.095, 2017/11/14 06:17:05.467下午, 320.0, 0, 39, 37, 38
21, 0.1, 2017/11/14 06:17:05.472下午, 300.0, 0, 40, 38, 39
22, 0.105, 2017/11/14 06:17:05.477下午, 326.0, 0, 40, 36, 38
23, 0.11, 2017/11/14 06:17:05.482下午, 302.0, 0, 41, 37, 38
24, 0.115, 2017/11/14 06:17:05.487下午, 306.0, 0, 41, 39, 39
25, 0.12, 2017/11/14 06:17:05.492下午, 306.0, 0, 41, 36, 38
26, 0.125, 2017/11/14 06:17:05.497下午, 297.0, 0, 42, 38, 39
27, 0.13, 2017/11/14 06:17:05.502下午, 308.0, 0, 39, 37, 38
28, 0.135, 2017/11/14 06:17:05.507下午, 294.0, 0, 40, 38, 39
29, 0.14, 2017/11/14 06:17:05.512下午, 319.0, 0, 40, 37, 38
30, 0.145, 2017/11/14 06:17:05.517下午, 295.0, 0, 40, 37, 38
31, 0.15, 2017/11/14 06:17:05.522下午, 292.0, 0, 40, 38, 38
32, 0.155, 2017/11/14 06:17:05.527下午, 306.0, 0, 40, 37, 38
33, 0.16, 2017/11/14 06:17:05.532下午, 311.0, 0, 40, 37, 38
34, 0.165, 2017/11/14 06:17:05.537下午, 299.0, 0, 40, 38, 39
35, 0.17, 2017/11/14 06:17:05.542下午, 312.0, 0, 41, 37, 38
36, 0.175, 2017/11/14 06:17:05.547下午, 309.0, 0, 41, 37, 38
37, 0.18, 2017/11/14 06:17:05.552下午, 301.0, 0, 40, 37, 38
38, 0.185, 2017/11/14 06:17:05.557下午, 296.0, 0, 40, 39, 39
39, 0.19, 2017/11/14 06:17:05.562下午, 326.0, 0, 40, 37, 38
40, 0.195, 2017/11/14 06:17:05.567下午, 310.0, 0, 41, 37, 39
41, 0.2, 2017/11/14 06:17:05.572下午, 297.0, 0, 41, 38, 39
42, 0.205, 2017/11/14 06:17:05.577下午, 306.0, 0, 41, 37, 38
43, 0.21, 2017/11/14 06:17:05.582下午, 318.0, 0, 39, 37, 38
44, 0.215, 2017/11/14 06:17:05.587下午, 304.0, 0, 40, 37, 38
45, 0.22, 2017/11/14 06:17:05.592下午, 306.0, 0, 41, 37, 38
46, 0.225, 2017/11/14 06:17:05.597下午, 302.0, 0, 40, 36, 37
47, 0.23, 2017/11/14 06:17:05.602下午, 298.0, 0, 40, 37, 38
48, 0.235, 2017/11/14 06:17:05.607下午, 318.0, 0, 40, 37, 38
49, 0.24, 2017/11/14 06:17:05.612下午, 291.0, 0, 40, 37, 38
50, 0.245, 2017/11/14 06:17:05.617下午, 314.0, 0, 42, 37, 38
51, 0.25, 2017/11/14 06:17:05.622下午, 322.0, 0, 40, 37, 38
52, 0.255, 2017/11/14 06:17:05.627下午, 301.0, 0, 40, 36, 38
53, 0.26, 2017/11/14 06:17:05.632下午, 301.0, 0, 40, 38, 39
54, 0.265, 2017/11/14 06:17:05.637下午, 310.0, 0, 40, 37, 38
55, 0.27, 2017/11/14 06:17:05.642下午, 316.0, 0, 41, 36, 38
56, 0.275, 2017/11/14 06:17:05.647下午, 300.0, 0, 40, 37, 39
57, 0.28, 2017/11/14 06:17:05.652下午, 299.0, 0, 43, 36, 38
58, 0.285, 2017/11/14 06:17:05.657下午, 302.0, 0, 41, 36, 38
59, 0.29, 2017/11/14 06:17:05.662下午, 293.0, 0, 41, 38, 39
60, 0.295, 2017/11/14 06:17:05.667下午, 324.0, 0, 39, 36, 37
61, 0.3, 2017/11/14 06:17:05.672下午, 305.0, 0, 41, 36, 38
62, 0.305, 2017/11/14 06:17:05.677下午, 301.0, 0, 42, 38, 39
63, 0.31, 2017/11/14 06:17:05.682下午, 312.0, 0, 41, 37, 38
64, 0.315, 2017/11/14 06:17:05.687下午, 300.0, 0, 40, 38, 39
65, 0.32, 2017/11/14 06:17:05.692下午, 316.0, 0, 40, 37, 38
66, 0.325, 2017/11/14 06:17:05.697下午, 308.0, 0, 40, 37, 38
67, 0.33, 2017/11/14 06:17:05.702下午, 299.0, 0, 41, 37, 38
68, 0.335, 2017/11/14 06:17:05.707下午, 299.0, 0, 40, 38, 39
69, 0.34, 2017/11/14 06:17:05.712下午, 326.0, 0, 40, 37, 38
70, 0.345, 2017/11/14 06:17:05.717下午, 322.0, 0, 41, 36, 38
71, 0.35, 2017/11/14 06:17:05.722下午, 291.0, 0, 40, 39, 39
72, 0.355, 2017/11/14 06:17:05.727下午, 284.0, 0, 40, 39, 39
73, 0.36, 2017/11/14 06:17:05.732下午, 312.0, 0, 40, 36, 38
74, 0.365, 2017/11/14 06:17:05.737下午, 297.0, 0, 41, 36, 38
75, 0.37, 2017/11/14 06:17:05.742下午, 286.0, 0, 40, 38, 39
76, 0.375, 2017/11/14 06:17:05.747下午, 308.0, 0, 41, 37, 38
77, 0.38, 2017/11/14 06:17:05.752下午, 315.0, 0, 40, 37, 38
78, 0.385, 2017/11/14 06:17:05.757下午, 304.0, 0, 40, 37, 38
79, 0.39, 2017/11/14 06:17:05.762下午, 309.0, 0, 40, 36, 38
80, 0.395, 2017/11/14 06:17:05.767下午, 305.0, 0, 40, 37, 38
81, 0.4, 2017/11/14 06:17:05.772下午, 299.0, 0, 40, 38, 39
82, 0.405, 2017/11/14 06:17:05.777下午, 305.0, 0, 41, 37, 38
83, 0.41, 2017/11/14 06:17:05.782下午, 300.0, 0, 42, 36, 38
84, 0.415, 2017/11/14 06:17:05.787下午, 294.0, 0, 40, 38, 39
85, 0.42, 2017/11/14 06:17:05.792下午, 317.0, 0, 40, 36, 37
86, 0.425, 2017/11/14 06:17:05.797下午, 301.0, 0, 40, 36, 38
87, 0.43, 2017/11/14 06:17:05.802下午, 312.0, 0, 41, 37, 38
88, 0.435, 2017/11/14 06:17:05.807下午, 319.0, 0, 42, 37, 38
89, 0.44, 2017/11/14 06:17:05.812下午, 319.0, 0, 40, 36, 37
90, 0.445, 2017/11/14 06:17:05.817下午, 315.0, 0, 40, 36, 37
91, 0.45, 2017/11/14 06:17:05.822下午, 317.0, 0, 40, 36, 38
92, 0.455, 2017/11/14 06:17:05.827下午, 300.0, 0, 41, 37, 38
93, 0.46, 2017/11/14 06:17:05.832下午, 305.0, 0, 40, 36, 37
94, 0.465, 2017/11/14 06:17:05.837下午, 311.0, 0, 40, 36, 37
95, 0.47, 2017/11/14 06:17:05.842下午, 293.0, 0, 41, 37, 38
96, 0.475, 2017/11/14 06:17:05.847下午, 318.0, 0, 40, 37, 38
97, 0.48, 2017/11/14 06:17:05.852下午, 302.0, 0, 42, 36, 38
98, 0.485, 2017/11/14 06:17:05.857下午, 300.0, 0, 40, 37, 38
99, 0.49, 2017/11/14 06:17:05.862下午, 307.0, 0, 40, 36, 37
100, 0.495, 2017/11/14 06:17:05.867下午, 308.0, 0, 42, 36, 38
101, 0.5, 2017/11/14 06:17:05.872下午, 309.0, 0, 40, 38, 39
102, 0.505, 2017/11/14 06:17:05.877下午, 306.0, 0, 41, 37, 39
103, 0.51, 2017/11/14 06:17:05.882下午, 317.0, 0, 41, 37, 39
104, 0.515, 2017/11/14 06:17:05.887下午, 297.0, 0, 40, 38, 39
105, 0.52, 2017/11/14 06:17:05.892下午, 312.0, 0, 41, 36, 38
106, 0.525, 2017/11/14 06:17:05.897下午, 320.0, 0, 41, 37, 38
107, 0.53, 2017/11/14 06:17:05.902下午, 314.0, 0, 40, 36, 37
108, 0.535, 2017/11/14 06:17:05.907下午, 303.0, 0, 41, 38, 39
109, 0.54, 2017/11/14 06:17:05.912下午, 312.0, 0, 40, 36, 38
110, 0.545, 2017/11/14 06:17:05.917下午, 306.0, 0, 40, 37, 38
111, 0.55, 2017/11/14 06:17:05.922下午, 302.0, 0, 39, 37, 38
112, 0.555, 2017/11/14 06:17:05.927下午, 310.0, 0, 41, 37, 39
113, 0.56, 2017/11/14 06:17:05.932下午, 302.0, 0, 42, 36, 38
114, 0.565, 2017/11/14 06:17:05.937下午, 322.0, 0, 39, 36, 37
115, 0.57, 2017/11/14 06:17:05.942下午, 305.0, 0, 41, 37, 38
116, 0.575, 2017/11/14 06:17:05.947下午, 312.0, 0, 41, 36, 38
117, 0.58, 2017/11/14 06:17:05.952下午, 326.0, 0, 41, 36, 38
118, 0.585, 2017/11/14 06:17:05.957下午, 302.0, 0, 40, 38, 38
119, 0.59, 2017/11/14 06:17:05.962下午, 313.0, 0, 40, 36, 37
120, 0.595, 2017/11/14 06:17:05.967下午, 320.0, 0, 40, 37, 38
121, 0.6, 2017/11/14 06:17:05.972下午, 309.0, 0, 41, 36, 38
122, 0.605, 2017/11/14 06:17:05.977下午, 308.0, 0, 40, 38, 38
123, 0.61, 2017/11/14 06:17:05.982下午, 324.0, 0, 39, 36, 37
124, 0.615, 2017/11/14 06:17:05.987下午, 313.0, 0, 40, 37, 38
125, 0.62, 2017/11/14 06:17:05.992下午, 309.0, 0, 40, 37, 38
126, 0.625, 2017/11/14 06:17:05.997下午, 311.0, 0, 41, 37, 38
127, 0.63, 2017/11/14 06:17:06.002下午, 300.0, 0, 41, 37, 38
128, 0.635, 2017/11/14 06:17:06.007下午, 303.0, 0, 40, 36, 38
129, 0.64, 2017/11/14 06:17:06.012下午, 288.0, 0, 41, 38, 39
130, 0.645, 2017/11/14 06:17:06.017下午, 330.0, 0, 41, 37, 38
131, 0.65, 2017/11/14 06:17:06.022下午, 302.0, 0, 40, 36, 37
132, 0.655, 2017/11/14 06:17:06.027下午, 306.0, 0, 40, 36, 38
133, 0.66, 2017/11/14 06:17:06.032下午, 293.0, 0, 40, 38, 39
134, 0.665, 2017/11/14 06:17:06.037下午, 318.0, 0, 41, 36, 38
135, 0.67, 2017/11/14 06:17:06.042下午, 313.0, 0, 41, 36, 38
136, 0.675, 2017/11/14 06:17:06.047下午, 311.0, 0, 39, 37, 38
137, 0.68, 2017/11/14 06:17:06.052下午, 305.0, 0, 40, 38, 39
138, 0.685, 2017/11/14 06:17:06.057下午, 316.0, 0, 39, 37, 38
139, 0.69, 2017/11/14 06:17:06.062下午, 328.0, 0, 40, 36, 38
140, 0.695, 2017/11/14 06:17:06.067下午, 318.0, 0, 40, 37, 38
141, 0.7, 2017/11/14 06:17:06.072下午, 323.0, 0, 41, 37, 38
142, 0.705, 2017/11/14 06:17:06.077下午, 318.0, 0, 42, 36, 38
143, 0.71, 2017/11/14 06:17:06.082下午, 298.0, 0, 41, 37, 38
144, 0.715, 2017/11/14 06:17:06.087下午, 306.0, 0, 40, 37, 38
145, 0.72, 2017/11/14 06:17:06.092下午, 307.0, 0, 40, 36, 38
146, 0.725, 2017/11/14 06:17:06.097下午, 317.0, 0, 40, 36, 38
147, 0.73, 2017/11/14 06:17:06.102下午, 307.0, 0, 40, 38, 39
148, 0.735, 2017/11/14 06:17:06.107下午, 305.0, 0, 41, 37, 38
149, 0.74, 2017/11/14 06:17:06.112下午, 309.0, 0, 42, 38, 39
150, 0.745, 2017/11/14 06:17:06.117下午, 313.0, 0, 40, 37, 38
151, 0.75, 2017/11/14 06:17:06.122下午, 305.0, 0, 40, 37, 38
152, 0.755, 2017/11/14 06:17:06.127下午, 314.0, 0, 40, 36, 37
153, 0.76, 2017/11/14 06:17:06.132下午, 331.0, 0, 40, 36, 37
154, 0.765, 2017/11/14 06:17:06.137下午, 323.0, 0, 40, 36, 38
155, 0.77, 2017/11/14 06:17:06.142下午, 298.0, 0, 40, 37, 38
156, 0.775, 2017/11/14 06:17:06.147下午, 329.0, 0, 40, 36, 38
157, 0.78, 2017/11/14 06:17:06.152下午, 324.0, 0, 39, 36, 37
158, 0.785, 2017/11/14 06:17:06.157下午, 306.0, 0, 39, 38, 38
159, 0.79, 2017/11/14 06:17:06.162下午, 305.0, 0, 41, 37, 38
160, 0.795, 2017/11/14 06:17:06.167下午, 322.0, 0, 41, 36, 38
161, 0.8, 2017/11/14 06:17:06.172下午, 315.0, 0, 39, 36, 37
162, 0.805, 2017/11/14 06:17:06.177下午, 305.0, 0, 40, 38, 39
163, 0.81, 2017/11/14 06:17:06.182下午, 319.0, 0, 40, 36, 37
164, 0.815, 2017/11/14 06:17:06.187下午, 322.0, 0, 40, 36, 37
165, 0.82, 2017/11/14 06:17:06.192下午, 301.0, 0, 40, 38, 39
166, 0.825, 2017/11/14 06:17:06.197下午, 316.0, 0, 40, 37, 38
167, 0.83, 2017/11/14 06:17:06.202下午, 309.0, 0, 40, 36, 37
168, 0.835, 2017/11/14 06:17:06.207下午, 304.0, 0, 40, 36, 38
169, 0.84, 2017/11/14 06:17:06.212下午, 304.0, 0, 41, 37, 38
170, 0.845, 2017/11/14 06:17:06.217下午, 315.0, 0, 40, 37, 38
171, 0.85, 2017/11/14 06:17:06.222下午, 314.0, 0, 39, 38, 38
172, 0.855, 2017/11/14 06:17:06.227下午, 299.0, 0, 40, 38, 39
173, 0.86, 2017/11/14 06:17:06.232下午, 319.0, 0, 40, 36, 38
174, 0.865, 2017/11/14 06:17:06.237下午, 313.0, 0, 39, 36, 37
175, 0.87, 2017/11/14 06:17:06.242下午, 314.0, 0, 39, 38, 38
176, 0.875, 2017/11/14 06:17:06.247下午, 311.0, 0, 41, 37, 39
177, 0.88, 2017/11/14 06:17:06.252下午, 303.0, 0, 41, 36, 38
178, 0.885, 2017/11/14 06:17:06.257下午, 301.0, 0, 40, 36, 37
179, 0.89, 2017/11/14 06:17:06.262下午, 312.0, 0, 40, 37, 38
180, 0.895, 2017/11/14 06:17:06.267下午, 315.0, 0, 40, 37, 38
181, 0.9, 2017/11/14 06:17:06.272下午, 316.0, 0, 41, 37, 38
182, 0.905, 2017/11/14 06:17:06.277下午, 303.0, 0, 40, 37, 38
183, 0.91, 2017/11/14 06:17:06.282下午, 311.0, 0, 39, 36, 37
184, 0.915, 2017/11/14 06:17:06.287下午, 306.0, 0, 40, 37, 38
185, 0.92, 2017/11/14 06:17:06.292下午, 309.0, 0, 40, 38, 39
186, 0.925, 2017/11/14 06:17:06.297下午, 316.0, 0, 40, 36, 38
187, 0.93, 2017/11/14 06:17:06.302下午, 314.0, 0, 39, 36, 37
188, 0.935, 2017/11/14 06:17:06.307下午, 311.0, 0, 40, 36, 38
189, 0.94, 2017/11/14 06:17:06.312下午, 309.0, 0, 40, 36, 37
190, 0.945, 2017/11/14 06:17:06.317下午, 314.0, 0, 40, 37, 38
191, 0.95, 2017/11/14 06:17:06.322下午, 304.0, 0, 40, 38, 39
192, 0.955, 2017/11/14 06:17:06.327下午, 321.0, 0, 40, 36, 38
193, 0.96, 2017/11/14 06:17:06.332下午, 302.0, 0, 41, 36, 38
194, 0.965, 2017/11/14 06:17:06.337下午, 316.0, 0, 40, 38, 38
195, 0.97, 2017/11/14 06:17:06.342下午, 322.0, 0, 41, 36, 38
196, 0.975, 2017/11/14 06:17:06.347下午, 319.0, 0, 39, 36, 37
197, 0.98, 2017/11/14 06:17:06.352下午, 317.0, 0, 39, 37, 38
198, 0.985, 2017/11/14 06:17:06.357下午, 297.0, 0, 41, 36, 38
199, 0.99, 2017/11/14 06:17:06.362下午, 314.0, 0, 40, 36, 38
200, 0.995, 2017/11/14 06:17:06.367下午, 298.0, 0, 40, 37, 38
201, 1, 2017/11/14 06:17:06.372下午, 305.0, 0, 41, 37, 38
202, 1.005, 2017/11/14 06:17:06.377下午, 315.0, 0, 41, 37, 38
203, 1.01, 2017/11/14 06:17:06.382下午, 300.0, 0, 41, 38, 39
204, 1.015, 2017/11/14 06:17:06.387下午, 310.0, 0, 39, 36, 37
205, 1.02, 2017/11/14 06:17:06.392下午, 311.0, 0, 40, 36, 38
206, 1.025, 2017/11/14 06:17:06.397下午, 303.0, 0, 40, 38, 38
207, 1.03, 2017/11/14 06:17:06.402下午, 316.0, 0, 41, 36, 38
208, 1.035, 2017/11/14 06:17:06.407下午, 301.0, 0, 40, 36, 38
209, 1.04, 2017/11/14 06:17:06.412下午, 312.0, 0, 41, 37, 38
210, 1.045, 2017/11/14 06:17:06.417下午, 317.0, 0, 40, 37, 38
211, 1.05, 2017/11/14 06:17:06.422下午, 296.0, 0, 40, 36, 38
212, 1.055, 2017/11/14 06:17:06.427下午, 297.0, 0, 40, 38, 39
213, 1.06, 2017/11/14 06:17:06.432下午, 311.0, 0, 40, 36, 38
214, 1.065, 2017/11/14 06:17:06.437下午, 310.0, 0, 39, 36, 37
215, 1.07, 2017/11/14 06:17:06.442下午, 309.0, 0, 40, 37, 38
216, 1.075, 2017/11/14 06:17:06.447下午, 309.0, 0, 40, 37, 38
217, 1.08, 2017/11/14 06:17:06.452下午, 312.0, 0, 40, 36, 37
218, 1.085, 2017/11/14 06:17:06.457下午, 300.0, 0, 41, 37, 38
219, 1.09, 2017/11/14 06:17:06.462下午, 322.0, 0, 40, 36, 38
220, 1.095, 2017/11/14 06:17:06.467下午, 320.0, 0, 39, 37, 38
221, 1.1, 2017/11/14 06:17:06.472下午, 294.0, 0, 40, 37, 38
222, 1.105, 2017/11/14 06:17:06.477下午, 306.0, 0, 40, 36, 37
223, 1.11, 2017/11/14 06:17:06.482下午, 318.0, 0, 40, 36, 37
224, 1.115, 2017/11/14 06:17:06.487下午, 297.0, 0, 40, 37, 38
225, 1.12, 2017/11/14 06:17:06.492下午, 300.0, 0, 40, 37, 38
226, 1.125, 2017/11/14 06:17:06.497下午, 318.0, 0, 42, 36, 38
227, 1.13, 2017/11/14 06:17:06.502下午, 299.0, 0, 40, 37, 38
228, 1.135, 2017/11/14 06:17:06.507下午, 299.0, 0, 41, 36, 38
229, 1.14, 2017/11/14 06:17:06.512下午, 321.0, 0, 41, 36, 38
230, 1.145, 2017/11/14 06:17:06.517下午, 302.0, 0, 40, 36, 38
231, 1.15, 2017/11/14 06:17:06.522下午, 308.0, 0, 40, 37, 38
232, 1.155, 2017/11/14 06:17:06.527下午, 308.0, 0, 41, 38, 39
233, 1.16, 2017/11/14 06:17:06.532下午, 304.0, 0, 40, 36, 37
234, 1.165, 2017/11/14 06:17:06.537下午, 304.0, 0, 41, 37, 38
235, 1.17, 2017/11/14 06:17:06.542下午, 313.0, 0, 40, 36, 38
236, 1.175, 2017/11/14 06:17:06.547下午, 318.0, 0, 39, 36, 37
237, 1.18, 2017/11/14 06:17:06.552下午, 297.0, 0, 40, 38, 38
238, 1.185, 2017/11/14 06:17:06.557下午, 306.0, 0, 40, 36, 38
239, 1.19, 2017/11/14 06:17:06.562下午, 305.0, 0, 40, 36, 37
240, 1.195, 2017/11/14 06:17:06.567下午, 311.0, 0, 39, 36, 37
241, 1.2, 2017/11/14 06:17:06.572下午, 307.0, 0, 40, 37, 38
242, 1.205, 2017/11/14 06:17:06.577下午, 320.0, 0, 40, 36, 37
243, 1.21, 2017/11/14 06:17:06.582下午, 300.0, 0, 40, 37, 38
244, 1.215, 2017/11/14 06:17:06.587下午, 299.0, 0, 41, 36, 38
245, 1.22, 2017/11/14 06:17:06.592下午, 325.0, 0, 39, 37, 38
246, 1.225, 2017/11/14 06:17:06.597下午, 312.0, 0, 40, 36, 37
247, 1.23, 2017/11/14 06:17:06.602下午, 297.0, 0, 41, 38, 39
248, 1.235, 2017/11/14 06:17:06.607下午, 303.0, 0, 40, 36, 37
249, 1.24, 2017/11/14 06:17:06.612下午, 319.0, 0, 39, 36, 37
250, 1.245, 2017/11/14 06:17:06.617下午, 306.0, 0, 39, 38, 38
251, 1.25, 2017/11/14 06:17:06.622下午, 306.0, 0, 40, 36, 38
252, 1.255, 2017/11/14 06:17:06.627下午, 312.0, 0, 40, 36, 37
253, 1.26, 2017/11/14 06:17:06.632下午, 288.0, 0, 40, 38, 38
254, 1.265, 2017/11/14 06:17:06.637下午, 308.0, 0, 41, 36, 38
255, 1.27, 2017/11/14 06:17:06.642下午, 311.0, 0, 40, 36, 38
256, 1.275, 2017/11/14 06:17:06.647下午, 313.0, 0, 40, 36, 37
257, 1.28, 2017/11/14 06:17:06.652下午, 302.0, 0, 41, 38, 39
258, 1.285, 2017/11/14 06:17:06.657下午, 300.0, 0, 41, 37, 38
259, 1.29, 2017/11/14 06:17:06.662下午, 313.0, 0, 41, 36, 38
260, 1.295, 2017/11/14 06:17:06.667下午, 312.0, 0, 40, 36, 37
261, 1.3, 2017/11/14 06:17:06.672下午, 303.0, 0, 40, 37, 38
262, 1.305, 2017/11/14 06:17:06.677下午, 312.0, 0, 41, 36, 38
263, 1.31, 2017/11/14 06:17:06.682下午, 294.0, 0, 40, 36, 38
264, 1.315, 2017/11/14 06:17:06.687下午, 301.0, 0, 41, 38, 39
265, 1.32, 2017/11/14 06:17:06.692下午, 315.0, 0, 40, 36, 37
266, 1.325, 2017/11/14 06:17:06.697下午, 303.0, 0, 40, 36, 38
267, 1.33, 2017/11/14 06:17:06.702下午, 287.0, 0, 40, 37, 38
268, 1.335, 2017/11/14 06:17:06.707下午, 308.0, 0, 40, 37, 38
269, 1.34, 2017/11/14 06:17:06.712下午, 298.0, 0, 41, 37, 38
270, 1.345, 2017/11/14 06:17:06.717下午, 293.0, 0, 40, 38, 39
271, 1.35, 2017/11/14 06:17:06.722下午, 305.0, 0, 40, 36, 38
272, 1.355, 2017/11/14 06:17:06.727下午, 298.0, 0, 41, 37, 38
273, 1.36, 2017/11/14 06:17:06.732下午, 290.0, 0, 40, 38, 39
274, 1.365, 2017/11/14 06:17:06.737下午, 309.0, 0, 40, 37, 38
275, 1.37, 2017/11/14 06:17:06.742下午, 320.0, 0, 40, 37, 38
276, 1.375, 2017/11/14 06:17:06.747下午, 289.0, 0, 40, 38, 39
277, 1.38, 2017/11/14 06:17:06.752下午, 316.0, 0, 39, 36, 37
278, 1.385, 2017/11/14 06:17:06.757下午, 315.0, 0, 39, 36, 37
279, 1.39, 2017/11/14 06:17:06.762下午, 306.0, 0, 40, 36, 38
280, 1.395, 2017/11/14 06:17:06.767下午, 307.0, 0, 39, 37, 38
281, 1.4, 2017/11/14 06:17:06.772下午, 285.0, 0, 40, 37, 38
282, 1.405, 2017/11/14 06:17:06.777下午, 305.0, 0, 40, 36, 38
283, 1.41, 2017/11/14 06:17:06.782下午, 313.0, 0, 41, 36, 38
284, 1.415, 2017/11/14 06:17:06.787下午, 298.0, 0, 39, 37, 38
285, 1.42, 2017/11/14 06:17:06.792下午, 295.0, 0, 40, 36, 37
286, 1.425, 2017/11/14 06:17:06.797下午, 301.0, 0, 40, 36, 38
287, 1.43, 2017/11/14 06:17:06.802下午, 308.0, 0, 41, 37, 38
288, 1.435, 2017/11/14 06:17:06.807下午, 300.0, 0, 42, 38, 39
289, 1.44, 2017/11/14 06:17:06.812下午, 316.0, 0, 39, 36, 37
290, 1.445, 2017/11/14 06:17:06.817下午, 281.0, 0, 40, 38, 39
291, 1.45, 2017/11/14 06:17:06.822下午, 311.0, 0, 40, 36, 37
292, 1.455, 2017/11/14 06:17:06.827下午, 310.0, 0, 39, 37, 38
293, 1.46, 2017/11/14 06:17:06.832下午, 287.0, 0, 40, 38, 38
294, 1.465, 2017/11/14 06:17:06.837下午, 310.0, 0, 42, 36, 38
295, 1.47, 2017/11/14 06:17:06.842下午, 299.0, 0, 40, 36, 37
296, 1.475, 2017/11/14 06:17:06.847下午, 292.0, 0, 41, 37, 38
297, 1.48, 2017/11/14 06:17:06.852下午, 310.0, 0, 39, 37, 38
298, 1.485, 2017/11/14 06:17:06.857下午, 309.0, 0, 40, 37, 38
299, 1.49, 2017/11/14 06:17:06.862下午, 309.0, 0, 41, 37, 38
300, 1.495, 2017/11/14 06:17:06.867下午, 313.0, 0, 39, 36, 37
301, 1.5, 2017/11/14 06:17:06.872下午, 304.0, 0, 40, 37, 38
302, 1.505, 2017/11/14 06:17:06.877下午, 310.0, 0, 40, 37, 38
303, 1.51, 2017/11/14 06:17:06.882下午, 300.0, 0, 39, 38, 38
304, 1.515, 2017/11/14 06:17:06.887下午, 301.0, 0, 40, 37, 38
305, 1.52, 2017/11/14 06:17:06.892下午, 317.0, 0, 40, 37, 38
306, 1.525, 2017/11/14 06:17:06.897下午, 297.0, 0, 41, 38, 39
307, 1.53, 2017/11/14 06:17:06.902下午, 309.0, 0, 40, 36, 37
308, 1.535, 2017/11/14 06:17:06.907下午, 284.0, 0, 40, 38, 38
309, 1.54, 2017/11/14 06:17:06.912下午, 304.0, 0, 41, 36, 38
310, 1.545, 2017/11/14 06:17:06.917下午, 298.0, 0, 40, 37, 38
311, 1.55, 2017/11/14 06:17:06.922下午, 293.0, 0, 40, 38, 39
312, 1.555, 2017/11/14 06:17:06.927下午, 316.0, 0, 40, 36, 37
313, 1.56, 2017/11/14 06:17:06.932下午, 304.0, 0, 39, 37, 38
314, 1.565, 2017/11/14 06:17:06.937下午, 296.0, 0, 40, 37, 38
315, 1.57, 2017/11/14 06:17:06.942下午, 306.0, 0, 40, 36, 38
316, 1.575, 2017/11/14 06:17:06.947下午, 316.0, 0, 41, 37, 39
317, 1.58, 2017/11/14 06:17:06.952下午, 310.0, 0, 40, 36, 38
318, 1.585, 2017/11/14 06:17:06.957下午, 285.0, 0, 41, 37, 38
319, 1.59, 2017/11/14 06:17:06.962下午, 307.0, 0, 41, 37, 38
320, 1.595, 2017/11/14 06:17:06.967下午, 315.0, 0, 40, 36, 38
321, 1.6, 2017/11/14 06:17:06.972下午, 310.0, 0, 39, 36, 38
322, 1.605, 2017/11/14 06:17:06.977下午, 310.0, 0, 41, 36, 38
323, 1.61, 2017/11/14 06:17:06.982下午, 317.0, 0, 40, 36, 37
324, 1.615, 2017/11/14 06:17:06.987下午, 304.0, 0, 41, 37, 38
325, 1.62, 2017/11/14 06:17:06.992下午, 302.0, 0, 40, 37, 38
326, 1.625, 2017/11/14 06:17:06.997下午, 286.0, 0, 40, 38, 39
327, 1.63, 2017/11/14 06:17:07.002下午, 301.0, 0, 40, 36, 38
328, 1.635, 2017/11/14 06:17:07.007下午, 306.0, 0, 40, 37, 38
329, 1.64, 2017/11/14 06:17:07.012下午, 298.0, 0, 40, 37, 38
330, 1.645, 2017/11/14 06:17:07.017下午, 316.0, 0, 39, 36, 37
331, 1.65, 2017/11/14 06:17:07.022下午, 317.0, 0, 40, 36, 37
332, 1.655, 2017/11/14 06:17:07.027下午, 297.0, 0, 40, 37, 38
333, 1.66, 2017/11/14 06:17:07.032下午, 311.0, 0, 40, 36, 38
334, 1.665, 2017/11/14 06:17:07.037下午, 300.0, 0, 40, 36, 38
335, 1.67, 2017/11/14 06:17:07.042下午, 293.0, 0, 40, 38, 39
336, 1.675, 2017/11/14 06:17:07.047下午, 303.0, 0, 40, 37, 38
337, 1.68, 2017/11/14 06:17:07.052下午, 310.0, 0, 41, 36, 38
338, 1.685, 2017/11/14 06:17:07.057下午, 286.0, 0, 40, 38, 39
339, 1.69, 2017/11/14 06:17:07.062下午, 295.0, 0, 41, 36, 38
340, 1.695, 2017/11/14 06:17:07.067下午, 302.0, 0, 40, 38, 39
341, 1.7, 2017/11/14 06:17:07.072下午, 306.0, 0, 40, 37, 38
342, 1.705, 2017/11/14 06:17:07.077下午, 308.0, 0, 40, 36, 38
343, 1.71, 2017/11/14 06:17:07.082下午, 310.0, 0, 39, 38, 38
344, 1.715, 2017/11/14 06:17:07.087下午, 303.0, 0, 41, 36, 38
345, 1.72, 2017/11/14 06:17:07.092下午, 292.0, 0, 41, 37, 38
346, 1.725, 2017/11/14 06:17:07.097下午, 301.0, 0, 40, 38, 39
347, 1.73, 2017/11/14 06:17:07.102下午, 313.0, 0, 41, 36, 38
348, 1.735, 2017/11/14 06:17:07.107下午, 298.0, 0, 40, 37, 38
349, 1.74, 2017/11/14 06:17:07.112下午, 286.0, 0, 40, 38, 39
350, 1.745, 2017/11/14 06:17:07.117下午, 311.0, 0, 40, 36, 38
351, 1.75, 2017/11/14 06:17:07.122下午, 299.0, 0, 42, 37, 38
352, 1.755, 2017/11/14 06:17:07.127下午, 298.0, 0, 40, 38, 38
353, 1.76, 2017/11/14 06:17:07.132下午, 297.0, 0, 40, 37, 38
354, 1.765, 2017/11/14 06:17:07.137下午, 316.0, 0, 40, 36, 37
355, 1.77, 2017/11/14 06:17:07.142下午, 287.0, 0, 40, 39, 39
356, 1.775, 2017/11/14 06:17:07.147下午, 295.0, 0, 41, 36, 38
357, 1.78, 2017/11/14 06:17:07.152下午, 287.0, 0, 40, 38, 39
358, 1.785, 2017/11/14 06:17:07.157下午, 304.0, 0, 41, 36, 38
359, 1.79, 2017/11/14 06:17:07.162下午, 294.0, 0, 41, 36, 38
360, 1.795, 2017/11/14 06:17:07.167下午, 298.0, 0, 40, 38, 39
361, 1.8, 2017/11/14 06:17:07.172下午, 318.0, 0, 39, 36, 37
362, 1.805, 2017/11/14 06:17:07.177下午, 296.0, 0, 40, 36, 38
363, 1.81, 2017/11/14 06:17:07.182下午, 315.0, 0, 39, 37, 38
364, 1.815, 2017/11/14 06:17:07.187下午, 320.0, 0, 39, 36, 37
365, 1.82, 2017/11/14 06:17:07.192下午, 294.0, 0, 40, 38, 38
366, 1.825, 2017/11/14 06:17:07.197下午, 311.0, 0, 41, 37, 39
367, 1.83, 2017/11/14 06:17:07.202下午, 313.0, 0, 41, 37, 38
368, 1.835, 2017/11/14 06:17:07.207下午, 294.0, 0, 40, 38, 39
369, 1.84, 2017/11/14 06:17:07.212下午, 311.0, 0, 40, 36, 38
370, 1.845, 2017/11/14 06:17:07.217下午, 285.0, 0, 40, 38, 39
371, 1.85, 2017/11/14 06:17:07.222下午, 306.0, 0, 41, 36, 38
372, 1.855, 2017/11/14 06:17:07.227下午, 298.0, 0, 41, 36, 38
373, 1.86, 2017/11/14 06:17:07.232下午, 286.0, 0, 41, 38, 39
374, 1.865, 2017/11/14 06:17:07.237下午, 293.0, 0, 41, 36, 38
375, 1.87, 2017/11/14 06:17:07.242下午, 285.0, 0, 40, 38, 39
376, 1.875, 2017/11/14 06:17:07.247下午, 310.0, 0, 41, 36, 38
377, 1.88, 2017/11/14 06:17:07.252下午, 311.0, 0, 40, 35, 37
378, 1.885, 2017/11/14 06:17:07.257下午, 319.0, 0, 39, 36, 37
379, 1.89, 2017/11/14 06:17:07.262下午, 302.0, 0, 40, 36, 38
380, 1.895, 2017/11/14 06:17:07.267下午, 309.0, 0, 41, 37, 38
381, 1.9, 2017/11/14 06:17:07.272下午, 309.0, 0, 41, 36, 38
382, 1.905, 2017/11/14 06:17:07.277下午, 285.0, 0, 40, 38, 39
383, 1.91, 2017/11/14 06:17:07.282下午, 308.0, 0, 41, 36, 38
384, 1.915, 2017/11/14 06:17:07.287下午, 307.0, 0, 39, 36, 37
385, 1.92, 2017/11/14 06:17:07.292下午, 307.0, 0, 41, 37, 38
386, 1.925, 2017/11/14 06:17:07.297下午, 302.0, 0, 40, 36, 38
387, 1.93, 2017/11/14 06:17:07.302下午, 300.0, 0, 40, 37, 38
388, 1.935, 2017/11/14 06:17:07.307下午, 309.0, 0, 40, 36, 38
389, 1.94, 2017/11/14 06:17:07.312下午, 281.0, 0, 40, 38, 39
390, 1.945, 2017/11/14 06:17:07.317下午, 309.0, 0, 40, 36, 37
391, 1.95, 2017/11/14 06:17:07.322下午, 300.0, 0, 40, 38, 38
392, 1.955, 2017/11/14 06:17:07.327下午, 305.0, 0, 40, 36, 38
393, 1.96, 2017/11/14 06:17:07.332下午, 317.0, 0, 40, 36, 37
394, 1.965, 2017/11/14 06:17:07.337下午, 300.0, 0, 41, 38, 39
395, 1.97, 2017/11/14 06:17:07.342下午, 296.0, 0, 41, 36, 38
396, 1.975, 2017/11/14 06:17:07.347下午, 308.0, 0, 39, 38, 39
397, 1.98, 2017/11/14 06:17:07.352下午, 315.0, 0, 41, 37, 38
398, 1.985, 2017/11/14 06:17:07.357下午, 307.0, 0, 40, 37, 38
399, 1.99, 2017/11/14 06:17:07.362下午, 319.0, 0, 40, 36, 38
400, 1.995, 2017/11/14 06:17:07.367下午, 303.0, 0, 40, 37, 38
401, 2, 2017/11/14 06:17:07.372下午, 300.0, 0, 42, 37, 38
402, 2.005, 2017/11/14 06:17:07.377下午, 294.0, 0, 41, 37, 38
403, 2.01, 2017/11/14 06:17:07.382下午, 306.0, 0, 41, 36, 38
404, 2.015, 2017/11/14 06:17:07.387下午, 311.0, 0, 41, 37, 38
405, 2.02, 2017/11/14 06:17:07.392下午, 296.0, 0, 40, 36, 38
406, 2.025, 2017/11/14 06:17:07.397下午, 304.0, 0, 40, 37, 38
407, 2.03, 2017/11/14 06:17:07.402下午, 299.0, 0, 40, 37, 38
408, 2.035, 2017/11/14 06:17:07.407下午, 296.0, 0, 41, 38, 39
409, 2.04, 2017/11/14 06:17:07.412下午, 308.0, 0, 40, 37, 38
410, 2.045, 2017/11/14 06:17:07.417下午, 283.0, 0, 40, 38, 39
411, 2.05, 2017/11/14 06:17:07.422下午, 304.0, 0, 40, 37, 38
412, 2.055, 2017/11/14 06:17:07.427下午, 307.0, 0, 41, 36, 38
413, 2.06, 2017/11/14 06:17:07.432下午, 287.0, 0, 40, 38, 39
414, 2.065, 2017/11/14 06:17:07.437下午, 311.0, 0, 40, 37, 38
415, 2.07, 2017/11/14 06:17:07.442下午, 293.0, 0, 41, 37, 38
416, 2.075, 2017/11/14 06:17:07.447下午, 287.0, 0, 40, 38, 39
417, 2.08, 2017/11/14 06:17:07.452下午, 308.0, 0, 40, 36, 38
418, 2.085, 2017/11/14 06:17:07.457下午, 298.0, 0, 39, 37, 38
419, 2.09, 2017/11/14 06:17:07.462下午, 301.0, 0, 40, 37, 38
420, 2.095, 2017/11/14 06:17:07.467下午, 314.0, 0, 40, 36, 37
421, 2.1, 2017/11/14 06:17:07.472下午, 287.0, 0, 41, 38, 39
422, 2.105, 2017/11/14 06:17:07.477下午, 322.0, 0, 40, 36, 37
423, 2.11, 2017/11/14 06:17:07.482下午, 290.0, 0, 41, 39, 40
424, 2.115, 2017/11/14 06:17:07.487下午, 319.0, 0, 40, 36, 38
425, 2.12, 2017/11/14 06:17:07.492下午, 298.0, 0, 39, 38, 38
426, 2.125, 2017/11/14 06:17:07.497下午, 305.0, 0, 40, 37, 38
427, 2.13, 2017/11/14 06:17:07.502下午, 295.0, 0, 42, 36, 38
428, 2.135, 2017/11/14 06:17:07.507下午, 300.0, 0, 41, 38, 39
429, 2.14, 2017/11/14 06:17:07.512下午, 294.0, 0, 42, 37, 39
430, 2.145, 2017/11/14 06:17:07.517下午, 284.0, 0, 40, 38, 39
431, 2.15, 2017/11/14 06:17:07.522下午, 303.0, 0, 42, 37, 38
432, 2.155, 2017/11/14 06:17:07.527下午, 316.0, 0, 39, 36, 37
433, 2.16, 2017/11/14 06:17:07.532下午, 321.0, 0, 40, 36, 37
434, 2.165, 2017/11/14 06:17:07.537下午, 306.0, 0, 40, 36, 37
435, 2.17, 2017/11/14 06:17:07.542下午, 302.0, 0, 40, 37, 38
436, 2.175, 2017/11/14 06:17:07.547下午, 307.0, 0, 41, 36, 38
437, 2.18, 2017/11/14 06:17:07.552下午, 303.0, 0, 40, 36, 38
438, 2.185, 2017/11/14 06:17:07.557下午, 310.0, 0, 40, 36, 38
439, 2.19, 2017/11/14 06:17:07.562下午, 302.0, 0, 40, 36, 37
440, 2.195, 2017/11/14 06:17:07.567下午, 313.0, 0, 40, 38, 38
441, 2.2, 2017/11/14 06:17:07.572下午, 305.0, 0, 40, 36, 38
442, 2.205, 2017/11/14 06:17:07.577下午, 313.0, 0, 40, 36, 38
443, 2.21, 2017/11/14 06:17:07.582下午, 300.0, 0, 40, 37, 38
444, 2.215, 2017/11/14 06:17:07.587下午, 307.0, 0, 40, 37, 38
445, 2.22, 2017/11/14 06:17:07.592下午, 315.0, 0, 40, 37, 38
446, 2.225, 2017/11/14 06:17:07.597下午, 309.0, 0, 40, 37, 38
447, 2.23, 2017/11/14 06:17:07.602下午, 303.0, 0, 39, 38, 38
448, 2.235, 2017/11/14 06:17:07.607下午, 304.0, 0, 40, 37, 38
449, 2.24, 2017/11/14 06:17:07.612下午, 307.0, 0, 40, 36, 38
450, 2.245, 2017/11/14 06:17:07.617下午, 298.0, 0, 40, 38, 38
451, 2.25, 2017/11/14 06:17:07.622下午, 314.0, 0, 41, 37, 38
452, 2.255, 2017/11/14 06:17:07.627下午, 302.0, 0, 40, 36, 38
453, 2.26, 2017/11/14 06:17:07.632下午, 284.0, 0, 40, 38, 39
454, 2.265, 2017/11/14 06:17:07.637下午, 316.0, 0, 39, 36, 37
455, 2.27, 2017/11/14 06:17:07.642下午, 312.0, 0, 39, 36, 37
456, 2.275, 2017/11/14 06:17:07.647下午, 306.0, 0, 41, 37, 38
457, 2.28, 2017/11/14 06:17:07.652下午, 309.0, 0, 41, 37, 38
458, 2.285, 2017/11/14 06:17:07.657下午, 323.0, 0, 39, 35, 37
459, 2.29, 2017/11/14 06:17:07.662下午, 287.0, 0, 41, 38, 39
460, 2.295, 2017/11/14 06:17:07.667下午, 308.0, 0, 40, 36, 37
461, 2.3, 2017/11/14 06:17:07.672下午, 307.0, 0, 40, 37, 38
462, 2.305, 2017/11/14 06:17:07.677下午, 305.0, 0, 40, 37, 38
463, 2.31, 2017/11/14 06:17:07.682下午, 318.0, 0, 40, 37, 38
464, 2.315, 2017/11/14 06:17:07.687下午, 286.0, 0, 40, 38, 39
465, 2.32, 2017/11/14 06:17:07.692下午, 303.0, 0, 40, 37, 38
466, 2.325, 2017/11/14 06:17:07.697下午, 295.0, 0, 41, 37, 38
467, 2.33, 2017/11/14 06:17:07.702下午, 289.0, 0, 40, 38, 39
468, 2.335, 2017/11/14 06:17:07.707下午, 294.0, 0, 41, 36, 38
469, 2.34, 2017/11/14 06:17:07.712下午, 302.0, 0, 40, 37, 38
470, 2.345, 2017/11/14 06:17:07.717下午, 306.0, 0, 41, 36, 38
471, 2.35, 2017/11/14 06:17:07.722下午, 316.0, 0, 42, 37, 39
472, 2.355, 2017/11/14 06:17:07.727下午, 299.0, 0, 40, 36, 37
473, 2.36, 2017/11/14 06:17:07.732下午, 305.0, 0, 41, 36, 38
474, 2.365, 2017/11/14 06:17:07.737下午, 293.0, 0, 41, 36, 38
475, 2.37, 2017/11/14 06:17:07.742下午, 285.0, 0, 40, 38, 39
476, 2.375, 2017/11/14 06:17:07.747下午, 317.0, 0, 40, 36, 37
477, 2.38, 2017/11/14 06:17:07.752下午, 301.0, 0, 40, 36, 38
478, 2.385, 2017/11/14 06:17:07.757下午, 302.0, 0, 40, 36, 38
479, 2.39, 2017/11/14 06:17:07.762下午, 300.0, 0, 41, 36, 38
480, 2.395, 2017/11/14 06:17:07.767下午, 294.0, 0, 40, 38, 39
481, 2.4, 2017/11/14 06:17:07.772下午, 297.0, 0, 42, 37, 39
482, 2.405, 2017/11/14 06:17:07.777下午, 303.0, 0, 40, 37, 38
483, 2.41, 2017/11/14 06:17:07.782下午, 307.0, 0, 40, 36, 37
484, 2.415, 2017/11/14 06:17:07.787下午, 305.0, 0, 40, 37, 38
485, 2.42, 2017/11/14 06:17:07.792下午, 300.0, 0, 41, 36, 38
486, 2.425, 2017/11/14 06:17:07.797下午, 298.0, 0, 40, 36, 37
487, 2.43, 2017/11/14 06:17:07.802下午, 301.0, 0, 40, 38, 38
488, 2.435, 2017/11/14 06:17:07.807下午, 309.0, 0, 40, 37, 38
489, 2.44, 2017/11/14 06:17:07.812下午, 297.0, 0, 40, 37, 38
490, 2.445, 2017/11/14 06:17:07.817下午, 311.0, 0, 41, 36, 38
491, 2.45, 2017/11/14 06:17:07.822下午, 292.0, 0, 39, 37, 38
492, 2.455, 2017/11/14 06:17:07.827下午, 311.0, 0, 41, 37, 38
493, 2.46, 2017/11/14 06:17:07.832下午, 318.0, 0, 39, 37, 38
494, 2.465, 2017/11/14 06:17:07.837下午, 300.0, 0, 41, 38, 39
495, 2.47, 2017/11/14 06:17:07.842下午, 294.0, 0, 42, 37, 39
496, 2.475, 2017/11/14 06:17:07.847下午, 290.0, 0, 40, 36, 38
497, 2.48, 2017/11/14 06:17:07.852下午, 318.0, 0, 40, 36, 37
498, 2.485, 2017/11/14 06:17:07.857下午, 297.0, 0, 40, 36, 38
499, 2.49, 2017/11/14 06:17:07.862下午, 305.0, 0, 40, 37, 38
500, 2.495, 2017/11/14 06:17:07.867下午, 304.0, 0, 40, 36, 37
501, 2.5, 2017/11/14 06:17:07.872下午, 306.0, 0, 40, 36, 38
502, 2.505, 2017/11/14 06:17:07.877下午, 307.0, 0, 40, 37, 38
503, 2.51, 2017/11/14 06:17:07.882下午, 314.0, 0, 41, 36, 38
504, 2.515, 2017/11/14 06:17:07.887下午, 311.0, 0, 40, 36, 37
505, 2.52, 2017/11/14 06:17:07.892下午, 287.0, 0, 41, 38, 39
506, 2.525, 2017/11/14 06:17:07.897下午, 310.0, 0, 40, 36, 38
507, 2.53, 2017/11/14 06:17:07.902下午, 283.0, 0, 40, 39, 39
508, 2.535, 2017/11/14 06:17:07.907下午, 297.0, 0, 42, 37, 39
509, 2.54, 2017/11/14 06:17:07.912下午, 318.0, 0, 40, 36, 38
510, 2.545, 2017/11/14 06:17:07.917下午, 304.0, 0, 41, 38, 39
511, 2.55, 2017/11/14 06:17:07.922下午, 301.0, 0, 40, 37, 38
512, 2.555, 2017/11/14 06:17:07.927下午, 292.0, 0, 41, 38, 39
513, 2.56, 2017/11/14 06:17:07.932下午, 298.0, 0, 42, 37, 38
514, 2.565, 2017/11/14 06:17:07.937下午, 297.0, 0, 40, 37, 38
515, 2.57, 2017/11/14 06:17:07.942下午, 298.0, 0, 41, 36, 38
516, 2.575, 2017/11/14 06:17:07.947下午, 300.0, 0, 40, 37, 38
517, 2.58, 2017/11/14 06:17:07.952下午, 304.0, 0, 40, 36, 38
518, 2.585, 2017/11/14 06:17:07.957下午, 289.0, 0, 40, 36, 38
519, 2.59, 2017/11/14 06:17:07.962下午, 316.0, 0, 41, 36, 38
520, 2.595, 2017/11/14 06:17:07.967下午, 298.0, 0, 40, 37, 38
521, 2.6, 2017/11/14 06:17:07.972下午, 302.0, 0, 41, 38, 39
522, 2.605, 2017/11/14 06:17:07.977下午, 312.0, 0, 39, 36, 37
523, 2.61, 2017/11/14 06:17:07.982下午, 306.0, 0, 40, 37, 38
524, 2.615, 2017/11/14 06:17:07.987下午, 300.0, 0, 40, 36, 37
525, 2.62, 2017/11/14 06:17:07.992下午, 301.0, 0, 40, 37, 38
526, 2.625, 2017/11/14 06:17:07.997下午, 314.0, 0, 41, 36, 38
527, 2.63, 2017/11/14 06:17:08.002下午, 284.0, 0, 40, 38, 39
528, 2.635, 2017/11/14 06:17:08.007下午, 297.0, 0, 42, 36, 38
529, 2.64, 2017/11/14 06:17:08.012下午, 287.0, 0, 40, 38, 39
530, 2.645, 2017/11/14 06:17:08.017下午, 297.0, 0, 41, 37, 38
531, 2.65, 2017/11/14 06:17:08.022下午, 297.0, 0, 39, 38, 38
532, 2.655, 2017/11/14 06:17:08.027下午, 302.0, 0, 41, 37, 38
533, 2.66, 2017/11/14 06:17:08.032下午, 295.0, 0, 40, 37, 38
534, 2.665, 2017/11/14 06:17:08.037下午, 302.0, 0, 40, 37, 38
535, 2.67, 2017/11/14 06:17:08.042下午, 312.0, 0, 41, 37, 38
536, 2.675, 2017/11/14 06:17:08.047下午, 298.0, 0, 39, 37, 38
537, 2.68, 2017/11/14 06:17:08.052下午, 309.0, 0, 40, 36, 37
538, 2.685, 2017/11/14 06:17:08.057下午, 296.0, 0, 40, 36, 37
539, 2.69, 2017/11/14 06:17:08.062下午, 301.0, 0, 41, 36, 38
540, 2.695, 2017/11/14 06:17:08.067下午, 311.0, 0, 40, 36, 38
541, 2.7, 2017/11/14 06:17:08.072下午, 298.0, 0, 39, 37, 38
542, 2.705, 2017/11/14 06:17:08.077下午, 307.0, 0, 40, 36, 37
543, 2.71, 2017/11/14 06:17:08.082下午, 298.0, 0, 39, 37, 38
544, 2.715, 2017/11/14 06:17:08.087下午, 290.0, 0, 41, 37, 38
545, 2.72, 2017/11/14 06:17:08.092下午, 286.0, 0, 40, 38, 39
546, 2.725, 2017/11/14 06:17:08.097下午, 292.0, 0, 41, 36, 38
547, 2.73, 2017/11/14 06:17:08.102下午, 283.0, 0, 40, 38, 39
548, 2.735, 2017/11/14 06:17:08.107下午, 293.0, 0, 41, 36, 38
549, 2.74, 2017/11/14 06:17:08.112下午, 306.0, 0, 39, 37, 38
550, 2.745, 2017/11/14 06:17:08.117下午, 303.0, 0, 40, 36, 38
551, 2.75, 2017/11/14 06:17:08.122下午, 299.0, 0, 40, 36, 37
552, 2.755, 2017/11/14 06:17:08.127下午, 303.0, 0, 40, 36, 38
553, 2.76, 2017/11/14 06:17:08.132下午, 315.0, 0, 40, 36, 38
554, 2.765, 2017/11/14 06:17:08.137下午, 286.0, 0, 40, 38, 39
555, 2.77, 2017/11/14 06:17:08.142下午, 306.0, 0, 39, 36, 37
556, 2.775, 2017/11/14 06:17:08.147下午, 295.0, 0, 40, 38, 39
557, 2.78, 2017/11/14 06:17:08.152下午, 289.0, 0, 41, 37, 38
558, 2.785, 2017/11/14 06:17:08.157下午, 309.0, 0, 40, 36, 38
559, 2.79, 2017/11/14 06:17:08.162下午, 298.0, 0, 41, 37, 38
560, 2.795, 2017/11/14 06:17:08.167下午, 304.0, 0, 40, 36, 38
561, 2.8, 2017/11/14 06:17:08.172下午, 296.0, 0, 41, 36, 38
562, 2.805, 2017/11/14 06:17:08.177下午, 315.0, 0, 40, 36, 37
563, 2.81, 2017/11/14 06:17:08.182下午, 302.0, 0, 40, 37, 38
564, 2.815, 2017/11/14 06:17:08.187下午, 311.0, 0, 41, 37, 38
565, 2.82, 2017/11/14 06:17:08.192下午, 283.0, 0, 41, 37, 38
566, 2.825, 2017/11/14 06:17:08.197下午, 317.0, 0, 40, 36, 37
567, 2.83, 2017/11/14 06:17:08.202下午, 300.0, 0, 41, 36, 37
568, 2.835, 2017/11/14 06:17:08.207下午, 291.0, 0, 41, 37, 38
569, 2.84, 2017/11/14 06:17:08.212下午, 320.0, 0, 40, 36, 37
570, 2.845, 2017/11/14 06:17:08.217下午, 294.0, 0, 40, 38, 39
571, 2.85, 2017/11/14 06:17:08.222下午, 316.0, 0, 39, 36, 37
572, 2.855, 2017/11/14 06:17:08.227下午, 301.0, 0, 41, 36, 38
573, 2.86, 2017/11/14 06:17:08.232下午, 298.0, 0, 40, 36, 37
574, 2.865, 2017/11/14 06:17:08.237下午, 304.0, 0, 41, 36, 38
575, 2.87, 2017/11/14 06:17:08.242下午, 297.0, 0, 40, 37, 38
576, 2.875, 2017/11/14 06:17:08.247下午, 309.0, 0, 41, 36, 37
577, 2.88, 2017/11/14 06:17:08.252下午, 298.0, 0, 40, 36, 37
578, 2.885, 2017/11/14 06:17:08.257下午, 295.0, 0, 41, 37, 38
579, 2.89, 2017/11/14 06:17:08.262下午, 315.0, 0, 40, 37, 38
580, 2.895, 2017/11/14 06:17:08.267下午, 282.0, 0, 40, 39, 39
581, 2.9, 2017/11/14 06:17:08.272下午, 309.0, 0, 40, 36, 37
582, 2.905, 2017/11/14 06:17:08.277下午, 300.0, 0, 40, 36, 37
583, 2.91, 2017/11/14 06:17:08.282下午, 316.0, 0, 39, 36, 37
584, 2.915, 2017/11/14 06:17:08.287下午, 302.0, 0, 40, 36, 38
585, 2.92, 2017/11/14 06:17:08.292下午, 296.0, 0, 40, 38, 39
586, 2.925, 2017/11/14 06:17:08.297下午, 321.0, 0, 40, 36, 37
587, 2.93, 2017/11/14 06:17:08.302下午, 296.0, 0, 41, 37, 38
588, 2.935, 2017/11/14 06:17:08.307下午, 287.0, 0, 40, 38, 38
589, 2.94, 2017/11/14 06:17:08.312下午, 309.0, 0, 41, 36, 38
590, 2.945, 2017/11/14 06:17:08.317下午, 302.0, 0, 41, 36, 38
591, 2.95, 2017/11/14 06:17:08.322下午, 299.0, 0, 41, 37, 38
592, 2.955, 2017/11/14 06:17:08.327下午, 304.0, 0, 40, 36, 38
593, 2.96, 2017/11/14 06:17:08.332下午, 303.0, 0, 41, 36, 38
594, 2.965, 2017/11/14 06:17:08.337下午, 295.0, 0, 41, 36, 38
595, 2.97, 2017/11/14 06:17:08.342下午, 313.0, 0, 41, 36, 38
596, 2.975, 2017/11/14 06:17:08.347下午, 297.0, 0, 40, 37, 38
597, 2.98, 2017/11/14 06:17:08.352下午, 287.0, 0, 40, 38, 39
598, 2.985, 2017/11/14 06:17:08.357下午, 314.0, 0, 41, 36, 37
599, 2.99, 2017/11/14 06:17:08.362下午, 303.0, 0, 40, 36, 37
600, 2.995, 2017/11/14 06:17:08.367下午, 294.0, 0, 40, 36, 38
@@
