DATA_TYPE Graph,,,,,,,
VERSION Tekscan Pressure Measurement System 6.70-03,,,,,,,
HARDWARE 00114-3447,,,,,,,
MAP_VERSION 6.5,,,,,,,
HW_TYPE 4,,,,,,,
VersaPogoFsx 0,,,,,,,
檔案名 C:\Users\asus\Desktop\工研院_計畫\收案資料\Subject02\Plantar Pressure\R65B_STAND_RIGHT_3.fsx,,,,,,,
SENSOR_TYPE FSCAN,,,,,,,
ROWS 60,,,,,,,
COLS 21,,,,,,,
ROW_SPACING 0.508 centimeters,,,,,,,
COL_SPACING 0.508 centimeters,,,,,,,
SENSEL_AREA 0.258064 cm2,,,,,,,
NOISE_THRESHOLD 3,,,,,,,
SECONDS_PER_FRAME 0.005,,,,,,,
SECONDS_PER_FRAME 0,,,,,,,
MICRO_SECOND 0,,,,,,,
TIME 2017/11/15 11:46:55.521上午,,,,,,,
SATURATION_PRESSURE 2347.96 KPa ,,,,,,,
CALIBRATION_POINT_1 48.0001 (Kilograms) 1981 (Raw Sum) 199 (Number of Loaded Cells),,,,,,,
CALIBRATION_MODE_1 步態,,,,,,,
CALIBRATION_INFO C:\Users\asus\Desktop\工研院_計畫\收案資料\Subject02\Plantar Pressure\R65B_STAND_RIGHT_3.fsx,,,,,,,
SENSITIVITY 自定義,,,,,,,
MAP_INDEX 0,,,,,,,
SUBMAP 0,,,,,,,
Patient ID: ,,,,,,,
,,,,,,,
Speed of Gait: ,,,,,,,
,,,,,,,
Weight: ,,,,,,,
,,,,,,,
Gender: ,,,,,,,
,,,,,,,
Physician: ,,,,,,,
,,,,,,,
Technician: ,,,,,,,
,,,,,,,
Shoe: ,,,,,,,
,,,,,,,
START_FRAME 1,,,,,,,
END_FRAME 600,,,,,,,
UNITS KPa,,,,,,,
ASCII_DATA @@,,,,,,,
畫面(X), 時間(X), 絕對時間(X), Raw Sum, 峰值壓力(Y:藍色), 峰值壓力(Y), 峰值壓力(Y), 峰值壓力(Y)
1,0, 2017/11/15 11:46:55.521上午,393,52,33,38,52
2,0.005, 2017/11/15 11:46:55.526上午,369,57,0,40,57
3,0.01, 2017/11/15 11:46:55.531上午,377,54,28,37,54
4,0.015, 2017/11/15 11:46:55.536上午,373,50,0,40,50
5,0.02, 2017/11/15 11:46:55.541上午,359,54,0,41,54
6,0.025, 2017/11/15 11:46:55.546上午,385,54,28,36,54
7,0.03, 2017/11/15 11:46:55.551上午,375,55,0,40,55
8,0.035, 2017/11/15 11:46:55.556上午,375,52,0,38,52
9,0.04, 2017/11/15 11:46:55.561上午,379,50,28,38,50
10,0.045, 2017/11/15 11:46:55.566上午,371,54,0,40,54
11,0.05, 2017/11/15 11:46:55.571上午,397,50,33,38,50
12,0.055, 2017/11/15 11:46:55.576上午,373,54,0,41,54
13,0.06, 2017/11/15 11:46:55.581上午,395,52,33,41,52
14,0.065, 2017/11/15 11:46:55.586上午,392,52,28,41,52
15,0.07, 2017/11/15 11:46:55.591上午,377,52,28,43,52
16,0.075, 2017/11/15 11:46:55.596上午,392,52,28,40,52
17,0.08, 2017/11/15 11:46:55.601上午,362,54,0,40,54
18,0.085, 2017/11/15 11:46:55.606上午,371,52,0,40,52
19,0.09, 2017/11/15 11:46:55.611上午,364,54,0,40,54
20,0.095, 2017/11/15 11:46:55.616上午,383,50,33,40,50
21,0.1, 2017/11/15 11:46:55.621上午,396,52,32,40,52
22,0.105, 2017/11/15 11:46:55.626上午,368,54,0,40,54
23,0.11, 2017/11/15 11:46:55.631上午,377,50,33,38,50
24,0.115, 2017/11/15 11:46:55.636上午,374,54,0,40,54
25,0.12, 2017/11/15 11:46:55.641上午,373,54,33,40,54
26,0.125, 2017/11/15 11:46:55.646上午,374,54,28,38,54
27,0.13, 2017/11/15 11:46:55.651上午,372,50,0,41,50
28,0.135, 2017/11/15 11:46:55.656上午,370,50,0,41,50
29,0.14, 2017/11/15 11:46:55.661上午,360,52,0,41,52
30,0.145, 2017/11/15 11:46:55.666上午,376,52,32,40,52
31,0.15, 2017/11/15 11:46:55.671上午,390,50,28,40,50
32,0.155, 2017/11/15 11:46:55.676上午,386,54,30,38,54
33,0.16, 2017/11/15 11:46:55.681上午,390,52,33,39,52
34,0.165, 2017/11/15 11:46:55.686上午,366,54,0,40,54
35,0.17, 2017/11/15 11:46:55.691上午,373,50,0,39,50
36,0.175, 2017/11/15 11:46:55.696上午,369,50,0,40,50
37,0.18, 2017/11/15 11:46:55.701上午,365,50,0,40,50
38,0.185, 2017/11/15 11:46:55.706上午,377,50,30,39,50
39,0.19, 2017/11/15 11:46:55.711上午,363,54,0,39,54
40,0.195, 2017/11/15 11:46:55.716上午,387,50,28,39,50
41,0.2, 2017/11/15 11:46:55.721上午,365,52,0,41,52
42,0.205, 2017/11/15 11:46:55.726上午,377,50,28,38,50
43,0.21, 2017/11/15 11:46:55.731上午,387,50,30,41,50
44,0.215, 2017/11/15 11:46:55.736上午,363,54,0,41,54
45,0.22, 2017/11/15 11:46:55.741上午,378,50,28,39,50
46,0.225, 2017/11/15 11:46:55.746上午,371,50,30,41,50
47,0.23, 2017/11/15 11:46:55.751上午,366,52,0,41,52
48,0.235, 2017/11/15 11:46:55.756上午,384,50,36,39,50
49,0.24, 2017/11/15 11:46:55.761上午,379,54,32,40,54
50,0.245, 2017/11/15 11:46:55.766上午,383,50,28,41,50
51,0.25, 2017/11/15 11:46:55.771上午,365,52,0,40,52
52,0.255, 2017/11/15 11:46:55.776上午,375,52,0,38,52
53,0.26, 2017/11/15 11:46:55.781上午,364,52,0,40,52
54,0.265, 2017/11/15 11:46:55.786上午,364,50,0,40,50
55,0.27, 2017/11/15 11:46:55.791上午,386,50,30,40,50
56,0.275, 2017/11/15 11:46:55.796上午,369,52,0,42,52
57,0.28, 2017/11/15 11:46:55.801上午,379,50,28,41,50
58,0.285, 2017/11/15 11:46:55.806上午,363,50,0,42,50
59,0.29, 2017/11/15 11:46:55.811上午,392,50,28,41,50
60,0.295, 2017/11/15 11:46:55.816上午,363,52,0,40,52
61,0.3, 2017/11/15 11:46:55.821上午,364,49,0,40,49
62,0.305, 2017/11/15 11:46:55.826上午,379,52,28,40,52
63,0.31, 2017/11/15 11:46:55.831上午,367,49,0,40,49
64,0.315, 2017/11/15 11:46:55.836上午,373,50,0,41,50
65,0.32, 2017/11/15 11:46:55.841上午,366,52,33,42,52
66,0.325, 2017/11/15 11:46:55.846上午,373,49,28,38,49
67,0.33, 2017/11/15 11:46:55.851上午,363,50,0,40,50
68,0.335, 2017/11/15 11:46:55.856上午,366,50,0,42,50
69,0.34, 2017/11/15 11:46:55.861上午,366,52,0,40,52
70,0.345, 2017/11/15 11:46:55.866上午,359,54,0,40,54
71,0.35, 2017/11/15 11:46:55.871上午,366,49,0,36,49
72,0.355, 2017/11/15 11:46:55.876上午,366,52,0,40,52
73,0.36, 2017/11/15 11:46:55.881上午,370,50,0,41,50
74,0.365, 2017/11/15 11:46:55.886上午,384,52,32,39,52
75,0.37, 2017/11/15 11:46:55.891上午,375,49,0,42,49
76,0.375, 2017/11/15 11:46:55.896上午,364,50,0,39,50
77,0.38, 2017/11/15 11:46:55.901上午,365,50,0,40,50
78,0.385, 2017/11/15 11:46:55.906上午,387,50,28,39,50
79,0.39, 2017/11/15 11:46:55.911上午,382,52,30,39,52
80,0.395, 2017/11/15 11:46:55.916上午,369,52,28,41,52
81,0.4, 2017/11/15 11:46:55.921上午,384,50,28,40,50
82,0.405, 2017/11/15 11:46:55.926上午,368,52,0,41,52
83,0.41, 2017/11/15 11:46:55.931上午,370,49,0,41,49
84,0.415, 2017/11/15 11:46:55.936上午,386,50,32,40,50
85,0.42, 2017/11/15 11:46:55.941上午,358,52,0,39,52
86,0.425, 2017/11/15 11:46:55.946上午,374,50,33,39,50
87,0.43, 2017/11/15 11:46:55.951上午,386,50,28,39,50
88,0.435, 2017/11/15 11:46:55.956上午,367,52,0,41,52
89,0.44, 2017/11/15 11:46:55.961上午,386,49,28,41,49
90,0.445, 2017/11/15 11:46:55.966上午,380,50,33,40,50
91,0.45, 2017/11/15 11:46:55.971上午,385,50,33,41,50
92,0.455, 2017/11/15 11:46:55.976上午,377,50,30,39,50
93,0.46, 2017/11/15 11:46:55.981上午,365,49,0,43,49
94,0.465, 2017/11/15 11:46:55.986上午,395,50,28,40,50
95,0.47, 2017/11/15 11:46:55.991上午,381,50,32,40,50
96,0.475, 2017/11/15 11:46:55.996上午,374,50,32,40,50
97,0.48, 2017/11/15 11:46:56.001上午,376,52,28,41,52
98,0.485, 2017/11/15 11:46:56.006上午,392,49,28,38,49
99,0.49, 2017/11/15 11:46:56.011上午,374,52,28,39,52
100,0.495, 2017/11/15 11:46:56.016上午,370,52,0,39,52
101,0.5, 2017/11/15 11:46:56.021上午,394,50,28,38,50
102,0.505, 2017/11/15 11:46:56.026上午,364,52,0,41,52
103,0.51, 2017/11/15 11:46:56.031上午,368,49,0,37,49
104,0.515, 2017/11/15 11:46:56.036上午,363,50,0,39,50
105,0.52, 2017/11/15 11:46:56.041上午,374,52,30,39,52
106,0.525, 2017/11/15 11:46:56.046上午,386,50,33,40,50
107,0.53, 2017/11/15 11:46:56.051上午,358,50,0,39,50
108,0.535, 2017/11/15 11:46:56.056上午,365,52,0,41,52
109,0.54, 2017/11/15 11:46:56.061上午,402,50,28,40,50
110,0.545, 2017/11/15 11:46:56.066上午,380,50,30,39,50
111,0.55, 2017/11/15 11:46:56.071上午,383,49,0,39,49
112,0.555, 2017/11/15 11:46:56.076上午,390,52,32,40,52
113,0.56, 2017/11/15 11:46:56.081上午,381,49,0,37,49
114,0.565, 2017/11/15 11:46:56.086上午,379,50,32,39,50
115,0.57, 2017/11/15 11:46:56.091上午,364,49,0,39,49
116,0.575, 2017/11/15 11:46:56.096上午,383,49,28,40,49
117,0.58, 2017/11/15 11:46:56.101上午,371,52,0,40,52
118,0.585, 2017/11/15 11:46:56.106上午,375,50,0,39,50
119,0.59, 2017/11/15 11:46:56.111上午,388,50,30,40,50
120,0.595, 2017/11/15 11:46:56.116上午,369,53,0,43,53
121,0.6, 2017/11/15 11:46:56.121上午,366,49,0,41,49
122,0.605, 2017/11/15 11:46:56.126上午,383,50,36,40,50
123,0.61, 2017/11/15 11:46:56.131上午,365,50,0,41,50
124,0.615, 2017/11/15 11:46:56.136上午,371,49,0,40,49
125,0.62, 2017/11/15 11:46:56.141上午,399,50,28,40,50
126,0.625, 2017/11/15 11:46:56.146上午,358,50,0,39,50
127,0.63, 2017/11/15 11:46:56.151上午,358,49,0,39,49
128,0.635, 2017/11/15 11:46:56.156上午,388,50,32,40,50
129,0.64, 2017/11/15 11:46:56.161上午,370,52,32,39,52
130,0.645, 2017/11/15 11:46:56.166上午,385,52,32,40,52
131,0.65, 2017/11/15 11:46:56.171上午,386,50,30,39,50
132,0.655, 2017/11/15 11:46:56.176上午,360,50,0,41,50
133,0.66, 2017/11/15 11:46:56.181上午,374,49,0,38,49
134,0.665, 2017/11/15 11:46:56.186上午,368,50,0,39,50
135,0.67, 2017/11/15 11:46:56.191上午,390,52,32,41,52
136,0.675, 2017/11/15 11:46:56.196上午,384,50,32,38,50
137,0.68, 2017/11/15 11:46:56.201上午,358,50,0,41,50
138,0.685, 2017/11/15 11:46:56.206上午,377,49,28,41,49
139,0.69, 2017/11/15 11:46:56.211上午,388,50,32,38,50
140,0.695, 2017/11/15 11:46:56.216上午,365,50,0,38,50
141,0.7, 2017/11/15 11:46:56.221上午,372,52,28,39,52
142,0.705, 2017/11/15 11:46:56.226上午,381,50,0,37,50
143,0.71, 2017/11/15 11:46:56.231上午,386,50,30,39,50
144,0.715, 2017/11/15 11:46:56.236上午,361,50,0,42,50
145,0.72, 2017/11/15 11:46:56.241上午,374,52,0,38,52
146,0.725, 2017/11/15 11:46:56.246上午,386,50,30,39,50
147,0.73, 2017/11/15 11:46:56.251上午,364,53,0,38,53
148,0.735, 2017/11/15 11:46:56.256上午,372,50,0,39,50
149,0.74, 2017/11/15 11:46:56.261上午,378,49,0,40,49
150,0.745, 2017/11/15 11:46:56.266上午,392,52,32,41,52
151,0.75, 2017/11/15 11:46:56.271上午,375,50,0,39,50
152,0.755, 2017/11/15 11:46:56.276上午,368,52,0,40,52
153,0.76, 2017/11/15 11:46:56.281上午,383,52,32,39,52
154,0.765, 2017/11/15 11:46:56.286上午,381,50,33,39,50
155,0.77, 2017/11/15 11:46:56.291上午,371,50,0,39,50
156,0.775, 2017/11/15 11:46:56.296上午,367,52,0,38,52
157,0.78, 2017/11/15 11:46:56.301上午,376,49,28,40,49
158,0.785, 2017/11/15 11:46:56.306上午,362,50,0,38,50
159,0.79, 2017/11/15 11:46:56.311上午,363,50,0,40,50
160,0.795, 2017/11/15 11:46:56.316上午,382,49,28,40,49
161,0.8, 2017/11/15 11:46:56.321上午,378,50,30,39,50
162,0.805, 2017/11/15 11:46:56.326上午,360,52,0,38,52
163,0.81, 2017/11/15 11:46:56.331上午,363,50,0,39,50
164,0.815, 2017/11/15 11:46:56.336上午,403,50,28,38,50
165,0.82, 2017/11/15 11:46:56.341上午,368,52,0,39,52
166,0.825, 2017/11/15 11:46:56.346上午,394,52,32,39,52
167,0.83, 2017/11/15 11:46:56.351上午,357,50,0,40,50
168,0.835, 2017/11/15 11:46:56.356上午,376,52,36,39,52
169,0.84, 2017/11/15 11:46:56.361上午,370,52,0,39,52
170,0.845, 2017/11/15 11:46:56.366上午,409,50,33,40,50
171,0.85, 2017/11/15 11:46:56.371上午,382,53,32,40,53
172,0.855, 2017/11/15 11:46:56.376上午,382,49,0,39,49
173,0.86, 2017/11/15 11:46:56.381上午,373,53,0,39,53
174,0.865, 2017/11/15 11:46:56.386上午,364,49,0,39,49
175,0.87, 2017/11/15 11:46:56.391上午,371,50,0,38,50
176,0.875, 2017/11/15 11:46:56.396上午,384,50,32,39,50
177,0.88, 2017/11/15 11:46:56.401上午,374,50,0,37,50
178,0.885, 2017/11/15 11:46:56.406上午,387,50,30,40,50
179,0.89, 2017/11/15 11:46:56.411上午,369,52,0,38,52
180,0.895, 2017/11/15 11:46:56.416上午,386,50,0,37,50
181,0.9, 2017/11/15 11:46:56.421上午,391,50,30,41,50
182,0.905, 2017/11/15 11:46:56.426上午,387,52,32,40,52
183,0.91, 2017/11/15 11:46:56.431上午,389,49,0,39,49
184,0.915, 2017/11/15 11:46:56.436上午,379,52,32,38,52
185,0.92, 2017/11/15 11:46:56.441上午,367,50,0,40,50
186,0.925, 2017/11/15 11:46:56.446上午,386,50,33,39,50
187,0.93, 2017/11/15 11:46:56.451上午,363,50,0,39,50
188,0.935, 2017/11/15 11:46:56.456上午,386,52,32,40,52
189,0.94, 2017/11/15 11:46:56.461上午,393,50,28,39,50
190,0.945, 2017/11/15 11:46:56.466上午,391,50,32,40,50
191,0.95, 2017/11/15 11:46:56.471上午,371,50,0,38,50
192,0.955, 2017/11/15 11:46:56.476上午,369,50,0,38,50
193,0.96, 2017/11/15 11:46:56.481上午,371,52,28,39,52
194,0.965, 2017/11/15 11:46:56.486上午,384,49,33,37,49
195,0.97, 2017/11/15 11:46:56.491上午,363,50,0,38,50
196,0.975, 2017/11/15 11:46:56.496上午,383,50,28,37,50
197,0.98, 2017/11/15 11:46:56.501上午,397,50,30,41,50
198,0.985, 2017/11/15 11:46:56.506上午,365,52,0,39,52
199,0.99, 2017/11/15 11:46:56.511上午,372,50,0,36,50
200,0.995, 2017/11/15 11:46:56.516上午,370,50,30,39,50
201,1, 2017/11/15 11:46:56.521上午,363,52,0,40,52
202,1.005, 2017/11/15 11:46:56.526上午,377,49,28,38,49
203,1.01, 2017/11/15 11:46:56.531上午,390,50,30,37,50
204,1.015, 2017/11/15 11:46:56.536上午,379,52,32,37,52
205,1.02, 2017/11/15 11:46:56.541上午,373,49,28,37,49
206,1.025, 2017/11/15 11:46:56.546上午,378,50,30,39,50
207,1.03, 2017/11/15 11:46:56.551上午,369,50,0,38,50
208,1.035, 2017/11/15 11:46:56.556上午,358,49,0,39,49
209,1.04, 2017/11/15 11:46:56.561上午,379,52,32,39,52
210,1.045, 2017/11/15 11:46:56.566上午,380,52,28,39,52
211,1.05, 2017/11/15 11:46:56.571上午,390,50,28,39,50
212,1.055, 2017/11/15 11:46:56.576上午,347,52,0,40,52
213,1.06, 2017/11/15 11:46:56.581上午,361,49,0,40,49
214,1.065, 2017/11/15 11:46:56.586上午,356,50,0,37,50
215,1.07, 2017/11/15 11:46:56.591上午,372,50,0,38,50
216,1.075, 2017/11/15 11:46:56.596上午,402,50,28,39,50
217,1.08, 2017/11/15 11:46:56.601上午,367,53,0,39,53
218,1.085, 2017/11/15 11:46:56.606上午,369,52,0,39,52
219,1.09, 2017/11/15 11:46:56.611上午,390,50,28,37,50
220,1.095, 2017/11/15 11:46:56.616上午,368,50,0,39,50
221,1.1, 2017/11/15 11:46:56.621上午,384,52,32,39,52
222,1.105, 2017/11/15 11:46:56.626上午,393,49,33,37,49
223,1.11, 2017/11/15 11:46:56.631上午,387,50,30,39,50
224,1.115, 2017/11/15 11:46:56.636上午,365,50,0,39,50
225,1.12, 2017/11/15 11:46:56.641上午,364,52,0,37,52
226,1.125, 2017/11/15 11:46:56.646上午,387,50,30,37,50
227,1.13, 2017/11/15 11:46:56.651上午,372,52,0,37,52
228,1.135, 2017/11/15 11:46:56.656上午,374,50,28,37,50
229,1.14, 2017/11/15 11:46:56.661上午,373,50,0,39,50
230,1.145, 2017/11/15 11:46:56.666上午,366,50,0,39,50
231,1.15, 2017/11/15 11:46:56.671上午,406,49,33,40,49
232,1.155, 2017/11/15 11:46:56.676上午,361,53,0,38,53
233,1.16, 2017/11/15 11:46:56.681上午,371,49,0,38,49
234,1.165, 2017/11/15 11:46:56.686上午,393,50,30,39,50
235,1.17, 2017/11/15 11:46:56.691上午,357,49,0,40,49
236,1.175, 2017/11/15 11:46:56.696上午,390,49,30,39,49
237,1.18, 2017/11/15 11:46:56.701上午,364,52,0,39,52
238,1.185, 2017/11/15 11:46:56.706上午,376,50,28,40,50
239,1.19, 2017/11/15 11:46:56.711上午,384,50,30,39,50
240,1.195, 2017/11/15 11:46:56.716上午,381,52,28,39,52
241,1.2, 2017/11/15 11:46:56.721上午,365,49,0,36,49
242,1.205, 2017/11/15 11:46:56.726上午,405,50,28,39,50
243,1.21, 2017/11/15 11:46:56.731上午,368,52,0,39,52
244,1.215, 2017/11/15 11:46:56.736上午,372,49,0,40,49
245,1.22, 2017/11/15 11:46:56.741上午,390,50,28,40,50
246,1.225, 2017/11/15 11:46:56.746上午,364,50,0,37,50
247,1.23, 2017/11/15 11:46:56.751上午,362,52,0,39,52
248,1.235, 2017/11/15 11:46:56.756上午,372,49,28,40,49
249,1.24, 2017/11/15 11:46:56.761上午,359,50,0,39,50
250,1.245, 2017/11/15 11:46:56.766上午,359,50,0,39,50
251,1.25, 2017/11/15 11:46:56.771上午,375,50,0,37,50
252,1.255, 2017/11/15 11:46:56.776上午,362,50,0,38,50
253,1.26, 2017/11/15 11:46:56.781上午,375,49,0,40,49
254,1.265, 2017/11/15 11:46:56.786上午,377,50,36,38,50
255,1.27, 2017/11/15 11:46:56.791上午,363,52,0,38,52
256,1.275, 2017/11/15 11:46:56.796上午,397,50,30,37,50
257,1.28, 2017/11/15 11:46:56.801上午,382,52,32,40,52
258,1.285, 2017/11/15 11:46:56.806上午,378,49,0,37,49
259,1.29, 2017/11/15 11:46:56.811上午,368,50,0,38,50
260,1.295, 2017/11/15 11:46:56.816上午,369,53,0,39,53
261,1.3, 2017/11/15 11:46:56.821上午,368,50,0,40,50
262,1.305, 2017/11/15 11:46:56.826上午,373,49,0,37,49
263,1.31, 2017/11/15 11:46:56.831上午,351,50,0,37,50
264,1.315, 2017/11/15 11:46:56.836上午,367,50,28,38,50
265,1.32, 2017/11/15 11:46:56.841上午,371,50,0,39,50
266,1.325, 2017/11/15 11:46:56.846上午,389,52,30,39,52
267,1.33, 2017/11/15 11:46:56.851上午,373,52,28,40,52
268,1.335, 2017/11/15 11:46:56.856上午,363,50,0,38,50
269,1.34, 2017/11/15 11:46:56.861上午,354,50,0,37,50
270,1.345, 2017/11/15 11:46:56.866上午,390,50,28,39,50
271,1.35, 2017/11/15 11:46:56.871上午,369,50,30,38,50
272,1.355, 2017/11/15 11:46:56.876上午,379,50,28,39,50
273,1.36, 2017/11/15 11:46:56.881上午,398,50,28,39,50
274,1.365, 2017/11/15 11:46:56.886上午,360,52,0,37,52
275,1.37, 2017/11/15 11:46:56.891上午,358,50,0,37,50
276,1.375, 2017/11/15 11:46:56.896上午,389,50,30,38,50
277,1.38, 2017/11/15 11:46:56.901上午,377,50,0,40,50
278,1.385, 2017/11/15 11:46:56.906上午,381,50,33,38,50
279,1.39, 2017/11/15 11:46:56.911上午,388,50,32,37,50
280,1.395, 2017/11/15 11:46:56.916上午,371,53,0,37,53
281,1.4, 2017/11/15 11:46:56.921上午,361,49,0,38,49
282,1.405, 2017/11/15 11:46:56.926上午,400,50,28,39,50
283,1.41, 2017/11/15 11:46:56.931上午,369,53,0,38,53
284,1.415, 2017/11/15 11:46:56.936上午,360,50,0,40,50
285,1.42, 2017/11/15 11:46:56.941上午,379,49,33,40,49
286,1.425, 2017/11/15 11:46:56.946上午,376,53,0,38,53
287,1.43, 2017/11/15 11:46:56.951上午,389,52,32,41,52
288,1.435, 2017/11/15 11:46:56.956上午,368,49,0,36,49
289,1.44, 2017/11/15 11:46:56.961上午,365,50,0,38,50
290,1.445, 2017/11/15 11:46:56.966上午,355,53,0,40,53
291,1.45, 2017/11/15 11:46:56.971上午,384,50,30,38,50
292,1.455, 2017/11/15 11:46:56.976上午,366,52,0,40,52
293,1.46, 2017/11/15 11:46:56.981上午,369,50,0,38,50
294,1.465, 2017/11/15 11:46:56.986上午,390,50,30,38,50
295,1.47, 2017/11/15 11:46:56.991上午,386,52,28,42,52
296,1.475, 2017/11/15 11:46:56.996上午,388,49,0,39,49
297,1.48, 2017/11/15 11:46:57.001上午,385,53,30,37,53
298,1.485, 2017/11/15 11:46:57.006上午,379,53,0,39,53
299,1.49, 2017/11/15 11:46:57.011上午,374,49,0,38,49
300,1.495, 2017/11/15 11:46:57.016上午,385,50,30,37,50
301,1.5, 2017/11/15 11:46:57.021上午,372,53,0,39,53
302,1.505, 2017/11/15 11:46:57.026上午,379,50,33,39,50
303,1.51, 2017/11/15 11:46:57.031上午,368,49,0,38,49
304,1.515, 2017/11/15 11:46:57.036上午,358,53,0,39,53
305,1.52, 2017/11/15 11:46:57.041上午,367,50,0,38,50
306,1.525, 2017/11/15 11:46:57.046上午,379,50,30,38,50
307,1.53, 2017/11/15 11:46:57.051上午,353,50,0,40,50
308,1.535, 2017/11/15 11:46:57.056上午,379,50,0,38,50
309,1.54, 2017/11/15 11:46:57.061上午,385,50,30,38,50
310,1.545, 2017/11/15 11:46:57.066上午,360,50,0,38,50
311,1.55, 2017/11/15 11:46:57.071上午,370,50,0,37,50
312,1.555, 2017/11/15 11:46:57.076上午,368,50,0,38,50
313,1.56, 2017/11/15 11:46:57.081上午,372,50,0,37,50
314,1.565, 2017/11/15 11:46:57.086上午,370,52,0,38,52
315,1.57, 2017/11/15 11:46:57.091上午,370,50,0,39,50
316,1.575, 2017/11/15 11:46:57.096上午,377,50,30,38,50
317,1.58, 2017/11/15 11:46:57.101上午,378,52,28,39,52
318,1.585, 2017/11/15 11:46:57.106上午,395,50,30,40,50
319,1.59, 2017/11/15 11:46:57.111上午,376,52,28,38,52
320,1.595, 2017/11/15 11:46:57.116上午,371,50,0,39,50
321,1.6, 2017/11/15 11:46:57.121上午,383,50,28,37,50
322,1.605, 2017/11/15 11:46:57.126上午,390,52,32,41,52
323,1.61, 2017/11/15 11:46:57.131上午,389,50,33,38,50
324,1.615, 2017/11/15 11:46:57.136上午,368,50,0,38,50
325,1.62, 2017/11/15 11:46:57.141上午,364,49,0,40,49
326,1.625, 2017/11/15 11:46:57.146上午,384,50,30,37,50
327,1.63, 2017/11/15 11:46:57.151上午,370,50,0,38,50
328,1.635, 2017/11/15 11:46:57.156上午,375,50,0,40,50
329,1.64, 2017/11/15 11:46:57.161上午,359,53,0,37,53
330,1.645, 2017/11/15 11:46:57.166上午,368,52,0,37,52
331,1.65, 2017/11/15 11:46:57.171上午,371,50,0,38,50
332,1.655, 2017/11/15 11:46:57.176上午,365,52,0,37,52
333,1.66, 2017/11/15 11:46:57.181上午,394,49,30,38,49
334,1.665, 2017/11/15 11:46:57.186上午,370,52,28,37,52
335,1.67, 2017/11/15 11:46:57.191上午,378,50,28,36,50
336,1.675, 2017/11/15 11:46:57.196上午,366,52,0,38,52
337,1.68, 2017/11/15 11:46:57.201上午,377,50,0,38,50
338,1.685, 2017/11/15 11:46:57.206上午,375,52,0,39,52
339,1.69, 2017/11/15 11:46:57.211上午,381,52,28,39,52
340,1.695, 2017/11/15 11:46:57.216上午,369,49,0,38,49
341,1.7, 2017/11/15 11:46:57.221上午,364,52,0,39,52
342,1.705, 2017/11/15 11:46:57.226上午,393,49,33,38,49
343,1.71, 2017/11/15 11:46:57.231上午,389,50,30,40,50
344,1.715, 2017/11/15 11:46:57.236上午,380,50,0,37,50
345,1.72, 2017/11/15 11:46:57.241上午,391,50,28,38,50
346,1.725, 2017/11/15 11:46:57.246上午,390,52,33,38,52
347,1.73, 2017/11/15 11:46:57.251上午,394,49,33,38,49
348,1.735, 2017/11/15 11:46:57.256上午,378,50,32,37,50
349,1.74, 2017/11/15 11:46:57.261上午,368,50,0,37,50
350,1.745, 2017/11/15 11:46:57.266上午,386,50,30,38,50
351,1.75, 2017/11/15 11:46:57.271上午,384,53,30,39,53
352,1.755, 2017/11/15 11:46:57.276上午,402,50,28,38,50
353,1.76, 2017/11/15 11:46:57.281上午,369,52,0,37,52
354,1.765, 2017/11/15 11:46:57.286上午,397,50,33,38,50
355,1.77, 2017/11/15 11:46:57.291上午,371,50,0,39,50
356,1.775, 2017/11/15 11:46:57.296上午,395,50,28,38,50
357,1.78, 2017/11/15 11:46:57.301上午,355,53,0,37,53
358,1.785, 2017/11/15 11:46:57.306上午,395,50,28,38,50
359,1.79, 2017/11/15 11:46:57.311上午,382,53,30,39,53
360,1.795, 2017/11/15 11:46:57.316上午,369,49,0,37,49
361,1.8, 2017/11/15 11:46:57.321上午,373,50,0,38,50
362,1.805, 2017/11/15 11:46:57.326上午,374,50,0,39,50
363,1.81, 2017/11/15 11:46:57.331上午,384,50,30,37,50
364,1.815, 2017/11/15 11:46:57.336上午,364,50,0,39,50
365,1.82, 2017/11/15 11:46:57.341上午,369,49,0,35,49
366,1.825, 2017/11/15 11:46:57.346上午,382,50,32,38,50
367,1.83, 2017/11/15 11:46:57.351上午,375,53,0,39,53
368,1.835, 2017/11/15 11:46:57.356上午,369,50,0,38,50
369,1.84, 2017/11/15 11:46:57.361上午,361,53,0,38,53
370,1.845, 2017/11/15 11:46:57.366上午,371,52,0,38,52
371,1.85, 2017/11/15 11:46:57.371上午,369,52,0,38,52
372,1.855, 2017/11/15 11:46:57.376上午,370,50,0,38,50
373,1.86, 2017/11/15 11:46:57.381上午,382,50,28,38,50
374,1.865, 2017/11/15 11:46:57.386上午,365,52,0,37,52
375,1.87, 2017/11/15 11:46:57.391上午,392,50,28,38,50
376,1.875, 2017/11/15 11:46:57.396上午,368,50,0,39,50
377,1.88, 2017/11/15 11:46:57.401上午,378,50,0,38,50
378,1.885, 2017/11/15 11:46:57.406上午,379,52,33,38,52
379,1.89, 2017/11/15 11:46:57.411上午,369,50,0,38,50
380,1.895, 2017/11/15 11:46:57.416上午,371,50,0,38,50
381,1.9, 2017/11/15 11:46:57.421上午,379,53,30,38,53
382,1.905, 2017/11/15 11:46:57.426上午,377,52,0,38,52
383,1.91, 2017/11/15 11:46:57.431上午,388,50,30,38,50
384,1.915, 2017/11/15 11:46:57.436上午,374,52,0,40,52
385,1.92, 2017/11/15 11:46:57.441上午,388,49,33,38,49
386,1.925, 2017/11/15 11:46:57.446上午,396,53,28,38,53
387,1.93, 2017/11/15 11:46:57.451上午,359,53,0,37,53
388,1.935, 2017/11/15 11:46:57.456上午,382,49,28,38,49
389,1.94, 2017/11/15 11:46:57.461上午,374,50,0,39,50
390,1.945, 2017/11/15 11:46:57.466上午,381,50,28,38,50
391,1.95, 2017/11/15 11:46:57.471上午,366,50,0,36,50
392,1.955, 2017/11/15 11:46:57.476上午,374,49,0,39,49
393,1.96, 2017/11/15 11:46:57.481上午,389,50,30,38,50
394,1.965, 2017/11/15 11:46:57.486上午,382,52,32,37,52
395,1.97, 2017/11/15 11:46:57.491上午,383,50,32,38,50
396,1.975, 2017/11/15 11:46:57.496上午,386,52,32,37,52
397,1.98, 2017/11/15 11:46:57.501上午,391,50,28,38,50
398,1.985, 2017/11/15 11:46:57.506上午,369,50,28,38,50
399,1.99, 2017/11/15 11:46:57.511上午,383,50,30,38,50
400,1.995, 2017/11/15 11:46:57.516上午,366,50,0,38,50
401,2, 2017/11/15 11:46:57.521上午,364,50,0,38,50
402,2.005, 2017/11/15 11:46:57.526上午,388,50,30,38,50
403,2.01, 2017/11/15 11:46:57.531上午,369,50,0,38,50
404,2.015, 2017/11/15 11:46:57.536上午,369,49,0,38,49
405,2.02, 2017/11/15 11:46:57.541上午,398,52,30,38,52
406,2.025, 2017/11/15 11:46:57.546上午,376,50,28,40,50
407,2.03, 2017/11/15 11:46:57.551上午,370,49,0,38,49
408,2.035, 2017/11/15 11:46:57.556上午,385,53,30,38,53
409,2.04, 2017/11/15 11:46:57.561上午,373,49,0,38,49
410,2.045, 2017/11/15 11:46:57.566上午,389,49,30,38,49
411,2.05, 2017/11/15 11:46:57.571上午,365,52,0,37,52
412,2.055, 2017/11/15 11:46:57.576上午,364,50,0,38,50
413,2.06, 2017/11/15 11:46:57.581上午,372,52,0,38,52
414,2.065, 2017/11/15 11:46:57.586上午,377,50,0,38,50
415,2.07, 2017/11/15 11:46:57.591上午,365,52,0,38,52
416,2.075, 2017/11/15 11:46:57.596上午,375,50,33,38,50
417,2.08, 2017/11/15 11:46:57.601上午,365,50,0,40,50
418,2.085, 2017/11/15 11:46:57.606上午,367,50,0,37,50
419,2.09, 2017/11/15 11:46:57.611上午,390,50,28,38,50
420,2.095, 2017/11/15 11:46:57.616上午,375,52,28,40,52
421,2.1, 2017/11/15 11:46:57.621上午,371,52,0,38,52
422,2.105, 2017/11/15 11:46:57.626上午,393,50,28,39,50
423,2.11, 2017/11/15 11:46:57.631上午,375,50,0,38,50
424,2.115, 2017/11/15 11:46:57.636上午,377,52,28,38,52
425,2.12, 2017/11/15 11:46:57.641上午,382,49,28,36,49
426,2.125, 2017/11/15 11:46:57.646上午,369,50,0,38,50
427,2.13, 2017/11/15 11:46:57.651上午,374,50,0,38,50
428,2.135, 2017/11/15 11:46:57.656上午,385,50,28,39,50
429,2.14, 2017/11/15 11:46:57.661上午,372,50,0,40,50
430,2.145, 2017/11/15 11:46:57.666上午,381,50,30,38,50
431,2.15, 2017/11/15 11:46:57.671上午,387,52,33,38,52
432,2.155, 2017/11/15 11:46:57.676上午,376,49,28,38,49
433,2.16, 2017/11/15 11:46:57.681上午,370,52,0,38,52
434,2.165, 2017/11/15 11:46:57.686上午,366,52,0,37,52
435,2.17, 2017/11/15 11:46:57.691上午,389,50,28,38,50
436,2.175, 2017/11/15 11:46:57.696上午,366,50,0,38,50
437,2.18, 2017/11/15 11:46:57.701上午,388,50,28,38,50
438,2.185, 2017/11/15 11:46:57.706上午,383,52,33,39,52
439,2.19, 2017/11/15 11:46:57.711上午,369,50,0,37,50
440,2.195, 2017/11/15 11:46:57.716上午,375,50,0,38,50
441,2.2, 2017/11/15 11:46:57.721上午,378,52,0,36,52
442,2.205, 2017/11/15 11:46:57.726上午,371,50,0,39,50
443,2.21, 2017/11/15 11:46:57.731上午,371,50,0,38,50
444,2.215, 2017/11/15 11:46:57.736上午,395,50,28,36,50
445,2.22, 2017/11/15 11:46:57.741上午,376,50,32,35,50
446,2.225, 2017/11/15 11:46:57.746上午,371,49,28,36,49
447,2.23, 2017/11/15 11:46:57.751上午,414,49,28,38,49
448,2.235, 2017/11/15 11:46:57.756上午,371,52,0,41,52
449,2.24, 2017/11/15 11:46:57.761上午,402,52,28,38,52
450,2.245, 2017/11/15 11:46:57.766上午,366,50,0,38,50
451,2.25, 2017/11/15 11:46:57.771上午,392,52,32,37,52
452,2.255, 2017/11/15 11:46:57.776上午,393,50,28,36,50
453,2.26, 2017/11/15 11:46:57.781上午,369,50,0,38,50
454,2.265, 2017/11/15 11:46:57.786上午,385,49,33,37,49
455,2.27, 2017/11/15 11:46:57.791上午,382,50,32,40,50
456,2.275, 2017/11/15 11:46:57.796上午,365,53,0,36,53
457,2.28, 2017/11/15 11:46:57.801上午,379,52,0,38,52
458,2.285, 2017/11/15 11:46:57.806上午,370,52,0,37,52
459,2.29, 2017/11/15 11:46:57.811上午,383,50,30,36,50
460,2.295, 2017/11/15 11:46:57.816上午,369,52,0,40,52
461,2.3, 2017/11/15 11:46:57.821上午,368,52,0,38,52
462,2.305, 2017/11/15 11:46:57.826上午,393,50,28,38,50
463,2.31, 2017/11/15 11:46:57.831上午,361,53,0,40,53
464,2.315, 2017/11/15 11:46:57.836上午,371,49,0,37,49
465,2.32, 2017/11/15 11:46:57.841上午,375,50,0,36,50
466,2.325, 2017/11/15 11:46:57.846上午,381,53,33,39,53
467,2.33, 2017/11/15 11:46:57.851上午,377,50,0,37,50
468,2.335, 2017/11/15 11:46:57.856上午,379,50,0,39,50
469,2.34, 2017/11/15 11:46:57.861上午,370,50,0,38,50
470,2.345, 2017/11/15 11:46:57.866上午,376,50,0,38,50
471,2.35, 2017/11/15 11:46:57.871上午,373,50,0,38,50
472,2.355, 2017/11/15 11:46:57.876上午,383,50,28,38,50
473,2.36, 2017/11/15 11:46:57.881上午,388,52,32,37,52
474,2.365, 2017/11/15 11:46:57.886上午,383,50,30,39,50
475,2.37, 2017/11/15 11:46:57.891上午,372,53,0,37,53
476,2.375, 2017/11/15 11:46:57.896上午,384,49,33,38,49
477,2.38, 2017/11/15 11:46:57.901上午,368,53,0,36,53
478,2.385, 2017/11/15 11:46:57.906上午,373,52,0,38,52
479,2.39, 2017/11/15 11:46:57.911上午,370,50,0,37,50
480,2.395, 2017/11/15 11:46:57.916上午,384,50,30,37,50
481,2.4, 2017/11/15 11:46:57.921上午,369,50,0,39,50
482,2.405, 2017/11/15 11:46:57.926上午,389,50,28,37,50
483,2.41, 2017/11/15 11:46:57.931上午,370,53,0,39,53
484,2.415, 2017/11/15 11:46:57.936上午,373,52,0,38,52
485,2.42, 2017/11/15 11:46:57.941上午,384,50,28,38,50
486,2.425, 2017/11/15 11:46:57.946上午,368,53,0,39,53
487,2.43, 2017/11/15 11:46:57.951上午,377,50,0,36,50
488,2.435, 2017/11/15 11:46:57.956上午,392,50,30,38,50
489,2.44, 2017/11/15 11:46:57.961上午,371,52,0,38,52
490,2.445, 2017/11/15 11:46:57.966上午,393,52,32,38,52
491,2.45, 2017/11/15 11:46:57.971上午,396,50,32,37,50
492,2.455, 2017/11/15 11:46:57.976上午,375,50,0,38,50
493,2.46, 2017/11/15 11:46:57.981上午,370,52,0,39,52
494,2.465, 2017/11/15 11:46:57.986上午,386,50,28,37,50
495,2.47, 2017/11/15 11:46:57.991上午,376,52,0,39,52
496,2.475, 2017/11/15 11:46:57.996上午,373,50,0,36,50
497,2.48, 2017/11/15 11:46:58.001上午,370,52,0,38,52
498,2.485, 2017/11/15 11:46:58.006上午,380,50,30,37,50
499,2.49, 2017/11/15 11:46:58.011上午,373,52,28,37,52
500,2.495, 2017/11/15 11:46:58.016上午,365,50,0,38,50
501,2.5, 2017/11/15 11:46:58.021上午,374,50,0,37,50
502,2.505, 2017/11/15 11:46:58.026上午,367,50,0,37,50
503,2.51, 2017/11/15 11:46:58.031上午,374,52,0,38,52
504,2.515, 2017/11/15 11:46:58.036上午,365,50,0,39,50
505,2.52, 2017/11/15 11:46:58.041上午,386,50,28,37,50
506,2.525, 2017/11/15 11:46:58.046上午,391,53,32,38,53
507,2.53, 2017/11/15 11:46:58.051上午,386,50,28,37,50
508,2.535, 2017/11/15 11:46:58.056上午,374,50,30,37,50
509,2.54, 2017/11/15 11:46:58.061上午,378,50,0,38,50
510,2.545, 2017/11/15 11:46:58.066上午,381,50,28,38,50
511,2.55, 2017/11/15 11:46:58.071上午,384,52,32,40,52
512,2.555, 2017/11/15 11:46:58.076上午,389,50,28,37,50
513,2.56, 2017/11/15 11:46:58.081上午,383,50,32,38,50
514,2.565, 2017/11/15 11:46:58.086上午,367,50,0,38,50
515,2.57, 2017/11/15 11:46:58.091上午,381,50,30,38,50
516,2.575, 2017/11/15 11:46:58.096上午,369,53,0,38,53
517,2.58, 2017/11/15 11:46:58.101上午,393,49,28,37,49
518,2.585, 2017/11/15 11:46:58.106上午,380,52,0,38,52
519,2.59, 2017/11/15 11:46:58.111上午,391,49,28,37,49
520,2.595, 2017/11/15 11:46:58.116上午,364,50,0,38,50
521,2.6, 2017/11/15 11:46:58.121上午,381,52,32,40,52
522,2.605, 2017/11/15 11:46:58.126上午,373,50,0,37,50
523,2.61, 2017/11/15 11:46:58.131上午,369,50,0,38,50
524,2.615, 2017/11/15 11:46:58.136上午,390,52,32,39,52
525,2.62, 2017/11/15 11:46:58.141上午,369,50,0,38,50
526,2.625, 2017/11/15 11:46:58.146上午,392,50,30,37,50
527,2.63, 2017/11/15 11:46:58.151上午,379,50,28,38,50
528,2.635, 2017/11/15 11:46:58.156上午,359,49,0,38,49
529,2.64, 2017/11/15 11:46:58.161上午,385,50,30,38,50
530,2.645, 2017/11/15 11:46:58.166上午,370,50,0,38,50
531,2.65, 2017/11/15 11:46:58.171上午,380,49,28,37,49
532,2.655, 2017/11/15 11:46:58.176上午,376,50,30,39,50
533,2.66, 2017/11/15 11:46:58.181上午,372,50,28,40,50
534,2.665, 2017/11/15 11:46:58.186上午,394,50,28,38,50
535,2.67, 2017/11/15 11:46:58.191上午,372,52,0,40,52
536,2.675, 2017/11/15 11:46:58.196上午,392,50,30,40,50
537,2.68, 2017/11/15 11:46:58.201上午,360,50,0,39,50
538,2.685, 2017/11/15 11:46:58.206上午,365,52,0,38,52
539,2.69, 2017/11/15 11:46:58.211上午,393,50,30,36,50
540,2.695, 2017/11/15 11:46:58.216上午,379,52,0,38,52
541,2.7, 2017/11/15 11:46:58.221上午,371,50,0,40,50
542,2.705, 2017/11/15 11:46:58.226上午,380,50,30,38,50
543,2.71, 2017/11/15 11:46:58.231上午,373,52,0,40,52
544,2.715, 2017/11/15 11:46:58.236上午,392,49,33,36,49
545,2.72, 2017/11/15 11:46:58.241上午,390,50,28,41,50
546,2.725, 2017/11/15 11:46:58.246上午,365,50,28,38,50
547,2.73, 2017/11/15 11:46:58.251上午,365,50,0,37,50
548,2.735, 2017/11/15 11:46:58.256上午,363,52,0,40,52
549,2.74, 2017/11/15 11:46:58.261上午,367,50,0,40,50
550,2.745, 2017/11/15 11:46:58.266上午,377,50,33,40,50
551,2.75, 2017/11/15 11:46:58.271上午,362,50,0,38,50
552,2.755, 2017/11/15 11:46:58.276上午,369,50,0,37,50
553,2.76, 2017/11/15 11:46:58.281上午,364,50,0,40,50
554,2.765, 2017/11/15 11:46:58.286上午,383,50,33,39,50
555,2.77, 2017/11/15 11:46:58.291上午,364,50,0,39,50
556,2.775, 2017/11/15 11:46:58.296上午,382,50,30,37,50
557,2.78, 2017/11/15 11:46:58.301上午,364,50,0,37,50
558,2.785, 2017/11/15 11:46:58.306上午,396,50,33,39,50
559,2.79, 2017/11/15 11:46:58.311上午,372,52,0,37,52
560,2.795, 2017/11/15 11:46:58.316上午,362,49,0,40,49
561,2.8, 2017/11/15 11:46:58.321上午,373,50,0,37,50
562,2.805, 2017/11/15 11:46:58.326上午,374,53,0,37,53
563,2.81, 2017/11/15 11:46:58.331上午,381,50,28,39,50
564,2.815, 2017/11/15 11:46:58.336上午,374,50,30,39,50
565,2.82, 2017/11/15 11:46:58.341上午,378,50,0,37,50
566,2.825, 2017/11/15 11:46:58.346上午,370,50,28,37,50
567,2.83, 2017/11/15 11:46:58.351上午,380,49,28,38,49
568,2.835, 2017/11/15 11:46:58.356上午,396,49,30,37,49
569,2.84, 2017/11/15 11:46:58.361上午,367,52,0,38,52
570,2.845, 2017/11/15 11:46:58.366上午,375,50,0,37,50
571,2.85, 2017/11/15 11:46:58.371上午,369,50,0,37,50
572,2.855, 2017/11/15 11:46:58.376上午,373,50,0,37,50
573,2.86, 2017/11/15 11:46:58.381上午,375,49,0,37,49
574,2.865, 2017/11/15 11:46:58.386上午,389,53,32,37,53
575,2.87, 2017/11/15 11:46:58.391上午,371,50,0,35,50
576,2.875, 2017/11/15 11:46:58.396上午,368,53,0,37,53
577,2.88, 2017/11/15 11:46:58.401上午,372,49,0,38,49
578,2.885, 2017/11/15 11:46:58.406上午,382,49,30,37,49
579,2.89, 2017/11/15 11:46:58.411上午,364,52,0,39,52
580,2.895, 2017/11/15 11:46:58.416上午,374,50,28,38,50
581,2.9, 2017/11/15 11:46:58.421上午,393,50,28,37,50
582,2.905, 2017/11/15 11:46:58.426上午,363,52,0,39,52
583,2.91, 2017/11/15 11:46:58.431上午,372,52,0,37,52
584,2.915, 2017/11/15 11:46:58.436上午,389,50,28,37,50
585,2.92, 2017/11/15 11:46:58.441上午,391,50,30,38,50
586,2.925, 2017/11/15 11:46:58.446上午,392,50,28,37,50
587,2.93, 2017/11/15 11:46:58.451上午,375,50,30,39,50
588,2.935, 2017/11/15 11:46:58.456上午,372,50,0,38,50
589,2.94, 2017/11/15 11:46:58.461上午,360,49,0,37,49
590,2.945, 2017/11/15 11:46:58.466上午,386,52,32,39,52
591,2.95, 2017/11/15 11:46:58.471上午,369,50,28,37,50
592,2.955, 2017/11/15 11:46:58.476上午,382,50,32,37,50
593,2.96, 2017/11/15 11:46:58.481上午,385,49,28,37,49
594,2.965, 2017/11/15 11:46:58.486上午,394,50,30,38,50
595,2.97, 2017/11/15 11:46:58.491上午,369,49,0,36,49
596,2.975, 2017/11/15 11:46:58.496上午,374,50,30,37,50
597,2.98, 2017/11/15 11:46:58.501上午,366,53,0,39,53
598,2.985, 2017/11/15 11:46:58.506上午,385,50,30,37,50
599,2.99, 2017/11/15 11:46:58.511上午,372,55,0,37,55
600,2.995, 2017/11/15 11:46:58.516上午,387,53,32,37,53
@@,,,,,,,
