DATA_TYPE Graph
VERSION Tekscan Pressure Measurement System 6.70-03
HARDWARE 00114-3447
MAP_VERSION 6.5
HW_TYPE 4
VersaPogoFsx 0
檔案名 C:\Users\asus\Desktop\工研院_計畫\收案資料\Subject02\Plantar Pressure\R65S_STAND_RIGHT_2.fsx
SENSOR_TYPE FSCAN
ROWS 60
COLS 21
ROW_SPACING 0.508 centimeters
COL_SPACING 0.508 centimeters
SENSEL_AREA 0.258064 cm2
NOISE_THRESHOLD 3
SECONDS_PER_FRAME 0.005
SECONDS_PER_FRAME 0
MICRO_SECOND 0
TIME 2017/11/15 11:14:41.646上午
SATURATION_PRESSURE 2347.96 KPa 
CALIBRATION_POINT_1 48.0001 (Kilograms) 1981 (Raw Sum) 199 (Number of Loaded Cells)
CALIBRATION_MODE_1 步態
CALIBRATION_INFO C:\Users\asus\Desktop\工研院_計畫\收案資料\Subject02\Plantar Pressure\R65S_STAND_RIGHT_2.fsx
SENSITIVITY 自定義
MAP_INDEX 0
SUBMAP 0
Patient ID: 

Speed of Gait: 

Weight: 

Gender: 

Physician: 

Technician: 

Shoe: 

START_FRAME 1
END_FRAME 600
UNITS KPa
ASCII_DATA @@
畫面(X), 時間(X), 絕對時間(X), Raw Sum, 壓力(Y:深藍色), 壓力(Y), 壓力(Y), 壓力(Y)
1, 0, 2017/11/15 11:14:41.646上午, 604.0, 37, 32, 38, 36
2, 0.005, 2017/11/15 11:14:41.651上午, 603.0, 36, 33, 37, 36
3, 0.01, 2017/11/15 11:14:41.656上午, 622.0, 36, 32, 37, 36
4, 0.015, 2017/11/15 11:14:41.661上午, 610.0, 37, 32, 37, 36
5, 0.02, 2017/11/15 11:14:41.666上午, 610.0, 38, 32, 37, 36
6, 0.025, 2017/11/15 11:14:41.671上午, 583.0, 37, 32, 38, 36
7, 0.03, 2017/11/15 11:14:41.676上午, 610.0, 37, 31, 38, 36
8, 0.035, 2017/11/15 11:14:41.681上午, 598.0, 38, 31, 38, 37
9, 0.04, 2017/11/15 11:14:41.686上午, 607.0, 37, 33, 38, 36
10, 0.045, 2017/11/15 11:14:41.691上午, 620.0, 36, 31, 38, 36
11, 0.05, 2017/11/15 11:14:41.696上午, 606.0, 36, 32, 37, 36
12, 0.055, 2017/11/15 11:14:41.701上午, 610.0, 38, 32, 37, 36
13, 0.06, 2017/11/15 11:14:41.706上午, 595.0, 37, 33, 38, 37
14, 0.065, 2017/11/15 11:14:41.711上午, 595.0, 38, 32, 38, 36
15, 0.07, 2017/11/15 11:14:41.716上午, 591.0, 38, 32, 38, 36
16, 0.075, 2017/11/15 11:14:41.721上午, 592.0, 37, 31, 39, 36
17, 0.08, 2017/11/15 11:14:41.726上午, 591.0, 38, 32, 38, 37
18, 0.085, 2017/11/15 11:14:41.731上午, 601.0, 37, 32, 38, 36
19, 0.09, 2017/11/15 11:14:41.736上午, 631.0, 37, 32, 36, 36
20, 0.095, 2017/11/15 11:14:41.741上午, 593.0, 37, 32, 38, 36
21, 0.1, 2017/11/15 11:14:41.746上午, 618.0, 37, 32, 37, 36
22, 0.105, 2017/11/15 11:14:41.751上午, 624.0, 37, 32, 37, 36
23, 0.11, 2017/11/15 11:14:41.756上午, 609.0, 38, 32, 37, 36
24, 0.115, 2017/11/15 11:14:41.761上午, 585.0, 37, 31, 39, 36
25, 0.12, 2017/11/15 11:14:41.766上午, 605.0, 37, 31, 37, 36
26, 0.125, 2017/11/15 11:14:41.771上午, 587.0, 37, 31, 37, 36
27, 0.13, 2017/11/15 11:14:41.776上午, 592.0, 37, 31, 37, 36
28, 0.135, 2017/11/15 11:14:41.781上午, 622.0, 37, 32, 36, 35
29, 0.14, 2017/11/15 11:14:41.786上午, 628.0, 38, 32, 36, 35
30, 0.145, 2017/11/15 11:14:41.791上午, 593.0, 38, 32, 38, 36
31, 0.15, 2017/11/15 11:14:41.796上午, 588.0, 38, 32, 38, 36
32, 0.155, 2017/11/15 11:14:41.801上午, 594.0, 38, 31, 38, 36
33, 0.16, 2017/11/15 11:14:41.806上午, 603.0, 37, 31, 37, 36
34, 0.165, 2017/11/15 11:14:41.811上午, 598.0, 37, 32, 38, 36
35, 0.17, 2017/11/15 11:14:41.816上午, 600.0, 36, 33, 37, 36
36, 0.175, 2017/11/15 11:14:41.821上午, 628.0, 37, 31, 37, 35
37, 0.18, 2017/11/15 11:14:41.826上午, 609.0, 37, 33, 37, 36
38, 0.185, 2017/11/15 11:14:41.831上午, 609.0, 37, 32, 37, 36
39, 0.19, 2017/11/15 11:14:41.836上午, 602.0, 38, 33, 37, 36
40, 0.195, 2017/11/15 11:14:41.841上午, 602.0, 37, 32, 37, 36
41, 0.2, 2017/11/15 11:14:41.846上午, 611.0, 36, 32, 37, 36
42, 0.205, 2017/11/15 11:14:41.851上午, 613.0, 36, 32, 36, 35
43, 0.21, 2017/11/15 11:14:41.856上午, 620.0, 37, 32, 37, 35
44, 0.215, 2017/11/15 11:14:41.861上午, 597.0, 36, 32, 37, 35
45, 0.22, 2017/11/15 11:14:41.866上午, 591.0, 38, 31, 36, 36
46, 0.225, 2017/11/15 11:14:41.871上午, 574.0, 38, 30, 38, 36
47, 0.23, 2017/11/15 11:14:41.876上午, 595.0, 37, 31, 37, 35
48, 0.235, 2017/11/15 11:14:41.881上午, 607.0, 37, 32, 37, 36
49, 0.24, 2017/11/15 11:14:41.886上午, 618.0, 36, 32, 36, 35
50, 0.245, 2017/11/15 11:14:41.891上午, 614.0, 37, 31, 37, 36
51, 0.25, 2017/11/15 11:14:41.896上午, 590.0, 37, 32, 37, 36
52, 0.255, 2017/11/15 11:14:41.901上午, 582.0, 37, 31, 37, 36
53, 0.26, 2017/11/15 11:14:41.906上午, 599.0, 37, 32, 38, 36
54, 0.265, 2017/11/15 11:14:41.911上午, 591.0, 38, 31, 37, 36
55, 0.27, 2017/11/15 11:14:41.916上午, 585.0, 38, 30, 37, 36
56, 0.275, 2017/11/15 11:14:41.921上午, 608.0, 37, 32, 38, 36
57, 0.28, 2017/11/15 11:14:41.926上午, 606.0, 37, 32, 37, 36
58, 0.285, 2017/11/15 11:14:41.931上午, 597.0, 37, 30, 37, 35
59, 0.29, 2017/11/15 11:14:41.936上午, 608.0, 36, 31, 38, 36
60, 0.295, 2017/11/15 11:14:41.941上午, 629.0, 36, 32, 36, 35
61, 0.3, 2017/11/15 11:14:41.946上午, 605.0, 36, 32, 36, 35
62, 0.305, 2017/11/15 11:14:41.951上午, 616.0, 38, 31, 36, 36
63, 0.31, 2017/11/15 11:14:41.956上午, 596.0, 38, 32, 37, 36
64, 0.315, 2017/11/15 11:14:41.961上午, 593.0, 37, 31, 37, 36
65, 0.32, 2017/11/15 11:14:41.966上午, 595.0, 37, 31, 37, 36
66, 0.325, 2017/11/15 11:14:41.971上午, 605.0, 37, 31, 37, 36
67, 0.33, 2017/11/15 11:14:41.976上午, 600.0, 37, 32, 37, 36
68, 0.335, 2017/11/15 11:14:41.981上午, 607.0, 36, 31, 37, 35
69, 0.34, 2017/11/15 11:14:41.986上午, 598.0, 36, 32, 37, 35
70, 0.345, 2017/11/15 11:14:41.991上午, 632.0, 37, 31, 37, 36
71, 0.35, 2017/11/15 11:14:41.996上午, 595.0, 37, 31, 37, 36
72, 0.355, 2017/11/15 11:14:42.001上午, 598.0, 38, 31, 37, 36
73, 0.36, 2017/11/15 11:14:42.006上午, 602.0, 37, 31, 38, 35
74, 0.365, 2017/11/15 11:14:42.011上午, 611.0, 36, 30, 37, 35
75, 0.37, 2017/11/15 11:14:42.016上午, 603.0, 37, 30, 37, 35
76, 0.375, 2017/11/15 11:14:42.021上午, 620.0, 37, 32, 38, 36
77, 0.38, 2017/11/15 11:14:42.026上午, 593.0, 36, 32, 36, 35
78, 0.385, 2017/11/15 11:14:42.031上午, 606.0, 37, 32, 36, 35
79, 0.39, 2017/11/15 11:14:42.036上午, 607.0, 36, 32, 36, 35
80, 0.395, 2017/11/15 11:14:42.041上午, 610.0, 37, 31, 37, 36
81, 0.4, 2017/11/15 11:14:42.046上午, 602.0, 37, 32, 38, 36
82, 0.405, 2017/11/15 11:14:42.051上午, 593.0, 37, 31, 37, 36
83, 0.41, 2017/11/15 11:14:42.056上午, 584.0, 36, 30, 36, 35
84, 0.415, 2017/11/15 11:14:42.061上午, 591.0, 36, 32, 38, 36
85, 0.42, 2017/11/15 11:14:42.066上午, 616.0, 36, 31, 37, 36
86, 0.425, 2017/11/15 11:14:42.071上午, 593.0, 36, 31, 37, 35
87, 0.43, 2017/11/15 11:14:42.076上午, 587.0, 36, 32, 36, 35
88, 0.435, 2017/11/15 11:14:42.081上午, 615.0, 37, 31, 37, 35
89, 0.44, 2017/11/15 11:14:42.086上午, 579.0, 37, 31, 38, 36
90, 0.445, 2017/11/15 11:14:42.091上午, 605.0, 37, 30, 37, 35
91, 0.45, 2017/11/15 11:14:42.096上午, 589.0, 36, 31, 37, 35
92, 0.455, 2017/11/15 11:14:42.101上午, 620.0, 36, 31, 37, 35
93, 0.46, 2017/11/15 11:14:42.106上午, 614.0, 36, 31, 37, 35
94, 0.465, 2017/11/15 11:14:42.111上午, 614.0, 37, 31, 37, 36
95, 0.47, 2017/11/15 11:14:42.116上午, 591.0, 37, 31, 38, 36
96, 0.475, 2017/11/15 11:14:42.121上午, 584.0, 37, 32, 37, 36
97, 0.48, 2017/11/15 11:14:42.126上午, 600.0, 37, 30, 37, 35
98, 0.485, 2017/11/15 11:14:42.131上午, 585.0, 36, 31, 37, 35
99, 0.49, 2017/11/15 11:14:42.136上午, 574.0, 36, 31, 37, 35
100, 0.495, 2017/11/15 11:14:42.141上午, 580.0, 36, 30, 37, 35
101, 0.5, 2017/11/15 11:14:42.146上午, 604.0, 36, 31, 37, 35
102, 0.505, 2017/11/15 11:14:42.151上午, 599.0, 36, 32, 37, 35
103, 0.51, 2017/11/15 11:14:42.156上午, 596.0, 36, 32, 36, 35
104, 0.515, 2017/11/15 11:14:42.161上午, 613.0, 36, 31, 37, 35
105, 0.52, 2017/11/15 11:14:42.166上午, 619.0, 37, 32, 38, 36
106, 0.525, 2017/11/15 11:14:42.171上午, 592.0, 37, 30, 37, 35
107, 0.53, 2017/11/15 11:14:42.176上午, 578.0, 37, 31, 37, 35
108, 0.535, 2017/11/15 11:14:42.181上午, 610.0, 36, 30, 37, 35
109, 0.54, 2017/11/15 11:14:42.186上午, 608.0, 36, 32, 36, 35
110, 0.545, 2017/11/15 11:14:42.191上午, 597.0, 36, 31, 36, 35
111, 0.55, 2017/11/15 11:14:42.196上午, 616.0, 37, 31, 37, 35
112, 0.555, 2017/11/15 11:14:42.201上午, 593.0, 37, 31, 37, 36
113, 0.56, 2017/11/15 11:14:42.206上午, 582.0, 36, 31, 37, 35
114, 0.565, 2017/11/15 11:14:42.211上午, 600.0, 36, 31, 37, 35
115, 0.57, 2017/11/15 11:14:42.216上午, 598.0, 36, 32, 37, 35
116, 0.575, 2017/11/15 11:14:42.221上午, 597.0, 36, 31, 37, 35
117, 0.58, 2017/11/15 11:14:42.226上午, 604.0, 36, 31, 36, 35
118, 0.585, 2017/11/15 11:14:42.231上午, 592.0, 36, 32, 36, 35
119, 0.59, 2017/11/15 11:14:42.236上午, 585.0, 37, 31, 36, 35
120, 0.595, 2017/11/15 11:14:42.241上午, 599.0, 36, 31, 36, 35
121, 0.6, 2017/11/15 11:14:42.246上午, 583.0, 37, 30, 37, 35
122, 0.605, 2017/11/15 11:14:42.251上午, 581.0, 36, 32, 37, 35
123, 0.61, 2017/11/15 11:14:42.256上午, 595.0, 36, 32, 36, 35
124, 0.615, 2017/11/15 11:14:42.261上午, 604.0, 36, 31, 37, 35
125, 0.62, 2017/11/15 11:14:42.266上午, 616.0, 36, 31, 37, 35
126, 0.625, 2017/11/15 11:14:42.271上午, 601.0, 37, 31, 37, 36
127, 0.63, 2017/11/15 11:14:42.276上午, 591.0, 36, 30, 37, 35
128, 0.635, 2017/11/15 11:14:42.281上午, 600.0, 37, 30, 37, 35
129, 0.64, 2017/11/15 11:14:42.286上午, 589.0, 36, 31, 37, 35
130, 0.645, 2017/11/15 11:14:42.291上午, 585.0, 36, 31, 36, 35
131, 0.65, 2017/11/15 11:14:42.296上午, 616.0, 37, 32, 36, 35
132, 0.655, 2017/11/15 11:14:42.301上午, 586.0, 37, 31, 37, 35
133, 0.66, 2017/11/15 11:14:42.306上午, 585.0, 37, 31, 37, 35
134, 0.665, 2017/11/15 11:14:42.311上午, 590.0, 37, 31, 36, 35
135, 0.67, 2017/11/15 11:14:42.316上午, 582.0, 36, 30, 38, 35
136, 0.675, 2017/11/15 11:14:42.321上午, 582.0, 36, 30, 37, 35
137, 0.68, 2017/11/15 11:14:42.326上午, 589.0, 36, 31, 37, 35
138, 0.685, 2017/11/15 11:14:42.331上午, 608.0, 36, 31, 36, 35
139, 0.69, 2017/11/15 11:14:42.336上午, 608.0, 35, 31, 37, 35
140, 0.695, 2017/11/15 11:14:42.341上午, 608.0, 37, 31, 36, 35
141, 0.7, 2017/11/15 11:14:42.346上午, 626.0, 36, 31, 36, 35
142, 0.705, 2017/11/15 11:14:42.351上午, 616.0, 37, 31, 35, 35
143, 0.71, 2017/11/15 11:14:42.356上午, 590.0, 36, 30, 36, 35
144, 0.715, 2017/11/15 11:14:42.361上午, 601.0, 37, 31, 36, 35
145, 0.72, 2017/11/15 11:14:42.366上午, 581.0, 37, 31, 37, 36
146, 0.725, 2017/11/15 11:14:42.371上午, 576.0, 36, 31, 37, 35
147, 0.73, 2017/11/15 11:14:42.376上午, 587.0, 37, 30, 36, 35
148, 0.735, 2017/11/15 11:14:42.381上午, 583.0, 37, 31, 37, 35
149, 0.74, 2017/11/15 11:14:42.386上午, 594.0, 36, 31, 36, 35
150, 0.745, 2017/11/15 11:14:42.391上午, 594.0, 36, 31, 37, 35
151, 0.75, 2017/11/15 11:14:42.396上午, 589.0, 36, 31, 36, 35
152, 0.755, 2017/11/15 11:14:42.401上午, 613.0, 37, 32, 36, 35
153, 0.76, 2017/11/15 11:14:42.406上午, 607.0, 38, 31, 36, 36
154, 0.765, 2017/11/15 11:14:42.411上午, 574.0, 37, 31, 38, 36
155, 0.77, 2017/11/15 11:14:42.416上午, 595.0, 37, 31, 36, 35
156, 0.775, 2017/11/15 11:14:42.421上午, 586.0, 37, 32, 37, 36
157, 0.78, 2017/11/15 11:14:42.426上午, 575.0, 37, 31, 37, 36
158, 0.785, 2017/11/15 11:14:42.431上午, 581.0, 37, 30, 36, 35
159, 0.79, 2017/11/15 11:14:42.436上午, 595.0, 37, 30, 37, 35
160, 0.795, 2017/11/15 11:14:42.441上午, 569.0, 36, 31, 37, 35
161, 0.8, 2017/11/15 11:14:42.446上午, 570.0, 36, 31, 37, 35
162, 0.805, 2017/11/15 11:14:42.451上午, 604.0, 36, 30, 36, 35
163, 0.81, 2017/11/15 11:14:42.456上午, 599.0, 36, 31, 37, 35
164, 0.815, 2017/11/15 11:14:42.461上午, 590.0, 36, 31, 36, 35
165, 0.82, 2017/11/15 11:14:42.466上午, 612.0, 37, 31, 36, 35
166, 0.825, 2017/11/15 11:14:42.471上午, 589.0, 37, 31, 37, 36
167, 0.83, 2017/11/15 11:14:42.476上午, 612.0, 37, 31, 37, 35
168, 0.835, 2017/11/15 11:14:42.481上午, 584.0, 37, 30, 37, 35
169, 0.84, 2017/11/15 11:14:42.486上午, 591.0, 37, 30, 37, 35
170, 0.845, 2017/11/15 11:14:42.491上午, 610.0, 36, 30, 36, 34
171, 0.85, 2017/11/15 11:14:42.496上午, 618.0, 36, 31, 36, 35
172, 0.855, 2017/11/15 11:14:42.501上午, 601.0, 36, 31, 36, 35
173, 0.86, 2017/11/15 11:14:42.506上午, 608.0, 37, 31, 36, 35
174, 0.865, 2017/11/15 11:14:42.511上午, 629.0, 37, 31, 35, 35
175, 0.87, 2017/11/15 11:14:42.516上午, 581.0, 36, 30, 36, 35
176, 0.875, 2017/11/15 11:14:42.521上午, 611.0, 36, 31, 36, 35
177, 0.88, 2017/11/15 11:14:42.526上午, 590.0, 37, 31, 37, 36
178, 0.885, 2017/11/15 11:14:42.531上午, 579.0, 36, 31, 36, 35
179, 0.89, 2017/11/15 11:14:42.536上午, 597.0, 36, 31, 36, 35
180, 0.895, 2017/11/15 11:14:42.541上午, 575.0, 37, 31, 36, 35
181, 0.9, 2017/11/15 11:14:42.546上午, 589.0, 37, 30, 37, 35
182, 0.905, 2017/11/15 11:14:42.551上午, 618.0, 37, 31, 37, 35
183, 0.91, 2017/11/15 11:14:42.556上午, 631.0, 37, 30, 36, 35
184, 0.915, 2017/11/15 11:14:42.561上午, 620.0, 36, 31, 36, 35
185, 0.92, 2017/11/15 11:14:42.566上午, 623.0, 36, 31, 35, 34
186, 0.925, 2017/11/15 11:14:42.571上午, 644.0, 37, 31, 36, 35
187, 0.93, 2017/11/15 11:14:42.576上午, 610.0, 37, 30, 36, 35
188, 0.935, 2017/11/15 11:14:42.581上午, 589.0, 37, 30, 37, 35
189, 0.94, 2017/11/15 11:14:42.586上午, 600.0, 37, 31, 36, 35
190, 0.945, 2017/11/15 11:14:42.591上午, 609.0, 37, 31, 36, 35
191, 0.95, 2017/11/15 11:14:42.596上午, 610.0, 36, 31, 36, 35
192, 0.955, 2017/11/15 11:14:42.601上午, 592.0, 36, 31, 36, 35
193, 0.96, 2017/11/15 11:14:42.606上午, 613.0, 36, 31, 36, 35
194, 0.965, 2017/11/15 11:14:42.611上午, 611.0, 36, 31, 36, 35
195, 0.97, 2017/11/15 11:14:42.616上午, 626.0, 36, 31, 36, 35
196, 0.975, 2017/11/15 11:14:42.621上午, 625.0, 37, 31, 35, 35
197, 0.98, 2017/11/15 11:14:42.626上午, 622.0, 37, 30, 35, 35
198, 0.985, 2017/11/15 11:14:42.631上午, 605.0, 37, 30, 36, 35
199, 0.99, 2017/11/15 11:14:42.636上午, 580.0, 37, 31, 37, 36
200, 0.995, 2017/11/15 11:14:42.641上午, 600.0, 38, 30, 36, 35
201, 1, 2017/11/15 11:14:42.646上午, 601.0, 37, 31, 37, 35
202, 1.005, 2017/11/15 11:14:42.651上午, 595.0, 36, 30, 36, 35
203, 1.01, 2017/11/15 11:14:42.656上午, 625.0, 36, 30, 37, 35
204, 1.015, 2017/11/15 11:14:42.661上午, 614.0, 36, 31, 36, 35
205, 1.02, 2017/11/15 11:14:42.666上午, 608.0, 36, 31, 36, 35
206, 1.025, 2017/11/15 11:14:42.671上午, 590.0, 36, 31, 36, 35
207, 1.03, 2017/11/15 11:14:42.676上午, 604.0, 36, 31, 36, 35
208, 1.035, 2017/11/15 11:14:42.681上午, 608.0, 38, 32, 36, 36
209, 1.04, 2017/11/15 11:14:42.686上午, 578.0, 37, 31, 37, 36
210, 1.045, 2017/11/15 11:14:42.691上午, 588.0, 37, 30, 36, 35
211, 1.05, 2017/11/15 11:14:42.696上午, 597.0, 37, 30, 36, 35
212, 1.055, 2017/11/15 11:14:42.701上午, 593.0, 36, 32, 36, 35
213, 1.06, 2017/11/15 11:14:42.706上午, 601.0, 36, 31, 37, 35
214, 1.065, 2017/11/15 11:14:42.711上午, 614.0, 36, 31, 36, 35
215, 1.07, 2017/11/15 11:14:42.716上午, 609.0, 37, 30, 35, 35
216, 1.075, 2017/11/15 11:14:42.721上午, 598.0, 37, 31, 36, 35
217, 1.08, 2017/11/15 11:14:42.726上午, 632.0, 38, 31, 35, 35
218, 1.085, 2017/11/15 11:14:42.731上午, 586.0, 37, 30, 36, 35
219, 1.09, 2017/11/15 11:14:42.736上午, 586.0, 37, 30, 36, 35
220, 1.095, 2017/11/15 11:14:42.741上午, 599.0, 37, 30, 36, 35
221, 1.1, 2017/11/15 11:14:42.746上午, 579.0, 38, 30, 36, 35
222, 1.105, 2017/11/15 11:14:42.751上午, 592.0, 38, 30, 36, 35
223, 1.11, 2017/11/15 11:14:42.756上午, 607.0, 37, 31, 36, 35
224, 1.115, 2017/11/15 11:14:42.761上午, 607.0, 36, 31, 35, 35
225, 1.12, 2017/11/15 11:14:42.766上午, 606.0, 37, 31, 36, 35
226, 1.125, 2017/11/15 11:14:42.771上午, 586.0, 37, 30, 37, 35
227, 1.13, 2017/11/15 11:14:42.776上午, 607.0, 37, 31, 35, 35
228, 1.135, 2017/11/15 11:14:42.781上午, 596.0, 38, 30, 37, 36
229, 1.14, 2017/11/15 11:14:42.786上午, 625.0, 37, 31, 35, 35
230, 1.145, 2017/11/15 11:14:42.791上午, 603.0, 36, 31, 35, 35
231, 1.15, 2017/11/15 11:14:42.796上午, 602.0, 38, 31, 36, 36
232, 1.155, 2017/11/15 11:14:42.801上午, 598.0, 38, 30, 36, 35
233, 1.16, 2017/11/15 11:14:42.806上午, 611.0, 37, 31, 36, 35
234, 1.165, 2017/11/15 11:14:42.811上午, 598.0, 37, 31, 36, 35
235, 1.17, 2017/11/15 11:14:42.816上午, 602.0, 37, 31, 36, 35
236, 1.175, 2017/11/15 11:14:42.821上午, 635.0, 37, 30, 35, 35
237, 1.18, 2017/11/15 11:14:42.826上午, 610.0, 37, 31, 35, 35
238, 1.185, 2017/11/15 11:14:42.831上午, 613.0, 37, 31, 35, 35
239, 1.19, 2017/11/15 11:14:42.836上午, 606.0, 38, 31, 37, 36
240, 1.195, 2017/11/15 11:14:42.841上午, 589.0, 37, 31, 35, 35
241, 1.2, 2017/11/15 11:14:42.846上午, 617.0, 37, 30, 35, 35
242, 1.205, 2017/11/15 11:14:42.851上午, 595.0, 37, 30, 36, 35
243, 1.21, 2017/11/15 11:14:42.856上午, 626.0, 37, 30, 36, 35
244, 1.215, 2017/11/15 11:14:42.861上午, 599.0, 37, 31, 36, 35
245, 1.22, 2017/11/15 11:14:42.866上午, 601.0, 37, 31, 35, 35
246, 1.225, 2017/11/15 11:14:42.871上午, 631.0, 37, 31, 35, 35
247, 1.23, 2017/11/15 11:14:42.876上午, 592.0, 37, 31, 36, 35
248, 1.235, 2017/11/15 11:14:42.881上午, 586.0, 37, 30, 36, 35
249, 1.24, 2017/11/15 11:14:42.886上午, 602.0, 37, 31, 35, 35
250, 1.245, 2017/11/15 11:14:42.891上午, 623.0, 37, 31, 36, 35
251, 1.25, 2017/11/15 11:14:42.896上午, 619.0, 37, 31, 35, 35
252, 1.255, 2017/11/15 11:14:42.901上午, 602.0, 37, 31, 35, 35
253, 1.26, 2017/11/15 11:14:42.906上午, 583.0, 38, 30, 36, 35
254, 1.265, 2017/11/15 11:14:42.911上午, 588.0, 38, 31, 36, 36
255, 1.27, 2017/11/15 11:14:42.916上午, 598.0, 38, 30, 36, 35
256, 1.275, 2017/11/15 11:14:42.921上午, 606.0, 37, 31, 36, 35
257, 1.28, 2017/11/15 11:14:42.926上午, 608.0, 36, 31, 35, 35
258, 1.285, 2017/11/15 11:14:42.931上午, 583.0, 37, 31, 36, 35
259, 1.29, 2017/11/15 11:14:42.936上午, 626.0, 37, 31, 35, 35
260, 1.295, 2017/11/15 11:14:42.941上午, 618.0, 38, 31, 35, 35
261, 1.3, 2017/11/15 11:14:42.946上午, 613.0, 37, 31, 36, 35
262, 1.305, 2017/11/15 11:14:42.951上午, 594.0, 37, 30, 37, 35
263, 1.31, 2017/11/15 11:14:42.956上午, 586.0, 37, 30, 36, 35
264, 1.315, 2017/11/15 11:14:42.961上午, 599.0, 36, 31, 36, 35
265, 1.32, 2017/11/15 11:14:42.966上午, 611.0, 37, 31, 35, 35
266, 1.325, 2017/11/15 11:14:42.971上午, 597.0, 36, 30, 36, 35
267, 1.33, 2017/11/15 11:14:42.976上午, 621.0, 37, 31, 36, 35
268, 1.335, 2017/11/15 11:14:42.981上午, 589.0, 38, 31, 36, 36
269, 1.34, 2017/11/15 11:14:42.986上午, 604.0, 38, 30, 36, 35
270, 1.345, 2017/11/15 11:14:42.991上午, 592.0, 38, 31, 36, 36
271, 1.35, 2017/11/15 11:14:42.996上午, 599.0, 37, 31, 36, 35
272, 1.355, 2017/11/15 11:14:43.001上午, 635.0, 36, 31, 35, 35
273, 1.36, 2017/11/15 11:14:43.006上午, 624.0, 38, 31, 35, 35
274, 1.365, 2017/11/15 11:14:43.011上午, 573.0, 37, 30, 36, 35
275, 1.37, 2017/11/15 11:14:43.016上午, 602.0, 37, 30, 36, 35
276, 1.375, 2017/11/15 11:14:43.021上午, 607.0, 37, 31, 36, 35
277, 1.38, 2017/11/15 11:14:43.026上午, 619.0, 37, 31, 36, 35
278, 1.385, 2017/11/15 11:14:43.031上午, 626.0, 36, 30, 35, 34
279, 1.39, 2017/11/15 11:14:43.036上午, 604.0, 36, 31, 35, 35
280, 1.395, 2017/11/15 11:14:43.041上午, 630.0, 37, 31, 35, 35
281, 1.4, 2017/11/15 11:14:43.046上午, 607.0, 37, 30, 36, 35
282, 1.405, 2017/11/15 11:14:43.051上午, 588.0, 38, 30, 36, 35
283, 1.41, 2017/11/15 11:14:43.056上午, 598.0, 37, 30, 36, 35
284, 1.415, 2017/11/15 11:14:43.061上午, 598.0, 37, 30, 36, 35
285, 1.42, 2017/11/15 11:14:43.066上午, 584.0, 37, 31, 36, 35
286, 1.425, 2017/11/15 11:14:43.071上午, 610.0, 37, 31, 35, 35
287, 1.43, 2017/11/15 11:14:43.076上午, 599.0, 36, 31, 36, 35
288, 1.435, 2017/11/15 11:14:43.081上午, 614.0, 37, 30, 35, 35
289, 1.44, 2017/11/15 11:14:43.086上午, 609.0, 37, 31, 36, 35
290, 1.445, 2017/11/15 11:14:43.091上午, 596.0, 38, 31, 36, 35
291, 1.45, 2017/11/15 11:14:43.096上午, 594.0, 38, 30, 36, 35
292, 1.455, 2017/11/15 11:14:43.101上午, 607.0, 37, 29, 36, 35
293, 1.46, 2017/11/15 11:14:43.106上午, 616.0, 37, 30, 36, 35
294, 1.465, 2017/11/15 11:14:43.111上午, 618.0, 37, 31, 36, 35
295, 1.47, 2017/11/15 11:14:43.116上午, 623.0, 37, 30, 35, 35
296, 1.475, 2017/11/15 11:14:43.121上午, 613.0, 36, 30, 35, 34
297, 1.48, 2017/11/15 11:14:43.126上午, 623.0, 36, 30, 35, 34
298, 1.485, 2017/11/15 11:14:43.131上午, 606.0, 38, 31, 35, 35
299, 1.49, 2017/11/15 11:14:43.136上午, 605.0, 37, 31, 36, 35
300, 1.495, 2017/11/15 11:14:43.141上午, 621.0, 37, 30, 36, 35
301, 1.5, 2017/11/15 11:14:43.146上午, 579.0, 37, 30, 36, 35
302, 1.505, 2017/11/15 11:14:43.151上午, 616.0, 38, 30, 37, 35
303, 1.51, 2017/11/15 11:14:43.156上午, 620.0, 37, 31, 36, 35
304, 1.515, 2017/11/15 11:14:43.161上午, 639.0, 37, 31, 35, 35
305, 1.52, 2017/11/15 11:14:43.166上午, 613.0, 37, 30, 35, 35
306, 1.525, 2017/11/15 11:14:43.171上午, 592.0, 38, 30, 36, 35
307, 1.53, 2017/11/15 11:14:43.176上午, 605.0, 37, 31, 36, 35
308, 1.535, 2017/11/15 11:14:43.181上午, 617.0, 37, 30, 37, 35
309, 1.54, 2017/11/15 11:14:43.186上午, 609.0, 37, 31, 36, 35
310, 1.545, 2017/11/15 11:14:43.191上午, 614.0, 36, 31, 36, 35
311, 1.55, 2017/11/15 11:14:43.196上午, 602.0, 36, 31, 35, 35
312, 1.555, 2017/11/15 11:14:43.201上午, 608.0, 37, 31, 36, 35
313, 1.56, 2017/11/15 11:14:43.206上午, 589.0, 37, 31, 36, 35
314, 1.565, 2017/11/15 11:14:43.211上午, 611.0, 37, 31, 36, 35
315, 1.57, 2017/11/15 11:14:43.216上午, 611.0, 38, 30, 36, 35
316, 1.575, 2017/11/15 11:14:43.221上午, 609.0, 37, 31, 36, 35
317, 1.58, 2017/11/15 11:14:43.226上午, 612.0, 36, 31, 36, 35
318, 1.585, 2017/11/15 11:14:43.231上午, 615.0, 36, 32, 36, 35
319, 1.59, 2017/11/15 11:14:43.236上午, 637.0, 37, 31, 35, 35
320, 1.595, 2017/11/15 11:14:43.241上午, 617.0, 36, 31, 36, 35
321, 1.6, 2017/11/15 11:14:43.246上午, 613.0, 37, 31, 35, 35
322, 1.605, 2017/11/15 11:14:43.251上午, 608.0, 37, 30, 36, 35
323, 1.61, 2017/11/15 11:14:43.256上午, 601.0, 37, 31, 35, 35
324, 1.615, 2017/11/15 11:14:43.261上午, 600.0, 36, 30, 36, 35
325, 1.62, 2017/11/15 11:14:43.266上午, 601.0, 37, 30, 36, 35
326, 1.625, 2017/11/15 11:14:43.271上午, 610.0, 36, 31, 36, 35
327, 1.63, 2017/11/15 11:14:43.276上午, 634.0, 37, 30, 35, 34
328, 1.635, 2017/11/15 11:14:43.281上午, 607.0, 37, 31, 36, 35
329, 1.64, 2017/11/15 11:14:43.286上午, 605.0, 37, 30, 37, 35
330, 1.645, 2017/11/15 11:14:43.291上午, 597.0, 37, 30, 35, 35
331, 1.65, 2017/11/15 11:14:43.296上午, 610.0, 36, 30, 36, 35
332, 1.655, 2017/11/15 11:14:43.301上午, 645.0, 37, 31, 35, 35
333, 1.66, 2017/11/15 11:14:43.306上午, 612.0, 37, 31, 36, 35
334, 1.665, 2017/11/15 11:14:43.311上午, 601.0, 37, 31, 36, 35
335, 1.67, 2017/11/15 11:14:43.316上午, 594.0, 37, 30, 36, 35
336, 1.675, 2017/11/15 11:14:43.321上午, 578.0, 37, 30, 36, 35
337, 1.68, 2017/11/15 11:14:43.326上午, 606.0, 37, 30, 35, 35
338, 1.685, 2017/11/15 11:14:43.331上午, 610.0, 37, 31, 36, 35
339, 1.69, 2017/11/15 11:14:43.336上午, 620.0, 37, 32, 36, 35
340, 1.695, 2017/11/15 11:14:43.341上午, 608.0, 36, 30, 36, 35
341, 1.7, 2017/11/15 11:14:43.346上午, 633.0, 36, 30, 36, 35
342, 1.705, 2017/11/15 11:14:43.351上午, 626.0, 36, 32, 35, 35
343, 1.71, 2017/11/15 11:14:43.356上午, 603.0, 37, 31, 36, 35
344, 1.715, 2017/11/15 11:14:43.361上午, 618.0, 38, 30, 35, 35
345, 1.72, 2017/11/15 11:14:43.366上午, 598.0, 38, 30, 36, 35
346, 1.725, 2017/11/15 11:14:43.371上午, 607.0, 37, 30, 36, 35
347, 1.73, 2017/11/15 11:14:43.376上午, 607.0, 37, 29, 36, 35
348, 1.735, 2017/11/15 11:14:43.381上午, 612.0, 37, 31, 36, 35
349, 1.74, 2017/11/15 11:14:43.386上午, 620.0, 36, 31, 35, 35
350, 1.745, 2017/11/15 11:14:43.391上午, 581.0, 38, 30, 36, 35
351, 1.75, 2017/11/15 11:14:43.396上午, 611.0, 37, 30, 35, 35
352, 1.755, 2017/11/15 11:14:43.401上午, 609.0, 37, 29, 36, 35
353, 1.76, 2017/11/15 11:14:43.406上午, 615.0, 37, 31, 36, 35
354, 1.765, 2017/11/15 11:14:43.411上午, 641.0, 37, 31, 35, 35
355, 1.77, 2017/11/15 11:14:43.416上午, 613.0, 37, 30, 35, 35
356, 1.775, 2017/11/15 11:14:43.421上午, 593.0, 37, 30, 36, 35
357, 1.78, 2017/11/15 11:14:43.426上午, 593.0, 38, 30, 36, 35
358, 1.785, 2017/11/15 11:14:43.431上午, 606.0, 37, 30, 36, 35
359, 1.79, 2017/11/15 11:14:43.436上午, 602.0, 37, 30, 36, 35
360, 1.795, 2017/11/15 11:14:43.441上午, 622.0, 37, 30, 35, 35
361, 1.8, 2017/11/15 11:14:43.446上午, 616.0, 36, 30, 36, 35
362, 1.805, 2017/11/15 11:14:43.451上午, 622.0, 37, 31, 35, 35
363, 1.81, 2017/11/15 11:14:43.456上午, 631.0, 37, 31, 35, 35
364, 1.815, 2017/11/15 11:14:43.461上午, 615.0, 38, 31, 35, 35
365, 1.82, 2017/11/15 11:14:43.466上午, 617.0, 37, 30, 35, 35
366, 1.825, 2017/11/15 11:14:43.471上午, 611.0, 37, 30, 35, 35
367, 1.83, 2017/11/15 11:14:43.476上午, 631.0, 37, 30, 35, 34
368, 1.835, 2017/11/15 11:14:43.481上午, 604.0, 37, 31, 35, 35
369, 1.84, 2017/11/15 11:14:43.486上午, 624.0, 37, 31, 35, 35
370, 1.845, 2017/11/15 11:14:43.491上午, 607.0, 37, 30, 35, 35
371, 1.85, 2017/11/15 11:14:43.496上午, 606.0, 37, 31, 35, 35
372, 1.855, 2017/11/15 11:14:43.501上午, 630.0, 37, 30, 35, 34
373, 1.86, 2017/11/15 11:14:43.506上午, 602.0, 37, 30, 35, 35
374, 1.865, 2017/11/15 11:14:43.511上午, 630.0, 37, 30, 36, 35
375, 1.87, 2017/11/15 11:14:43.516上午, 624.0, 37, 29, 35, 35
376, 1.875, 2017/11/15 11:14:43.521上午, 599.0, 37, 31, 35, 35
377, 1.88, 2017/11/15 11:14:43.526上午, 621.0, 37, 31, 36, 35
378, 1.885, 2017/11/15 11:14:43.531上午, 622.0, 37, 31, 35, 35
379, 1.89, 2017/11/15 11:14:43.536上午, 644.0, 37, 31, 34, 35
380, 1.895, 2017/11/15 11:14:43.541上午, 621.0, 38, 30, 36, 35
381, 1.9, 2017/11/15 11:14:43.546上午, 604.0, 38, 30, 35, 35
382, 1.905, 2017/11/15 11:14:43.551上午, 602.0, 37, 30, 36, 35
383, 1.91, 2017/11/15 11:14:43.556上午, 614.0, 38, 30, 35, 35
384, 1.915, 2017/11/15 11:14:43.561上午, 636.0, 37, 30, 35, 35
385, 1.92, 2017/11/15 11:14:43.566上午, 605.0, 37, 31, 35, 35
386, 1.925, 2017/11/15 11:14:43.571上午, 644.0, 37, 30, 35, 35
387, 1.93, 2017/11/15 11:14:43.576上午, 606.0, 38, 30, 35, 35
388, 1.935, 2017/11/15 11:14:43.581上午, 628.0, 37, 29, 35, 35
389, 1.94, 2017/11/15 11:14:43.586上午, 623.0, 38, 31, 35, 35
390, 1.945, 2017/11/15 11:14:43.591上午, 612.0, 37, 30, 35, 35
391, 1.95, 2017/11/15 11:14:43.596上午, 632.0, 38, 30, 36, 35
392, 1.955, 2017/11/15 11:14:43.601上午, 612.0, 38, 30, 35, 35
393, 1.96, 2017/11/15 11:14:43.606上午, 623.0, 38, 30, 35, 35
394, 1.965, 2017/11/15 11:14:43.611上午, 623.0, 38, 30, 35, 35
395, 1.97, 2017/11/15 11:14:43.616上午, 629.0, 37, 31, 34, 35
396, 1.975, 2017/11/15 11:14:43.621上午, 635.0, 37, 30, 34, 35
397, 1.98, 2017/11/15 11:14:43.626上午, 625.0, 37, 31, 35, 35
398, 1.985, 2017/11/15 11:14:43.631上午, 611.0, 38, 30, 35, 35
399, 1.99, 2017/11/15 11:14:43.636上午, 595.0, 38, 30, 35, 35
400, 1.995, 2017/11/15 11:14:43.641上午, 617.0, 38, 30, 35, 35
401, 2, 2017/11/15 11:14:43.646上午, 625.0, 38, 31, 35, 35
402, 2.005, 2017/11/15 11:14:43.651上午, 624.0, 37, 31, 34, 35
403, 2.01, 2017/11/15 11:14:43.656上午, 597.0, 37, 31, 34, 35
404, 2.015, 2017/11/15 11:14:43.661上午, 626.0, 38, 30, 34, 35
405, 2.02, 2017/11/15 11:14:43.666上午, 614.0, 38, 30, 34, 35
406, 2.025, 2017/11/15 11:14:43.671上午, 614.0, 38, 30, 34, 35
407, 2.03, 2017/11/15 11:14:43.676上午, 602.0, 38, 30, 34, 35
408, 2.035, 2017/11/15 11:14:43.681上午, 617.0, 38, 30, 34, 35
409, 2.04, 2017/11/15 11:14:43.686上午, 622.0, 37, 30, 34, 34
410, 2.045, 2017/11/15 11:14:43.691上午, 621.0, 37, 30, 34, 35
411, 2.05, 2017/11/15 11:14:43.696上午, 606.0, 38, 31, 34, 35
412, 2.055, 2017/11/15 11:14:43.701上午, 608.0, 38, 29, 34, 35
413, 2.06, 2017/11/15 11:14:43.706上午, 615.0, 38, 31, 34, 35
414, 2.065, 2017/11/15 11:14:43.711上午, 610.0, 38, 31, 35, 35
415, 2.07, 2017/11/15 11:14:43.716上午, 624.0, 37, 30, 35, 35
416, 2.075, 2017/11/15 11:14:43.721上午, 617.0, 37, 31, 36, 35
417, 2.08, 2017/11/15 11:14:43.726上午, 627.0, 38, 30, 34, 35
418, 2.085, 2017/11/15 11:14:43.731上午, 613.0, 38, 30, 34, 35
419, 2.09, 2017/11/15 11:14:43.736上午, 619.0, 38, 30, 34, 35
420, 2.095, 2017/11/15 11:14:43.741上午, 621.0, 38, 31, 34, 35
421, 2.1, 2017/11/15 11:14:43.746上午, 647.0, 37, 30, 33, 34
422, 2.105, 2017/11/15 11:14:43.751上午, 645.0, 38, 31, 34, 35
423, 2.11, 2017/11/15 11:14:43.756上午, 596.0, 39, 30, 34, 35
424, 2.115, 2017/11/15 11:14:43.761上午, 608.0, 38, 30, 33, 35
425, 2.12, 2017/11/15 11:14:43.766上午, 609.0, 38, 31, 34, 35
426, 2.125, 2017/11/15 11:14:43.771上午, 635.0, 38, 31, 34, 35
427, 2.13, 2017/11/15 11:14:43.776上午, 605.0, 37, 31, 35, 35
428, 2.135, 2017/11/15 11:14:43.781上午, 607.0, 38, 30, 34, 35
429, 2.14, 2017/11/15 11:14:43.786上午, 632.0, 38, 31, 35, 35
430, 2.145, 2017/11/15 11:14:43.791上午, 609.0, 38, 31, 33, 35
431, 2.15, 2017/11/15 11:14:43.796上午, 619.0, 38, 31, 35, 35
432, 2.155, 2017/11/15 11:14:43.801上午, 597.0, 38, 31, 35, 36
433, 2.16, 2017/11/15 11:14:43.806上午, 623.0, 38, 31, 34, 35
434, 2.165, 2017/11/15 11:14:43.811上午, 605.0, 38, 30, 33, 35
435, 2.17, 2017/11/15 11:14:43.816上午, 622.0, 39, 30, 35, 35
436, 2.175, 2017/11/15 11:14:43.821上午, 621.0, 38, 31, 35, 35
437, 2.18, 2017/11/15 11:14:43.826上午, 646.0, 38, 31, 34, 35
438, 2.185, 2017/11/15 11:14:43.831上午, 615.0, 38, 31, 34, 35
439, 2.19, 2017/11/15 11:14:43.836上午, 614.0, 38, 31, 34, 35
440, 2.195, 2017/11/15 11:14:43.841上午, 626.0, 38, 30, 34, 35
441, 2.2, 2017/11/15 11:14:43.846上午, 616.0, 38, 30, 34, 35
442, 2.205, 2017/11/15 11:14:43.851上午, 610.0, 38, 31, 34, 35
443, 2.21, 2017/11/15 11:14:43.856上午, 600.0, 38, 31, 34, 35
444, 2.215, 2017/11/15 11:14:43.861上午, 593.0, 38, 31, 34, 35
445, 2.22, 2017/11/15 11:14:43.866上午, 604.0, 38, 31, 34, 35
446, 2.225, 2017/11/15 11:14:43.871上午, 621.0, 39, 30, 34, 35
447, 2.23, 2017/11/15 11:14:43.876上午, 609.0, 39, 31, 34, 35
448, 2.235, 2017/11/15 11:14:43.881上午, 631.0, 39, 30, 34, 35
449, 2.24, 2017/11/15 11:14:43.886上午, 616.0, 38, 30, 34, 35
450, 2.245, 2017/11/15 11:14:43.891上午, 604.0, 38, 30, 34, 35
451, 2.25, 2017/11/15 11:14:43.896上午, 617.0, 39, 30, 34, 35
452, 2.255, 2017/11/15 11:14:43.901上午, 605.0, 39, 30, 34, 35
453, 2.26, 2017/11/15 11:14:43.906上午, 611.0, 39, 31, 34, 35
454, 2.265, 2017/11/15 11:14:43.911上午, 616.0, 38, 31, 35, 35
455, 2.27, 2017/11/15 11:14:43.916上午, 598.0, 38, 31, 35, 35
456, 2.275, 2017/11/15 11:14:43.921上午, 591.0, 39, 30, 35, 35
457, 2.28, 2017/11/15 11:14:43.926上午, 611.0, 38, 30, 34, 35
458, 2.285, 2017/11/15 11:14:43.931上午, 629.0, 39, 31, 34, 35
459, 2.29, 2017/11/15 11:14:43.936上午, 619.0, 39, 31, 34, 35
460, 2.295, 2017/11/15 11:14:43.941上午, 623.0, 38, 31, 34, 35
461, 2.3, 2017/11/15 11:14:43.946上午, 621.0, 38, 31, 34, 35
462, 2.305, 2017/11/15 11:14:43.951上午, 631.0, 38, 31, 34, 35
463, 2.31, 2017/11/15 11:14:43.956上午, 595.0, 38, 30, 35, 35
464, 2.315, 2017/11/15 11:14:43.961上午, 624.0, 39, 30, 34, 35
465, 2.32, 2017/11/15 11:14:43.966上午, 623.0, 39, 30, 35, 35
466, 2.325, 2017/11/15 11:14:43.971上午, 629.0, 39, 30, 34, 35
467, 2.33, 2017/11/15 11:14:43.976上午, 635.0, 38, 31, 34, 35
468, 2.335, 2017/11/15 11:14:43.981上午, 606.0, 38, 30, 35, 35
469, 2.34, 2017/11/15 11:14:43.986上午, 612.0, 39, 30, 34, 35
470, 2.345, 2017/11/15 11:14:43.991上午, 628.0, 39, 30, 34, 35
471, 2.35, 2017/11/15 11:14:43.996上午, 633.0, 39, 31, 34, 35
472, 2.355, 2017/11/15 11:14:44.001上午, 619.0, 39, 30, 35, 35
473, 2.36, 2017/11/15 11:14:44.006上午, 610.0, 38, 31, 35, 35
474, 2.365, 2017/11/15 11:14:44.011上午, 600.0, 38, 30, 35, 35
475, 2.37, 2017/11/15 11:14:44.016上午, 610.0, 39, 31, 34, 35
476, 2.375, 2017/11/15 11:14:44.021上午, 651.0, 38, 31, 34, 35
477, 2.38, 2017/11/15 11:14:44.026上午, 604.0, 37, 31, 35, 35
478, 2.385, 2017/11/15 11:14:44.031上午, 613.0, 38, 31, 34, 35
479, 2.39, 2017/11/15 11:14:44.036上午, 626.0, 39, 30, 34, 35
480, 2.395, 2017/11/15 11:14:44.041上午, 627.0, 39, 30, 34, 35
481, 2.4, 2017/11/15 11:14:44.046上午, 620.0, 39, 31, 34, 35
482, 2.405, 2017/11/15 11:14:44.051上午, 605.0, 38, 30, 35, 35
483, 2.41, 2017/11/15 11:14:44.056上午, 602.0, 38, 32, 35, 36
484, 2.415, 2017/11/15 11:14:44.061上午, 600.0, 39, 30, 35, 35
485, 2.42, 2017/11/15 11:14:44.066上午, 623.0, 38, 30, 34, 35
486, 2.425, 2017/11/15 11:14:44.071上午, 622.0, 38, 31, 34, 35
487, 2.43, 2017/11/15 11:14:44.076上午, 640.0, 38, 30, 34, 35
488, 2.435, 2017/11/15 11:14:44.081上午, 596.0, 38, 30, 35, 35
489, 2.44, 2017/11/15 11:14:44.086上午, 623.0, 38, 30, 34, 35
490, 2.445, 2017/11/15 11:14:44.091上午, 642.0, 38, 30, 34, 35
491, 2.45, 2017/11/15 11:14:44.096上午, 616.0, 38, 31, 34, 35
492, 2.455, 2017/11/15 11:14:44.101上午, 608.0, 38, 30, 35, 35
493, 2.46, 2017/11/15 11:14:44.106上午, 617.0, 38, 31, 34, 35
494, 2.465, 2017/11/15 11:14:44.111上午, 621.0, 38, 30, 34, 35
495, 2.47, 2017/11/15 11:14:44.116上午, 613.0, 38, 31, 34, 35
496, 2.475, 2017/11/15 11:14:44.121上午, 631.0, 38, 31, 34, 35
497, 2.48, 2017/11/15 11:14:44.126上午, 626.0, 37, 30, 34, 35
498, 2.485, 2017/11/15 11:14:44.131上午, 622.0, 38, 30, 34, 35
499, 2.49, 2017/11/15 11:14:44.136上午, 612.0, 38, 30, 35, 35
500, 2.495, 2017/11/15 11:14:44.141上午, 629.0, 38, 29, 34, 35
501, 2.5, 2017/11/15 11:14:44.146上午, 605.0, 38, 30, 35, 35
502, 2.505, 2017/11/15 11:14:44.151上午, 628.0, 38, 31, 34, 35
503, 2.51, 2017/11/15 11:14:44.156上午, 605.0, 38, 31, 34, 35
504, 2.515, 2017/11/15 11:14:44.161上午, 600.0, 38, 31, 34, 35
505, 2.52, 2017/11/15 11:14:44.166上午, 609.0, 38, 30, 35, 35
506, 2.525, 2017/11/15 11:14:44.171上午, 606.0, 38, 30, 34, 35
507, 2.53, 2017/11/15 11:14:44.176上午, 618.0, 38, 31, 35, 35
508, 2.535, 2017/11/15 11:14:44.181上午, 646.0, 37, 30, 34, 34
509, 2.54, 2017/11/15 11:14:44.186上午, 615.0, 38, 30, 35, 35
510, 2.545, 2017/11/15 11:14:44.191上午, 604.0, 38, 30, 35, 35
511, 2.55, 2017/11/15 11:14:44.196上午, 611.0, 38, 31, 34, 35
512, 2.555, 2017/11/15 11:14:44.201上午, 622.0, 38, 30, 34, 35
513, 2.56, 2017/11/15 11:14:44.206上午, 618.0, 38, 31, 34, 35
514, 2.565, 2017/11/15 11:14:44.211上午, 604.0, 37, 31, 35, 35
515, 2.57, 2017/11/15 11:14:44.216上午, 602.0, 38, 30, 34, 35
516, 2.575, 2017/11/15 11:14:44.221上午, 609.0, 38, 30, 34, 35
517, 2.58, 2017/11/15 11:14:44.226上午, 631.0, 38, 31, 34, 35
518, 2.585, 2017/11/15 11:14:44.231上午, 614.0, 38, 31, 33, 35
519, 2.59, 2017/11/15 11:14:44.236上午, 603.0, 38, 31, 34, 35
520, 2.595, 2017/11/15 11:14:44.241上午, 605.0, 38, 30, 35, 35
521, 2.6, 2017/11/15 11:14:44.246上午, 623.0, 38, 30, 34, 35
522, 2.605, 2017/11/15 11:14:44.251上午, 608.0, 37, 30, 34, 34
523, 2.61, 2017/11/15 11:14:44.256上午, 614.0, 38, 31, 34, 35
524, 2.615, 2017/11/15 11:14:44.261上午, 610.0, 37, 31, 33, 34
525, 2.62, 2017/11/15 11:14:44.266上午, 625.0, 37, 30, 35, 35
526, 2.625, 2017/11/15 11:14:44.271上午, 607.0, 37, 31, 35, 35
527, 2.63, 2017/11/15 11:14:44.276上午, 614.0, 38, 31, 34, 35
528, 2.635, 2017/11/15 11:14:44.281上午, 602.0, 38, 30, 35, 35
529, 2.64, 2017/11/15 11:14:44.286上午, 615.0, 38, 29, 34, 35
530, 2.645, 2017/11/15 11:14:44.291上午, 614.0, 38, 31, 34, 35
531, 2.65, 2017/11/15 11:14:44.296上午, 631.0, 37, 31, 35, 35
532, 2.655, 2017/11/15 11:14:44.301上午, 605.0, 37, 30, 35, 35
533, 2.66, 2017/11/15 11:14:44.306上午, 604.0, 37, 30, 34, 35
534, 2.665, 2017/11/15 11:14:44.311上午, 603.0, 38, 31, 34, 35
535, 2.67, 2017/11/15 11:14:44.316上午, 613.0, 37, 30, 35, 35
536, 2.675, 2017/11/15 11:14:44.321上午, 629.0, 37, 31, 35, 35
537, 2.68, 2017/11/15 11:14:44.326上午, 604.0, 37, 31, 35, 35
538, 2.685, 2017/11/15 11:14:44.331上午, 596.0, 38, 30, 35, 35
539, 2.69, 2017/11/15 11:14:44.336上午, 629.0, 38, 30, 34, 35
540, 2.695, 2017/11/15 11:14:44.341上午, 613.0, 38, 30, 35, 35
541, 2.7, 2017/11/15 11:14:44.346上午, 610.0, 38, 31, 34, 35
542, 2.705, 2017/11/15 11:14:44.351上午, 622.0, 37, 30, 35, 35
543, 2.71, 2017/11/15 11:14:44.356上午, 634.0, 37, 31, 34, 35
544, 2.715, 2017/11/15 11:14:44.361上午, 613.0, 37, 31, 35, 35
545, 2.72, 2017/11/15 11:14:44.366上午, 603.0, 37, 30, 34, 35
546, 2.725, 2017/11/15 11:14:44.371上午, 603.0, 37, 31, 34, 35
547, 2.73, 2017/11/15 11:14:44.376上午, 628.0, 37, 31, 34, 34
548, 2.735, 2017/11/15 11:14:44.381上午, 611.0, 38, 30, 35, 35
549, 2.74, 2017/11/15 11:14:44.386上午, 618.0, 38, 31, 34, 35
550, 2.745, 2017/11/15 11:14:44.391上午, 619.0, 38, 30, 33, 34
551, 2.75, 2017/11/15 11:14:44.396上午, 603.0, 37, 31, 34, 35
552, 2.755, 2017/11/15 11:14:44.401上午, 627.0, 37, 30, 34, 34
553, 2.76, 2017/11/15 11:14:44.406上午, 597.0, 37, 31, 35, 35
554, 2.765, 2017/11/15 11:14:44.411上午, 602.0, 37, 31, 35, 35
555, 2.77, 2017/11/15 11:14:44.416上午, 605.0, 37, 30, 34, 35
556, 2.775, 2017/11/15 11:14:44.421上午, 616.0, 38, 31, 34, 35
557, 2.78, 2017/11/15 11:14:44.426上午, 610.0, 37, 30, 35, 35
558, 2.785, 2017/11/15 11:14:44.431上午, 616.0, 38, 31, 34, 35
559, 2.79, 2017/11/15 11:14:44.436上午, 637.0, 37, 30, 34, 34
560, 2.795, 2017/11/15 11:14:44.441上午, 625.0, 37, 30, 34, 34
561, 2.8, 2017/11/15 11:14:44.446上午, 599.0, 37, 30, 35, 35
562, 2.805, 2017/11/15 11:14:44.451上午, 628.0, 38, 30, 34, 35
563, 2.81, 2017/11/15 11:14:44.456上午, 635.0, 38, 31, 34, 35
564, 2.815, 2017/11/15 11:14:44.461上午, 625.0, 38, 30, 34, 35
565, 2.82, 2017/11/15 11:14:44.466上午, 610.0, 37, 31, 35, 35
566, 2.825, 2017/11/15 11:14:44.471上午, 616.0, 38, 31, 34, 35
567, 2.83, 2017/11/15 11:14:44.476上午, 629.0, 38, 29, 34, 35
568, 2.835, 2017/11/15 11:14:44.481上午, 598.0, 38, 31, 34, 35
569, 2.84, 2017/11/15 11:14:44.486上午, 602.0, 38, 30, 34, 35
570, 2.845, 2017/11/15 11:14:44.491上午, 643.0, 38, 30, 34, 35
571, 2.85, 2017/11/15 11:14:44.496上午, 597.0, 37, 29, 35, 35
572, 2.855, 2017/11/15 11:14:44.501上午, 623.0, 38, 30, 34, 34
573, 2.86, 2017/11/15 11:14:44.506上午, 609.0, 39, 30, 34, 35
574, 2.865, 2017/11/15 11:14:44.511上午, 622.0, 37, 31, 33, 34
575, 2.87, 2017/11/15 11:14:44.516上午, 635.0, 38, 30, 35, 35
576, 2.875, 2017/11/15 11:14:44.521上午, 622.0, 37, 31, 34, 35
577, 2.88, 2017/11/15 11:14:44.526上午, 620.0, 38, 30, 34, 34
578, 2.885, 2017/11/15 11:14:44.531上午, 613.0, 38, 29, 35, 35
579, 2.89, 2017/11/15 11:14:44.536上午, 612.0, 37, 30, 34, 34
580, 2.895, 2017/11/15 11:14:44.541上午, 626.0, 38, 31, 34, 35
581, 2.9, 2017/11/15 11:14:44.546上午, 610.0, 38, 31, 34, 35
582, 2.905, 2017/11/15 11:14:44.551上午, 635.0, 37, 30, 34, 34
583, 2.91, 2017/11/15 11:14:44.556上午, 600.0, 38, 30, 35, 35
584, 2.915, 2017/11/15 11:14:44.561上午, 595.0, 38, 30, 34, 35
585, 2.92, 2017/11/15 11:14:44.566上午, 609.0, 38, 30, 34, 35
586, 2.925, 2017/11/15 11:14:44.571上午, 626.0, 38, 29, 34, 35
587, 2.93, 2017/11/15 11:14:44.576上午, 617.0, 38, 31, 34, 35
588, 2.935, 2017/11/15 11:14:44.581上午, 635.0, 37, 30, 34, 34
589, 2.94, 2017/11/15 11:14:44.586上午, 627.0, 38, 30, 34, 35
590, 2.945, 2017/11/15 11:14:44.591上午, 590.0, 38, 30, 35, 35
591, 2.95, 2017/11/15 11:14:44.596上午, 618.0, 38, 30, 34, 35
592, 2.955, 2017/11/15 11:14:44.601上午, 610.0, 38, 31, 34, 35
593, 2.96, 2017/11/15 11:14:44.606上午, 642.0, 38, 30, 34, 35
594, 2.965, 2017/11/15 11:14:44.611上午, 593.0, 38, 30, 34, 35
595, 2.97, 2017/11/15 11:14:44.616上午, 600.0, 38, 31, 34, 35
596, 2.975, 2017/11/15 11:14:44.621上午, 598.0, 38, 30, 33, 35
597, 2.98, 2017/11/15 11:14:44.626上午, 610.0, 38, 29, 34, 34
598, 2.985, 2017/11/15 11:14:44.631上午, 623.0, 38, 30, 34, 35
599, 2.99, 2017/11/15 11:14:44.636上午, 605.0, 38, 30, 34, 35
600, 2.995, 2017/11/15 11:14:44.641上午, 623.0, 37, 31, 34, 35
@@
