DATA_TYPE Graph
VERSION Tekscan Pressure Measurement System 6.70-03
HARDWARE 00114-3447
MAP_VERSION 6.5
HW_TYPE 4
VersaPogoFsx 0
檔案名 C:\Users\asus\Desktop\工研院_計畫\收案資料\Subject02\Plantar Pressure\R65S_STAND_RIGHT_3.fsx
SENSOR_TYPE FSCAN
ROWS 60
COLS 21
ROW_SPACING 0.508 centimeters
COL_SPACING 0.508 centimeters
SENSEL_AREA 0.258064 cm2
NOISE_THRESHOLD 3
SECONDS_PER_FRAME 0.005
SECONDS_PER_FRAME 0
MICRO_SECOND 0
TIME 2017/11/15 11:15:58.365上午
SATURATION_PRESSURE 2347.96 KPa 
CALIBRATION_POINT_1 48.0001 (Kilograms) 1981 (Raw Sum) 199 (Number of Loaded Cells)
CALIBRATION_MODE_1 步態
CALIBRATION_INFO C:\Users\asus\Desktop\工研院_計畫\收案資料\Subject02\Plantar Pressure\R65S_STAND_RIGHT_3.fsx
SENSITIVITY 自定義
MAP_INDEX 0
SUBMAP 0
Patient ID: 

Speed of Gait: 

Weight: 

Gender: 

Physician: 

Technician: 

Shoe: 

START_FRAME 1
END_FRAME 600
UNITS KPa
ASCII_DATA @@
畫面(X), 時間(X), 絕對時間(X), Raw Sum, 壓力(Y:藍色), 壓力(Y), 壓力(Y), 壓力(Y)
1, 0, 2017/11/15 11:15:58.365上午, 593.0, 34, 30, 38, 35
2, 0.005, 2017/11/15 11:15:58.37上午, 586.0, 35, 32, 37, 35
3, 0.01, 2017/11/15 11:15:58.375上午, 609.0, 34, 31, 38, 35
4, 0.015, 2017/11/15 11:15:58.38上午, 617.0, 34, 30, 37, 34
5, 0.02, 2017/11/15 11:15:58.385上午, 597.0, 35, 30, 37, 35
6, 0.025, 2017/11/15 11:15:58.39上午, 596.0, 35, 31, 37, 35
7, 0.03, 2017/11/15 11:15:58.395上午, 594.0, 35, 31, 37, 35
8, 0.035, 2017/11/15 11:15:58.4上午, 623.0, 35, 29, 38, 35
9, 0.04, 2017/11/15 11:15:58.405上午, 615.0, 35, 30, 36, 34
10, 0.045, 2017/11/15 11:15:58.41上午, 587.0, 36, 30, 36, 35
11, 0.05, 2017/11/15 11:15:58.415上午, 614.0, 35, 30, 37, 35
12, 0.055, 2017/11/15 11:15:58.42上午, 587.0, 35, 30, 37, 35
13, 0.06, 2017/11/15 11:15:58.425上午, 608.0, 35, 30, 38, 35
14, 0.065, 2017/11/15 11:15:58.43上午, 622.0, 36, 31, 37, 35
15, 0.07, 2017/11/15 11:15:58.435上午, 583.0, 35, 31, 38, 35
16, 0.075, 2017/11/15 11:15:58.44上午, 625.0, 35, 30, 37, 35
17, 0.08, 2017/11/15 11:15:58.445上午, 598.0, 35, 31, 37, 35
18, 0.085, 2017/11/15 11:15:58.45上午, 595.0, 35, 31, 37, 35
19, 0.09, 2017/11/15 11:15:58.455上午, 606.0, 35, 30, 36, 35
20, 0.095, 2017/11/15 11:15:58.46上午, 610.0, 36, 30, 38, 35
21, 0.1, 2017/11/15 11:15:58.465上午, 581.0, 36, 31, 37, 35
22, 0.105, 2017/11/15 11:15:58.47上午, 619.0, 36, 30, 37, 35
23, 0.11, 2017/11/15 11:15:58.475上午, 620.0, 36, 30, 37, 35
24, 0.115, 2017/11/15 11:15:58.48上午, 591.0, 36, 30, 37, 35
25, 0.12, 2017/11/15 11:15:58.485上午, 594.0, 36, 31, 37, 35
26, 0.125, 2017/11/15 11:15:58.49上午, 613.0, 36, 30, 38, 35
27, 0.13, 2017/11/15 11:15:58.495上午, 610.0, 36, 30, 37, 35
28, 0.135, 2017/11/15 11:15:58.5上午, 605.0, 36, 31, 36, 35
29, 0.14, 2017/11/15 11:15:58.505上午, 604.0, 36, 31, 37, 35
30, 0.145, 2017/11/15 11:15:58.51上午, 629.0, 36, 30, 37, 35
31, 0.15, 2017/11/15 11:15:58.515上午, 596.0, 36, 30, 37, 35
32, 0.155, 2017/11/15 11:15:58.52上午, 600.0, 36, 30, 37, 35
33, 0.16, 2017/11/15 11:15:58.525上午, 613.0, 35, 31, 38, 35
34, 0.165, 2017/11/15 11:15:58.53上午, 599.0, 36, 30, 36, 35
35, 0.17, 2017/11/15 11:15:58.535上午, 574.0, 36, 30, 37, 35
36, 0.175, 2017/11/15 11:15:58.54上午, 601.0, 36, 31, 37, 35
37, 0.18, 2017/11/15 11:15:58.545上午, 615.0, 36, 31, 38, 35
38, 0.185, 2017/11/15 11:15:58.55上午, 613.0, 37, 31, 37, 36
39, 0.19, 2017/11/15 11:15:58.555上午, 597.0, 36, 32, 37, 36
40, 0.195, 2017/11/15 11:15:58.56上午, 606.0, 37, 30, 36, 35
41, 0.2, 2017/11/15 11:15:58.565上午, 606.0, 35, 31, 37, 35
42, 0.205, 2017/11/15 11:15:58.57上午, 622.0, 37, 30, 36, 35
43, 0.21, 2017/11/15 11:15:58.575上午, 613.0, 37, 30, 36, 35
44, 0.215, 2017/11/15 11:15:58.58上午, 588.0, 37, 31, 36, 36
45, 0.22, 2017/11/15 11:15:58.585上午, 605.0, 36, 30, 36, 35
46, 0.225, 2017/11/15 11:15:58.59上午, 621.0, 36, 30, 37, 35
47, 0.23, 2017/11/15 11:15:58.595上午, 628.0, 37, 30, 36, 35
48, 0.235, 2017/11/15 11:15:58.6上午, 606.0, 37, 30, 37, 36
49, 0.24, 2017/11/15 11:15:58.605上午, 607.0, 37, 31, 36, 35
50, 0.245, 2017/11/15 11:15:58.61上午, 622.0, 36, 30, 37, 35
51, 0.25, 2017/11/15 11:15:58.615上午, 618.0, 37, 30, 36, 35
52, 0.255, 2017/11/15 11:15:58.62上午, 592.0, 37, 31, 36, 35
53, 0.26, 2017/11/15 11:15:58.625上午, 624.0, 36, 30, 37, 35
54, 0.265, 2017/11/15 11:15:58.63上午, 603.0, 37, 31, 37, 36
55, 0.27, 2017/11/15 11:15:58.635上午, 615.0, 37, 30, 37, 35
56, 0.275, 2017/11/15 11:15:58.64上午, 609.0, 36, 30, 36, 35
57, 0.28, 2017/11/15 11:15:58.645上午, 617.0, 37, 31, 36, 35
58, 0.285, 2017/11/15 11:15:58.65上午, 605.0, 37, 31, 36, 35
59, 0.29, 2017/11/15 11:15:58.655上午, 625.0, 36, 30, 36, 35
60, 0.295, 2017/11/15 11:15:58.66上午, 608.0, 37, 30, 36, 35
61, 0.3, 2017/11/15 11:15:58.665上午, 601.0, 37, 31, 37, 36
62, 0.305, 2017/11/15 11:15:58.67上午, 605.0, 37, 30, 36, 35
63, 0.31, 2017/11/15 11:15:58.675上午, 640.0, 37, 30, 36, 35
64, 0.315, 2017/11/15 11:15:58.68上午, 623.0, 37, 31, 36, 35
65, 0.32, 2017/11/15 11:15:58.685上午, 602.0, 36, 31, 37, 35
66, 0.325, 2017/11/15 11:15:58.69上午, 599.0, 37, 30, 36, 35
67, 0.33, 2017/11/15 11:15:58.695上午, 616.0, 36, 30, 36, 35
68, 0.335, 2017/11/15 11:15:58.7上午, 600.0, 37, 30, 36, 35
69, 0.34, 2017/11/15 11:15:58.705上午, 625.0, 38, 31, 36, 35
70, 0.345, 2017/11/15 11:15:58.71上午, 632.0, 36, 31, 37, 35
71, 0.35, 2017/11/15 11:15:58.715上午, 609.0, 37, 31, 36, 35
72, 0.355, 2017/11/15 11:15:58.72上午, 607.0, 37, 30, 36, 35
73, 0.36, 2017/11/15 11:15:58.725上午, 620.0, 36, 30, 36, 35
74, 0.365, 2017/11/15 11:15:58.73上午, 614.0, 37, 30, 36, 35
75, 0.37, 2017/11/15 11:15:58.735上午, 608.0, 37, 31, 36, 35
76, 0.375, 2017/11/15 11:15:58.74上午, 619.0, 36, 31, 36, 35
77, 0.38, 2017/11/15 11:15:58.745上午, 615.0, 37, 30, 36, 35
78, 0.385, 2017/11/15 11:15:58.75上午, 607.0, 37, 30, 35, 35
79, 0.39, 2017/11/15 11:15:58.755上午, 627.0, 36, 30, 36, 34
80, 0.395, 2017/11/15 11:15:58.76上午, 612.0, 37, 30, 36, 35
81, 0.4, 2017/11/15 11:15:58.765上午, 610.0, 37, 30, 36, 35
82, 0.405, 2017/11/15 11:15:58.77上午, 627.0, 37, 30, 36, 35
83, 0.41, 2017/11/15 11:15:58.775上午, 624.0, 37, 30, 36, 35
84, 0.415, 2017/11/15 11:15:58.78上午, 608.0, 37, 30, 36, 35
85, 0.42, 2017/11/15 11:15:58.785上午, 631.0, 37, 31, 36, 35
86, 0.425, 2017/11/15 11:15:58.79上午, 616.0, 36, 31, 36, 35
87, 0.43, 2017/11/15 11:15:58.795上午, 636.0, 37, 30, 35, 34
88, 0.435, 2017/11/15 11:15:58.8上午, 617.0, 38, 31, 36, 36
89, 0.44, 2017/11/15 11:15:58.805上午, 627.0, 37, 30, 36, 35
90, 0.445, 2017/11/15 11:15:58.81上午, 626.0, 37, 30, 36, 35
91, 0.45, 2017/11/15 11:15:58.815上午, 622.0, 37, 30, 36, 35
92, 0.455, 2017/11/15 11:15:58.82上午, 628.0, 36, 30, 36, 35
93, 0.46, 2017/11/15 11:15:58.825上午, 615.0, 38, 30, 36, 36
94, 0.465, 2017/11/15 11:15:58.83上午, 620.0, 36, 30, 36, 35
95, 0.47, 2017/11/15 11:15:58.835上午, 632.0, 38, 30, 35, 35
96, 0.475, 2017/11/15 11:15:58.84上午, 600.0, 37, 30, 36, 35
97, 0.48, 2017/11/15 11:15:58.845上午, 634.0, 37, 30, 36, 35
98, 0.485, 2017/11/15 11:15:58.85上午, 639.0, 37, 30, 36, 35
99, 0.49, 2017/11/15 11:15:58.855上午, 615.0, 37, 31, 36, 35
100, 0.495, 2017/11/15 11:15:58.86上午, 625.0, 37, 31, 36, 35
101, 0.5, 2017/11/15 11:15:58.865上午, 634.0, 36, 31, 36, 35
102, 0.505, 2017/11/15 11:15:58.87上午, 616.0, 37, 30, 35, 35
103, 0.51, 2017/11/15 11:15:58.875上午, 630.0, 37, 31, 36, 35
104, 0.515, 2017/11/15 11:15:58.88上午, 627.0, 37, 30, 35, 35
105, 0.52, 2017/11/15 11:15:58.885上午, 637.0, 37, 30, 36, 35
106, 0.525, 2017/11/15 11:15:58.89上午, 621.0, 37, 30, 36, 35
107, 0.53, 2017/11/15 11:15:58.895上午, 616.0, 37, 31, 35, 35
108, 0.535, 2017/11/15 11:15:58.9上午, 635.0, 36, 30, 36, 35
109, 0.54, 2017/11/15 11:15:58.905上午, 639.0, 37, 31, 36, 35
110, 0.545, 2017/11/15 11:15:58.91上午, 618.0, 37, 32, 37, 36
111, 0.55, 2017/11/15 11:15:58.915上午, 619.0, 37, 31, 36, 35
112, 0.555, 2017/11/15 11:15:58.92上午, 638.0, 37, 30, 36, 35
113, 0.56, 2017/11/15 11:15:58.925上午, 609.0, 38, 31, 36, 36
114, 0.565, 2017/11/15 11:15:58.93上午, 632.0, 37, 31, 36, 35
115, 0.57, 2017/11/15 11:15:58.935上午, 634.0, 37, 30, 36, 35
116, 0.575, 2017/11/15 11:15:58.94上午, 600.0, 38, 30, 36, 36
117, 0.58, 2017/11/15 11:15:58.945上午, 637.0, 37, 31, 36, 35
118, 0.585, 2017/11/15 11:15:58.95上午, 627.0, 36, 30, 35, 34
119, 0.59, 2017/11/15 11:15:58.955上午, 611.0, 38, 30, 36, 35
120, 0.595, 2017/11/15 11:15:58.96上午, 626.0, 37, 31, 36, 35
121, 0.6, 2017/11/15 11:15:58.965上午, 636.0, 36, 30, 36, 34
122, 0.605, 2017/11/15 11:15:58.97上午, 642.0, 37, 30, 36, 35
123, 0.61, 2017/11/15 11:15:58.975上午, 607.0, 36, 31, 36, 35
124, 0.615, 2017/11/15 11:15:58.98上午, 619.0, 37, 32, 37, 36
125, 0.62, 2017/11/15 11:15:58.985上午, 636.0, 36, 30, 36, 34
126, 0.625, 2017/11/15 11:15:58.99上午, 608.0, 38, 31, 35, 36
127, 0.63, 2017/11/15 11:15:58.995上午, 625.0, 38, 30, 36, 36
128, 0.635, 2017/11/15 11:15:59上午, 639.0, 36, 30, 37, 35
129, 0.64, 2017/11/15 11:15:59.005上午, 633.0, 37, 31, 36, 35
130, 0.645, 2017/11/15 11:15:59.01上午, 627.0, 37, 30, 37, 36
131, 0.65, 2017/11/15 11:15:59.015上午, 616.0, 36, 30, 36, 35
132, 0.655, 2017/11/15 11:15:59.02上午, 622.0, 37, 30, 37, 36
133, 0.66, 2017/11/15 11:15:59.025上午, 623.0, 36, 31, 36, 35
134, 0.665, 2017/11/15 11:15:59.03上午, 629.0, 37, 30, 36, 35
135, 0.67, 2017/11/15 11:15:59.035上午, 607.0, 37, 31, 36, 35
136, 0.675, 2017/11/15 11:15:59.04上午, 626.0, 35, 30, 36, 34
137, 0.68, 2017/11/15 11:15:59.045上午, 631.0, 37, 31, 36, 35
138, 0.685, 2017/11/15 11:15:59.05上午, 614.0, 36, 30, 36, 35
139, 0.69, 2017/11/15 11:15:59.055上午, 631.0, 36, 31, 36, 35
140, 0.695, 2017/11/15 11:15:59.06上午, 633.0, 36, 29, 36, 35
141, 0.7, 2017/11/15 11:15:59.065上午, 612.0, 37, 30, 36, 35
142, 0.705, 2017/11/15 11:15:59.07上午, 625.0, 36, 30, 36, 35
143, 0.71, 2017/11/15 11:15:59.075上午, 634.0, 36, 31, 37, 35
144, 0.715, 2017/11/15 11:15:59.08上午, 634.0, 37, 31, 36, 35
145, 0.72, 2017/11/15 11:15:59.085上午, 615.0, 37, 31, 36, 35
146, 0.725, 2017/11/15 11:15:59.09上午, 616.0, 37, 31, 38, 36
147, 0.73, 2017/11/15 11:15:59.095上午, 629.0, 36, 31, 36, 35
148, 0.735, 2017/11/15 11:15:59.1上午, 629.0, 35, 30, 35, 34
149, 0.74, 2017/11/15 11:15:59.105上午, 624.0, 37, 31, 36, 35
150, 0.745, 2017/11/15 11:15:59.11上午, 619.0, 36, 31, 36, 35
151, 0.75, 2017/11/15 11:15:59.115上午, 641.0, 36, 31, 36, 35
152, 0.755, 2017/11/15 11:15:59.12上午, 611.0, 37, 30, 36, 35
153, 0.76, 2017/11/15 11:15:59.125上午, 614.0, 36, 31, 36, 35
154, 0.765, 2017/11/15 11:15:59.13上午, 630.0, 36, 31, 36, 35
155, 0.77, 2017/11/15 11:15:59.135上午, 619.0, 37, 31, 36, 35
156, 0.775, 2017/11/15 11:15:59.14上午, 614.0, 37, 32, 36, 35
157, 0.78, 2017/11/15 11:15:59.145上午, 639.0, 36, 30, 37, 35
158, 0.785, 2017/11/15 11:15:59.15上午, 639.0, 37, 31, 36, 35
159, 0.79, 2017/11/15 11:15:59.155上午, 627.0, 36, 32, 36, 35
160, 0.795, 2017/11/15 11:15:59.16上午, 626.0, 36, 30, 36, 35
161, 0.8, 2017/11/15 11:15:59.165上午, 628.0, 36, 31, 35, 35
162, 0.805, 2017/11/15 11:15:59.17上午, 628.0, 37, 30, 36, 35
163, 0.81, 2017/11/15 11:15:59.175上午, 615.0, 36, 32, 36, 35
164, 0.815, 2017/11/15 11:15:59.18上午, 643.0, 36, 31, 37, 35
165, 0.82, 2017/11/15 11:15:59.185上午, 615.0, 37, 31, 35, 35
166, 0.825, 2017/11/15 11:15:59.19上午, 615.0, 36, 30, 36, 35
167, 0.83, 2017/11/15 11:15:59.195上午, 622.0, 36, 31, 36, 35
168, 0.835, 2017/11/15 11:15:59.2上午, 629.0, 37, 30, 36, 35
169, 0.84, 2017/11/15 11:15:59.205上午, 626.0, 37, 30, 36, 35
170, 0.845, 2017/11/15 11:15:59.21上午, 605.0, 36, 31, 36, 35
171, 0.85, 2017/11/15 11:15:59.215上午, 633.0, 35, 31, 36, 35
172, 0.855, 2017/11/15 11:15:59.22上午, 625.0, 36, 30, 37, 35
173, 0.86, 2017/11/15 11:15:59.225上午, 628.0, 36, 31, 36, 35
174, 0.865, 2017/11/15 11:15:59.23上午, 631.0, 37, 31, 36, 35
175, 0.87, 2017/11/15 11:15:59.235上午, 619.0, 37, 31, 36, 35
176, 0.875, 2017/11/15 11:15:59.24上午, 641.0, 36, 30, 36, 35
177, 0.88, 2017/11/15 11:15:59.245上午, 623.0, 36, 31, 36, 35
178, 0.885, 2017/11/15 11:15:59.25上午, 621.0, 36, 31, 36, 35
179, 0.89, 2017/11/15 11:15:59.255上午, 626.0, 36, 30, 35, 34
180, 0.895, 2017/11/15 11:15:59.26上午, 607.0, 36, 30, 36, 35
181, 0.9, 2017/11/15 11:15:59.265上午, 625.0, 36, 31, 36, 35
182, 0.905, 2017/11/15 11:15:59.27上午, 633.0, 36, 30, 36, 35
183, 0.91, 2017/11/15 11:15:59.275上午, 621.0, 37, 31, 36, 35
184, 0.915, 2017/11/15 11:15:59.28上午, 633.0, 37, 31, 36, 35
185, 0.92, 2017/11/15 11:15:59.285上午, 629.0, 37, 30, 36, 35
186, 0.925, 2017/11/15 11:15:59.29上午, 623.0, 37, 31, 36, 35
187, 0.93, 2017/11/15 11:15:59.295上午, 619.0, 37, 31, 35, 35
188, 0.935, 2017/11/15 11:15:59.3上午, 620.0, 37, 31, 36, 35
189, 0.94, 2017/11/15 11:15:59.305上午, 633.0, 36, 30, 35, 34
190, 0.945, 2017/11/15 11:15:59.31上午, 615.0, 37, 30, 36, 35
191, 0.95, 2017/11/15 11:15:59.315上午, 634.0, 37, 31, 36, 35
192, 0.955, 2017/11/15 11:15:59.32上午, 650.0, 36, 30, 36, 34
193, 0.96, 2017/11/15 11:15:59.325上午, 619.0, 36, 31, 36, 35
194, 0.965, 2017/11/15 11:15:59.33上午, 639.0, 36, 30, 37, 35
195, 0.97, 2017/11/15 11:15:59.335上午, 613.0, 37, 31, 36, 35
196, 0.975, 2017/11/15 11:15:59.34上午, 634.0, 36, 31, 36, 35
197, 0.98, 2017/11/15 11:15:59.345上午, 636.0, 36, 31, 35, 35
198, 0.985, 2017/11/15 11:15:59.35上午, 624.0, 37, 30, 35, 35
199, 0.99, 2017/11/15 11:15:59.355上午, 626.0, 36, 32, 36, 35
200, 0.995, 2017/11/15 11:15:59.36上午, 635.0, 35, 30, 36, 34
201, 1, 2017/11/15 11:15:59.365上午, 629.0, 37, 31, 35, 35
202, 1.005, 2017/11/15 11:15:59.37上午, 626.0, 36, 31, 36, 35
203, 1.01, 2017/11/15 11:15:59.375上午, 632.0, 37, 30, 36, 35
204, 1.015, 2017/11/15 11:15:59.38上午, 618.0, 37, 31, 35, 35
205, 1.02, 2017/11/15 11:15:59.385上午, 624.0, 36, 30, 36, 35
206, 1.025, 2017/11/15 11:15:59.39上午, 620.0, 36, 30, 36, 35
207, 1.03, 2017/11/15 11:15:59.395上午, 644.0, 37, 31, 35, 35
208, 1.035, 2017/11/15 11:15:59.4上午, 615.0, 37, 30, 36, 35
209, 1.04, 2017/11/15 11:15:59.405上午, 611.0, 36, 31, 35, 35
210, 1.045, 2017/11/15 11:15:59.41上午, 623.0, 36, 30, 35, 34
211, 1.05, 2017/11/15 11:15:59.415上午, 609.0, 37, 30, 36, 35
212, 1.055, 2017/11/15 11:15:59.42上午, 611.0, 36, 31, 35, 35
213, 1.06, 2017/11/15 11:15:59.425上午, 608.0, 35, 31, 36, 35
214, 1.065, 2017/11/15 11:15:59.43上午, 625.0, 37, 31, 36, 35
215, 1.07, 2017/11/15 11:15:59.435上午, 628.0, 36, 30, 37, 35
216, 1.075, 2017/11/15 11:15:59.44上午, 629.0, 37, 30, 36, 35
217, 1.08, 2017/11/15 11:15:59.445上午, 635.0, 37, 31, 36, 35
218, 1.085, 2017/11/15 11:15:59.45上午, 630.0, 36, 30, 37, 35
219, 1.09, 2017/11/15 11:15:59.455上午, 631.0, 36, 31, 36, 35
220, 1.095, 2017/11/15 11:15:59.46上午, 641.0, 36, 31, 36, 35
221, 1.1, 2017/11/15 11:15:59.465上午, 635.0, 36, 31, 36, 35
222, 1.105, 2017/11/15 11:15:59.47上午, 623.0, 35, 30, 36, 34
223, 1.11, 2017/11/15 11:15:59.475上午, 615.0, 37, 31, 36, 35
224, 1.115, 2017/11/15 11:15:59.48上午, 619.0, 37, 30, 36, 35
225, 1.12, 2017/11/15 11:15:59.485上午, 626.0, 35, 31, 36, 35
226, 1.125, 2017/11/15 11:15:59.49上午, 628.0, 37, 31, 36, 35
227, 1.13, 2017/11/15 11:15:59.495上午, 630.0, 37, 30, 36, 35
228, 1.135, 2017/11/15 11:15:59.5上午, 615.0, 36, 31, 36, 35
229, 1.14, 2017/11/15 11:15:59.505上午, 627.0, 36, 30, 36, 35
230, 1.145, 2017/11/15 11:15:59.51上午, 613.0, 37, 30, 36, 35
231, 1.15, 2017/11/15 11:15:59.515上午, 632.0, 36, 31, 36, 35
232, 1.155, 2017/11/15 11:15:59.52上午, 638.0, 37, 30, 36, 35
233, 1.16, 2017/11/15 11:15:59.525上午, 629.0, 36, 31, 36, 35
234, 1.165, 2017/11/15 11:15:59.53上午, 627.0, 35, 30, 36, 34
235, 1.17, 2017/11/15 11:15:59.535上午, 618.0, 37, 30, 36, 35
236, 1.175, 2017/11/15 11:15:59.54上午, 621.0, 36, 31, 36, 35
237, 1.18, 2017/11/15 11:15:59.545上午, 642.0, 37, 30, 35, 34
238, 1.185, 2017/11/15 11:15:59.55上午, 620.0, 37, 30, 36, 35
239, 1.19, 2017/11/15 11:15:59.555上午, 635.0, 36, 31, 36, 35
240, 1.195, 2017/11/15 11:15:59.56上午, 633.0, 36, 30, 35, 34
241, 1.2, 2017/11/15 11:15:59.565上午, 626.0, 37, 30, 35, 35
242, 1.205, 2017/11/15 11:15:59.57上午, 617.0, 36, 32, 36, 35
243, 1.21, 2017/11/15 11:15:59.575上午, 632.0, 36, 30, 36, 35
244, 1.215, 2017/11/15 11:15:59.58上午, 639.0, 37, 30, 35, 35
245, 1.22, 2017/11/15 11:15:59.585上午, 622.0, 37, 31, 36, 35
246, 1.225, 2017/11/15 11:15:59.59上午, 635.0, 36, 31, 35, 35
247, 1.23, 2017/11/15 11:15:59.595上午, 627.0, 36, 30, 36, 35
248, 1.235, 2017/11/15 11:15:59.6上午, 620.0, 37, 30, 36, 35
249, 1.24, 2017/11/15 11:15:59.605上午, 621.0, 36, 32, 36, 35
250, 1.245, 2017/11/15 11:15:59.61上午, 628.0, 36, 30, 36, 35
251, 1.25, 2017/11/15 11:15:59.615上午, 621.0, 37, 31, 36, 35
252, 1.255, 2017/11/15 11:15:59.62上午, 633.0, 36, 31, 36, 35
253, 1.26, 2017/11/15 11:15:59.625上午, 633.0, 37, 30, 35, 35
254, 1.265, 2017/11/15 11:15:59.63上午, 630.0, 37, 30, 36, 35
255, 1.27, 2017/11/15 11:15:59.635上午, 628.0, 35, 31, 36, 34
256, 1.275, 2017/11/15 11:15:59.64上午, 630.0, 36, 31, 36, 35
257, 1.28, 2017/11/15 11:15:59.645上午, 611.0, 36, 30, 36, 35
258, 1.285, 2017/11/15 11:15:59.65上午, 616.0, 36, 31, 36, 35
259, 1.29, 2017/11/15 11:15:59.655上午, 628.0, 36, 30, 36, 35
260, 1.295, 2017/11/15 11:15:59.66上午, 617.0, 37, 31, 36, 35
261, 1.3, 2017/11/15 11:15:59.665上午, 615.0, 36, 30, 36, 35
262, 1.305, 2017/11/15 11:15:59.67上午, 626.0, 36, 30, 35, 34
263, 1.31, 2017/11/15 11:15:59.675上午, 629.0, 35, 30, 36, 34
264, 1.315, 2017/11/15 11:15:59.68上午, 616.0, 36, 31, 36, 35
265, 1.32, 2017/11/15 11:15:59.685上午, 613.0, 36, 32, 36, 35
266, 1.325, 2017/11/15 11:15:59.69上午, 616.0, 36, 32, 36, 35
267, 1.33, 2017/11/15 11:15:59.695上午, 639.0, 35, 30, 36, 34
268, 1.335, 2017/11/15 11:15:59.7上午, 616.0, 36, 30, 36, 35
269, 1.34, 2017/11/15 11:15:59.705上午, 597.0, 36, 31, 36, 35
270, 1.345, 2017/11/15 11:15:59.71上午, 627.0, 36, 31, 37, 35
271, 1.35, 2017/11/15 11:15:59.715上午, 641.0, 35, 31, 36, 35
272, 1.355, 2017/11/15 11:15:59.72上午, 618.0, 36, 30, 36, 35
273, 1.36, 2017/11/15 11:15:59.725上午, 612.0, 36, 31, 36, 35
274, 1.365, 2017/11/15 11:15:59.73上午, 608.0, 36, 31, 36, 35
275, 1.37, 2017/11/15 11:15:59.735上午, 610.0, 36, 30, 36, 35
276, 1.375, 2017/11/15 11:15:59.74上午, 633.0, 35, 30, 36, 34
277, 1.38, 2017/11/15 11:15:59.745上午, 609.0, 36, 31, 35, 35
278, 1.385, 2017/11/15 11:15:59.75上午, 617.0, 35, 31, 37, 35
279, 1.39, 2017/11/15 11:15:59.755上午, 640.0, 36, 30, 36, 35
280, 1.395, 2017/11/15 11:15:59.76上午, 632.0, 37, 31, 35, 35
281, 1.4, 2017/11/15 11:15:59.765上午, 630.0, 36, 30, 36, 34
282, 1.405, 2017/11/15 11:15:59.77上午, 636.0, 36, 30, 36, 35
283, 1.41, 2017/11/15 11:15:59.775上午, 629.0, 37, 30, 36, 35
284, 1.415, 2017/11/15 11:15:59.78上午, 616.0, 36, 32, 36, 35
285, 1.42, 2017/11/15 11:15:59.785上午, 631.0, 35, 30, 37, 35
286, 1.425, 2017/11/15 11:15:59.79上午, 622.0, 37, 30, 36, 35
287, 1.43, 2017/11/15 11:15:59.795上午, 616.0, 35, 30, 35, 34
288, 1.435, 2017/11/15 11:15:59.8上午, 608.0, 36, 32, 36, 35
289, 1.44, 2017/11/15 11:15:59.805上午, 619.0, 35, 30, 36, 34
290, 1.445, 2017/11/15 11:15:59.81上午, 619.0, 36, 31, 35, 34
291, 1.45, 2017/11/15 11:15:59.815上午, 614.0, 36, 31, 36, 35
292, 1.455, 2017/11/15 11:15:59.82上午, 641.0, 35, 30, 35, 34
293, 1.46, 2017/11/15 11:15:59.825上午, 615.0, 36, 30, 36, 34
294, 1.465, 2017/11/15 11:15:59.83上午, 630.0, 35, 31, 36, 35
295, 1.47, 2017/11/15 11:15:59.835上午, 623.0, 35, 30, 36, 34
296, 1.475, 2017/11/15 11:15:59.84上午, 610.0, 35, 30, 36, 35
297, 1.48, 2017/11/15 11:15:59.845上午, 624.0, 36, 30, 36, 35
298, 1.485, 2017/11/15 11:15:59.85上午, 626.0, 36, 30, 35, 35
299, 1.49, 2017/11/15 11:15:59.855上午, 617.0, 36, 30, 36, 35
300, 1.495, 2017/11/15 11:15:59.86上午, 612.0, 36, 30, 35, 35
301, 1.5, 2017/11/15 11:15:59.865上午, 623.0, 35, 31, 36, 34
302, 1.505, 2017/11/15 11:15:59.87上午, 620.0, 36, 31, 35, 35
303, 1.51, 2017/11/15 11:15:59.875上午, 618.0, 36, 30, 35, 35
304, 1.515, 2017/11/15 11:15:59.88上午, 613.0, 36, 30, 36, 35
305, 1.52, 2017/11/15 11:15:59.885上午, 622.0, 36, 30, 35, 35
306, 1.525, 2017/11/15 11:15:59.89上午, 622.0, 37, 31, 36, 35
307, 1.53, 2017/11/15 11:15:59.895上午, 614.0, 36, 31, 36, 35
308, 1.535, 2017/11/15 11:15:59.9上午, 632.0, 36, 30, 35, 35
309, 1.54, 2017/11/15 11:15:59.905上午, 625.0, 36, 31, 36, 35
310, 1.545, 2017/11/15 11:15:59.91上午, 627.0, 37, 31, 36, 35
311, 1.55, 2017/11/15 11:15:59.915上午, 624.0, 35, 30, 35, 34
312, 1.555, 2017/11/15 11:15:59.92上午, 612.0, 37, 30, 35, 35
313, 1.56, 2017/11/15 11:15:59.925上午, 622.0, 36, 31, 36, 35
314, 1.565, 2017/11/15 11:15:59.93上午, 629.0, 36, 31, 36, 35
315, 1.57, 2017/11/15 11:15:59.935上午, 610.0, 37, 31, 35, 35
316, 1.575, 2017/11/15 11:15:59.94上午, 624.0, 36, 30, 36, 35
317, 1.58, 2017/11/15 11:15:59.945上午, 621.0, 37, 31, 36, 35
318, 1.585, 2017/11/15 11:15:59.95上午, 620.0, 36, 31, 36, 35
319, 1.59, 2017/11/15 11:15:59.955上午, 611.0, 35, 30, 35, 34
320, 1.595, 2017/11/15 11:15:59.96上午, 619.0, 36, 30, 35, 35
321, 1.6, 2017/11/15 11:15:59.965上午, 629.0, 37, 30, 36, 35
322, 1.605, 2017/11/15 11:15:59.97上午, 622.0, 35, 30, 36, 34
323, 1.61, 2017/11/15 11:15:59.975上午, 593.0, 37, 30, 36, 35
324, 1.615, 2017/11/15 11:15:59.98上午, 622.0, 37, 30, 36, 35
325, 1.62, 2017/11/15 11:15:59.985上午, 633.0, 36, 30, 36, 34
326, 1.625, 2017/11/15 11:15:59.99上午, 630.0, 37, 31, 35, 35
327, 1.63, 2017/11/15 11:15:59.995上午, 630.0, 37, 30, 36, 35
328, 1.635, 2017/11/15 11:16:00上午, 625.0, 36, 30, 35, 34
329, 1.64, 2017/11/15 11:16:00.005上午, 638.0, 36, 30, 35, 34
330, 1.645, 2017/11/15 11:16:00.01上午, 618.0, 37, 30, 35, 35
331, 1.65, 2017/11/15 11:16:00.015上午, 628.0, 37, 30, 35, 35
332, 1.655, 2017/11/15 11:16:00.02上午, 638.0, 37, 30, 34, 34
333, 1.66, 2017/11/15 11:16:00.025上午, 628.0, 37, 31, 35, 35
334, 1.665, 2017/11/15 11:16:00.03上午, 643.0, 36, 30, 35, 34
335, 1.67, 2017/11/15 11:16:00.035上午, 620.0, 38, 31, 35, 35
336, 1.675, 2017/11/15 11:16:00.04上午, 625.0, 36, 30, 35, 35
337, 1.68, 2017/11/15 11:16:00.045上午, 639.0, 37, 30, 36, 35
338, 1.685, 2017/11/15 11:16:00.05上午, 632.0, 37, 30, 35, 35
339, 1.69, 2017/11/15 11:16:00.055上午, 634.0, 36, 30, 35, 34
340, 1.695, 2017/11/15 11:16:00.06上午, 623.0, 37, 30, 36, 35
341, 1.7, 2017/11/15 11:16:00.065上午, 636.0, 37, 31, 35, 35
342, 1.705, 2017/11/15 11:16:00.07上午, 621.0, 36, 30, 36, 35
343, 1.71, 2017/11/15 11:16:00.075上午, 627.0, 37, 30, 35, 35
344, 1.715, 2017/11/15 11:16:00.08上午, 626.0, 37, 32, 36, 35
345, 1.72, 2017/11/15 11:16:00.085上午, 632.0, 36, 30, 35, 34
346, 1.725, 2017/11/15 11:16:00.09上午, 625.0, 37, 30, 36, 35
347, 1.73, 2017/11/15 11:16:00.095上午, 626.0, 36, 31, 36, 35
348, 1.735, 2017/11/15 11:16:00.1上午, 624.0, 36, 30, 35, 34
349, 1.74, 2017/11/15 11:16:00.105上午, 616.0, 37, 30, 35, 35
350, 1.745, 2017/11/15 11:16:00.11上午, 638.0, 36, 30, 35, 34
351, 1.75, 2017/11/15 11:16:00.115上午, 639.0, 37, 30, 35, 35
352, 1.755, 2017/11/15 11:16:00.12上午, 622.0, 37, 32, 35, 35
353, 1.76, 2017/11/15 11:16:00.125上午, 638.0, 37, 30, 35, 35
354, 1.765, 2017/11/15 11:16:00.13上午, 619.0, 36, 30, 35, 35
355, 1.77, 2017/11/15 11:16:00.135上午, 607.0, 36, 30, 36, 34
356, 1.775, 2017/11/15 11:16:00.14上午, 622.0, 37, 30, 35, 35
357, 1.78, 2017/11/15 11:16:00.145上午, 638.0, 37, 31, 35, 35
358, 1.785, 2017/11/15 11:16:00.15上午, 647.0, 37, 30, 35, 35
359, 1.79, 2017/11/15 11:16:00.155上午, 635.0, 38, 31, 35, 35
360, 1.795, 2017/11/15 11:16:00.16上午, 633.0, 36, 30, 35, 35
361, 1.8, 2017/11/15 11:16:00.165上午, 633.0, 36, 30, 35, 34
362, 1.805, 2017/11/15 11:16:00.17上午, 635.0, 37, 30, 35, 35
363, 1.81, 2017/11/15 11:16:00.175上午, 631.0, 37, 31, 36, 35
364, 1.815, 2017/11/15 11:16:00.18上午, 636.0, 36, 30, 35, 34
365, 1.82, 2017/11/15 11:16:00.185上午, 618.0, 37, 30, 35, 35
366, 1.825, 2017/11/15 11:16:00.19上午, 615.0, 36, 31, 35, 35
367, 1.83, 2017/11/15 11:16:00.195上午, 629.0, 36, 30, 35, 34
368, 1.835, 2017/11/15 11:16:00.2上午, 623.0, 37, 30, 35, 35
369, 1.84, 2017/11/15 11:16:00.205上午, 639.0, 36, 30, 36, 35
370, 1.845, 2017/11/15 11:16:00.21上午, 648.0, 37, 30, 35, 35
371, 1.85, 2017/11/15 11:16:00.215上午, 648.0, 37, 31, 35, 35
372, 1.855, 2017/11/15 11:16:00.22上午, 635.0, 36, 30, 35, 34
373, 1.86, 2017/11/15 11:16:00.225上午, 625.0, 37, 30, 35, 35
374, 1.865, 2017/11/15 11:16:00.23上午, 634.0, 37, 30, 36, 35
375, 1.87, 2017/11/15 11:16:00.235上午, 623.0, 37, 30, 35, 35
376, 1.875, 2017/11/15 11:16:00.24上午, 611.0, 36, 31, 35, 35
377, 1.88, 2017/11/15 11:16:00.245上午, 638.0, 37, 31, 34, 35
378, 1.885, 2017/11/15 11:16:00.25上午, 643.0, 37, 30, 35, 35
379, 1.89, 2017/11/15 11:16:00.255上午, 642.0, 37, 31, 35, 35
380, 1.895, 2017/11/15 11:16:00.26上午, 627.0, 37, 32, 35, 35
381, 1.9, 2017/11/15 11:16:00.265上午, 636.0, 37, 31, 36, 35
382, 1.905, 2017/11/15 11:16:00.27上午, 632.0, 37, 30, 35, 35
383, 1.91, 2017/11/15 11:16:00.275上午, 625.0, 37, 30, 35, 35
384, 1.915, 2017/11/15 11:16:00.28上午, 630.0, 36, 30, 35, 34
385, 1.92, 2017/11/15 11:16:00.285上午, 624.0, 37, 30, 35, 35
386, 1.925, 2017/11/15 11:16:00.29上午, 637.0, 36, 31, 35, 35
387, 1.93, 2017/11/15 11:16:00.295上午, 635.0, 36, 31, 34, 34
388, 1.935, 2017/11/15 11:16:00.3上午, 635.0, 37, 31, 35, 35
389, 1.94, 2017/11/15 11:16:00.305上午, 655.0, 37, 31, 35, 35
390, 1.945, 2017/11/15 11:16:00.31上午, 631.0, 38, 30, 35, 35
391, 1.95, 2017/11/15 11:16:00.315上午, 623.0, 37, 30, 35, 35
392, 1.955, 2017/11/15 11:16:00.32上午, 636.0, 38, 30, 35, 35
393, 1.96, 2017/11/15 11:16:00.325上午, 638.0, 37, 30, 36, 35
394, 1.965, 2017/11/15 11:16:00.33上午, 627.0, 37, 30, 35, 35
395, 1.97, 2017/11/15 11:16:00.335上午, 636.0, 37, 31, 35, 35
396, 1.975, 2017/11/15 11:16:00.34上午, 652.0, 37, 30, 35, 35
397, 1.98, 2017/11/15 11:16:00.345上午, 622.0, 38, 30, 35, 35
398, 1.985, 2017/11/15 11:16:00.35上午, 637.0, 38, 30, 35, 35
399, 1.99, 2017/11/15 11:16:00.355上午, 649.0, 37, 30, 35, 35
400, 1.995, 2017/11/15 11:16:00.36上午, 640.0, 37, 31, 35, 35
401, 2, 2017/11/15 11:16:00.365上午, 642.0, 37, 31, 35, 35
402, 2.005, 2017/11/15 11:16:00.37上午, 637.0, 37, 30, 35, 34
403, 2.01, 2017/11/15 11:16:00.375上午, 630.0, 37, 31, 34, 34
404, 2.015, 2017/11/15 11:16:00.38上午, 641.0, 37, 31, 35, 35
405, 2.02, 2017/11/15 11:16:00.385上午, 636.0, 37, 31, 35, 35
406, 2.025, 2017/11/15 11:16:00.39上午, 641.0, 37, 31, 35, 35
407, 2.03, 2017/11/15 11:16:00.395上午, 627.0, 37, 30, 35, 35
408, 2.035, 2017/11/15 11:16:00.4上午, 634.0, 37, 31, 34, 35
409, 2.04, 2017/11/15 11:16:00.405上午, 631.0, 37, 30, 35, 34
410, 2.045, 2017/11/15 11:16:00.41上午, 628.0, 37, 31, 34, 35
411, 2.05, 2017/11/15 11:16:00.415上午, 637.0, 36, 30, 35, 34
412, 2.055, 2017/11/15 11:16:00.42上午, 638.0, 38, 31, 35, 35
413, 2.06, 2017/11/15 11:16:00.425上午, 639.0, 37, 31, 35, 35
414, 2.065, 2017/11/15 11:16:00.43上午, 644.0, 37, 30, 35, 35
415, 2.07, 2017/11/15 11:16:00.435上午, 625.0, 38, 30, 34, 35
416, 2.075, 2017/11/15 11:16:00.44上午, 632.0, 37, 30, 35, 34
417, 2.08, 2017/11/15 11:16:00.445上午, 632.0, 38, 30, 34, 35
418, 2.085, 2017/11/15 11:16:00.45上午, 638.0, 37, 31, 34, 35
419, 2.09, 2017/11/15 11:16:00.455上午, 630.0, 37, 30, 35, 35
420, 2.095, 2017/11/15 11:16:00.46上午, 633.0, 38, 30, 34, 35
421, 2.1, 2017/11/15 11:16:00.465上午, 629.0, 38, 30, 36, 36
422, 2.105, 2017/11/15 11:16:00.47上午, 641.0, 38, 30, 34, 35
423, 2.11, 2017/11/15 11:16:00.475上午, 645.0, 37, 30, 35, 35
424, 2.115, 2017/11/15 11:16:00.48上午, 630.0, 38, 30, 35, 35
425, 2.12, 2017/11/15 11:16:00.485上午, 627.0, 37, 31, 35, 35
426, 2.125, 2017/11/15 11:16:00.49上午, 644.0, 37, 31, 35, 35
427, 2.13, 2017/11/15 11:16:00.495上午, 647.0, 37, 31, 34, 35
428, 2.135, 2017/11/15 11:16:00.5上午, 626.0, 38, 30, 35, 35
429, 2.14, 2017/11/15 11:16:00.505上午, 635.0, 38, 30, 35, 35
430, 2.145, 2017/11/15 11:16:00.51上午, 633.0, 37, 30, 35, 35
431, 2.15, 2017/11/15 11:16:00.515上午, 631.0, 38, 30, 35, 35
432, 2.155, 2017/11/15 11:16:00.52上午, 634.0, 37, 32, 34, 35
433, 2.16, 2017/11/15 11:16:00.525上午, 645.0, 37, 30, 35, 35
434, 2.165, 2017/11/15 11:16:00.53上午, 639.0, 38, 30, 35, 35
435, 2.17, 2017/11/15 11:16:00.535上午, 641.0, 39, 32, 35, 36
436, 2.175, 2017/11/15 11:16:00.54上午, 650.0, 38, 30, 35, 35
437, 2.18, 2017/11/15 11:16:00.545上午, 662.0, 38, 30, 34, 35
438, 2.185, 2017/11/15 11:16:00.55上午, 639.0, 38, 31, 34, 35
439, 2.19, 2017/11/15 11:16:00.555上午, 641.0, 38, 30, 34, 35
440, 2.195, 2017/11/15 11:16:00.56上午, 631.0, 38, 30, 35, 35
441, 2.2, 2017/11/15 11:16:00.565上午, 629.0, 37, 31, 34, 35
442, 2.205, 2017/11/15 11:16:00.57上午, 624.0, 38, 30, 35, 35
443, 2.21, 2017/11/15 11:16:00.575上午, 638.0, 38, 31, 35, 35
444, 2.215, 2017/11/15 11:16:00.58上午, 647.0, 38, 30, 34, 35
445, 2.22, 2017/11/15 11:16:00.585上午, 628.0, 38, 30, 34, 35
446, 2.225, 2017/11/15 11:16:00.59上午, 647.0, 38, 30, 34, 35
447, 2.23, 2017/11/15 11:16:00.595上午, 633.0, 38, 30, 34, 35
448, 2.235, 2017/11/15 11:16:00.6上午, 645.0, 38, 31, 34, 35
449, 2.24, 2017/11/15 11:16:00.605上午, 639.0, 38, 30, 34, 35
450, 2.245, 2017/11/15 11:16:00.61上午, 637.0, 38, 31, 33, 35
451, 2.25, 2017/11/15 11:16:00.615上午, 641.0, 38, 31, 34, 35
452, 2.255, 2017/11/15 11:16:00.62上午, 651.0, 38, 30, 35, 35
453, 2.26, 2017/11/15 11:16:00.625上午, 624.0, 39, 30, 34, 35
454, 2.265, 2017/11/15 11:16:00.63上午, 637.0, 38, 31, 34, 35
455, 2.27, 2017/11/15 11:16:00.635上午, 653.0, 38, 30, 34, 35
456, 2.275, 2017/11/15 11:16:00.64上午, 656.0, 39, 30, 34, 35
457, 2.28, 2017/11/15 11:16:00.645上午, 629.0, 38, 32, 34, 35
458, 2.285, 2017/11/15 11:16:00.65上午, 635.0, 38, 30, 34, 35
459, 2.29, 2017/11/15 11:16:00.655上午, 640.0, 39, 30, 34, 35
460, 2.295, 2017/11/15 11:16:00.66上午, 645.0, 39, 30, 34, 35
461, 2.3, 2017/11/15 11:16:00.665上午, 633.0, 38, 31, 34, 35
462, 2.305, 2017/11/15 11:16:00.67上午, 648.0, 38, 31, 33, 35
463, 2.31, 2017/11/15 11:16:00.675上午, 653.0, 38, 30, 34, 35
464, 2.315, 2017/11/15 11:16:00.68上午, 665.0, 39, 30, 34, 35
465, 2.32, 2017/11/15 11:16:00.685上午, 648.0, 38, 30, 34, 35
466, 2.325, 2017/11/15 11:16:00.69上午, 652.0, 39, 30, 35, 35
467, 2.33, 2017/11/15 11:16:00.695上午, 633.0, 39, 30, 35, 36
468, 2.335, 2017/11/15 11:16:00.7上午, 631.0, 39, 30, 34, 35
469, 2.34, 2017/11/15 11:16:00.705上午, 642.0, 39, 30, 34, 35
470, 2.345, 2017/11/15 11:16:00.71上午, 649.0, 38, 31, 34, 35
471, 2.35, 2017/11/15 11:16:00.715上午, 640.0, 39, 30, 33, 35
472, 2.355, 2017/11/15 11:16:00.72上午, 636.0, 38, 31, 34, 35
473, 2.36, 2017/11/15 11:16:00.725上午, 658.0, 39, 30, 34, 35
474, 2.365, 2017/11/15 11:16:00.73上午, 642.0, 39, 30, 34, 35
475, 2.37, 2017/11/15 11:16:00.735上午, 626.0, 38, 31, 33, 35
476, 2.375, 2017/11/15 11:16:00.74上午, 614.0, 38, 30, 35, 35
477, 2.38, 2017/11/15 11:16:00.745上午, 648.0, 39, 30, 33, 35
478, 2.385, 2017/11/15 11:16:00.75上午, 635.0, 39, 31, 33, 35
479, 2.39, 2017/11/15 11:16:00.755上午, 635.0, 38, 30, 34, 35
480, 2.395, 2017/11/15 11:16:00.76上午, 639.0, 39, 30, 33, 35
481, 2.4, 2017/11/15 11:16:00.765上午, 653.0, 39, 31, 33, 35
482, 2.405, 2017/11/15 11:16:00.77上午, 635.0, 38, 30, 34, 35
483, 2.41, 2017/11/15 11:16:00.775上午, 635.0, 40, 29, 33, 35
484, 2.415, 2017/11/15 11:16:00.78上午, 642.0, 40, 30, 34, 35
485, 2.42, 2017/11/15 11:16:00.785上午, 640.0, 39, 31, 34, 35
486, 2.425, 2017/11/15 11:16:00.79上午, 631.0, 39, 30, 34, 35
487, 2.43, 2017/11/15 11:16:00.795上午, 645.0, 39, 30, 33, 35
488, 2.435, 2017/11/15 11:16:00.8上午, 637.0, 39, 31, 33, 35
489, 2.44, 2017/11/15 11:16:00.805上午, 645.0, 39, 30, 34, 35
490, 2.445, 2017/11/15 11:16:00.81上午, 637.0, 39, 30, 34, 35
491, 2.45, 2017/11/15 11:16:00.815上午, 624.0, 39, 31, 35, 35
492, 2.455, 2017/11/15 11:16:00.82上午, 640.0, 38, 29, 34, 35
493, 2.46, 2017/11/15 11:16:00.825上午, 636.0, 39, 29, 33, 35
494, 2.465, 2017/11/15 11:16:00.83上午, 632.0, 38, 30, 34, 35
495, 2.47, 2017/11/15 11:16:00.835上午, 633.0, 39, 30, 33, 35
496, 2.475, 2017/11/15 11:16:00.84上午, 641.0, 39, 29, 33, 35
497, 2.48, 2017/11/15 11:16:00.845上午, 627.0, 39, 30, 33, 35
498, 2.485, 2017/11/15 11:16:00.85上午, 643.0, 39, 30, 33, 35
499, 2.49, 2017/11/15 11:16:00.855上午, 628.0, 39, 31, 33, 35
500, 2.495, 2017/11/15 11:16:00.86上午, 630.0, 38, 30, 33, 35
501, 2.5, 2017/11/15 11:16:00.865上午, 663.0, 39, 30, 33, 35
502, 2.505, 2017/11/15 11:16:00.87上午, 644.0, 39, 30, 33, 35
503, 2.51, 2017/11/15 11:16:00.875上午, 638.0, 39, 30, 34, 35
504, 2.515, 2017/11/15 11:16:00.88上午, 635.0, 39, 30, 34, 35
505, 2.52, 2017/11/15 11:16:00.885上午, 631.0, 40, 30, 33, 35
506, 2.525, 2017/11/15 11:16:00.89上午, 635.0, 39, 31, 33, 35
507, 2.53, 2017/11/15 11:16:00.895上午, 627.0, 39, 31, 34, 35
508, 2.535, 2017/11/15 11:16:00.9上午, 639.0, 39, 30, 34, 35
509, 2.54, 2017/11/15 11:16:00.905上午, 645.0, 40, 29, 34, 35
510, 2.545, 2017/11/15 11:16:00.91上午, 639.0, 39, 30, 34, 35
511, 2.55, 2017/11/15 11:16:00.915上午, 634.0, 39, 30, 33, 35
512, 2.555, 2017/11/15 11:16:00.92上午, 628.0, 40, 30, 33, 35
513, 2.56, 2017/11/15 11:16:00.925上午, 638.0, 39, 30, 33, 35
514, 2.565, 2017/11/15 11:16:00.93上午, 634.0, 39, 30, 33, 35
515, 2.57, 2017/11/15 11:16:00.935上午, 644.0, 40, 30, 34, 36
516, 2.575, 2017/11/15 11:16:00.94上午, 656.0, 39, 30, 34, 35
517, 2.58, 2017/11/15 11:16:00.945上午, 638.0, 39, 30, 33, 35
518, 2.585, 2017/11/15 11:16:00.95上午, 625.0, 40, 30, 34, 36
519, 2.59, 2017/11/15 11:16:00.955上午, 639.0, 39, 30, 33, 35
520, 2.595, 2017/11/15 11:16:00.96上午, 635.0, 40, 30, 34, 35
521, 2.6, 2017/11/15 11:16:00.965上午, 630.0, 39, 30, 33, 35
522, 2.605, 2017/11/15 11:16:00.97上午, 646.0, 39, 30, 34, 35
523, 2.61, 2017/11/15 11:16:00.975上午, 637.0, 40, 30, 33, 35
524, 2.615, 2017/11/15 11:16:00.98上午, 636.0, 39, 29, 33, 35
525, 2.62, 2017/11/15 11:16:00.985上午, 649.0, 40, 29, 33, 35
526, 2.625, 2017/11/15 11:16:00.99上午, 629.0, 39, 30, 34, 35
527, 2.63, 2017/11/15 11:16:00.995上午, 626.0, 39, 30, 33, 35
528, 2.635, 2017/11/15 11:16:01上午, 621.0, 40, 30, 34, 35
529, 2.64, 2017/11/15 11:16:01.005上午, 638.0, 39, 30, 33, 35
530, 2.645, 2017/11/15 11:16:01.01上午, 648.0, 40, 29, 33, 35
531, 2.65, 2017/11/15 11:16:01.015上午, 639.0, 39, 31, 33, 35
532, 2.655, 2017/11/15 11:16:01.02上午, 620.0, 39, 30, 34, 35
533, 2.66, 2017/11/15 11:16:01.025上午, 633.0, 40, 30, 33, 35
534, 2.665, 2017/11/15 11:16:01.03上午, 650.0, 40, 30, 33, 35
535, 2.67, 2017/11/15 11:16:01.035上午, 640.0, 40, 30, 34, 35
536, 2.675, 2017/11/15 11:16:01.04上午, 629.0, 39, 29, 33, 35
537, 2.68, 2017/11/15 11:16:01.045上午, 622.0, 40, 31, 33, 35
538, 2.685, 2017/11/15 11:16:01.05上午, 641.0, 40, 30, 33, 35
539, 2.69, 2017/11/15 11:16:01.055上午, 622.0, 39, 30, 33, 35
540, 2.695, 2017/11/15 11:16:01.06上午, 643.0, 40, 29, 33, 35
541, 2.7, 2017/11/15 11:16:01.065上午, 644.0, 40, 30, 34, 35
542, 2.705, 2017/11/15 11:16:01.07上午, 645.0, 40, 30, 35, 36
543, 2.71, 2017/11/15 11:16:01.075上午, 650.0, 39, 31, 34, 35
544, 2.715, 2017/11/15 11:16:01.08上午, 622.0, 39, 30, 34, 35
545, 2.72, 2017/11/15 11:16:01.085上午, 643.0, 40, 30, 33, 35
546, 2.725, 2017/11/15 11:16:01.09上午, 640.0, 40, 30, 33, 35
547, 2.73, 2017/11/15 11:16:01.095上午, 641.0, 40, 29, 34, 36
548, 2.735, 2017/11/15 11:16:01.1上午, 634.0, 39, 29, 34, 35
549, 2.74, 2017/11/15 11:16:01.105上午, 637.0, 39, 29, 33, 35
550, 2.745, 2017/11/15 11:16:01.11上午, 635.0, 40, 30, 34, 35
551, 2.75, 2017/11/15 11:16:01.115上午, 641.0, 40, 29, 34, 35
552, 2.755, 2017/11/15 11:16:01.12上午, 625.0, 39, 29, 33, 35
553, 2.76, 2017/11/15 11:16:01.125上午, 630.0, 40, 30, 34, 36
554, 2.765, 2017/11/15 11:16:01.13上午, 639.0, 40, 30, 33, 35
555, 2.77, 2017/11/15 11:16:01.135上午, 634.0, 39, 30, 34, 35
556, 2.775, 2017/11/15 11:16:01.14上午, 630.0, 40, 30, 33, 35
557, 2.78, 2017/11/15 11:16:01.145上午, 640.0, 40, 30, 34, 35
558, 2.785, 2017/11/15 11:16:01.15上午, 626.0, 39, 30, 33, 35
559, 2.79, 2017/11/15 11:16:01.155上午, 623.0, 40, 29, 33, 35
560, 2.795, 2017/11/15 11:16:01.16上午, 626.0, 40, 29, 33, 35
561, 2.8, 2017/11/15 11:16:01.165上午, 628.0, 40, 30, 34, 35
562, 2.805, 2017/11/15 11:16:01.17上午, 650.0, 40, 30, 33, 35
563, 2.81, 2017/11/15 11:16:01.175上午, 633.0, 40, 29, 33, 35
564, 2.815, 2017/11/15 11:16:01.18上午, 627.0, 40, 29, 33, 35
565, 2.82, 2017/11/15 11:16:01.185上午, 612.0, 40, 29, 33, 35
566, 2.825, 2017/11/15 11:16:01.19上午, 630.0, 41, 30, 33, 36
567, 2.83, 2017/11/15 11:16:01.195上午, 618.0, 39, 29, 33, 35
568, 2.835, 2017/11/15 11:16:01.2上午, 632.0, 40, 29, 33, 35
569, 2.84, 2017/11/15 11:16:01.205上午, 610.0, 40, 29, 33, 35
570, 2.845, 2017/11/15 11:16:01.21上午, 630.0, 40, 30, 34, 36
571, 2.85, 2017/11/15 11:16:01.215上午, 639.0, 40, 30, 34, 36
572, 2.855, 2017/11/15 11:16:01.22上午, 625.0, 40, 28, 33, 35
573, 2.86, 2017/11/15 11:16:01.225上午, 633.0, 41, 30, 33, 35
574, 2.865, 2017/11/15 11:16:01.23上午, 647.0, 40, 29, 33, 35
575, 2.87, 2017/11/15 11:16:01.235上午, 625.0, 40, 29, 34, 35
576, 2.875, 2017/11/15 11:16:01.24上午, 635.0, 40, 30, 33, 35
577, 2.88, 2017/11/15 11:16:01.245上午, 622.0, 40, 30, 34, 36
578, 2.885, 2017/11/15 11:16:01.25上午, 650.0, 40, 29, 33, 35
579, 2.89, 2017/11/15 11:16:01.255上午, 625.0, 40, 30, 34, 35
580, 2.895, 2017/11/15 11:16:01.26上午, 618.0, 40, 29, 33, 35
581, 2.9, 2017/11/15 11:16:01.265上午, 639.0, 40, 29, 33, 35
582, 2.905, 2017/11/15 11:16:01.27上午, 641.0, 39, 29, 33, 35
583, 2.91, 2017/11/15 11:16:01.275上午, 625.0, 40, 29, 34, 35
584, 2.915, 2017/11/15 11:16:01.28上午, 633.0, 40, 30, 33, 35
585, 2.92, 2017/11/15 11:16:01.285上午, 649.0, 40, 30, 34, 36
586, 2.925, 2017/11/15 11:16:01.29上午, 641.0, 41, 29, 34, 36
587, 2.93, 2017/11/15 11:16:01.295上午, 638.0, 40, 29, 33, 35
588, 2.935, 2017/11/15 11:16:01.3上午, 625.0, 39, 30, 33, 35
589, 2.94, 2017/11/15 11:16:01.305上午, 631.0, 40, 29, 33, 35
590, 2.945, 2017/11/15 11:16:01.31上午, 642.0, 40, 30, 34, 36
591, 2.95, 2017/11/15 11:16:01.315上午, 630.0, 40, 30, 33, 36
592, 2.955, 2017/11/15 11:16:01.32上午, 628.0, 39, 29, 34, 35
593, 2.96, 2017/11/15 11:16:01.325上午, 644.0, 40, 29, 34, 35
594, 2.965, 2017/11/15 11:16:01.33上午, 632.0, 40, 29, 33, 35
595, 2.97, 2017/11/15 11:16:01.335上午, 622.0, 39, 30, 34, 36
596, 2.975, 2017/11/15 11:16:01.34上午, 641.0, 40, 29, 33, 35
597, 2.98, 2017/11/15 11:16:01.345上午, 646.0, 40, 29, 33, 35
598, 2.985, 2017/11/15 11:16:01.35上午, 619.0, 40, 30, 34, 36
599, 2.99, 2017/11/15 11:16:01.355上午, 632.0, 40, 29, 33, 35
600, 2.995, 2017/11/15 11:16:01.36上午, 627.0, 40, 30, 34, 36
@@
