DATA_TYPE Graph
VERSION Tekscan Pressure Measurement System 6.70-03
HARDWARE 00114-3447
MAP_VERSION 6.5
HW_TYPE 4
VersaPogoFsx 0
檔案名 C:\Users\asus\Desktop\工研院_計畫\收案資料\Subject02\Plantar Pressure\R65S_STAND_RIGHT_1.fsx
SENSOR_TYPE FSCAN
ROWS 60
COLS 21
ROW_SPACING 0.508 centimeters
COL_SPACING 0.508 centimeters
SENSEL_AREA 0.258064 cm2
NOISE_THRESHOLD 3
SECONDS_PER_FRAME 0.005
SECONDS_PER_FRAME 0
MICRO_SECOND 0
TIME 2017/11/15 11:06:37.709上午
SATURATION_PRESSURE 2347.96 KPa 
CALIBRATION_POINT_1 48.0001 (Kilograms) 1981 (Raw Sum) 199 (Number of Loaded Cells)
CALIBRATION_MODE_1 步態
CALIBRATION_INFO C:\Users\asus\Desktop\工研院_計畫\收案資料\Subject02\Plantar Pressure\R65S_STAND_RIGHT_1.fsx
SENSITIVITY 自定義
MAP_INDEX 0
SUBMAP 0
Patient ID: 

Speed of Gait: 

Weight: 

Gender: 

Physician: 

Technician: 

Shoe: 

START_FRAME 1
END_FRAME 600
UNITS KPa
ASCII_DATA @@
畫面(X), 時間(X), 絕對時間(X), Raw Sum, 壓力(Y:天藍色), 壓力(Y), 壓力(Y), 壓力(Y)
1, 0, 2017/11/15 11:06:37.709上午, 463.0, 37, 30, 34, 35
2, 0.005, 2017/11/15 11:06:37.714上午, 495.0, 37, 31, 34, 35
3, 0.01, 2017/11/15 11:06:37.719上午, 507.0, 37, 31, 35, 35
4, 0.015, 2017/11/15 11:06:37.724上午, 478.0, 37, 31, 35, 36
5, 0.02, 2017/11/15 11:06:37.729上午, 518.0, 37, 30, 34, 35
6, 0.025, 2017/11/15 11:06:37.734上午, 498.0, 37, 30, 35, 35
7, 0.03, 2017/11/15 11:06:37.739上午, 504.0, 38, 30, 34, 35
8, 0.035, 2017/11/15 11:06:37.744上午, 470.0, 38, 28, 34, 36
9, 0.04, 2017/11/15 11:06:37.749上午, 520.0, 38, 30, 34, 35
10, 0.045, 2017/11/15 11:06:37.754上午, 495.0, 37, 32, 35, 36
11, 0.05, 2017/11/15 11:06:37.759上午, 504.0, 38, 32, 35, 36
12, 0.055, 2017/11/15 11:06:37.764上午, 490.0, 37, 31, 35, 36
13, 0.06, 2017/11/15 11:06:37.769上午, 475.0, 38, 31, 34, 36
14, 0.065, 2017/11/15 11:06:37.774上午, 506.0, 37, 31, 34, 35
15, 0.07, 2017/11/15 11:06:37.779上午, 507.0, 38, 31, 35, 36
16, 0.075, 2017/11/15 11:06:37.784上午, 504.0, 38, 31, 35, 36
17, 0.08, 2017/11/15 11:06:37.789上午, 487.0, 38, 31, 34, 36
18, 0.085, 2017/11/15 11:06:37.794上午, 486.0, 38, 30, 34, 36
19, 0.09, 2017/11/15 11:06:37.799上午, 502.0, 38, 30, 34, 35
20, 0.095, 2017/11/15 11:06:37.804上午, 504.0, 38, 32, 34, 36
21, 0.1, 2017/11/15 11:06:37.809上午, 507.0, 38, 31, 34, 36
22, 0.105, 2017/11/15 11:06:37.814上午, 514.0, 38, 31, 35, 36
23, 0.11, 2017/11/15 11:06:37.819上午, 496.0, 38, 31, 34, 36
24, 0.115, 2017/11/15 11:06:37.824上午, 492.0, 38, 31, 34, 36
25, 0.12, 2017/11/15 11:06:37.829上午, 504.0, 37, 30, 34, 35
26, 0.125, 2017/11/15 11:06:37.834上午, 512.0, 37, 32, 35, 36
27, 0.13, 2017/11/15 11:06:37.839上午, 454.0, 38, 30, 35, 36
28, 0.135, 2017/11/15 11:06:37.844上午, 518.0, 37, 30, 35, 35
29, 0.14, 2017/11/15 11:06:37.849上午, 509.0, 38, 31, 35, 36
30, 0.145, 2017/11/15 11:06:37.854上午, 491.0, 37, 32, 35, 36
31, 0.15, 2017/11/15 11:06:37.859上午, 504.0, 38, 31, 34, 36
32, 0.155, 2017/11/15 11:06:37.864上午, 500.0, 38, 30, 34, 35
33, 0.16, 2017/11/15 11:06:37.869上午, 533.0, 37, 29, 34, 35
34, 0.165, 2017/11/15 11:06:37.874上午, 514.0, 37, 30, 35, 35
35, 0.17, 2017/11/15 11:06:37.879上午, 492.0, 38, 30, 34, 35
36, 0.175, 2017/11/15 11:06:37.884上午, 508.0, 37, 30, 34, 35
37, 0.18, 2017/11/15 11:06:37.889上午, 515.0, 38, 31, 34, 35
38, 0.185, 2017/11/15 11:06:37.894上午, 494.0, 38, 31, 34, 36
39, 0.19, 2017/11/15 11:06:37.899上午, 483.0, 38, 30, 34, 36
40, 0.195, 2017/11/15 11:06:37.904上午, 505.0, 38, 31, 34, 36
41, 0.2, 2017/11/15 11:06:37.909上午, 511.0, 38, 31, 34, 36
42, 0.205, 2017/11/15 11:06:37.914上午, 506.0, 38, 32, 34, 36
43, 0.21, 2017/11/15 11:06:37.919上午, 489.0, 38, 32, 35, 36
44, 0.215, 2017/11/15 11:06:37.924上午, 501.0, 37, 30, 34, 35
45, 0.22, 2017/11/15 11:06:37.929上午, 522.0, 37, 31, 34, 35
46, 0.225, 2017/11/15 11:06:37.934上午, 511.0, 38, 31, 34, 35
47, 0.23, 2017/11/15 11:06:37.939上午, 505.0, 37, 32, 34, 35
48, 0.235, 2017/11/15 11:06:37.944上午, 518.0, 38, 30, 34, 36
49, 0.24, 2017/11/15 11:06:37.949上午, 494.0, 37, 30, 34, 35
50, 0.245, 2017/11/15 11:06:37.954上午, 507.0, 38, 31, 35, 36
51, 0.25, 2017/11/15 11:06:37.959上午, 510.0, 38, 31, 34, 36
52, 0.255, 2017/11/15 11:06:37.964上午, 501.0, 39, 31, 34, 36
53, 0.26, 2017/11/15 11:06:37.969上午, 505.0, 38, 30, 34, 36
54, 0.265, 2017/11/15 11:06:37.974上午, 513.0, 37, 31, 34, 35
55, 0.27, 2017/11/15 11:06:37.979上午, 507.0, 38, 31, 34, 36
56, 0.275, 2017/11/15 11:06:37.984上午, 541.0, 38, 29, 34, 35
57, 0.28, 2017/11/15 11:06:37.989上午, 520.0, 38, 31, 35, 36
58, 0.285, 2017/11/15 11:06:37.994上午, 521.0, 38, 30, 35, 35
59, 0.29, 2017/11/15 11:06:37.999上午, 517.0, 37, 31, 34, 35
60, 0.295, 2017/11/15 11:06:38.004上午, 499.0, 38, 32, 35, 36
61, 0.3, 2017/11/15 11:06:38.009上午, 536.0, 38, 31, 34, 35
62, 0.305, 2017/11/15 11:06:38.014上午, 495.0, 38, 31, 34, 36
63, 0.31, 2017/11/15 11:06:38.019上午, 501.0, 38, 31, 34, 35
64, 0.315, 2017/11/15 11:06:38.024上午, 520.0, 38, 31, 34, 35
65, 0.32, 2017/11/15 11:06:38.029上午, 486.0, 38, 32, 34, 36
66, 0.325, 2017/11/15 11:06:38.034上午, 489.0, 38, 32, 34, 36
67, 0.33, 2017/11/15 11:06:38.039上午, 513.0, 38, 30, 35, 36
68, 0.335, 2017/11/15 11:06:38.044上午, 530.0, 38, 31, 34, 36
69, 0.34, 2017/11/15 11:06:38.049上午, 486.0, 38, 32, 34, 36
70, 0.345, 2017/11/15 11:06:38.054上午, 511.0, 38, 30, 34, 36
71, 0.35, 2017/11/15 11:06:38.059上午, 510.0, 38, 31, 35, 36
72, 0.355, 2017/11/15 11:06:38.064上午, 513.0, 38, 31, 34, 36
73, 0.36, 2017/11/15 11:06:38.069上午, 505.0, 38, 31, 33, 35
74, 0.365, 2017/11/15 11:06:38.074上午, 523.0, 38, 31, 35, 36
75, 0.37, 2017/11/15 11:06:38.079上午, 490.0, 39, 30, 34, 36
76, 0.375, 2017/11/15 11:06:38.084上午, 512.0, 39, 31, 34, 36
77, 0.38, 2017/11/15 11:06:38.089上午, 520.0, 39, 31, 34, 36
78, 0.385, 2017/11/15 11:06:38.094上午, 501.0, 39, 31, 34, 36
79, 0.39, 2017/11/15 11:06:38.099上午, 531.0, 39, 31, 34, 36
80, 0.395, 2017/11/15 11:06:38.104上午, 539.0, 39, 30, 34, 35
81, 0.4, 2017/11/15 11:06:38.109上午, 519.0, 39, 32, 33, 36
82, 0.405, 2017/11/15 11:06:38.114上午, 524.0, 38, 31, 34, 36
83, 0.41, 2017/11/15 11:06:38.119上午, 505.0, 38, 32, 34, 36
84, 0.415, 2017/11/15 11:06:38.124上午, 518.0, 39, 30, 35, 36
85, 0.42, 2017/11/15 11:06:38.129上午, 501.0, 39, 31, 34, 36
86, 0.425, 2017/11/15 11:06:38.134上午, 540.0, 38, 31, 34, 36
87, 0.43, 2017/11/15 11:06:38.139上午, 516.0, 38, 30, 34, 36
88, 0.435, 2017/11/15 11:06:38.144上午, 486.0, 38, 30, 34, 36
89, 0.44, 2017/11/15 11:06:38.149上午, 535.0, 39, 30, 34, 36
90, 0.445, 2017/11/15 11:06:38.154上午, 523.0, 38, 32, 34, 36
91, 0.45, 2017/11/15 11:06:38.159上午, 522.0, 37, 31, 33, 35
92, 0.455, 2017/11/15 11:06:38.164上午, 538.0, 38, 31, 34, 36
93, 0.46, 2017/11/15 11:06:38.169上午, 509.0, 39, 31, 34, 36
94, 0.465, 2017/11/15 11:06:38.174上午, 515.0, 39, 32, 34, 36
95, 0.47, 2017/11/15 11:06:38.179上午, 511.0, 38, 30, 34, 35
96, 0.475, 2017/11/15 11:06:38.184上午, 506.0, 39, 31, 34, 36
97, 0.48, 2017/11/15 11:06:38.189上午, 552.0, 38, 31, 33, 35
98, 0.485, 2017/11/15 11:06:38.194上午, 507.0, 39, 31, 33, 36
99, 0.49, 2017/11/15 11:06:38.199上午, 490.0, 39, 30, 34, 36
100, 0.495, 2017/11/15 11:06:38.204上午, 539.0, 39, 31, 34, 36
101, 0.5, 2017/11/15 11:06:38.209上午, 512.0, 39, 31, 34, 36
102, 0.505, 2017/11/15 11:06:38.214上午, 515.0, 39, 31, 34, 36
103, 0.51, 2017/11/15 11:06:38.219上午, 538.0, 38, 31, 34, 35
104, 0.515, 2017/11/15 11:06:38.224上午, 510.0, 39, 31, 34, 36
105, 0.52, 2017/11/15 11:06:38.229上午, 505.0, 39, 30, 34, 36
106, 0.525, 2017/11/15 11:06:38.234上午, 511.0, 38, 32, 34, 36
107, 0.53, 2017/11/15 11:06:38.239上午, 518.0, 39, 31, 34, 36
108, 0.535, 2017/11/15 11:06:38.244上午, 532.0, 38, 31, 33, 35
109, 0.54, 2017/11/15 11:06:38.249上午, 515.0, 39, 31, 34, 36
110, 0.545, 2017/11/15 11:06:38.254上午, 497.0, 39, 30, 34, 36
111, 0.55, 2017/11/15 11:06:38.259上午, 528.0, 39, 30, 34, 36
112, 0.555, 2017/11/15 11:06:38.264上午, 504.0, 39, 31, 34, 36
113, 0.56, 2017/11/15 11:06:38.269上午, 539.0, 38, 30, 34, 35
114, 0.565, 2017/11/15 11:06:38.274上午, 537.0, 39, 31, 33, 36
115, 0.57, 2017/11/15 11:06:38.279上午, 511.0, 40, 30, 34, 36
116, 0.575, 2017/11/15 11:06:38.284上午, 504.0, 38, 33, 34, 36
117, 0.58, 2017/11/15 11:06:38.289上午, 551.0, 39, 29, 34, 36
118, 0.585, 2017/11/15 11:06:38.294上午, 508.0, 39, 31, 34, 36
119, 0.59, 2017/11/15 11:06:38.299上午, 540.0, 39, 32, 34, 36
120, 0.595, 2017/11/15 11:06:38.304上午, 553.0, 39, 31, 34, 36
121, 0.6, 2017/11/15 11:06:38.309上午, 512.0, 39, 30, 34, 36
122, 0.605, 2017/11/15 11:06:38.314上午, 488.0, 39, 32, 34, 37
123, 0.61, 2017/11/15 11:06:38.319上午, 529.0, 39, 30, 34, 36
124, 0.615, 2017/11/15 11:06:38.324上午, 510.0, 39, 31, 33, 36
125, 0.62, 2017/11/15 11:06:38.329上午, 523.0, 38, 31, 34, 36
126, 0.625, 2017/11/15 11:06:38.334上午, 505.0, 39, 31, 34, 36
127, 0.63, 2017/11/15 11:06:38.339上午, 501.0, 39, 30, 34, 36
128, 0.635, 2017/11/15 11:06:38.344上午, 521.0, 39, 30, 34, 35
129, 0.64, 2017/11/15 11:06:38.349上午, 497.0, 38, 31, 34, 36
130, 0.645, 2017/11/15 11:06:38.354上午, 525.0, 39, 31, 34, 36
131, 0.65, 2017/11/15 11:06:38.359上午, 511.0, 39, 31, 34, 36
132, 0.655, 2017/11/15 11:06:38.364上午, 503.0, 38, 30, 34, 36
133, 0.66, 2017/11/15 11:06:38.369上午, 529.0, 39, 31, 34, 36
134, 0.665, 2017/11/15 11:06:38.374上午, 541.0, 38, 31, 34, 36
135, 0.67, 2017/11/15 11:06:38.379上午, 526.0, 39, 30, 34, 36
136, 0.675, 2017/11/15 11:06:38.384上午, 503.0, 39, 32, 34, 36
137, 0.68, 2017/11/15 11:06:38.389上午, 524.0, 38, 33, 34, 36
138, 0.685, 2017/11/15 11:06:38.394上午, 503.0, 39, 31, 34, 36
139, 0.69, 2017/11/15 11:06:38.399上午, 534.0, 38, 30, 34, 35
140, 0.695, 2017/11/15 11:06:38.404上午, 508.0, 38, 31, 34, 36
141, 0.7, 2017/11/15 11:06:38.409上午, 514.0, 39, 31, 34, 36
142, 0.705, 2017/11/15 11:06:38.414上午, 516.0, 38, 31, 34, 36
143, 0.71, 2017/11/15 11:06:38.419上午, 526.0, 38, 32, 34, 36
144, 0.715, 2017/11/15 11:06:38.424上午, 535.0, 39, 31, 34, 36
145, 0.72, 2017/11/15 11:06:38.429上午, 507.0, 39, 33, 34, 36
146, 0.725, 2017/11/15 11:06:38.434上午, 494.0, 38, 31, 34, 36
147, 0.73, 2017/11/15 11:06:38.439上午, 514.0, 38, 30, 34, 36
148, 0.735, 2017/11/15 11:06:38.444上午, 517.0, 38, 32, 33, 35
149, 0.74, 2017/11/15 11:06:38.449上午, 499.0, 38, 32, 33, 35
150, 0.745, 2017/11/15 11:06:38.454上午, 538.0, 38, 31, 34, 35
151, 0.75, 2017/11/15 11:06:38.459上午, 508.0, 38, 31, 33, 35
152, 0.755, 2017/11/15 11:06:38.464上午, 518.0, 38, 33, 34, 36
153, 0.76, 2017/11/15 11:06:38.469上午, 496.0, 38, 31, 34, 36
154, 0.765, 2017/11/15 11:06:38.474上午, 514.0, 38, 31, 34, 36
155, 0.77, 2017/11/15 11:06:38.479上午, 507.0, 37, 30, 34, 35
156, 0.775, 2017/11/15 11:06:38.484上午, 499.0, 38, 33, 34, 36
157, 0.78, 2017/11/15 11:06:38.489上午, 505.0, 38, 32, 34, 36
158, 0.785, 2017/11/15 11:06:38.494上午, 520.0, 37, 31, 33, 35
159, 0.79, 2017/11/15 11:06:38.499上午, 516.0, 37, 31, 34, 35
160, 0.795, 2017/11/15 11:06:38.504上午, 498.0, 38, 32, 34, 36
161, 0.8, 2017/11/15 11:06:38.509上午, 498.0, 38, 30, 34, 35
162, 0.805, 2017/11/15 11:06:38.514上午, 484.0, 38, 31, 34, 36
163, 0.81, 2017/11/15 11:06:38.519上午, 502.0, 37, 30, 34, 35
164, 0.815, 2017/11/15 11:06:38.524上午, 506.0, 37, 31, 33, 35
165, 0.82, 2017/11/15 11:06:38.529上午, 489.0, 37, 31, 34, 36
166, 0.825, 2017/11/15 11:06:38.534上午, 520.0, 37, 31, 34, 35
167, 0.83, 2017/11/15 11:06:38.539上午, 485.0, 38, 30, 33, 35
168, 0.835, 2017/11/15 11:06:38.544上午, 498.0, 37, 32, 35, 36
169, 0.84, 2017/11/15 11:06:38.549上午, 497.0, 37, 31, 34, 35
170, 0.845, 2017/11/15 11:06:38.554上午, 509.0, 38, 30, 34, 35
171, 0.85, 2017/11/15 11:06:38.559上午, 515.0, 38, 31, 34, 35
172, 0.855, 2017/11/15 11:06:38.564上午, 517.0, 39, 31, 35, 36
173, 0.86, 2017/11/15 11:06:38.569上午, 503.0, 37, 32, 35, 35
174, 0.865, 2017/11/15 11:06:38.574上午, 490.0, 37, 32, 35, 36
175, 0.87, 2017/11/15 11:06:38.579上午, 508.0, 37, 30, 34, 35
176, 0.875, 2017/11/15 11:06:38.584上午, 502.0, 37, 30, 34, 35
177, 0.88, 2017/11/15 11:06:38.589上午, 502.0, 37, 31, 34, 35
178, 0.885, 2017/11/15 11:06:38.594上午, 499.0, 36, 32, 34, 35
179, 0.89, 2017/11/15 11:06:38.599上午, 495.0, 38, 31, 35, 36
180, 0.895, 2017/11/15 11:06:38.604上午, 478.0, 37, 33, 34, 36
181, 0.9, 2017/11/15 11:06:38.609上午, 494.0, 37, 31, 34, 35
182, 0.905, 2017/11/15 11:06:38.614上午, 513.0, 36, 31, 34, 35
183, 0.91, 2017/11/15 11:06:38.619上午, 496.0, 37, 31, 34, 35
184, 0.915, 2017/11/15 11:06:38.624上午, 492.0, 37, 30, 34, 35
185, 0.92, 2017/11/15 11:06:38.629上午, 479.0, 36, 31, 34, 35
186, 0.925, 2017/11/15 11:06:38.634上午, 499.0, 37, 31, 34, 35
187, 0.93, 2017/11/15 11:06:38.639上午, 501.0, 37, 31, 34, 35
188, 0.935, 2017/11/15 11:06:38.644上午, 506.0, 37, 31, 33, 34
189, 0.94, 2017/11/15 11:06:38.649上午, 507.0, 37, 31, 34, 35
190, 0.945, 2017/11/15 11:06:38.654上午, 512.0, 38, 31, 34, 35
191, 0.95, 2017/11/15 11:06:38.659上午, 470.0, 36, 32, 35, 36
192, 0.955, 2017/11/15 11:06:38.664上午, 504.0, 37, 31, 34, 35
193, 0.96, 2017/11/15 11:06:38.669上午, 479.0, 37, 32, 34, 35
194, 0.965, 2017/11/15 11:06:38.674上午, 516.0, 37, 30, 33, 35
195, 0.97, 2017/11/15 11:06:38.679上午, 500.0, 36, 31, 34, 35
196, 0.975, 2017/11/15 11:06:38.684上午, 466.0, 36, 30, 34, 35
197, 0.98, 2017/11/15 11:06:38.689上午, 480.0, 37, 33, 34, 35
198, 0.985, 2017/11/15 11:06:38.694上午, 504.0, 38, 33, 33, 35
199, 0.99, 2017/11/15 11:06:38.699上午, 506.0, 37, 30, 33, 34
200, 0.995, 2017/11/15 11:06:38.704上午, 511.0, 37, 31, 34, 35
201, 1, 2017/11/15 11:06:38.709上午, 497.0, 37, 31, 35, 36
202, 1.005, 2017/11/15 11:06:38.714上午, 477.0, 37, 31, 34, 35
203, 1.01, 2017/11/15 11:06:38.719上午, 502.0, 37, 30, 34, 35
204, 1.015, 2017/11/15 11:06:38.724上午, 525.0, 37, 31, 34, 35
205, 1.02, 2017/11/15 11:06:38.729上午, 505.0, 38, 31, 34, 35
206, 1.025, 2017/11/15 11:06:38.734上午, 494.0, 36, 30, 35, 35
207, 1.03, 2017/11/15 11:06:38.739上午, 464.0, 36, 31, 33, 35
208, 1.035, 2017/11/15 11:06:38.744上午, 489.0, 36, 31, 34, 35
209, 1.04, 2017/11/15 11:06:38.749上午, 518.0, 38, 31, 34, 35
210, 1.045, 2017/11/15 11:06:38.754上午, 487.0, 37, 30, 34, 35
211, 1.05, 2017/11/15 11:06:38.759上午, 490.0, 37, 30, 34, 35
212, 1.055, 2017/11/15 11:06:38.764上午, 503.0, 37, 31, 34, 35
213, 1.06, 2017/11/15 11:06:38.769上午, 490.0, 37, 32, 35, 36
214, 1.065, 2017/11/15 11:06:38.774上午, 479.0, 38, 31, 34, 35
215, 1.07, 2017/11/15 11:06:38.779上午, 489.0, 37, 32, 34, 35
216, 1.075, 2017/11/15 11:06:38.784上午, 484.0, 37, 30, 34, 35
217, 1.08, 2017/11/15 11:06:38.789上午, 496.0, 37, 31, 34, 35
218, 1.085, 2017/11/15 11:06:38.794上午, 479.0, 37, 32, 35, 36
219, 1.09, 2017/11/15 11:06:38.799上午, 481.0, 37, 30, 34, 35
220, 1.095, 2017/11/15 11:06:38.804上午, 475.0, 36, 31, 34, 35
221, 1.1, 2017/11/15 11:06:38.809上午, 518.0, 37, 29, 34, 35
222, 1.105, 2017/11/15 11:06:38.814上午, 513.0, 36, 31, 34, 35
223, 1.11, 2017/11/15 11:06:38.819上午, 521.0, 37, 30, 34, 35
224, 1.115, 2017/11/15 11:06:38.824上午, 469.0, 36, 30, 35, 35
225, 1.12, 2017/11/15 11:06:38.829上午, 503.0, 37, 29, 34, 35
226, 1.125, 2017/11/15 11:06:38.834上午, 518.0, 37, 30, 34, 35
227, 1.13, 2017/11/15 11:06:38.839上午, 484.0, 37, 32, 34, 35
228, 1.135, 2017/11/15 11:06:38.844上午, 472.0, 37, 32, 35, 35
229, 1.14, 2017/11/15 11:06:38.849上午, 467.0, 36, 31, 36, 36
230, 1.145, 2017/11/15 11:06:38.854上午, 476.0, 37, 31, 34, 35
231, 1.15, 2017/11/15 11:06:38.859上午, 490.0, 37, 30, 34, 35
232, 1.155, 2017/11/15 11:06:38.864上午, 502.0, 36, 31, 34, 35
233, 1.16, 2017/11/15 11:06:38.869上午, 491.0, 37, 32, 35, 35
234, 1.165, 2017/11/15 11:06:38.874上午, 490.0, 36, 32, 35, 35
235, 1.17, 2017/11/15 11:06:38.879上午, 501.0, 37, 31, 34, 35
236, 1.175, 2017/11/15 11:06:38.884上午, 495.0, 37, 32, 35, 36
237, 1.18, 2017/11/15 11:06:38.889上午, 477.0, 37, 31, 34, 35
238, 1.185, 2017/11/15 11:06:38.894上午, 504.0, 37, 32, 34, 35
239, 1.19, 2017/11/15 11:06:38.899上午, 470.0, 37, 32, 34, 35
240, 1.195, 2017/11/15 11:06:38.904上午, 484.0, 38, 32, 34, 35
241, 1.2, 2017/11/15 11:06:38.909上午, 494.0, 37, 32, 34, 35
242, 1.205, 2017/11/15 11:06:38.914上午, 503.0, 37, 30, 34, 35
243, 1.21, 2017/11/15 11:06:38.919上午, 493.0, 37, 32, 34, 35
244, 1.215, 2017/11/15 11:06:38.924上午, 466.0, 37, 32, 34, 36
245, 1.22, 2017/11/15 11:06:38.929上午, 478.0, 37, 32, 34, 35
246, 1.225, 2017/11/15 11:06:38.934上午, 492.0, 37, 31, 34, 35
247, 1.23, 2017/11/15 11:06:38.939上午, 509.0, 36, 30, 34, 34
248, 1.235, 2017/11/15 11:06:38.944上午, 493.0, 36, 32, 34, 35
249, 1.24, 2017/11/15 11:06:38.949上午, 501.0, 37, 30, 33, 34
250, 1.245, 2017/11/15 11:06:38.954上午, 473.0, 37, 31, 34, 35
251, 1.25, 2017/11/15 11:06:38.959上午, 501.0, 37, 31, 34, 35
252, 1.255, 2017/11/15 11:06:38.964上午, 508.0, 37, 31, 34, 35
253, 1.26, 2017/11/15 11:06:38.969上午, 507.0, 38, 30, 35, 36
254, 1.265, 2017/11/15 11:06:38.974上午, 506.0, 37, 30, 34, 35
255, 1.27, 2017/11/15 11:06:38.979上午, 496.0, 37, 32, 34, 35
256, 1.275, 2017/11/15 11:06:38.984上午, 531.0, 37, 30, 33, 34
257, 1.28, 2017/11/15 11:06:38.989上午, 503.0, 36, 31, 34, 35
258, 1.285, 2017/11/15 11:06:38.994上午, 494.0, 37, 30, 34, 35
259, 1.29, 2017/11/15 11:06:38.999上午, 472.0, 37, 32, 34, 35
260, 1.295, 2017/11/15 11:06:39.004上午, 513.0, 37, 30, 34, 35
261, 1.3, 2017/11/15 11:06:39.009上午, 491.0, 37, 30, 34, 35
262, 1.305, 2017/11/15 11:06:39.014上午, 500.0, 37, 31, 35, 35
263, 1.31, 2017/11/15 11:06:39.019上午, 512.0, 37, 31, 33, 35
264, 1.315, 2017/11/15 11:06:39.024上午, 513.0, 37, 31, 33, 35
265, 1.32, 2017/11/15 11:06:39.029上午, 499.0, 37, 31, 35, 36
266, 1.325, 2017/11/15 11:06:39.034上午, 491.0, 37, 31, 33, 35
267, 1.33, 2017/11/15 11:06:39.039上午, 489.0, 37, 31, 33, 35
268, 1.335, 2017/11/15 11:06:39.044上午, 514.0, 37, 30, 33, 35
269, 1.34, 2017/11/15 11:06:39.049上午, 499.0, 38, 31, 34, 35
270, 1.345, 2017/11/15 11:06:39.054上午, 511.0, 36, 30, 33, 34
271, 1.35, 2017/11/15 11:06:39.059上午, 506.0, 36, 31, 34, 35
272, 1.355, 2017/11/15 11:06:39.064上午, 504.0, 37, 30, 33, 35
273, 1.36, 2017/11/15 11:06:39.069上午, 489.0, 37, 32, 34, 35
274, 1.365, 2017/11/15 11:06:39.074上午, 491.0, 37, 31, 34, 35
275, 1.37, 2017/11/15 11:06:39.079上午, 506.0, 38, 30, 34, 35
276, 1.375, 2017/11/15 11:06:39.084上午, 499.0, 37, 31, 34, 35
277, 1.38, 2017/11/15 11:06:39.089上午, 502.0, 38, 30, 34, 35
278, 1.385, 2017/11/15 11:06:39.094上午, 513.0, 37, 31, 34, 35
279, 1.39, 2017/11/15 11:06:39.099上午, 493.0, 37, 31, 34, 35
280, 1.395, 2017/11/15 11:06:39.104上午, 485.0, 38, 31, 34, 35
281, 1.4, 2017/11/15 11:06:39.109上午, 472.0, 37, 32, 35, 36
282, 1.405, 2017/11/15 11:06:39.114上午, 504.0, 37, 30, 34, 35
283, 1.41, 2017/11/15 11:06:39.119上午, 505.0, 37, 31, 34, 35
284, 1.415, 2017/11/15 11:06:39.124上午, 515.0, 37, 30, 34, 35
285, 1.42, 2017/11/15 11:06:39.129上午, 508.0, 37, 32, 34, 35
286, 1.425, 2017/11/15 11:06:39.134上午, 510.0, 37, 29, 34, 35
287, 1.43, 2017/11/15 11:06:39.139上午, 501.0, 37, 30, 34, 35
288, 1.435, 2017/11/15 11:06:39.144上午, 499.0, 37, 31, 34, 35
289, 1.44, 2017/11/15 11:06:39.149上午, 497.0, 37, 31, 34, 35
290, 1.445, 2017/11/15 11:06:39.154上午, 503.0, 38, 30, 34, 35
291, 1.45, 2017/11/15 11:06:39.159上午, 492.0, 37, 30, 34, 35
292, 1.455, 2017/11/15 11:06:39.164上午, 504.0, 37, 31, 34, 35
293, 1.46, 2017/11/15 11:06:39.169上午, 520.0, 37, 30, 34, 35
294, 1.465, 2017/11/15 11:06:39.174上午, 514.0, 37, 30, 34, 35
295, 1.47, 2017/11/15 11:06:39.179上午, 500.0, 37, 31, 34, 35
296, 1.475, 2017/11/15 11:06:39.184上午, 501.0, 37, 32, 34, 35
297, 1.48, 2017/11/15 11:06:39.189上午, 493.0, 37, 32, 34, 36
298, 1.485, 2017/11/15 11:06:39.194上午, 488.0, 38, 32, 34, 36
299, 1.49, 2017/11/15 11:06:39.199上午, 499.0, 37, 33, 34, 35
300, 1.495, 2017/11/15 11:06:39.204上午, 509.0, 37, 31, 33, 35
301, 1.5, 2017/11/15 11:06:39.209上午, 521.0, 38, 30, 34, 35
302, 1.505, 2017/11/15 11:06:39.214上午, 492.0, 37, 32, 34, 35
303, 1.51, 2017/11/15 11:06:39.219上午, 502.0, 38, 31, 34, 35
304, 1.515, 2017/11/15 11:06:39.224上午, 493.0, 37, 31, 34, 35
305, 1.52, 2017/11/15 11:06:39.229上午, 521.0, 37, 30, 35, 35
306, 1.525, 2017/11/15 11:06:39.234上午, 497.0, 37, 32, 34, 35
307, 1.53, 2017/11/15 11:06:39.239上午, 499.0, 38, 31, 34, 35
308, 1.535, 2017/11/15 11:06:39.244上午, 497.0, 37, 31, 34, 35
309, 1.54, 2017/11/15 11:06:39.249上午, 509.0, 38, 31, 35, 36
310, 1.545, 2017/11/15 11:06:39.254上午, 491.0, 37, 30, 33, 35
311, 1.55, 2017/11/15 11:06:39.259上午, 489.0, 37, 30, 33, 35
312, 1.555, 2017/11/15 11:06:39.264上午, 512.0, 37, 30, 34, 35
313, 1.56, 2017/11/15 11:06:39.269上午, 503.0, 37, 31, 33, 35
314, 1.565, 2017/11/15 11:06:39.274上午, 492.0, 37, 32, 34, 35
315, 1.57, 2017/11/15 11:06:39.279上午, 519.0, 38, 31, 34, 36
316, 1.575, 2017/11/15 11:06:39.284上午, 467.0, 37, 30, 34, 35
317, 1.58, 2017/11/15 11:06:39.289上午, 498.0, 37, 30, 34, 35
318, 1.585, 2017/11/15 11:06:39.294上午, 496.0, 37, 31, 34, 35
319, 1.59, 2017/11/15 11:06:39.299上午, 508.0, 38, 31, 33, 35
320, 1.595, 2017/11/15 11:06:39.304上午, 506.0, 38, 30, 34, 35
321, 1.6, 2017/11/15 11:06:39.309上午, 495.0, 37, 33, 34, 35
322, 1.605, 2017/11/15 11:06:39.314上午, 524.0, 37, 30, 34, 35
323, 1.61, 2017/11/15 11:06:39.319上午, 502.0, 37, 31, 34, 35
324, 1.615, 2017/11/15 11:06:39.324上午, 508.0, 37, 31, 34, 35
325, 1.62, 2017/11/15 11:06:39.329上午, 491.0, 37, 31, 34, 35
326, 1.625, 2017/11/15 11:06:39.334上午, 516.0, 37, 31, 34, 35
327, 1.63, 2017/11/15 11:06:39.339上午, 522.0, 37, 32, 33, 35
328, 1.635, 2017/11/15 11:06:39.344上午, 486.0, 37, 30, 34, 35
329, 1.64, 2017/11/15 11:06:39.349上午, 500.0, 38, 31, 34, 35
330, 1.645, 2017/11/15 11:06:39.354上午, 514.0, 37, 32, 34, 35
331, 1.65, 2017/11/15 11:06:39.359上午, 500.0, 37, 31, 33, 35
332, 1.655, 2017/11/15 11:06:39.364上午, 517.0, 37, 32, 33, 35
333, 1.66, 2017/11/15 11:06:39.369上午, 510.0, 37, 32, 33, 35
334, 1.665, 2017/11/15 11:06:39.374上午, 516.0, 37, 31, 34, 35
335, 1.67, 2017/11/15 11:06:39.379上午, 513.0, 37, 30, 34, 35
336, 1.675, 2017/11/15 11:06:39.384上午, 474.0, 37, 29, 34, 35
337, 1.68, 2017/11/15 11:06:39.389上午, 494.0, 37, 31, 33, 35
338, 1.685, 2017/11/15 11:06:39.394上午, 490.0, 37, 31, 33, 35
339, 1.69, 2017/11/15 11:06:39.399上午, 510.0, 38, 31, 34, 35
340, 1.695, 2017/11/15 11:06:39.404上午, 517.0, 37, 30, 34, 35
341, 1.7, 2017/11/15 11:06:39.409上午, 481.0, 37, 31, 34, 35
342, 1.705, 2017/11/15 11:06:39.414上午, 505.0, 37, 32, 33, 35
343, 1.71, 2017/11/15 11:06:39.419上午, 493.0, 37, 31, 35, 35
344, 1.715, 2017/11/15 11:06:39.424上午, 512.0, 38, 31, 33, 35
345, 1.72, 2017/11/15 11:06:39.429上午, 500.0, 37, 30, 33, 35
346, 1.725, 2017/11/15 11:06:39.434上午, 501.0, 37, 31, 33, 35
347, 1.73, 2017/11/15 11:06:39.439上午, 503.0, 37, 31, 34, 35
348, 1.735, 2017/11/15 11:06:39.444上午, 514.0, 37, 31, 35, 36
349, 1.74, 2017/11/15 11:06:39.449上午, 526.0, 37, 30, 34, 35
350, 1.745, 2017/11/15 11:06:39.454上午, 486.0, 37, 31, 34, 35
351, 1.75, 2017/11/15 11:06:39.459上午, 514.0, 37, 29, 33, 34
352, 1.755, 2017/11/15 11:06:39.464上午, 508.0, 38, 30, 33, 35
353, 1.76, 2017/11/15 11:06:39.469上午, 500.0, 37, 31, 34, 35
354, 1.765, 2017/11/15 11:06:39.474上午, 509.0, 38, 32, 34, 36
355, 1.77, 2017/11/15 11:06:39.479上午, 494.0, 37, 30, 34, 35
356, 1.775, 2017/11/15 11:06:39.484上午, 506.0, 37, 31, 33, 35
357, 1.78, 2017/11/15 11:06:39.489上午, 492.0, 37, 31, 34, 35
358, 1.785, 2017/11/15 11:06:39.494上午, 505.0, 37, 30, 34, 35
359, 1.79, 2017/11/15 11:06:39.499上午, 510.0, 37, 31, 34, 35
360, 1.795, 2017/11/15 11:06:39.504上午, 526.0, 37, 31, 34, 35
361, 1.8, 2017/11/15 11:06:39.509上午, 500.0, 37, 30, 34, 35
362, 1.805, 2017/11/15 11:06:39.514上午, 487.0, 37, 31, 34, 35
363, 1.81, 2017/11/15 11:06:39.519上午, 490.0, 37, 30, 34, 35
364, 1.815, 2017/11/15 11:06:39.524上午, 485.0, 37, 32, 34, 35
365, 1.82, 2017/11/15 11:06:39.529上午, 510.0, 37, 32, 33, 35
366, 1.825, 2017/11/15 11:06:39.534上午, 502.0, 37, 31, 34, 35
367, 1.83, 2017/11/15 11:06:39.539上午, 499.0, 38, 31, 33, 35
368, 1.835, 2017/11/15 11:06:39.544上午, 508.0, 36, 31, 34, 35
369, 1.84, 2017/11/15 11:06:39.549上午, 519.0, 37, 32, 35, 35
370, 1.845, 2017/11/15 11:06:39.554上午, 497.0, 37, 32, 35, 36
371, 1.85, 2017/11/15 11:06:39.559上午, 520.0, 38, 31, 35, 35
372, 1.855, 2017/11/15 11:06:39.564上午, 498.0, 37, 31, 33, 35
373, 1.86, 2017/11/15 11:06:39.569上午, 523.0, 38, 31, 34, 35
374, 1.865, 2017/11/15 11:06:39.574上午, 501.0, 37, 31, 34, 35
375, 1.87, 2017/11/15 11:06:39.579上午, 482.0, 37, 31, 35, 35
376, 1.875, 2017/11/15 11:06:39.584上午, 516.0, 37, 30, 34, 35
377, 1.88, 2017/11/15 11:06:39.589上午, 504.0, 37, 30, 33, 35
378, 1.885, 2017/11/15 11:06:39.594上午, 526.0, 37, 31, 33, 34
379, 1.89, 2017/11/15 11:06:39.599上午, 494.0, 37, 31, 33, 35
380, 1.895, 2017/11/15 11:06:39.604上午, 512.0, 37, 32, 33, 35
381, 1.9, 2017/11/15 11:06:39.609上午, 524.0, 37, 31, 34, 35
382, 1.905, 2017/11/15 11:06:39.614上午, 517.0, 37, 32, 35, 35
383, 1.91, 2017/11/15 11:06:39.619上午, 507.0, 38, 31, 35, 36
384, 1.915, 2017/11/15 11:06:39.624上午, 504.0, 36, 30, 34, 35
385, 1.92, 2017/11/15 11:06:39.629上午, 477.0, 37, 32, 34, 35
386, 1.925, 2017/11/15 11:06:39.634上午, 510.0, 37, 32, 34, 35
387, 1.93, 2017/11/15 11:06:39.639上午, 499.0, 37, 30, 33, 35
388, 1.935, 2017/11/15 11:06:39.644上午, 525.0, 37, 30, 34, 35
389, 1.94, 2017/11/15 11:06:39.649上午, 518.0, 37, 31, 33, 34
390, 1.945, 2017/11/15 11:06:39.654上午, 490.0, 37, 32, 34, 35
391, 1.95, 2017/11/15 11:06:39.659上午, 503.0, 37, 31, 34, 35
392, 1.955, 2017/11/15 11:06:39.664上午, 502.0, 38, 30, 34, 36
393, 1.96, 2017/11/15 11:06:39.669上午, 510.0, 37, 31, 33, 35
394, 1.965, 2017/11/15 11:06:39.674上午, 515.0, 37, 30, 33, 35
395, 1.97, 2017/11/15 11:06:39.679上午, 503.0, 37, 31, 33, 34
396, 1.975, 2017/11/15 11:06:39.684上午, 506.0, 36, 30, 34, 35
397, 1.98, 2017/11/15 11:06:39.689上午, 504.0, 37, 31, 34, 35
398, 1.985, 2017/11/15 11:06:39.694上午, 502.0, 36, 31, 35, 35
399, 1.99, 2017/11/15 11:06:39.699上午, 501.0, 37, 32, 34, 35
400, 1.995, 2017/11/15 11:06:39.704上午, 512.0, 37, 30, 34, 35
401, 2, 2017/11/15 11:06:39.709上午, 507.0, 37, 30, 34, 35
402, 2.005, 2017/11/15 11:06:39.714上午, 513.0, 37, 30, 33, 35
403, 2.01, 2017/11/15 11:06:39.719上午, 520.0, 36, 31, 33, 35
404, 2.015, 2017/11/15 11:06:39.724上午, 517.0, 37, 31, 34, 35
405, 2.02, 2017/11/15 11:06:39.729上午, 498.0, 37, 30, 34, 35
406, 2.025, 2017/11/15 11:06:39.734上午, 516.0, 37, 31, 34, 35
407, 2.03, 2017/11/15 11:06:39.739上午, 481.0, 37, 32, 34, 35
408, 2.035, 2017/11/15 11:06:39.744上午, 495.0, 37, 32, 34, 35
409, 2.04, 2017/11/15 11:06:39.749上午, 483.0, 37, 31, 34, 35
410, 2.045, 2017/11/15 11:06:39.754上午, 509.0, 37, 32, 34, 35
411, 2.05, 2017/11/15 11:06:39.759上午, 515.0, 37, 31, 34, 35
412, 2.055, 2017/11/15 11:06:39.764上午, 519.0, 37, 31, 34, 35
413, 2.06, 2017/11/15 11:06:39.769上午, 500.0, 37, 31, 33, 35
414, 2.065, 2017/11/15 11:06:39.774上午, 496.0, 37, 31, 34, 35
415, 2.07, 2017/11/15 11:06:39.779上午, 514.0, 37, 32, 34, 35
416, 2.075, 2017/11/15 11:06:39.784上午, 486.0, 36, 31, 34, 35
417, 2.08, 2017/11/15 11:06:39.789上午, 524.0, 37, 29, 34, 34
418, 2.085, 2017/11/15 11:06:39.794上午, 529.0, 37, 29, 34, 34
419, 2.09, 2017/11/15 11:06:39.799上午, 514.0, 37, 30, 33, 35
420, 2.095, 2017/11/15 11:06:39.804上午, 509.0, 37, 31, 33, 35
421, 2.1, 2017/11/15 11:06:39.809上午, 507.0, 38, 31, 34, 35
422, 2.105, 2017/11/15 11:06:39.814上午, 494.0, 37, 31, 34, 35
423, 2.11, 2017/11/15 11:06:39.819上午, 484.0, 37, 32, 33, 35
424, 2.115, 2017/11/15 11:06:39.824上午, 508.0, 37, 30, 33, 34
425, 2.12, 2017/11/15 11:06:39.829上午, 488.0, 36, 31, 33, 35
426, 2.125, 2017/11/15 11:06:39.834上午, 502.0, 37, 32, 33, 35
427, 2.13, 2017/11/15 11:06:39.839上午, 487.0, 37, 31, 34, 35
428, 2.135, 2017/11/15 11:06:39.844上午, 503.0, 37, 31, 34, 35
429, 2.14, 2017/11/15 11:06:39.849上午, 501.0, 37, 31, 34, 35
430, 2.145, 2017/11/15 11:06:39.854上午, 504.0, 37, 31, 34, 35
431, 2.15, 2017/11/15 11:06:39.859上午, 505.0, 37, 30, 33, 34
432, 2.155, 2017/11/15 11:06:39.864上午, 507.0, 37, 30, 33, 35
433, 2.16, 2017/11/15 11:06:39.869上午, 489.0, 37, 33, 33, 35
434, 2.165, 2017/11/15 11:06:39.874上午, 475.0, 36, 29, 34, 35
435, 2.17, 2017/11/15 11:06:39.879上午, 489.0, 36, 32, 34, 35
436, 2.175, 2017/11/15 11:06:39.884上午, 498.0, 37, 30, 34, 35
437, 2.18, 2017/11/15 11:06:39.889上午, 477.0, 36, 30, 34, 35
438, 2.185, 2017/11/15 11:06:39.894上午, 498.0, 36, 31, 33, 34
439, 2.19, 2017/11/15 11:06:39.899上午, 503.0, 36, 30, 34, 34
440, 2.195, 2017/11/15 11:06:39.904上午, 504.0, 36, 32, 34, 35
441, 2.2, 2017/11/15 11:06:39.909上午, 521.0, 37, 32, 34, 35
442, 2.205, 2017/11/15 11:06:39.914上午, 505.0, 37, 31, 35, 35
443, 2.21, 2017/11/15 11:06:39.919上午, 501.0, 37, 32, 34, 35
444, 2.215, 2017/11/15 11:06:39.924上午, 485.0, 36, 31, 34, 34
445, 2.22, 2017/11/15 11:06:39.929上午, 485.0, 37, 30, 34, 35
446, 2.225, 2017/11/15 11:06:39.934上午, 495.0, 37, 30, 34, 35
447, 2.23, 2017/11/15 11:06:39.939上午, 508.0, 37, 31, 33, 35
448, 2.235, 2017/11/15 11:06:39.944上午, 514.0, 36, 30, 33, 34
449, 2.24, 2017/11/15 11:06:39.949上午, 493.0, 37, 31, 33, 35
450, 2.245, 2017/11/15 11:06:39.954上午, 503.0, 36, 31, 34, 34
451, 2.25, 2017/11/15 11:06:39.959上午, 490.0, 36, 31, 34, 35
452, 2.255, 2017/11/15 11:06:39.964上午, 497.0, 36, 31, 34, 35
453, 2.26, 2017/11/15 11:06:39.969上午, 495.0, 37, 31, 34, 35
454, 2.265, 2017/11/15 11:06:39.974上午, 481.0, 36, 32, 33, 35
455, 2.27, 2017/11/15 11:06:39.979上午, 494.0, 37, 31, 33, 35
456, 2.275, 2017/11/15 11:06:39.984上午, 498.0, 36, 30, 34, 35
457, 2.28, 2017/11/15 11:06:39.989上午, 496.0, 36, 30, 34, 34
458, 2.285, 2017/11/15 11:06:39.994上午, 498.0, 36, 29, 34, 35
459, 2.29, 2017/11/15 11:06:39.999上午, 490.0, 36, 30, 33, 34
460, 2.295, 2017/11/15 11:06:40.004上午, 500.0, 35, 30, 33, 34
461, 2.3, 2017/11/15 11:06:40.009上午, 520.0, 36, 30, 34, 34
462, 2.305, 2017/11/15 11:06:40.014上午, 498.0, 36, 31, 33, 34
463, 2.31, 2017/11/15 11:06:40.019上午, 495.0, 35, 31, 33, 34
464, 2.315, 2017/11/15 11:06:40.024上午, 487.0, 35, 30, 34, 34
465, 2.32, 2017/11/15 11:06:40.029上午, 500.0, 36, 31, 35, 35
466, 2.325, 2017/11/15 11:06:40.034上午, 492.0, 36, 30, 34, 34
467, 2.33, 2017/11/15 11:06:40.039上午, 488.0, 36, 30, 34, 34
468, 2.335, 2017/11/15 11:06:40.044上午, 470.0, 36, 31, 34, 35
469, 2.34, 2017/11/15 11:06:40.049上午, 481.0, 36, 30, 34, 34
470, 2.345, 2017/11/15 11:06:40.054上午, 508.0, 36, 30, 33, 34
471, 2.35, 2017/11/15 11:06:40.059上午, 486.0, 36, 30, 33, 34
472, 2.355, 2017/11/15 11:06:40.064上午, 496.0, 36, 31, 33, 34
473, 2.36, 2017/11/15 11:06:40.069上午, 497.0, 36, 31, 34, 34
474, 2.365, 2017/11/15 11:06:40.074上午, 507.0, 36, 31, 33, 34
475, 2.37, 2017/11/15 11:06:40.079上午, 496.0, 36, 29, 35, 35
476, 2.375, 2017/11/15 11:06:40.084上午, 505.0, 36, 31, 34, 35
477, 2.38, 2017/11/15 11:06:40.089上午, 483.0, 36, 31, 34, 35
478, 2.385, 2017/11/15 11:06:40.094上午, 481.0, 36, 30, 34, 35
479, 2.39, 2017/11/15 11:06:40.099上午, 480.0, 36, 30, 34, 34
480, 2.395, 2017/11/15 11:06:40.104上午, 513.0, 36, 31, 33, 34
481, 2.4, 2017/11/15 11:06:40.109上午, 506.0, 36, 31, 33, 34
482, 2.405, 2017/11/15 11:06:40.114上午, 489.0, 36, 31, 34, 35
483, 2.41, 2017/11/15 11:06:40.119上午, 480.0, 36, 30, 34, 34
484, 2.415, 2017/11/15 11:06:40.124上午, 496.0, 37, 30, 34, 35
485, 2.42, 2017/11/15 11:06:40.129上午, 493.0, 36, 31, 34, 34
486, 2.425, 2017/11/15 11:06:40.134上午, 489.0, 36, 31, 34, 35
487, 2.43, 2017/11/15 11:06:40.139上午, 483.0, 37, 30, 33, 35
488, 2.435, 2017/11/15 11:06:40.144上午, 504.0, 36, 30, 33, 34
489, 2.44, 2017/11/15 11:06:40.149上午, 485.0, 35, 31, 33, 34
490, 2.445, 2017/11/15 11:06:40.154上午, 493.0, 35, 30, 33, 34
491, 2.45, 2017/11/15 11:06:40.159上午, 474.0, 36, 31, 34, 35
492, 2.455, 2017/11/15 11:06:40.164上午, 512.0, 36, 31, 33, 34
493, 2.46, 2017/11/15 11:06:40.169上午, 500.0, 37, 30, 34, 35
494, 2.465, 2017/11/15 11:06:40.174上午, 502.0, 36, 31, 34, 35
495, 2.47, 2017/11/15 11:06:40.179上午, 493.0, 36, 29, 34, 34
496, 2.475, 2017/11/15 11:06:40.184上午, 515.0, 37, 30, 34, 35
497, 2.48, 2017/11/15 11:06:40.189上午, 487.0, 36, 31, 34, 35
498, 2.485, 2017/11/15 11:06:40.194上午, 510.0, 37, 30, 33, 34
499, 2.49, 2017/11/15 11:06:40.199上午, 508.0, 36, 30, 34, 34
500, 2.495, 2017/11/15 11:06:40.204上午, 495.0, 36, 32, 33, 34
501, 2.5, 2017/11/15 11:06:40.209上午, 498.0, 37, 30, 33, 34
502, 2.505, 2017/11/15 11:06:40.214上午, 536.0, 36, 30, 33, 34
503, 2.51, 2017/11/15 11:06:40.219上午, 509.0, 36, 30, 34, 34
504, 2.515, 2017/11/15 11:06:40.224上午, 494.0, 36, 31, 33, 34
505, 2.52, 2017/11/15 11:06:40.229上午, 484.0, 36, 30, 34, 34
506, 2.525, 2017/11/15 11:06:40.234上午, 487.0, 36, 32, 33, 34
507, 2.53, 2017/11/15 11:06:40.239上午, 526.0, 36, 30, 33, 34
508, 2.535, 2017/11/15 11:06:40.244上午, 488.0, 36, 30, 33, 34
509, 2.54, 2017/11/15 11:06:40.249上午, 497.0, 37, 31, 33, 34
510, 2.545, 2017/11/15 11:06:40.254上午, 465.0, 36, 29, 34, 35
511, 2.55, 2017/11/15 11:06:40.259上午, 493.0, 36, 29, 33, 34
512, 2.555, 2017/11/15 11:06:40.264上午, 483.0, 36, 30, 34, 35
513, 2.56, 2017/11/15 11:06:40.269上午, 482.0, 36, 31, 33, 34
514, 2.565, 2017/11/15 11:06:40.274上午, 491.0, 37, 30, 33, 35
515, 2.57, 2017/11/15 11:06:40.279上午, 479.0, 37, 32, 33, 35
516, 2.575, 2017/11/15 11:06:40.284上午, 485.0, 36, 30, 34, 35
517, 2.58, 2017/11/15 11:06:40.289上午, 496.0, 36, 30, 33, 34
518, 2.585, 2017/11/15 11:06:40.294上午, 500.0, 35, 31, 33, 34
519, 2.59, 2017/11/15 11:06:40.299上午, 496.0, 36, 31, 33, 34
520, 2.595, 2017/11/15 11:06:40.304上午, 495.0, 36, 30, 34, 34
521, 2.6, 2017/11/15 11:06:40.309上午, 479.0, 36, 31, 33, 34
522, 2.605, 2017/11/15 11:06:40.314上午, 498.0, 36, 31, 34, 34
523, 2.61, 2017/11/15 11:06:40.319上午, 495.0, 36, 30, 33, 34
524, 2.615, 2017/11/15 11:06:40.324上午, 495.0, 37, 30, 33, 35
525, 2.62, 2017/11/15 11:06:40.329上午, 488.0, 37, 31, 34, 35
526, 2.625, 2017/11/15 11:06:40.334上午, 489.0, 36, 31, 33, 34
527, 2.63, 2017/11/15 11:06:40.339上午, 487.0, 36, 30, 34, 34
528, 2.635, 2017/11/15 11:06:40.344上午, 481.0, 36, 30, 33, 34
529, 2.64, 2017/11/15 11:06:40.349上午, 488.0, 36, 31, 33, 34
530, 2.645, 2017/11/15 11:06:40.354上午, 504.0, 37, 30, 33, 34
531, 2.65, 2017/11/15 11:06:40.359上午, 520.0, 37, 29, 33, 34
532, 2.655, 2017/11/15 11:06:40.364上午, 488.0, 36, 30, 33, 35
533, 2.66, 2017/11/15 11:06:40.369上午, 492.0, 37, 30, 33, 35
534, 2.665, 2017/11/15 11:06:40.374上午, 491.0, 36, 32, 33, 35
535, 2.67, 2017/11/15 11:06:40.379上午, 507.0, 36, 31, 34, 35
536, 2.675, 2017/11/15 11:06:40.384上午, 480.0, 36, 31, 33, 35
537, 2.68, 2017/11/15 11:06:40.389上午, 504.0, 37, 30, 33, 34
538, 2.685, 2017/11/15 11:06:40.394上午, 506.0, 37, 30, 34, 35
539, 2.69, 2017/11/15 11:06:40.399上午, 480.0, 36, 31, 33, 35
540, 2.695, 2017/11/15 11:06:40.404上午, 493.0, 36, 30, 34, 34
541, 2.7, 2017/11/15 11:06:40.409上午, 495.0, 36, 31, 34, 35
542, 2.705, 2017/11/15 11:06:40.414上午, 481.0, 36, 32, 33, 34
543, 2.71, 2017/11/15 11:06:40.419上午, 499.0, 37, 30, 33, 34
544, 2.715, 2017/11/15 11:06:40.424上午, 507.0, 37, 30, 33, 34
545, 2.72, 2017/11/15 11:06:40.429上午, 512.0, 37, 31, 33, 34
546, 2.725, 2017/11/15 11:06:40.434上午, 509.0, 36, 30, 33, 34
547, 2.73, 2017/11/15 11:06:40.439上午, 509.0, 37, 31, 34, 35
548, 2.735, 2017/11/15 11:06:40.444上午, 492.0, 37, 31, 33, 35
549, 2.74, 2017/11/15 11:06:40.449上午, 500.0, 37, 30, 33, 35
550, 2.745, 2017/11/15 11:06:40.454上午, 505.0, 37, 30, 34, 35
551, 2.75, 2017/11/15 11:06:40.459上午, 496.0, 37, 31, 33, 34
552, 2.755, 2017/11/15 11:06:40.464上午, 492.0, 37, 30, 33, 35
553, 2.76, 2017/11/15 11:06:40.469上午, 499.0, 36, 31, 33, 34
554, 2.765, 2017/11/15 11:06:40.474上午, 495.0, 36, 31, 33, 34
555, 2.77, 2017/11/15 11:06:40.479上午, 484.0, 36, 31, 33, 35
556, 2.775, 2017/11/15 11:06:40.484上午, 493.0, 36, 31, 33, 34
557, 2.78, 2017/11/15 11:06:40.489上午, 500.0, 37, 30, 33, 34
558, 2.785, 2017/11/15 11:06:40.494上午, 513.0, 37, 30, 33, 34
559, 2.79, 2017/11/15 11:06:40.499上午, 501.0, 37, 31, 33, 35
560, 2.795, 2017/11/15 11:06:40.504上午, 510.0, 36, 31, 34, 35
561, 2.8, 2017/11/15 11:06:40.509上午, 488.0, 36, 30, 34, 35
562, 2.805, 2017/11/15 11:06:40.514上午, 491.0, 37, 31, 33, 35
563, 2.81, 2017/11/15 11:06:40.519上午, 519.0, 37, 30, 33, 35
564, 2.815, 2017/11/15 11:06:40.524上午, 496.0, 36, 30, 33, 34
565, 2.82, 2017/11/15 11:06:40.529上午, 486.0, 37, 32, 34, 35
566, 2.825, 2017/11/15 11:06:40.534上午, 511.0, 36, 30, 33, 34
567, 2.83, 2017/11/15 11:06:40.539上午, 496.0, 36, 31, 33, 35
568, 2.835, 2017/11/15 11:06:40.544上午, 510.0, 37, 30, 33, 34
569, 2.84, 2017/11/15 11:06:40.549上午, 499.0, 37, 30, 33, 35
570, 2.845, 2017/11/15 11:06:40.554上午, 514.0, 36, 30, 33, 34
571, 2.85, 2017/11/15 11:06:40.559上午, 495.0, 37, 31, 34, 35
572, 2.855, 2017/11/15 11:06:40.564上午, 505.0, 38, 30, 34, 35
573, 2.86, 2017/11/15 11:06:40.569上午, 480.0, 36, 32, 34, 35
574, 2.865, 2017/11/15 11:06:40.574上午, 485.0, 37, 30, 34, 35
575, 2.87, 2017/11/15 11:06:40.579上午, 516.0, 37, 29, 33, 34
576, 2.875, 2017/11/15 11:06:40.584上午, 516.0, 37, 30, 32, 34
577, 2.88, 2017/11/15 11:06:40.589上午, 508.0, 37, 31, 33, 34
578, 2.885, 2017/11/15 11:06:40.594上午, 513.0, 38, 30, 33, 35
579, 2.89, 2017/11/15 11:06:40.599上午, 505.0, 37, 31, 33, 35
580, 2.895, 2017/11/15 11:06:40.604上午, 495.0, 37, 30, 34, 35
581, 2.9, 2017/11/15 11:06:40.609上午, 477.0, 37, 30, 33, 34
582, 2.905, 2017/11/15 11:06:40.614上午, 518.0, 36, 29, 33, 34
583, 2.91, 2017/11/15 11:06:40.619上午, 492.0, 37, 31, 33, 35
584, 2.915, 2017/11/15 11:06:40.624上午, 503.0, 36, 30, 34, 35
585, 2.92, 2017/11/15 11:06:40.629上午, 514.0, 37, 30, 34, 35
586, 2.925, 2017/11/15 11:06:40.634上午, 495.0, 37, 31, 33, 35
587, 2.93, 2017/11/15 11:06:40.639上午, 510.0, 37, 29, 33, 34
588, 2.935, 2017/11/15 11:06:40.644上午, 500.0, 37, 30, 33, 34
589, 2.94, 2017/11/15 11:06:40.649上午, 532.0, 37, 30, 33, 34
590, 2.945, 2017/11/15 11:06:40.654上午, 522.0, 37, 31, 33, 34
591, 2.95, 2017/11/15 11:06:40.659上午, 514.0, 38, 31, 33, 35
592, 2.955, 2017/11/15 11:06:40.664上午, 513.0, 37, 30, 33, 34
593, 2.96, 2017/11/15 11:06:40.669上午, 492.0, 37, 30, 33, 34
594, 2.965, 2017/11/15 11:06:40.674上午, 529.0, 37, 30, 33, 34
595, 2.97, 2017/11/15 11:06:40.679上午, 513.0, 36, 31, 33, 35
596, 2.975, 2017/11/15 11:06:40.684上午, 472.0, 37, 32, 34, 35
597, 2.98, 2017/11/15 11:06:40.689上午, 498.0, 38, 30, 33, 35
598, 2.985, 2017/11/15 11:06:40.694上午, 493.0, 37, 31, 33, 35
599, 2.99, 2017/11/15 11:06:40.699上午, 480.0, 36, 31, 33, 34
600, 2.995, 2017/11/15 11:06:40.704上午, 495.0, 37, 31, 33, 35
@@
