DATA_TYPE COF,,,,,,,,,,,,,
VERSION Tekscan Pressure Measurement System 6.70-03,,,,,,,,,,,,,
HARDWARE 00114-3447,,,,,,,,,,,,,
MAP_VERSION 6.5,,,,,,,,,,,,,
HW_TYPE 4,,,,,,,,,,,,,
VersaPogoFsx 0,,,,,,,,,,,,,
檔案名 C:\Users\asus\Desktop\工研院_計畫\收案資料\Subject02\Plantar Pressure\R65_STAND_RIGHT_1.fsx,,,,,,,,,,,,,
SENSOR_TYPE FSCAN,,,,,,,,,,,,,
ROWS 60,,,,,,,,,,,,,
COLS 21,,,,,,,,,,,,,
ROW_SPACING 0.508 centimeters,,,,,,,,,,,,,
COL_SPACING 0.508 centimeters,,,,,,,,,,,,,
SENSEL_AREA 0.258064 cm2,,,,,,,,,,,,,
NOISE_THRESHOLD 3,,,,,,,,,,,,,
SECONDS_PER_FRAME 0.005,,,,,,,,,,,,,
SECONDS_PER_FRAME 0,,,,,,,,,,,,,
MICRO_SECOND 0,,,,,,,,,,,,,
TIME 2017/11/15 10:45:02.275上午,,,,,,,,,,,,,
SATURATION_PRESSURE 2347.96 KPa ,,,,,,,,,,,,,
CALIBRATION_POINT_1 48.0001 (Kilograms) 1981 (Raw Sum) 199 (Number of Loaded Cells),,,,,,,,,,,,,
CALIBRATION_MODE_1 步態,,,,,,,,,,,,,
CALIBRATION_INFO C:\Users\asus\Desktop\工研院_計畫\收案資料\Subject02\Plantar Pressure\R65_STAND_RIGHT_1.fsx,,,,,,,,,,,,,
SENSITIVITY 自定義,,,,,,,,,,,,,
MAP_INDEX 0,,,,,,,,,,,,,
SUBMAP 0,,,,,,,,,,,,,
Patient ID: ,,,,,,,,,,,,,
,,,,,,,,,,,,,
Speed of Gait: ,,,,,,,,,,,,,
,,,,,,,,,,,,,
Weight: ,,,,,,,,,,,,,
,,,,,,,,,,,,,
Gender: ,,,,,,,,,,,,,
,,,,,,,,,,,,,
Physician: ,,,,,,,,,,,,,
,,,,,,,,,,,,,
Technician: ,,,,,,,,,,,,,
,,,,,,,,,,,,,
Shoe: ,,,,,,,,,,,,,
,,,,,,,,,,,,,
START_FRAME 1,,,,,,,,,,,,,
END_FRAME 600,,,,,,,,,,,,,
COMMENTS Frame, Time, (Absolute Time), Row (cm), Col (cm), Raw Sum,,,,,,,,
ASCII_DATA @@,,,,,,,,,,,,,
Frame, Time, Absolute Time, Main(Row,Col,Raw Sum), 淡絳紅(Row,Col), 粉藍色(Row,Col), 淡青(Row,Col), 天藍色(Row,Col)
1,0, 2017/11/15 10:45:02.275上午,18.29,4.36,564,47.76,8.52,39.64,10.77,21.66,8.26,36.38,8.54
2,0.005, 2017/11/15 10:45:02.28上午,18.14,4.41,575,47.78,8.45,38.44,11.3,21.53,8.43,36.07,8.64
3,0.01, 2017/11/15 10:45:02.285上午,18.19,4.38,578,47.77,8.49,39.86,10.64,21.54,8.36,36.18,8.59
4,0.015, 2017/11/15 10:45:02.29上午,18.19,4.38,564,47.73,8.45,39.19,11.17,21.47,8.34,36.19,8.58
5,0.02, 2017/11/15 10:45:02.295上午,18.21,4.4,570,47.7,8.45,39.7,10.68,21.54,8.43,36.26,8.62
6,0.025, 2017/11/15 10:45:02.3上午,17.97,4.37,582,47.74,8.45,38.8,11.36,21.65,8.3,35.88,8.55
7,0.03, 2017/11/15 10:45:02.305上午,18.29,4.43,573,47.79,8.43,38.75,10.97,21.65,8.52,36.5,8.66
8,0.035, 2017/11/15 10:45:02.31上午,18.23,4.41,584,47.82,8.48,39.53,11.21,21.75,8.36,36.41,8.62
9,0.04, 2017/11/15 10:45:02.315上午,18.26,4.33,568,47.78,8.42,39.84,11.08,21.74,8.26,36.32,8.48
10,0.045, 2017/11/15 10:45:02.32上午,18.15,4.31,560,47.77,8.29,39.95,10.93,21.69,8.33,36.11,8.44
11,0.05, 2017/11/15 10:45:02.325上午,18.05,4.34,561,47.81,8.35,39.92,10.61,21.62,8.32,35.91,8.5
12,0.055, 2017/11/15 10:45:02.33上午,18.21,4.39,572,47.71,8.51,39.88,10.63,21.61,8.35,36.22,8.59
13,0.06, 2017/11/15 10:45:02.335上午,18.21,4.36,571,47.79,8.46,39.96,10.62,21.58,8.38,36.1,8.56
14,0.065, 2017/11/15 10:45:02.34上午,18.15,4.35,571,47.69,8.38,39.87,10.63,21.64,8.32,36.09,8.52
15,0.07, 2017/11/15 10:45:02.345上午,18.24,4.39,566,47.73,8.48,39.93,10.71,21.61,8.35,36.28,8.6
16,0.075, 2017/11/15 10:45:02.35上午,17.94,4.38,574,47.75,8.43,39.96,10.62,21.53,8.42,35.79,8.56
17,0.08, 2017/11/15 10:45:02.355上午,18.2,4.36,564,47.73,8.43,39.91,10.61,21.63,8.32,36.2,8.54
18,0.085, 2017/11/15 10:45:02.36上午,18.06,4.39,574,47.72,8.44,38.68,11.08,21.56,8.39,35.8,8.62
19,0.09, 2017/11/15 10:45:02.365上午,18.04,4.39,572,47.64,8.49,39.87,10.63,21.56,8.38,35.88,8.6
20,0.095, 2017/11/15 10:45:02.37上午,17.93,4.42,578,47.68,8.43,38.43,11.12,21.56,8.39,35.77,8.64
21,0.1, 2017/11/15 10:45:02.375上午,18.06,4.37,565,47.7,8.44,39.57,10.82,21.63,8.38,35.93,8.56
22,0.105, 2017/11/15 10:45:02.38上午,17.95,4.37,569,47.69,8.42,39.91,10.65,21.55,8.4,35.7,8.56
23,0.11, 2017/11/15 10:45:02.385上午,17.87,4.39,569,47.68,8.42,39.2,11.16,21.54,8.38,35.67,8.58
24,0.115, 2017/11/15 10:45:02.39上午,17.9,4.4,571,47.68,8.41,38.48,11.43,21.56,8.4,35.59,8.63
25,0.12, 2017/11/15 10:45:02.395上午,18.05,4.39,560,47.77,8.42,39.26,11.19,21.69,8.43,35.9,8.6
26,0.125, 2017/11/15 10:45:02.4上午,17.86,4.33,554,47.83,8.31,39.29,11.11,21.62,8.33,35.53,8.48
27,0.13, 2017/11/15 10:45:02.405上午,18,4.38,562,47.74,8.44,39.96,10.92,21.61,8.42,35.96,8.56
28,0.135, 2017/11/15 10:45:02.41上午,17.89,4.36,549,47.67,8.41,39.56,11.14,21.66,8.39,35.73,8.53
29,0.14, 2017/11/15 10:45:02.415上午,18.08,4.35,547,47.69,8.4,39.96,10.93,21.76,8.39,35.98,8.53
30,0.145, 2017/11/15 10:45:02.42上午,17.91,4.34,562,47.64,8.37,39.55,11.13,21.67,8.26,35.8,8.48
31,0.15, 2017/11/15 10:45:02.425上午,17.92,4.25,546,47.62,8.37,42.5,8.5,21.85,8.25,35.66,8.32
32,0.155, 2017/11/15 10:45:02.43上午,18.14,4.32,550,47.64,8.43,39.92,10.95,21.81,8.23,35.97,8.47
33,0.16, 2017/11/15 10:45:02.435上午,17.89,4.33,569,47.73,8.3,39.95,10.7,21.61,8.31,35.57,8.49
34,0.165, 2017/11/15 10:45:02.44上午,17.92,4.29,567,47.64,8.21,39.95,10.7,21.73,8.19,35.65,8.4
35,0.17, 2017/11/15 10:45:02.445上午,17.93,4.37,559,47.66,8.42,39.89,10.62,21.62,8.39,35.66,8.57
36,0.175, 2017/11/15 10:45:02.45上午,17.85,4.35,566,47.63,8.41,39.89,10.62,21.61,8.3,35.51,8.52
37,0.18, 2017/11/15 10:45:02.455上午,17.87,4.33,559,47.67,8.43,39.94,10.64,21.7,8.24,35.55,8.49
38,0.185, 2017/11/15 10:45:02.46上午,17.77,4.39,563,47.57,8.43,39.89,10.62,21.53,8.41,35.46,8.58
39,0.19, 2017/11/15 10:45:02.465上午,17.85,4.35,564,47.62,8.4,39.85,10.65,21.63,8.3,35.5,8.52
40,0.195, 2017/11/15 10:45:02.47上午,17.89,4.36,558,47.66,8.44,38.58,10.79,21.59,8.38,35.58,8.54
41,0.2, 2017/11/15 10:45:02.475上午,17.82,4.38,557,47.61,8.39,39.89,10.66,21.48,8.42,35.58,8.56
42,0.205, 2017/11/15 10:45:02.48上午,17.81,4.3,540,47.67,8.45,42.5,8.36,21.55,8.39,35.43,8.42
43,0.21, 2017/11/15 10:45:02.485上午,17.9,4.38,548,47.65,8.42,39.07,11.41,21.61,8.35,35.64,8.58
44,0.215, 2017/11/15 10:45:02.49上午,17.84,4.38,556,47.64,8.4,39.81,11.1,21.68,8.44,35.62,8.55
45,0.22, 2017/11/15 10:45:02.495上午,17.52,4.25,536,47.74,8.29,42.5,8.41,21.67,8.29,35.03,8.29
46,0.225, 2017/11/15 10:45:02.5上午,17.73,4.35,569,47.68,8.27,39.95,10.7,21.7,8.36,35.39,8.5
47,0.23, 2017/11/15 10:45:02.505上午,17.87,4.33,568,47.7,8.27,39.95,10.7,21.73,8.34,35.54,8.49
48,0.235, 2017/11/15 10:45:02.51上午,17.8,4.34,566,47.69,8.31,39.9,10.62,21.72,8.32,35.56,8.48
49,0.24, 2017/11/15 10:45:02.515上午,17.71,4.32,562,47.72,8.29,39.95,10.7,21.79,8.22,35.25,8.45
50,0.245, 2017/11/15 10:45:02.52上午,17.77,4.34,560,47.67,8.26,39.95,10.7,21.68,8.38,35.35,8.51
51,0.25, 2017/11/15 10:45:02.525上午,17.84,4.34,568,47.55,8.37,39.85,10.65,21.73,8.27,35.49,8.49
52,0.255, 2017/11/15 10:45:02.53上午,17.82,4.34,550,47.61,8.4,39.94,10.64,21.65,8.29,35.44,8.5
53,0.26, 2017/11/15 10:45:02.535上午,17.85,4.35,564,47.5,8.37,39.85,10.65,21.65,8.31,35.5,8.51
54,0.265, 2017/11/15 10:45:02.54上午,17.76,4.38,561,47.65,8.41,38.43,11.31,21.58,8.34,35.33,8.59
55,0.27, 2017/11/15 10:45:02.545上午,17.78,4.35,552,47.59,8.4,39.89,10.67,21.5,8.3,35.37,8.51
56,0.275, 2017/11/15 10:45:02.55上午,17.82,4.33,567,47.6,8.4,39.85,10.65,21.71,8.21,35.44,8.48
57,0.28, 2017/11/15 10:45:02.555上午,17.76,4.41,578,47.65,8.43,39.23,10.79,21.54,8.4,35.43,8.63
58,0.285, 2017/11/15 10:45:02.56上午,17.76,4.37,560,47.54,8.43,39.85,10.65,21.52,8.37,35.32,8.57
59,0.29, 2017/11/15 10:45:02.565上午,17.75,4.38,565,47.6,8.43,39.53,10.73,21.64,8.33,35.3,8.59
60,0.295, 2017/11/15 10:45:02.57上午,17.77,4.37,554,47.63,8.44,39.54,10.81,21.49,8.33,35.34,8.56
61,0.3, 2017/11/15 10:45:02.575上午,17.66,4.35,552,47.51,8.43,39.58,10.8,21.51,8.3,35.12,8.52
62,0.305, 2017/11/15 10:45:02.58上午,17.65,4.35,551,47.62,8.44,39.37,11.09,21.63,8.33,35.12,8.53
63,0.31, 2017/11/15 10:45:02.585上午,17.75,4.36,564,47.6,8.43,39.94,10.7,21.63,8.26,35.3,8.54
64,0.315, 2017/11/15 10:45:02.59上午,17.74,4.36,553,47.61,8.43,39.64,10.97,21.63,8.35,35.3,8.55
65,0.32, 2017/11/15 10:45:02.595上午,17.75,4.39,562,47.67,8.41,38.69,11.07,21.64,8.37,35.34,8.6
66,0.325, 2017/11/15 10:45:02.6上午,17.73,4.39,554,47.62,8.4,38.45,11.45,21.63,8.33,35.3,8.6
67,0.33, 2017/11/15 10:45:02.605上午,17.72,4.43,565,47.63,8.4,38.8,11.2,21.63,8.43,35.41,8.65
68,0.335, 2017/11/15 10:45:02.61上午,17.71,4.38,557,47.53,8.32,39.29,10.96,21.68,8.47,35.39,8.56
69,0.34, 2017/11/15 10:45:02.615上午,17.88,4.42,556,47.58,8.41,39.06,11.06,21.6,8.5,35.6,8.66
70,0.345, 2017/11/15 10:45:02.62上午,17.7,4.36,561,47.56,8.34,39.18,11.07,21.67,8.35,35.32,8.51
71,0.35, 2017/11/15 10:45:02.625上午,17.53,4.29,544,47.68,8.23,41,9.83,21.67,8.37,35,8.37
72,0.355, 2017/11/15 10:45:02.63上午,17.56,4.34,553,47.66,8.23,39.63,11.08,21.67,8.38,35.06,8.48
73,0.36, 2017/11/15 10:45:02.635上午,17.73,4.35,552,47.58,8.33,39.86,10.27,21.67,8.46,35.39,8.49
74,0.365, 2017/11/15 10:45:02.64上午,17.54,4.4,553,47.66,8.46,38.95,11.55,21.71,8.37,35.06,8.6
75,0.37, 2017/11/15 10:45:02.645上午,17.73,4.39,556,47.63,8.44,38.46,11.45,21.57,8.27,35.26,8.6
76,0.375, 2017/11/15 10:45:02.65上午,17.52,4.35,555,47.58,8.36,38.95,11.5,21.66,8.31,34.97,8.5
77,0.38, 2017/11/15 10:45:02.655上午,17.66,4.35,560,47.61,8.43,39.18,11.18,21.67,8.22,35.15,8.51
78,0.385, 2017/11/15 10:45:02.66上午,17.77,4.38,558,47.63,8.45,39.18,11.18,21.6,8.34,35.34,8.58
79,0.39, 2017/11/15 10:45:02.665上午,17.67,4.4,565,47.64,8.43,38.43,11.31,21.56,8.36,35.26,8.61
80,0.395, 2017/11/15 10:45:02.67上午,17.64,4.37,558,47.59,8.39,39.89,10.67,21.55,8.38,35.21,8.54
81,0.4, 2017/11/15 10:45:02.675上午,17.59,4.39,556,47.61,8.42,38.89,11.41,21.55,8.4,35.11,8.58
82,0.405, 2017/11/15 10:45:02.68上午,17.75,4.35,562,47.6,8.4,39.85,10.65,21.6,8.29,35.31,8.52
83,0.41, 2017/11/15 10:45:02.685上午,17.68,4.35,550,47.58,8.4,39.58,10.92,21.65,8.32,35.18,8.52
84,0.415, 2017/11/15 10:45:02.69上午,17.76,4.37,556,47.61,8.43,39.7,10.72,21.61,8.35,35.33,8.56
85,0.42, 2017/11/15 10:45:02.695上午,17.64,4.43,573,47.65,8.4,38.77,11.34,21.64,8.42,35.2,8.66
86,0.425, 2017/11/15 10:45:02.7上午,17.73,4.36,564,47.63,8.44,39.63,10.78,21.61,8.28,35.3,8.54
87,0.43, 2017/11/15 10:45:02.705上午,17.65,4.39,563,47.65,8.43,38.44,11.5,21.67,8.25,35.14,8.59
88,0.435, 2017/11/15 10:45:02.71上午,17.64,4.41,558,47.68,8.42,38.65,11.26,21.67,8.38,35.24,8.63
89,0.44, 2017/11/15 10:45:02.715上午,17.69,4.42,562,47.65,8.41,38.44,11.5,21.68,8.38,35.31,8.64
90,0.445, 2017/11/15 10:45:02.72上午,17.59,4.37,554,47.65,8.44,39.33,10.92,21.68,8.36,35.14,8.55
91,0.45, 2017/11/15 10:45:02.725上午,17.67,4.39,558,47.62,8.39,39.34,11.29,21.66,8.47,35.31,8.59
92,0.455, 2017/11/15 10:45:02.73上午,17.81,4.36,563,47.56,8.32,39.06,11.24,21.72,8.3,35.45,8.54
93,0.46, 2017/11/15 10:45:02.735上午,17.67,4.35,552,47.6,8.33,39.82,11.09,21.6,8.39,35.32,8.5
94,0.465, 2017/11/15 10:45:02.74上午,17.62,4.4,551,47.64,8.44,38.96,11.5,21.71,8.46,35.17,8.61
95,0.47, 2017/11/15 10:45:02.745上午,17.7,4.38,554,47.66,8.45,39.51,11.01,21.68,8.29,35.24,8.57
96,0.475, 2017/11/15 10:45:02.75上午,17.6,4.4,560,47.63,8.42,38.46,11.24,21.65,8.4,35.13,8.61
97,0.48, 2017/11/15 10:45:02.755上午,17.72,4.39,559,47.65,8.41,38.71,11.05,21.56,8.36,35.24,8.6
98,0.485, 2017/11/15 10:45:02.76上午,17.71,4.41,556,47.61,8.4,38.47,11.44,21.55,8.4,35.22,8.64
99,0.49, 2017/11/15 10:45:02.765上午,17.73,4.35,548,47.57,8.4,39.95,10.63,21.57,8.34,35.26,8.52
100,0.495, 2017/11/15 10:45:02.77上午,17.72,4.39,556,47.6,8.44,38.41,11.34,21.51,8.33,35.25,8.61
101,0.5, 2017/11/15 10:45:02.775上午,17.67,4.38,560,47.65,8.39,38.44,11.3,21.69,8.32,35.18,8.57
102,0.505, 2017/11/15 10:45:02.78上午,17.8,4.37,554,47.66,8.42,38.44,11.3,21.57,8.28,35.41,8.57
103,0.51, 2017/11/15 10:45:02.785上午,17.65,4.4,558,47.65,8.39,38.47,11.44,21.66,8.4,35.11,8.63
104,0.515, 2017/11/15 10:45:02.79上午,17.68,4.28,539,47.57,8.33,42.5,8,21.72,8.41,35.22,8.36
105,0.52, 2017/11/15 10:45:02.795上午,17.68,4.26,528,47.69,8.23,42.5,8.5,21.69,8.41,35.22,8.32
106,0.525, 2017/11/15 10:45:02.8上午,17.62,4.34,555,47.68,8.23,39.63,11.08,21.69,8.36,35.18,8.47
107,0.53, 2017/11/15 10:45:02.805上午,17.6,4.35,555,47.7,8.3,39.8,10.92,21.72,8.31,35.17,8.5
108,0.535, 2017/11/15 10:45:02.81上午,17.5,4.34,563,47.64,8.25,39.95,10.7,21.73,8.34,34.95,8.49
109,0.54, 2017/11/15 10:45:02.815上午,17.66,4.33,559,47.64,8.24,39.95,10.7,21.79,8.34,35.16,8.48
110,0.545, 2017/11/15 10:45:02.82上午,17.75,4.33,553,47.59,8.4,39.61,10.85,21.73,8.22,35.31,8.48
111,0.55, 2017/11/15 10:45:02.825上午,17.7,4.34,561,47.54,8.43,39.94,10.64,21.66,8.26,35.21,8.5
112,0.555, 2017/11/15 10:45:02.83上午,17.53,4.4,558,47.64,8.42,38.34,11.32,21.58,8.43,35,8.61
113,0.56, 2017/11/15 10:45:02.835上午,17.64,4.38,557,47.62,8.43,38.78,11.38,21.57,8.36,35.2,8.57
114,0.565, 2017/11/15 10:45:02.84上午,17.68,4.4,561,47.59,8.43,38.46,11.44,21.62,8.35,35.16,8.62
115,0.57, 2017/11/15 10:45:02.845上午,17.7,4.34,562,47.61,8.44,39.94,10.64,21.68,8.26,35.2,8.5
116,0.575, 2017/11/15 10:45:02.85上午,17.66,4.41,566,47.64,8.44,38.4,11.34,21.57,8.39,35.24,8.63
117,0.58, 2017/11/15 10:45:02.855上午,17.75,4.39,564,47.63,8.42,38.67,11.1,21.64,8.32,35.3,8.59
118,0.585, 2017/11/15 10:45:02.86上午,17.65,4.36,551,47.56,8.39,39.63,10.77,21.52,8.4,35.11,8.54
119,0.59, 2017/11/15 10:45:02.865上午,17.81,4.39,560,47.64,8.4,38.72,11.2,21.53,8.32,35.42,8.6
120,0.595, 2017/11/15 10:45:02.87上午,17.76,4.38,566,47.64,8.4,38.41,11.34,21.74,8.31,35.35,8.58
121,0.6, 2017/11/15 10:45:02.875上午,17.65,4.37,555,47.56,8.39,39.94,10.63,21.55,8.4,35.23,8.55
122,0.605, 2017/11/15 10:45:02.88上午,17.64,4.39,573,47.62,8.42,38.72,11.2,21.68,8.29,35.19,8.59
123,0.61, 2017/11/15 10:45:02.885上午,17.74,4.34,549,47.6,8.4,39.94,10.63,21.52,8.29,35.29,8.5
124,0.615, 2017/11/15 10:45:02.89上午,17.74,4.4,560,47.63,8.41,38.41,11.34,21.63,8.32,35.44,8.59
125,0.62, 2017/11/15 10:45:02.895上午,17.69,4.4,559,47.68,8.42,38.47,11.23,21.69,8.37,35.34,8.6
126,0.625, 2017/11/15 10:45:02.9上午,17.71,4.4,559,47.64,8.4,38.56,11.44,21.73,8.35,35.38,8.59
127,0.63, 2017/11/15 10:45:02.905上午,17.73,4.31,550,47.67,8.27,39.82,11.09,21.73,8.33,35.27,8.44
128,0.635, 2017/11/15 10:45:02.91上午,17.77,4.21,548,47.64,8.19,41.07,9.72,21.74,8.14,35.36,8.24
129,0.64, 2017/11/15 10:45:02.915上午,17.81,4.33,560,47.69,8.27,39.95,10.7,21.7,8.33,35.47,8.49
130,0.645, 2017/11/15 10:45:02.92上午,17.77,4.36,559,47.61,8.44,39.9,10.62,21.65,8.31,35.35,8.54
131,0.65, 2017/11/15 10:45:02.925上午,17.61,4.36,557,47.58,8.38,39.63,10.77,21.56,8.38,35.15,8.52
132,0.655, 2017/11/15 10:45:02.93上午,17.72,4.38,561,47.69,8.41,38.89,11.41,21.55,8.36,35.38,8.55
133,0.66, 2017/11/15 10:45:02.935上午,17.77,4.4,567,47.63,8.41,38.72,11.2,21.56,8.37,35.34,8.62
134,0.665, 2017/11/15 10:45:02.94上午,17.72,4.36,549,47.59,8.38,39.59,10.8,21.6,8.41,35.25,8.55
135,0.67, 2017/11/15 10:45:02.945上午,17.64,4.36,553,47.6,8.39,39.63,10.77,21.56,8.38,35.22,8.53
136,0.675, 2017/11/15 10:45:02.95上午,17.82,4.39,564,47.59,8.43,38.47,11.44,21.63,8.31,35.44,8.6
137,0.68, 2017/11/15 10:45:02.955上午,17.89,4.37,562,47.66,8.42,39.02,10.93,21.49,8.27,35.58,8.57
138,0.685, 2017/11/15 10:45:02.96上午,17.75,4.41,561,47.6,8.37,38.69,11.25,21.61,8.41,35.31,8.64
139,0.69, 2017/11/15 10:45:02.965上午,17.75,4.4,564,47.65,8.4,38.67,11.1,21.82,8.37,35.34,8.61
140,0.695, 2017/11/15 10:45:02.97上午,17.85,4.37,561,47.64,8.4,39.07,11.24,21.64,8.32,35.5,8.56
141,0.7, 2017/11/15 10:45:02.975上午,17.82,4.37,564,47.67,8.5,39.35,10.43,21.7,8.37,35.48,8.56
142,0.705, 2017/11/15 10:45:02.98上午,17.87,4.42,564,47.67,8.4,38.71,11.05,21.7,8.45,35.7,8.63
143,0.71, 2017/11/15 10:45:02.985上午,17.74,4.39,559,47.62,8.33,38.53,11.5,21.69,8.38,35.32,8.59
144,0.715, 2017/11/15 10:45:02.99上午,17.8,4.36,557,47.58,8.31,39.8,11.11,21.67,8.46,35.57,8.52
145,0.72, 2017/11/15 10:45:02.995上午,17.72,4.31,539,47.6,8.32,42.5,8.5,21.67,8.49,35.43,8.4
146,0.725, 2017/11/15 10:45:03上午,17.53,4.25,532,47.71,8.29,42.5,8.5,21.79,8.27,35.06,8.28
147,0.73, 2017/11/15 10:45:03.005上午,17.72,4.33,557,47.73,8.27,39.95,10.7,21.8,8.31,35.24,8.48
148,0.735, 2017/11/15 10:45:03.01上午,17.84,4.3,557,47.66,8.22,39.95,10.7,21.74,8.21,35.48,8.42
149,0.74, 2017/11/15 10:45:03.015上午,17.92,4.32,559,47.59,8.37,39.89,10.62,21.74,8.23,35.65,8.47
150,0.745, 2017/11/15 10:45:03.02上午,17.83,4.37,560,47.63,8.41,39.89,10.62,21.58,8.38,35.46,8.56
151,0.75, 2017/11/15 10:45:03.025上午,17.7,4.37,559,47.62,8.38,39.61,10.75,21.55,8.37,35.33,8.53
152,0.755, 2017/11/15 10:45:03.03上午,17.78,4.38,560,47.67,8.43,39.41,10.82,21.55,8.38,35.37,8.58
153,0.76, 2017/11/15 10:45:03.035上午,17.84,4.37,560,47.67,8.42,38.43,11.28,21.57,8.25,35.49,8.55
154,0.765, 2017/11/15 10:45:03.04上午,17.72,4.33,553,47.56,8.35,39.26,11.14,21.7,8.29,35.24,8.49
155,0.77, 2017/11/15 10:45:03.045上午,17.62,4.35,554,47.74,8.29,39.33,11.05,21.69,8.38,35.25,8.49
156,0.775, 2017/11/15 10:45:03.05上午,17.87,4.4,560,47.65,8.41,38.72,11.2,21.59,8.35,35.54,8.62
157,0.78, 2017/11/15 10:45:03.055上午,17.75,4.29,548,47.62,8.38,42.5,8.5,21.69,8.35,35.45,8.37
158,0.785, 2017/11/15 10:45:03.06上午,17.78,4.44,561,47.68,8.45,38.69,11.26,21.73,8.4,35.54,8.67
159,0.79, 2017/11/15 10:45:03.065上午,17.74,4.27,534,47.72,8.28,42.5,8.5,21.65,8.38,35.48,8.33
160,0.795, 2017/11/15 10:45:03.07上午,17.51,4.32,547,47.72,8.29,39.81,11.1,21.73,8.27,35,8.43
161,0.8, 2017/11/15 10:45:03.075上午,17.81,4.35,553,47.66,8.42,39.81,11.1,21.73,8.3,35.6,8.5
162,0.805, 2017/11/15 10:45:03.08上午,17.69,4.36,553,47.67,8.27,39.8,10.92,21.65,8.38,35.35,8.52
163,0.81, 2017/11/15 10:45:03.085上午,17.93,4.34,560,47.58,8.38,39.72,10.96,21.73,8.27,35.68,8.5
164,0.815, 2017/11/15 10:45:03.09上午,17.86,4.23,533,47.71,8.29,42.27,8.43,21.7,8.26,35.55,8.28
165,0.82, 2017/11/15 10:45:03.095上午,17.94,4.35,563,47.64,8.39,39.95,10.7,21.69,8.29,35.69,8.53
166,0.825, 2017/11/15 10:45:03.1上午,17.66,4.37,562,47.62,8.41,39.63,10.77,21.56,8.38,35.25,8.53
167,0.83, 2017/11/15 10:45:03.105上午,17.75,4.4,569,47.65,8.42,39.02,11.12,21.64,8.42,35.43,8.6
168,0.835, 2017/11/15 10:45:03.11上午,17.8,4.39,569,47.64,8.39,38.72,11.2,21.68,8.32,35.41,8.6
169,0.84, 2017/11/15 10:45:03.115上午,17.83,4.4,550,47.68,8.45,39.26,11.28,21.68,8.44,35.5,8.61
170,0.845, 2017/11/15 10:45:03.12上午,17.76,4.29,549,47.62,8.36,42.5,8.5,21.7,8.39,35.51,8.38
171,0.85, 2017/11/15 10:45:03.125上午,17.6,4.26,541,47.68,8.24,42.27,8.43,21.68,8.36,35.22,8.31
172,0.855, 2017/11/15 10:45:03.13上午,17.88,4.34,566,47.8,8.27,39.95,10.7,21.66,8.3,35.72,8.47
173,0.86, 2017/11/15 10:45:03.135上午,17.68,4.33,564,47.68,8.26,39.9,10.62,21.71,8.3,35.33,8.45
174,0.865, 2017/11/15 10:45:03.14上午,17.79,4.3,554,47.75,8.3,39.9,10.62,21.72,8.2,35.39,8.43
175,0.87, 2017/11/15 10:45:03.145上午,17.88,4.31,560,47.63,8.22,39.77,10.88,21.76,8.25,35.61,8.45
176,0.875, 2017/11/15 10:45:03.15上午,17.94,4.28,547,47.67,8.25,39.89,10.62,21.79,8.16,35.56,8.38
177,0.88, 2017/11/15 10:45:03.155上午,17.66,4.33,557,47.74,8.3,39.89,10.62,21.6,8.3,35.13,8.47
178,0.885, 2017/11/15 10:45:03.16上午,17.83,4.33,554,47.74,8.29,39.95,10.7,21.67,8.3,35.46,8.49
179,0.89, 2017/11/15 10:45:03.165上午,17.86,4.37,567,47.61,8.47,39.4,10.85,21.69,8.34,35.51,8.57
180,0.895, 2017/11/15 10:45:03.17上午,17.62,4.35,556,47.72,8.29,39.89,10.62,21.55,8.35,35.17,8.49
181,0.9, 2017/11/15 10:45:03.175上午,17.87,4.33,565,47.62,8.39,39.85,10.65,21.68,8.23,35.55,8.49
182,0.905, 2017/11/15 10:45:03.18上午,17.72,4.38,559,47.64,8.42,39.62,10.9,21.57,8.4,35.37,8.56
183,0.91, 2017/11/15 10:45:03.185上午,17.8,4.36,564,47.59,8.42,39.58,10.8,21.57,8.37,35.4,8.54
184,0.915, 2017/11/15 10:45:03.19上午,17.77,4.38,560,47.67,8.47,38.32,11.39,21.56,8.27,35.39,8.57
185,0.92, 2017/11/15 10:45:03.195上午,17.74,4.36,557,47.65,8.4,38.96,11.54,21.7,8.25,35.45,8.51
186,0.925, 2017/11/15 10:45:03.2上午,17.8,4.41,556,47.67,8.43,39.29,11.28,21.72,8.42,35.58,8.62
187,0.93, 2017/11/15 10:45:03.205上午,17.82,4.26,542,47.72,8.33,42.5,8.4,21.81,8.32,35.51,8.33
188,0.935, 2017/11/15 10:45:03.21上午,17.81,4.24,537,47.72,8.3,42.25,8.5,21.73,8.27,35.5,8.29
189,0.94, 2017/11/15 10:45:03.215上午,17.82,4.32,566,47.63,8.2,39.95,10.7,21.63,8.35,35.44,8.46
190,0.945, 2017/11/15 10:45:03.22上午,17.79,4.38,563,47.63,8.4,39.9,10.62,21.56,8.39,35.51,8.56
191,0.95, 2017/11/15 10:45:03.225上午,17.73,4.34,563,47.56,8.43,39.59,10.8,21.7,8.26,35.26,8.49
192,0.955, 2017/11/15 10:45:03.23上午,17.72,4.41,559,47.71,8.47,38.43,11.31,21.65,8.38,35.29,8.63
193,0.96, 2017/11/15 10:45:03.235上午,17.84,4.41,566,47.65,8.41,38.8,11.2,21.64,8.36,35.68,8.62
194,0.965, 2017/11/15 10:45:03.24上午,17.75,4.4,562,47.67,8.45,38.92,11.17,21.68,8.32,35.43,8.61
195,0.97, 2017/11/15 10:45:03.245上午,17.84,4.3,542,47.6,8.31,42.5,8.5,21.67,8.47,35.68,8.39
196,0.975, 2017/11/15 10:45:03.25上午,17.83,4.36,560,47.63,8.39,39.63,11.08,21.66,8.29,35.63,8.51
197,0.98, 2017/11/15 10:45:03.255上午,17.8,4.29,544,47.65,8.42,42.5,8.5,21.72,8.33,35.59,8.38
198,0.985, 2017/11/15 10:45:03.26上午,17.86,4.31,560,47.66,8.24,39.9,10.62,21.74,8.29,35.56,8.44
199,0.99, 2017/11/15 10:45:03.265上午,17.85,4.28,532,47.66,8.44,42.5,8.5,21.75,8.3,35.53,8.37
200,0.995, 2017/11/15 10:45:03.27上午,17.76,4.29,550,47.65,8.4,42.5,8.5,21.72,8.33,35.51,8.37
201,1, 2017/11/15 10:45:03.275上午,17.8,4.29,550,47.69,8.26,39.61,10.74,21.74,8.21,35.42,8.4
202,1.005, 2017/11/15 10:45:03.28上午,17.8,4.23,541,47.83,8.3,42.5,8.41,21.71,8.23,35.43,8.27
203,1.01, 2017/11/15 10:45:03.285上午,17.88,4.32,560,47.66,8.23,39.95,10.7,21.74,8.28,35.56,8.45
204,1.015, 2017/11/15 10:45:03.29上午,17.99,4.36,558,47.65,8.42,39.77,10.61,21.64,8.36,35.67,8.57
205,1.02, 2017/11/15 10:45:03.295上午,17.87,4.37,553,47.68,8.45,38.68,11.5,21.53,8.33,35.55,8.56
206,1.025, 2017/11/15 10:45:03.3上午,17.82,4.4,565,47.68,8.43,38.4,11.34,21.57,8.39,35.45,8.63
207,1.03, 2017/11/15 10:45:03.305上午,17.88,4.36,556,47.67,8.39,39.26,11.14,21.64,8.33,35.62,8.53
208,1.035, 2017/11/15 10:45:03.31上午,17.86,4.4,560,47.64,8.42,39.26,11.38,21.69,8.44,35.7,8.6
209,1.04, 2017/11/15 10:45:03.315上午,17.89,4.31,552,47.65,8.41,42.5,8.4,21.7,8.43,35.82,8.42
210,1.045, 2017/11/15 10:45:03.32上午,17.85,4.28,550,47.6,8.38,42.5,8.4,21.79,8.38,35.52,8.38
211,1.05, 2017/11/15 10:45:03.325上午,18.03,4.32,557,47.72,8.3,39.95,10.7,21.81,8.26,35.75,8.47
212,1.055, 2017/11/15 10:45:03.33上午,17.75,4.37,568,47.62,8.4,39.9,10.62,21.56,8.33,35.43,8.53
213,1.06, 2017/11/15 10:45:03.335上午,17.89,4.38,566,47.57,8.42,39.86,10.64,21.53,8.4,35.59,8.57
214,1.065, 2017/11/15 10:45:03.34上午,17.86,4.38,572,47.69,8.41,38.47,11.23,21.6,8.38,35.51,8.59
215,1.07, 2017/11/15 10:45:03.345上午,17.78,4.41,564,47.67,8.45,38.74,10.98,21.66,8.42,35.4,8.63
216,1.075, 2017/11/15 10:45:03.35上午,17.89,4.36,572,47.69,8.43,38.74,10.98,21.65,8.24,35.59,8.54
217,1.08, 2017/11/15 10:45:03.355上午,17.83,4.29,546,47.63,8.42,42.5,8.5,21.7,8.33,35.52,8.38
218,1.085, 2017/11/15 10:45:03.36上午,17.89,4.35,563,47.65,8.4,39.75,11.14,21.69,8.27,35.76,8.5
219,1.09, 2017/11/15 10:45:03.365上午,17.84,4.37,558,47.64,8.4,39.81,11.1,21.67,8.4,35.66,8.54
220,1.095, 2017/11/15 10:45:03.37上午,17.85,4.32,570,47.71,8.27,39.89,10.62,21.72,8.29,35.67,8.45
221,1.1, 2017/11/15 10:45:03.375上午,17.95,4.24,560,47.64,8.27,42.27,8.43,21.65,8.33,35.7,8.3
222,1.105, 2017/11/15 10:45:03.38上午,17.86,4.31,554,47.69,8.27,39.9,10.62,21.7,8.25,35.54,8.43
223,1.11, 2017/11/15 10:45:03.385上午,17.94,4.37,559,47.67,8.44,39.94,10.64,21.63,8.37,35.68,8.55
224,1.115, 2017/11/15 10:45:03.39上午,17.88,4.39,572,47.72,8.43,38.7,11.06,21.57,8.35,35.55,8.6
225,1.12, 2017/11/15 10:45:03.395上午,17.91,4.39,553,47.66,8.4,38.9,11.62,21.64,8.4,35.64,8.59
226,1.125, 2017/11/15 10:45:03.4上午,17.88,4.37,564,47.63,8.36,39.38,11.14,21.68,8.42,35.6,8.55
227,1.13, 2017/11/15 10:45:03.405上午,17.8,4.29,559,47.64,8.38,40.21,10.24,21.75,8.18,35.54,8.38
228,1.135, 2017/11/15 10:45:03.41上午,17.89,4.33,575,47.77,8.22,39.95,10.7,21.7,8.32,35.78,8.46
229,1.14, 2017/11/15 10:45:03.415上午,17.91,4.31,572,47.72,8.18,39.95,10.7,21.66,8.25,35.78,8.41
230,1.145, 2017/11/15 10:45:03.42上午,17.89,4.33,563,47.63,8.39,39.85,10.65,21.73,8.19,35.59,8.47
231,1.15, 2017/11/15 10:45:03.425上午,17.91,4.33,565,47.59,8.43,39.93,10.64,21.72,8.23,35.63,8.49
232,1.155, 2017/11/15 10:45:03.43上午,17.84,4.36,557,47.66,8.44,39.93,10.64,21.62,8.34,35.49,8.54
233,1.16, 2017/11/15 10:45:03.435上午,17.79,4.4,572,47.65,8.46,39.32,10.88,21.55,8.37,35.5,8.61
234,1.165, 2017/11/15 10:45:03.44上午,17.85,4.42,570,47.67,8.43,38.4,11.35,21.54,8.44,35.62,8.65
235,1.17, 2017/11/15 10:45:03.445上午,17.79,4.37,565,47.61,8.41,39.85,10.65,21.6,8.38,35.41,8.56
236,1.175, 2017/11/15 10:45:03.45上午,17.87,4.36,565,47.66,8.46,39.69,10.72,21.57,8.35,35.43,8.57
237,1.18, 2017/11/15 10:45:03.455上午,17.8,4.4,573,47.68,8.42,38.43,11.31,21.57,8.36,35.53,8.6
238,1.185, 2017/11/15 10:45:03.46上午,17.93,4.37,558,47.57,8.43,39.66,10.75,21.51,8.32,35.67,8.56
239,1.19, 2017/11/15 10:45:03.465上午,17.92,4.38,574,47.66,8.42,39.53,10.74,21.63,8.34,35.63,8.59
240,1.195, 2017/11/15 10:45:03.47上午,17.87,4.39,568,47.67,8.43,38.4,11.35,21.63,8.31,35.55,8.59
241,1.2, 2017/11/15 10:45:03.475上午,17.85,4.35,553,47.68,8.44,38.87,11.5,21.48,8.32,35.52,8.53
242,1.205, 2017/11/15 10:45:03.48上午,17.82,4.4,577,47.69,8.43,38.71,11.02,21.55,8.37,35.56,8.61
243,1.21, 2017/11/15 10:45:03.485上午,17.92,4.38,557,47.7,8.43,38.7,11.48,21.69,8.4,35.68,8.58
244,1.215, 2017/11/15 10:45:03.49上午,17.88,4.41,560,47.66,8.44,38.44,11.29,21.64,8.36,35.7,8.61
245,1.22, 2017/11/15 10:45:03.495上午,17.83,4.25,542,47.61,8.33,42.5,8.4,21.73,8.27,35.53,8.31
246,1.225, 2017/11/15 10:45:03.5上午,17.95,4.28,566,47.73,8.22,39.81,10.44,21.75,8.14,35.75,8.38
247,1.23, 2017/11/15 10:45:03.505上午,17.82,4.35,576,47.6,8.36,39.89,10.62,21.69,8.33,35.6,8.5
248,1.235, 2017/11/15 10:45:03.51上午,17.94,4.36,570,47.62,8.42,39.94,10.71,21.73,8.31,35.68,8.55
249,1.24, 2017/11/15 10:45:03.515上午,17.92,4.31,571,47.58,8.35,39.85,10.66,21.72,8.18,35.63,8.44
250,1.245, 2017/11/15 10:45:03.52上午,17.85,4.37,571,47.67,8.44,39.32,10.8,21.68,8.32,35.51,8.57
251,1.25, 2017/11/15 10:45:03.525上午,17.95,4.4,579,47.66,8.45,39.21,10.74,21.59,8.33,35.69,8.62
252,1.255, 2017/11/15 10:45:03.53上午,17.87,4.4,571,47.68,8.43,38.42,11.32,21.54,8.39,35.53,8.62
253,1.26, 2017/11/15 10:45:03.535上午,17.82,4.38,571,47.68,8.42,38.96,11.36,21.6,8.3,35.47,8.59
254,1.265, 2017/11/15 10:45:03.54上午,17.94,4.37,553,47.68,8.47,38.71,11.96,21.64,8.39,35.7,8.56
255,1.27, 2017/11/15 10:45:03.545上午,17.85,4.4,569,47.67,8.36,38.46,11.45,21.69,8.33,35.7,8.59
256,1.275, 2017/11/15 10:45:03.55上午,17.86,4.39,565,47.65,8.41,39.5,11.02,21.76,8.42,35.56,8.6
257,1.28, 2017/11/15 10:45:03.555上午,17.62,4.34,557,47.75,8.3,39.8,11.11,21.69,8.38,35.18,8.48
258,1.285, 2017/11/15 10:45:03.56上午,17.66,4.26,546,47.71,8.28,42.5,8.5,21.72,8.33,35.32,8.31
259,1.29, 2017/11/15 10:45:03.565上午,17.76,4.32,561,47.68,8.26,39.9,10.62,21.7,8.28,35.45,8.44
260,1.295, 2017/11/15 10:45:03.57上午,17.82,4.24,553,47.66,8.24,41.13,9.55,21.65,8.22,35.45,8.3
261,1.3, 2017/11/15 10:45:03.575上午,17.99,4.34,559,47.63,8.39,39.9,10.62,21.68,8.25,35.79,8.49
262,1.305, 2017/11/15 10:45:03.58上午,17.87,4.36,567,47.57,8.43,39.9,10.62,21.65,8.31,35.54,8.54
263,1.31, 2017/11/15 10:45:03.585上午,17.83,4.37,567,47.62,8.4,39.9,10.62,21.53,8.39,35.47,8.55
264,1.315, 2017/11/15 10:45:03.59上午,17.9,4.35,567,47.66,8.44,39.33,10.88,21.64,8.2,35.65,8.53
265,1.32, 2017/11/15 10:45:03.595上午,17.87,4.39,567,47.67,8.42,39.02,11.12,21.68,8.35,35.7,8.57
266,1.325, 2017/11/15 10:45:03.6上午,17.8,4.39,573,47.62,8.37,38.36,11.54,21.72,8.35,35.57,8.58
267,1.33, 2017/11/15 10:45:03.605上午,17.94,4.32,560,47.63,8.41,39.92,10.95,21.78,8.24,35.73,8.47
268,1.335, 2017/11/15 10:45:03.61上午,17.92,4.33,563,47.67,8.25,39.83,10.93,21.74,8.26,35.64,8.49
269,1.34, 2017/11/15 10:45:03.615上午,17.85,4.32,557,47.69,8.26,39.95,10.7,21.7,8.25,35.51,8.45
270,1.345, 2017/11/15 10:45:03.62上午,17.91,4.33,562,47.63,8.4,39.89,10.62,21.72,8.2,35.62,8.47
271,1.35, 2017/11/15 10:45:03.625上午,17.81,4.39,573,47.69,8.46,39.7,10.72,21.57,8.37,35.53,8.58
272,1.355, 2017/11/15 10:45:03.63上午,17.79,4.41,576,47.65,8.42,38.69,11.25,21.58,8.34,35.51,8.63
273,1.36, 2017/11/15 10:45:03.635上午,17.85,4.39,568,47.67,8.41,38.47,11.44,21.62,8.3,35.5,8.6
274,1.365, 2017/11/15 10:45:03.64上午,17.75,4.4,570,47.68,8.44,38.47,11.23,21.67,8.35,35.42,8.6
275,1.37, 2017/11/15 10:45:03.645上午,17.74,4.37,557,47.74,8.45,38.83,11.29,21.68,8.34,35.3,8.56
276,1.375, 2017/11/15 10:45:03.65上午,17.89,4.4,570,47.67,8.4,38.6,11.33,21.7,8.45,35.62,8.62
277,1.38, 2017/11/15 10:45:03.655上午,17.73,4.39,568,47.67,8.4,38.34,11.44,21.71,8.36,35.43,8.57
278,1.385, 2017/11/15 10:45:03.66上午,17.92,4.41,572,47.66,8.38,38.96,11.16,21.67,8.44,35.81,8.62
279,1.39, 2017/11/15 10:45:03.665上午,17.68,4.26,551,47.8,8.28,42.5,8.5,21.7,8.33,35.34,8.31
280,1.395, 2017/11/15 10:45:03.67上午,17.89,4.37,556,47.63,8.42,39.23,11.53,21.86,8.38,35.64,8.56
281,1.4, 2017/11/15 10:45:03.675上午,17.96,4.29,545,47.62,8.39,42.5,8.41,21.75,8.39,35.78,8.39
282,1.405, 2017/11/15 10:45:03.68上午,17.75,4.36,565,47.65,8.39,39.81,11.1,21.7,8.35,35.47,8.51
283,1.41, 2017/11/15 10:45:03.685上午,18.01,4.37,554,47.65,8.4,39.26,11.38,21.76,8.36,35.87,8.56
284,1.415, 2017/11/15 10:45:03.69上午,17.86,4.34,564,47.66,8.41,39.24,10.53,21.75,8.28,35.68,8.48
285,1.42, 2017/11/15 10:45:03.695上午,17.95,4.28,573,47.71,8.17,39.95,10.7,21.74,8.22,35.71,8.39
286,1.425, 2017/11/15 10:45:03.7上午,18.09,4.34,562,47.6,8.38,39.89,10.62,21.59,8.36,35.73,8.53
287,1.43, 2017/11/15 10:45:03.705上午,17.9,4.35,561,47.62,8.41,39.89,10.62,21.52,8.31,35.6,8.53
288,1.435, 2017/11/15 10:45:03.71上午,17.98,4.42,573,47.67,8.41,38.69,11.26,21.68,8.42,35.75,8.66
289,1.44, 2017/11/15 10:45:03.715上午,17.79,4.4,570,47.66,8.41,38.46,11.24,21.68,8.39,35.55,8.6
290,1.445, 2017/11/15 10:45:03.72上午,17.84,4.31,549,47.64,8.44,42.5,8.5,21.66,8.36,35.67,8.41
291,1.45, 2017/11/15 10:45:03.725上午,18.08,4.24,569,47.73,8.21,41.13,9.55,21.79,8.27,35.97,8.3
292,1.455, 2017/11/15 10:45:03.73上午,17.88,4.3,562,47.69,8.26,39.95,10.7,21.74,8.2,35.57,8.43
293,1.46, 2017/11/15 10:45:03.735上午,17.85,4.33,568,47.58,8.44,39.61,10.74,21.72,8.21,35.51,8.49
294,1.465, 2017/11/15 10:45:03.74上午,17.8,4.29,561,47.67,8.26,39.61,10.74,21.69,8.21,35.4,8.4
295,1.47, 2017/11/15 10:45:03.745上午,17.94,4.31,556,47.63,8.4,39.94,10.64,21.67,8.17,35.69,8.45
296,1.475, 2017/11/15 10:45:03.75上午,17.76,4.37,569,47.63,8.37,39.89,10.66,21.58,8.39,35.46,8.54
297,1.48, 2017/11/15 10:45:03.755上午,17.91,4.35,567,47.63,8.39,39.89,10.62,21.6,8.31,35.66,8.52
298,1.485, 2017/11/15 10:45:03.76上午,17.98,4.37,567,47.67,8.45,39.47,10.84,21.61,8.33,35.76,8.57
299,1.49, 2017/11/15 10:45:03.765上午,17.87,4.33,566,47.62,8.4,39.94,10.63,21.65,8.25,35.54,8.48
300,1.495, 2017/11/15 10:45:03.77上午,17.86,4.37,572,47.65,8.39,39.7,10.72,21.57,8.35,35.64,8.54
301,1.5, 2017/11/15 10:45:03.775上午,17.82,4.38,573,47.69,8.42,38.43,11.3,21.7,8.3,35.44,8.58
302,1.505, 2017/11/15 10:45:03.78上午,17.88,4.35,560,47.62,8.38,39.94,10.64,21.56,8.37,35.57,8.53
303,1.51, 2017/11/15 10:45:03.785上午,17.94,4.39,568,47.67,8.45,38.97,10.88,21.6,8.36,35.68,8.61
304,1.515, 2017/11/15 10:45:03.79上午,17.82,4.38,575,47.67,8.4,38.47,11.44,21.69,8.29,35.43,8.58
305,1.52, 2017/11/15 10:45:03.795上午,17.83,4.32,556,47.64,8.37,39.35,11.38,21.69,8.31,35.47,8.47
306,1.525, 2017/11/15 10:45:03.8上午,17.85,4.35,553,47.66,8.42,39.5,11.19,21.68,8.35,35.55,8.52
307,1.53, 2017/11/15 10:45:03.805上午,17.74,4.35,557,47.72,8.28,39.8,11.11,21.66,8.44,35.46,8.49
308,1.535, 2017/11/15 10:45:03.81上午,17.83,4.35,570,47.6,8.34,39.79,10.92,21.7,8.26,35.62,8.49
309,1.54, 2017/11/15 10:45:03.815上午,18.13,4.31,574,47.77,8.25,39.94,10.71,21.75,8.24,36.05,8.44
310,1.545, 2017/11/15 10:45:03.82上午,17.9,4.34,577,47.66,8.41,39.89,10.63,21.68,8.28,35.6,8.51
311,1.55, 2017/11/15 10:45:03.825上午,17.93,4.36,566,47.58,8.43,39.86,10.65,21.56,8.32,35.67,8.55
312,1.555, 2017/11/15 10:45:03.83上午,17.94,4.37,578,47.69,8.44,39.18,10.84,21.64,8.24,35.71,8.56
313,1.56, 2017/11/15 10:45:03.835上午,17.93,4.42,574,47.65,8.43,38.76,11.18,21.66,8.39,35.78,8.64
314,1.565, 2017/11/15 10:45:03.84上午,17.88,4.38,566,47.66,8.44,38.8,11.43,21.68,8.34,35.61,8.58
315,1.57, 2017/11/15 10:45:03.845上午,17.88,4.35,566,47.64,8.38,39.82,11.09,21.69,8.35,35.69,8.5
316,1.575, 2017/11/15 10:45:03.85上午,17.83,4.4,567,47.68,8.44,38.32,11.5,21.68,8.35,35.63,8.6
317,1.58, 2017/11/15 10:45:03.855上午,17.9,4.31,553,47.65,8.39,42.5,8.5,21.66,8.44,35.76,8.41
318,1.585, 2017/11/15 10:45:03.86上午,17.79,4.27,549,47.78,8.31,42.5,8.41,21.64,8.34,35.57,8.33
319,1.59, 2017/11/15 10:45:03.865上午,18.05,4.33,559,47.64,8.35,39.81,11.1,21.76,8.31,35.95,8.47
320,1.595, 2017/11/15 10:45:03.87上午,17.94,4.33,578,47.73,8.29,39.95,10.7,21.75,8.23,35.84,8.45
321,1.6, 2017/11/15 10:45:03.875上午,17.95,4.31,566,47.61,8.38,39.81,11.1,21.78,8.23,35.71,8.44
322,1.605, 2017/11/15 10:45:03.88上午,17.79,4.33,559,47.76,8.31,39.81,11.1,21.73,8.32,35.57,8.46
323,1.61, 2017/11/15 10:45:03.885上午,17.85,4.33,568,47.69,8.26,39.89,10.63,21.73,8.32,35.63,8.46
324,1.615, 2017/11/15 10:45:03.89上午,18.1,4.35,568,47.64,8.47,39.89,10.63,21.69,8.25,36,8.53
325,1.62, 2017/11/15 10:45:03.895上午,18.06,4.38,571,47.67,8.42,39.58,10.69,21.66,8.35,35.93,8.59
326,1.625, 2017/11/15 10:45:03.9上午,18.09,4.39,571,47.68,8.45,39.26,10.61,21.62,8.36,35.98,8.6
327,1.63, 2017/11/15 10:45:03.905上午,17.85,4.41,576,47.7,8.42,38.46,11.45,21.59,8.34,35.63,8.62
328,1.635, 2017/11/15 10:45:03.91上午,17.95,4.37,565,47.69,8.42,39.18,11.28,21.64,8.34,35.7,8.57
329,1.64, 2017/11/15 10:45:03.915上午,17.93,4.38,570,47.69,8.38,38.74,11.08,21.63,8.32,35.82,8.56
330,1.645, 2017/11/15 10:45:03.92上午,18.02,4.36,569,47.67,8.42,39.57,10.32,21.68,8.38,35.97,8.52
331,1.65, 2017/11/15 10:45:03.925上午,18.18,4.32,562,47.69,8.4,39.8,11.11,21.84,8.22,36.17,8.46
332,1.655, 2017/11/15 10:45:03.93上午,18.12,4.26,547,47.65,8.37,42.5,8.41,21.73,8.32,36.06,8.35
333,1.66, 2017/11/15 10:45:03.935上午,18.09,4.31,579,47.79,8.22,39.8,10.92,21.81,8.28,35.98,8.44
334,1.665, 2017/11/15 10:45:03.94上午,18.03,4.34,569,47.65,8.42,39.9,10.62,21.7,8.24,35.87,8.5
335,1.67, 2017/11/15 10:45:03.945上午,18.15,4.34,562,47.67,8.43,39.9,10.62,21.65,8.28,35.99,8.52
336,1.675, 2017/11/15 10:45:03.95上午,18.2,4.34,571,47.71,8.45,39.89,10.62,21.68,8.22,36.2,8.51
337,1.68, 2017/11/15 10:45:03.955上午,18.1,4.36,569,47.69,8.42,39.89,10.62,21.68,8.35,36.01,8.55
338,1.685, 2017/11/15 10:45:03.96上午,17.93,4.37,581,47.7,8.45,39.89,10.62,21.68,8.32,35.78,8.54
339,1.69, 2017/11/15 10:45:03.965上午,18.04,4.36,567,47.69,8.43,39.89,10.62,21.64,8.32,35.88,8.54
340,1.695, 2017/11/15 10:45:03.97上午,18.04,4.38,573,47.67,8.42,38.46,11.24,21.56,8.37,35.75,8.59
341,1.7, 2017/11/15 10:45:03.975上午,17.94,4.36,561,47.68,8.44,39.63,10.89,21.54,8.35,35.68,8.54
342,1.705, 2017/11/15 10:45:03.98上午,18.14,4.33,565,47.68,8.44,39.9,10.62,21.67,8.17,36.1,8.48
343,1.71, 2017/11/15 10:45:03.985上午,18.01,4.38,571,47.7,8.42,39.41,10.91,21.54,8.32,35.95,8.56
344,1.715, 2017/11/15 10:45:03.99上午,18.03,4.36,564,47.67,8.43,38.68,11.5,21.66,8.31,35.87,8.53
345,1.72, 2017/11/15 10:45:03.995上午,18.06,4.38,577,47.67,8.44,38.71,11.05,21.71,8.28,35.92,8.58
346,1.725, 2017/11/15 10:45:04上午,18.08,4.39,575,47.73,8.44,38.71,11.05,21.65,8.34,35.97,8.6
347,1.73, 2017/11/15 10:45:04.005上午,18.12,4.42,578,47.77,8.41,38.8,11.2,21.64,8.43,36.07,8.65
348,1.735, 2017/11/15 10:45:04.01上午,18.2,4.42,578,47.77,8.43,39.02,11.17,21.68,8.41,36.23,8.65
349,1.74, 2017/11/15 10:45:04.015上午,18.17,4.3,552,47.72,8.39,42.5,8.5,21.67,8.42,36.2,8.41
350,1.745, 2017/11/15 10:45:04.02上午,17.89,4.28,554,47.66,8.43,42.5,8.5,21.71,8.27,35.74,8.36
351,1.75, 2017/11/15 10:45:04.025上午,18.04,4.34,568,47.78,8.26,39.27,10.53,21.65,8.42,36.07,8.48
352,1.755, 2017/11/15 10:45:04.03上午,18.04,4.34,576,47.89,8.29,39.95,10.7,21.72,8.3,36.02,8.49
353,1.76, 2017/11/15 10:45:04.035上午,18.28,4.3,574,47.87,8.25,39.89,10.62,21.76,8.24,36.36,8.41
354,1.765, 2017/11/15 10:45:04.04上午,18.19,4.35,572,47.78,8.48,39.94,10.64,21.7,8.23,36.18,8.51
355,1.77, 2017/11/15 10:45:04.045上午,18.24,4.29,570,47.86,8.28,40.11,10.65,21.74,8.22,36.29,8.4
356,1.775, 2017/11/15 10:45:04.05上午,18.26,4.33,584,47.87,8.24,39.83,10.93,21.8,8.27,36.31,8.48
357,1.78, 2017/11/15 10:45:04.055上午,18.15,4.34,573,47.72,8.47,39.89,10.62,21.74,8.2,36.1,8.51
358,1.785, 2017/11/15 10:45:04.06上午,18.22,4.33,564,47.72,8.3,39.95,10.7,21.64,8.24,36.25,8.47
359,1.79, 2017/11/15 10:45:04.065上午,18.15,4.34,568,47.68,8.42,39.89,10.63,21.72,8.25,36.12,8.51
360,1.795, 2017/11/15 10:45:04.07上午,18.11,4.35,561,47.78,8.35,39.95,10.7,21.59,8.37,35.92,8.55
361,1.8, 2017/11/15 10:45:04.075上午,18.16,4.31,567,47.82,8.33,39.89,10.63,21.83,8.21,35.99,8.44
362,1.805, 2017/11/15 10:45:04.08上午,18.33,4.37,558,47.68,8.42,39.94,10.7,21.76,8.33,36.34,8.57
363,1.81, 2017/11/15 10:45:04.085上午,18.15,4.36,573,47.77,8.31,39.83,10.93,21.64,8.32,36.1,8.54
364,1.815, 2017/11/15 10:45:04.09上午,18.11,4.39,577,47.76,8.47,39.89,10.63,21.55,8.39,36.15,8.59
365,1.82, 2017/11/15 10:45:04.095上午,18.08,4.35,567,47.67,8.4,39.85,10.65,21.56,8.3,35.97,8.53
366,1.825, 2017/11/15 10:45:04.1上午,18.13,4.35,569,47.72,8.42,39.39,10.86,21.67,8.27,36.06,8.52
367,1.83, 2017/11/15 10:45:04.105上午,18.19,4.38,574,47.65,8.36,38.74,10.99,21.64,8.4,36.23,8.58
368,1.835, 2017/11/15 10:45:04.11上午,18.26,4.41,576,47.78,8.41,38.8,11.2,21.68,8.35,36.45,8.62
369,1.84, 2017/11/15 10:45:04.115上午,18.19,4.25,565,47.82,8.41,42.5,8.5,21.8,8.21,36.24,8.32
370,1.845, 2017/11/15 10:45:04.12上午,18.23,4.3,578,47.86,8.27,39.9,10.62,21.74,8.25,36.27,8.43
371,1.85, 2017/11/15 10:45:04.125上午,18.24,4.35,576,47.72,8.4,39.95,10.7,21.7,8.25,36.29,8.52
372,1.855, 2017/11/15 10:45:04.13上午,18.11,4.32,571,47.73,8.42,39.89,10.66,21.73,8.18,36.03,8.47
373,1.86, 2017/11/15 10:45:04.135上午,18.24,4.37,569,47.79,8.46,39.61,10.85,21.64,8.31,36.28,8.55
374,1.865, 2017/11/15 10:45:04.14上午,18.09,4.38,576,47.72,8.43,39.95,10.7,21.51,8.31,36.11,8.56
375,1.87, 2017/11/15 10:45:04.145上午,18.24,4.4,581,47.73,8.5,39.65,10.72,21.58,8.41,36.15,8.64
376,1.875, 2017/11/15 10:45:04.15上午,18.13,4.35,571,47.76,8.44,38.9,10.54,21.55,8.37,35.94,8.54
377,1.88, 2017/11/15 10:45:04.155上午,18.29,4.4,584,47.73,8.49,39.59,10.68,21.57,8.35,36.42,8.62
378,1.885, 2017/11/15 10:45:04.16上午,18.24,4.41,583,47.74,8.43,38.98,10.89,21.58,8.43,36.28,8.64
379,1.89, 2017/11/15 10:45:04.165上午,18.25,4.37,578,47.74,8.39,38.72,11.2,21.67,8.25,36.3,8.57
380,1.895, 2017/11/15 10:45:04.17上午,18.15,4.38,575,47.77,8.44,38.41,11.34,21.57,8.29,36.11,8.59
381,1.9, 2017/11/15 10:45:04.175上午,18.23,4.4,581,47.78,8.43,38.72,11.2,21.64,8.37,36.25,8.63
382,1.905, 2017/11/15 10:45:04.18上午,18.2,4.42,580,47.77,8.41,38.97,11.03,21.7,8.46,36.37,8.65
383,1.91, 2017/11/15 10:45:04.185上午,18.11,4.4,583,47.76,8.43,38.72,11.2,21.69,8.27,36.14,8.59
384,1.915, 2017/11/15 10:45:04.19上午,18.39,4.39,576,47.75,8.43,39.18,11.09,21.82,8.28,36.63,8.6
385,1.92, 2017/11/15 10:45:04.195上午,18.33,4.24,541,47.87,8.28,42.5,8.5,21.79,8.32,36.35,8.3
386,1.925, 2017/11/15 10:45:04.2上午,18.37,4.22,555,47.8,8.36,42.5,8.5,21.86,8.16,36.43,8.28
387,1.93, 2017/11/15 10:45:04.205上午,18.23,4.34,581,47.87,8.28,39.83,10.93,21.62,8.26,36.27,8.49
388,1.935, 2017/11/15 10:45:04.21上午,18.2,4.38,577,47.76,8.5,39.95,10.7,21.55,8.36,36.07,8.61
389,1.94, 2017/11/15 10:45:04.215上午,18.08,4.37,569,47.66,8.42,39.89,10.62,21.57,8.38,35.98,8.56
390,1.945, 2017/11/15 10:45:04.22上午,18.05,4.33,565,47.7,8.41,38.87,11.5,21.68,8.26,35.95,8.48
391,1.95, 2017/11/15 10:45:04.225上午,18.17,4.38,577,47.78,8.43,38.7,11.06,21.75,8.31,36.17,8.58
392,1.955, 2017/11/15 10:45:04.23上午,18.15,4.4,565,47.79,8.43,38.95,11.55,21.67,8.39,36.28,8.6
393,1.96, 2017/11/15 10:45:04.235上午,18.26,4.36,577,47.76,8.41,39.6,11.11,21.76,8.28,36.37,8.55
394,1.965, 2017/11/15 10:45:04.24上午,18.1,4.39,569,47.74,8.42,39.24,11.21,21.68,8.37,36.18,8.57
395,1.97, 2017/11/15 10:45:04.245上午,18.02,4.29,549,47.84,8.33,42.5,8.5,21.7,8.42,36.01,8.37
396,1.975, 2017/11/15 10:45:04.25上午,18.17,4.37,582,47.73,8.42,39.52,11.3,21.74,8.29,36.31,8.55
397,1.98, 2017/11/15 10:45:04.255上午,18.23,4.36,565,47.78,8.42,39.81,11.1,21.74,8.34,36.41,8.52
398,1.985, 2017/11/15 10:45:04.26上午,18.26,4.37,578,47.87,8.26,39.54,11.31,21.68,8.35,36.5,8.54
399,1.99, 2017/11/15 10:45:04.265上午,18.28,4.38,584,47.73,8.43,38.96,11.16,21.77,8.3,36.36,8.58
400,1.995, 2017/11/15 10:45:04.27上午,18.08,4.29,554,47.73,8.38,42.5,8.5,21.7,8.37,36.16,8.38
401,2, 2017/11/15 10:45:04.275上午,18.27,4.32,579,47.89,8.3,39.95,10.7,21.74,8.24,36.39,8.46
402,2.005, 2017/11/15 10:45:04.28上午,18.26,4.33,568,47.71,8.43,39.81,11.1,21.75,8.26,36.33,8.49
403,2.01, 2017/11/15 10:45:04.285上午,18.04,4.24,560,47.9,8.27,42.5,8.5,21.7,8.29,36.07,8.28
404,2.015, 2017/11/15 10:45:04.29上午,18.32,4.32,584,47.86,8.27,39.95,10.7,21.75,8.28,36.47,8.46
405,2.02, 2017/11/15 10:45:04.295上午,18.15,4.32,575,47.81,8.26,39.9,10.62,21.65,8.28,36.28,8.44
406,2.025, 2017/11/15 10:45:04.3上午,18.28,4.34,573,47.71,8.43,39.95,10.7,21.81,8.18,36.24,8.5
407,2.03, 2017/11/15 10:45:04.305上午,18.27,4.36,575,47.72,8.52,39.85,10.65,21.68,8.19,36.34,8.54
408,2.035, 2017/11/15 10:45:04.31上午,18.2,4.36,570,47.77,8.48,39.94,10.64,21.64,8.28,36.21,8.54
409,2.04, 2017/11/15 10:45:04.315上午,18.13,4.37,571,47.71,8.41,39.37,10.87,21.61,8.4,35.95,8.57
410,2.045, 2017/11/15 10:45:04.32上午,18.09,4.4,578,47.67,8.42,38.4,11.34,21.56,8.37,35.98,8.62
411,2.05, 2017/11/15 10:45:04.325上午,18.19,4.36,577,47.74,8.42,38.46,11.24,21.59,8.22,36.21,8.54
412,2.055, 2017/11/15 10:45:04.33上午,18.2,4.37,565,47.78,8.43,39.13,10.98,21.64,8.35,36.26,8.56
413,2.06, 2017/11/15 10:45:04.335上午,18.17,4.44,585,47.77,8.43,38.72,11.2,21.67,8.48,36.27,8.68
414,2.065, 2017/11/15 10:45:04.34上午,18.36,4.3,552,47.77,8.45,42.5,8.4,21.6,8.39,36.54,8.42
415,2.07, 2017/11/15 10:45:04.345上午,18.16,4.4,575,47.74,8.45,38.96,11.54,21.68,8.43,36.25,8.61
416,2.075, 2017/11/15 10:45:04.35上午,18.1,4.37,571,47.8,8.45,39.19,11.28,21.68,8.27,36.03,8.56
417,2.08, 2017/11/15 10:45:04.355上午,18.38,4.36,564,47.74,8.42,39.93,10.94,21.58,8.37,36.62,8.53
418,2.085, 2017/11/15 10:45:04.36上午,18.12,4.43,579,47.74,8.42,38.72,11.19,21.71,8.44,36.17,8.66
419,2.09, 2017/11/15 10:45:04.365上午,18.2,4.4,575,47.78,8.44,38.47,11.44,21.59,8.34,36.19,8.63
420,2.095, 2017/11/15 10:45:04.37上午,18.31,4.42,588,47.77,8.42,38.67,11.35,21.66,8.4,36.46,8.65
421,2.1, 2017/11/15 10:45:04.375上午,18.21,4.42,578,47.76,8.44,38.72,11.2,21.6,8.37,36.39,8.64
422,2.105, 2017/11/15 10:45:04.38上午,18.14,4.4,578,47.81,8.46,38.9,11.63,21.7,8.4,36.08,8.62
423,2.11, 2017/11/15 10:45:04.385上午,18.23,4.4,577,47.69,8.44,38.95,11.55,21.7,8.44,36.4,8.61
424,2.115, 2017/11/15 10:45:04.39上午,18.12,4.38,581,47.73,8.43,39.51,11.22,21.75,8.27,36.21,8.55
425,2.12, 2017/11/15 10:45:04.395上午,18.11,4.33,581,47.9,8.29,39.72,10.96,21.71,8.26,36.14,8.45
426,2.125, 2017/11/15 10:45:04.4上午,18.18,4.31,575,47.84,8.3,39.94,10.7,21.76,8.17,36.17,8.44
427,2.13, 2017/11/15 10:45:04.405上午,18.34,4.34,577,47.74,8.43,39.89,10.63,21.84,8.24,36.36,8.5
428,2.135, 2017/11/15 10:45:04.41上午,18.17,4.34,573,47.67,8.38,39.85,10.65,21.71,8.26,36.14,8.5
429,2.14, 2017/11/15 10:45:04.415上午,18.22,4.37,580,47.69,8.48,39.9,10.73,21.72,8.26,36.24,8.57
430,2.145, 2017/11/15 10:45:04.42上午,18.18,4.35,572,47.66,8.45,39.68,10.88,21.68,8.23,36.16,8.52
431,2.15, 2017/11/15 10:45:04.425上午,18.27,4.39,569,47.7,8.45,39.58,10.69,21.67,8.33,36.35,8.59
432,2.155, 2017/11/15 10:45:04.43上午,18.11,4.38,572,47.7,8.44,39.62,10.78,21.56,8.36,36.03,8.58
433,2.16, 2017/11/15 10:45:04.435上午,18.07,4.37,568,47.67,8.41,38.74,11.08,21.63,8.28,35.95,8.56
434,2.165, 2017/11/15 10:45:04.44上午,18.07,4.38,573,47.7,8.41,38.61,11.32,21.64,8.32,35.97,8.57
435,2.17, 2017/11/15 10:45:04.445上午,18.16,4.41,572,47.75,8.44,38.46,11.24,21.65,8.42,36.26,8.62
436,2.175, 2017/11/15 10:45:04.45上午,18.1,4.36,576,47.74,8.39,38.96,11.5,21.74,8.34,36.04,8.53
437,2.18, 2017/11/15 10:45:04.455上午,18.28,4.36,576,47.74,8.43,39.22,11.12,21.73,8.23,36.41,8.53
438,2.185, 2017/11/15 10:45:04.46上午,18.23,4.4,573,47.8,8.46,38.9,11.62,21.65,8.38,36.4,8.61
439,2.19, 2017/11/15 10:45:04.465上午,18.05,4.34,575,47.72,8.38,39.87,10.26,21.72,8.36,36.07,8.47
440,2.195, 2017/11/15 10:45:04.47上午,18.2,4.37,582,47.72,8.43,39.52,11.22,21.76,8.24,36.36,8.54
441,2.2, 2017/11/15 10:45:04.475上午,18.21,4.38,577,47.73,8.43,39.24,10.52,21.69,8.44,36.35,8.56
442,2.205, 2017/11/15 10:45:04.48上午,18.28,4.3,581,47.78,8.21,39.64,10.36,21.75,8.28,36.4,8.42
443,2.21, 2017/11/15 10:45:04.485上午,18.27,4.35,578,47.74,8.45,39.73,10.85,21.86,8.25,36.34,8.52
444,2.215, 2017/11/15 10:45:04.49上午,18.22,4.33,574,47.77,8.43,39.24,10.52,21.75,8.24,36.26,8.47
445,2.22, 2017/11/15 10:45:04.495上午,18.23,4.24,551,47.9,8.28,42.5,8.41,21.69,8.32,36.28,8.3
446,2.225, 2017/11/15 10:45:04.5上午,18.1,4.36,570,47.71,8.46,39.61,10.74,21.66,8.31,36.01,8.54
447,2.23, 2017/11/15 10:45:04.505上午,18.11,4.37,567,47.7,8.44,39.94,10.64,21.57,8.38,36.02,8.56
448,2.235, 2017/11/15 10:45:04.51上午,18.18,4.37,577,47.7,8.43,38.7,11.06,21.53,8.3,36.04,8.58
449,2.24, 2017/11/15 10:45:04.515上午,18.05,4.41,571,47.67,8.43,38.43,11.28,21.57,8.46,35.91,8.65
450,2.245, 2017/11/15 10:45:04.52上午,18.14,4.42,586,47.74,8.42,38.69,11.25,21.64,8.42,36.07,8.65
451,2.25, 2017/11/15 10:45:04.525上午,18.25,4.37,566,47.72,8.4,38.96,11.5,21.61,8.4,36.31,8.56
452,2.255, 2017/11/15 10:45:04.53上午,18.14,4.38,566,47.81,8.47,38.82,11.78,21.65,8.3,36.09,8.57
453,2.26, 2017/11/15 10:45:04.535上午,18.12,4.35,572,47.73,8.37,38.96,11.5,21.7,8.36,36.05,8.53
454,2.265, 2017/11/15 10:45:04.54上午,18.27,4.4,584,47.71,8.39,38.8,11.2,21.64,8.38,36.33,8.61
455,2.27, 2017/11/15 10:45:04.545上午,18.17,4.37,580,47.68,8.42,38.98,10.89,21.52,8.24,36.14,8.56
456,2.275, 2017/11/15 10:45:04.55上午,18.12,4.42,574,47.62,8.42,38.71,11.2,21.57,8.45,36.04,8.67
457,2.28, 2017/11/15 10:45:04.555上午,18.03,4.4,575,47.69,8.43,39.41,10.82,21.76,8.45,35.91,8.61
458,2.285, 2017/11/15 10:45:04.56上午,18.13,4.42,573,47.69,8.44,38.96,10.98,21.55,8.47,36.07,8.66
459,2.29, 2017/11/15 10:45:04.565上午,18.17,4.41,576,47.65,8.44,38.98,10.89,21.52,8.4,36.14,8.64
460,2.295, 2017/11/15 10:45:04.57上午,18.1,4.37,571,47.69,8.46,39.85,10.65,21.65,8.3,36,8.56
461,2.3, 2017/11/15 10:45:04.575上午,17.99,4.4,571,47.67,8.44,39.51,10.96,21.58,8.41,35.91,8.59
462,2.305, 2017/11/15 10:45:04.58上午,18.16,4.4,573,47.68,8.43,38.97,10.97,21.55,8.43,36,8.63
463,2.31, 2017/11/15 10:45:04.585上午,18.01,4.37,568,47.65,8.42,39.85,10.65,21.58,8.38,35.83,8.57
464,2.315, 2017/11/15 10:45:04.59上午,18.15,4.38,556,47.69,8.43,39.84,10.66,21.53,8.41,36.12,8.59
465,2.32, 2017/11/15 10:45:04.595上午,18.11,4.38,567,47.69,8.42,39.32,10.8,21.58,8.34,36.02,8.57
466,2.325, 2017/11/15 10:45:04.6上午,18.09,4.41,572,47.7,8.43,39.23,10.89,21.64,8.41,36.16,8.61
467,2.33, 2017/11/15 10:45:04.605上午,18.06,4.42,579,47.66,8.45,38.39,11.35,21.79,8.4,36.06,8.64
468,2.335, 2017/11/15 10:45:04.61上午,18.08,4.4,573,47.73,8.37,38.71,11.2,21.71,8.37,36.13,8.61
469,2.34, 2017/11/15 10:45:04.615上午,18.08,4.42,582,47.75,8.42,39.34,11.01,21.68,8.4,36.17,8.63
470,2.345, 2017/11/15 10:45:04.62上午,18.06,4.36,572,47.72,8.32,38.97,11.15,21.7,8.3,35.96,8.53
471,2.35, 2017/11/15 10:45:04.625上午,18.22,4.26,568,47.78,8.38,42.27,8.43,21.81,8.29,36.3,8.34
472,2.355, 2017/11/15 10:45:04.63上午,18.14,4.32,573,47.72,8.27,39.95,10.7,21.73,8.25,36.08,8.45
473,2.36, 2017/11/15 10:45:04.635上午,18.12,4.33,562,47.76,8.31,39.9,10.62,21.74,8.33,35.92,8.49
474,2.365, 2017/11/15 10:45:04.64上午,18.13,4.26,557,47.7,8.4,42.5,8.5,21.78,8.24,36.08,8.33
475,2.37, 2017/11/15 10:45:04.645上午,18.09,4.35,577,47.62,8.39,39.82,10.72,21.76,8.25,36.15,8.5
476,2.375, 2017/11/15 10:45:04.65上午,18.2,4.24,570,47.68,8.3,42.27,8.43,21.8,8.3,36.25,8.3
477,2.38, 2017/11/15 10:45:04.655上午,17.98,4.35,571,47.82,8.34,39.24,10.53,21.72,8.42,35.9,8.51
478,2.385, 2017/11/15 10:45:04.66上午,18.11,4.26,549,47.81,8.3,41,9.83,21.75,8.23,36.09,8.34
479,2.39, 2017/11/15 10:45:04.665上午,18.17,4.33,565,47.71,8.44,39.81,11.1,21.78,8.24,36.2,8.48
480,2.395, 2017/11/15 10:45:04.67上午,17.86,4.36,564,47.69,8.42,39.78,10.81,21.74,8.34,35.69,8.51
481,2.4, 2017/11/15 10:45:04.675上午,18.09,4.3,554,47.65,8.41,42.5,8.41,21.63,8.39,36.14,8.4
482,2.405, 2017/11/15 10:45:04.68上午,18.02,4.41,574,47.66,8.39,38.74,11.08,21.7,8.43,36.02,8.61
483,2.41, 2017/11/15 10:45:04.685上午,18.05,4.4,580,47.64,8.38,38.98,11.05,21.76,8.37,35.94,8.62
484,2.415, 2017/11/15 10:45:04.69上午,17.96,4.31,544,47.64,8.45,42.5,8.5,21.67,8.42,35.78,8.43
485,2.42, 2017/11/15 10:45:04.695上午,17.78,4.26,546,47.72,8.26,42.5,8.5,21.68,8.35,35.55,8.31
486,2.425, 2017/11/15 10:45:04.7上午,17.98,4.4,578,47.63,8.42,39.51,10.97,21.7,8.39,35.92,8.61
487,2.43, 2017/11/15 10:45:04.705上午,18.02,4.34,569,47.81,8.31,39.95,10.79,21.75,8.29,35.88,8.5
488,2.435, 2017/11/15 10:45:04.71上午,18.04,4.34,576,47.72,8.25,39.83,10.93,21.74,8.31,35.89,8.51
489,2.44, 2017/11/15 10:45:04.715上午,18.19,4.31,563,47.7,8.27,39.8,10.92,21.85,8.22,36.06,8.44
490,2.445, 2017/11/15 10:45:04.72上午,17.99,4.31,571,47.66,8.23,39.95,10.7,21.8,8.29,35.79,8.45
491,2.45, 2017/11/15 10:45:04.725上午,17.93,4.29,558,47.67,8.26,39.89,10.62,21.73,8.19,35.68,8.41
492,2.455, 2017/11/15 10:45:04.73上午,17.99,4.35,572,47.56,8.32,39.95,10.7,21.61,8.35,35.79,8.52
493,2.46, 2017/11/15 10:45:04.735上午,17.78,4.32,565,47.7,8.26,39.89,10.63,21.67,8.34,35.38,8.47
494,2.465, 2017/11/15 10:45:04.74上午,18.04,4.37,569,47.57,8.45,39.91,10.72,21.69,8.29,35.88,8.57
495,2.47, 2017/11/15 10:45:04.745上午,17.95,4.34,557,47.74,8.3,39.95,10.7,21.65,8.3,35.71,8.49
496,2.475, 2017/11/15 10:45:04.75上午,17.96,4.34,570,47.67,8.25,39.83,10.93,21.81,8.28,35.73,8.49
497,2.48, 2017/11/15 10:45:04.755上午,18.01,4.34,563,47.58,8.46,39.61,10.86,21.75,8.19,35.84,8.5
498,2.485, 2017/11/15 10:45:04.76上午,17.87,4.36,557,47.73,8.31,39.83,10.93,21.69,8.28,35.56,8.53
499,2.49, 2017/11/15 10:45:04.765上午,17.8,4.39,574,47.76,8.35,39.83,10.93,21.68,8.35,35.56,8.57
500,2.495, 2017/11/15 10:45:04.77上午,17.95,4.34,575,47.57,8.37,39.91,10.73,21.7,8.26,35.71,8.51
501,2.5, 2017/11/15 10:45:04.775上午,17.95,4.24,554,47.66,8.25,41.08,9.71,21.72,8.2,35.77,8.29
502,2.505, 2017/11/15 10:45:04.78上午,18.01,4.36,574,47.59,8.4,39.96,10.69,21.72,8.3,35.82,8.54
503,2.51, 2017/11/15 10:45:04.785上午,18.08,4.33,565,47.6,8.37,39.9,10.62,21.71,8.25,35.97,8.48
504,2.515, 2017/11/15 10:45:04.79上午,17.97,4.39,566,47.66,8.44,39.56,10.7,21.61,8.35,35.74,8.6
505,2.52, 2017/11/15 10:45:04.795上午,18.02,4.39,569,47.66,8.45,39.28,10.92,21.57,8.37,35.72,8.62
506,2.525, 2017/11/15 10:45:04.8上午,17.75,4.42,585,47.63,8.45,38.67,11.1,21.65,8.39,35.41,8.64
507,2.53, 2017/11/15 10:45:04.805上午,17.78,4.39,568,47.59,8.41,38.32,11.61,21.7,8.31,35.37,8.6
508,2.535, 2017/11/15 10:45:04.81上午,17.94,4.39,568,47.64,8.48,39.51,11.16,21.71,8.4,35.72,8.6
509,2.54, 2017/11/15 10:45:04.815上午,17.94,4.35,557,47.64,8.44,39.86,10.41,21.66,8.37,35.74,8.52
510,2.545, 2017/11/15 10:45:04.82上午,17.9,4.4,560,47.66,8.39,39.62,11.08,21.73,8.48,35.78,8.6
511,2.55, 2017/11/15 10:45:04.825上午,17.65,4.24,539,47.66,8.24,42.5,8.41,21.72,8.31,35.3,8.28
512,2.555, 2017/11/15 10:45:04.83上午,17.84,4.3,547,47.62,8.38,42.5,8.5,21.66,8.4,35.67,8.39
513,2.56, 2017/11/15 10:45:04.835上午,17.81,4.33,563,47.6,8.39,40.22,10.24,21.7,8.35,35.6,8.46
514,2.565, 2017/11/15 10:45:04.84上午,17.81,4.33,552,47.7,8.31,39.63,11.08,21.73,8.29,35.47,8.48
515,2.57, 2017/11/15 10:45:04.845上午,17.77,4.37,564,47.58,8.36,39.11,11.12,21.69,8.33,35.52,8.55
516,2.575, 2017/11/15 10:45:04.85上午,17.86,4.34,560,47.73,8.3,39.38,10.62,21.75,8.33,35.58,8.49
517,2.58, 2017/11/15 10:45:04.855上午,17.8,4.39,576,47.56,8.37,38.7,11.41,21.67,8.31,35.56,8.58
518,2.585, 2017/11/15 10:45:04.86上午,17.79,4.38,549,47.57,8.33,38.9,11.63,21.65,8.39,35.57,8.56
519,2.59, 2017/11/15 10:45:04.865上午,17.66,4.39,558,47.65,8.23,38.96,11.16,21.69,8.5,35.25,8.59
520,2.595, 2017/11/15 10:45:04.87上午,17.65,4.42,563,47.67,8.47,38.72,11.31,21.76,8.38,35.26,8.63
521,2.6, 2017/11/15 10:45:04.875上午,17.73,4.4,565,47.63,8.42,38.61,11.33,21.69,8.34,35.3,8.61
522,2.605, 2017/11/15 10:45:04.88上午,17.8,4.43,558,47.65,8.47,38.43,11.5,21.67,8.4,35.45,8.68
523,2.61, 2017/11/15 10:45:04.885上午,17.74,4.38,556,47.62,8.45,38.77,11.38,21.65,8.33,35.33,8.57
524,2.615, 2017/11/15 10:45:04.89上午,17.79,4.4,566,47.63,8.41,38.44,11.5,21.92,8.34,35.42,8.63
525,2.62, 2017/11/15 10:45:04.895上午,17.65,4.45,560,47.66,8.46,38.44,11.5,21.72,8.43,35.31,8.7
526,2.625, 2017/11/15 10:45:04.9上午,17.68,4.45,557,47.6,8.42,38.59,11.36,21.71,8.47,35.33,8.7
527,2.63, 2017/11/15 10:45:04.905上午,17.95,4.34,553,47.58,8.37,39.79,11.11,21.81,8.34,35.72,8.5
528,2.635, 2017/11/15 10:45:04.91上午,17.87,4.37,568,47.58,8.36,38.96,11.16,21.8,8.32,35.54,8.56
529,2.64, 2017/11/15 10:45:04.915上午,17.77,4.37,566,47.63,8.38,39.2,11.13,21.75,8.34,35.38,8.56
530,2.645, 2017/11/15 10:45:04.92上午,17.68,4.25,548,47.56,8.34,42.27,8.43,21.69,8.22,35.31,8.29
531,2.65, 2017/11/15 10:45:04.925上午,17.75,4.27,548,47.66,8.25,40.11,10.65,21.74,8.18,35.33,8.36
532,2.655, 2017/11/15 10:45:04.93上午,17.65,4.25,539,47.67,8.24,42.27,8.43,21.78,8.38,35.17,8.31
533,2.66, 2017/11/15 10:45:04.935上午,17.65,4.36,570,47.57,8.36,40.11,10.65,21.74,8.41,35.27,8.51
534,2.665, 2017/11/15 10:45:04.94上午,17.64,4.42,562,47.57,8.36,38.44,11.5,21.73,8.4,35.26,8.63
535,2.67, 2017/11/15 10:45:04.945上午,17.64,4.36,557,47.57,8.37,39.18,11.28,21.7,8.31,35.12,8.54
536,2.675, 2017/11/15 10:45:04.95上午,17.79,4.4,569,47.61,8.36,38.77,11.26,21.69,8.38,35.41,8.62
537,2.68, 2017/11/15 10:45:04.955上午,17.69,4.39,566,47.66,8.41,38.71,11.06,21.74,8.34,35.21,8.59
538,2.685, 2017/11/15 10:45:04.96上午,17.78,4.37,566,47.63,8.4,38.72,11.2,21.67,8.23,35.36,8.56
539,2.69, 2017/11/15 10:45:04.965上午,17.79,4.37,568,47.61,8.43,39.41,10.91,21.67,8.33,35.38,8.57
540,2.695, 2017/11/15 10:45:04.97上午,17.64,4.38,566,47.56,8.38,39.65,10.72,21.54,8.35,35.21,8.56
541,2.7, 2017/11/15 10:45:04.975上午,17.75,4.43,565,47.64,8.39,38.69,11.23,21.57,8.44,35.43,8.66
542,2.705, 2017/11/15 10:45:04.98上午,17.69,4.37,566,47.55,8.38,39.59,10.68,21.69,8.34,35.22,8.56
543,2.71, 2017/11/15 10:45:04.985上午,17.81,4.37,555,47.6,8.43,39.4,10.85,21.63,8.35,35.42,8.55
544,2.715, 2017/11/15 10:45:04.99上午,17.8,4.38,558,47.6,8.43,39.35,10.96,21.61,8.36,35.41,8.59
545,2.72, 2017/11/15 10:45:04.995上午,17.66,4.37,559,47.59,8.43,39.61,10.74,21.59,8.37,35.13,8.56
546,2.725, 2017/11/15 10:45:05上午,17.72,4.37,553,47.65,8.43,38.78,11.37,21.7,8.31,35.29,8.55
547,2.73, 2017/11/15 10:45:05.005上午,17.71,4.38,569,47.63,8.41,38.69,11.25,21.71,8.23,35.25,8.58
548,2.735, 2017/11/15 10:45:05.01上午,17.75,4.42,566,47.63,8.38,38.72,11.19,21.7,8.44,35.5,8.65
549,2.74, 2017/11/15 10:45:05.015上午,17.54,4.4,566,47.64,8.45,38.34,11.56,21.72,8.25,35.04,8.6
550,2.745, 2017/11/15 10:45:05.02上午,17.7,4.42,572,47.62,8.39,38.59,11.43,21.71,8.43,35.36,8.65
551,2.75, 2017/11/15 10:45:05.025上午,17.76,4.36,564,47.61,8.37,39.17,11.2,21.78,8.34,35.37,8.54
552,2.755, 2017/11/15 10:45:05.03上午,17.79,4.3,557,47.63,8.39,40.33,9.79,21.71,8.29,35.43,8.43
553,2.76, 2017/11/15 10:45:05.035上午,17.77,4.33,555,47.62,8.23,39.95,10.7,21.71,8.31,35.39,8.47
554,2.765, 2017/11/15 10:45:05.04上午,17.64,4.37,556,47.61,8.35,39.92,10.95,21.72,8.45,35.25,8.53
555,2.77, 2017/11/15 10:45:05.045上午,17.58,4.26,551,47.54,8.34,42.5,8.41,21.75,8.29,35.18,8.32
556,2.775, 2017/11/15 10:45:05.05上午,17.79,4.38,570,47.61,8.39,39.31,11.32,21.74,8.34,35.42,8.57
557,2.78, 2017/11/15 10:45:05.055上午,17.67,4.35,558,47.59,8.34,39.52,11.15,21.69,8.32,35.37,8.49
558,2.785, 2017/11/15 10:45:05.06上午,17.62,4.34,548,47.74,8.34,40.31,10.12,21.64,8.44,35.27,8.48
559,2.79, 2017/11/15 10:45:05.065上午,17.7,4.42,570,47.61,8.41,38.72,11.2,21.72,8.4,35.32,8.64
560,2.795, 2017/11/15 10:45:05.07上午,17.62,4.41,572,47.63,8.4,38.72,11.2,21.68,8.38,35.2,8.63
561,2.8, 2017/11/15 10:45:05.075上午,17.68,4.41,561,47.55,8.36,38.46,11.45,21.72,8.37,35.36,8.61
562,2.805, 2017/11/15 10:45:05.08上午,17.62,4.42,572,47.68,8.4,38.41,11.53,21.73,8.33,35.23,8.62
563,2.81, 2017/11/15 10:45:05.085上午,17.75,4.39,567,47.61,8.39,38.72,11.2,21.57,8.35,35.31,8.61
564,2.815, 2017/11/15 10:45:05.09上午,17.54,4.35,543,47.7,8.46,38.94,11.69,21.69,8.3,34.89,8.51
565,2.82, 2017/11/15 10:45:05.095上午,17.75,4.39,557,47.66,8.45,38.7,11.14,21.66,8.3,35.31,8.6
566,2.825, 2017/11/15 10:45:05.1上午,17.71,4.38,566,47.64,8.4,38.72,11.2,21.66,8.26,35.26,8.57
567,2.83, 2017/11/15 10:45:05.105上午,17.73,4.36,568,47.57,8.28,38.44,11.5,21.7,8.31,35.26,8.55
568,2.835, 2017/11/15 10:45:05.11上午,17.67,4.41,566,47.62,8.44,38.44,11.5,21.78,8.34,35.17,8.64
569,2.84, 2017/11/15 10:45:05.115上午,17.68,4.36,573,47.56,8.31,38.97,10.97,21.8,8.31,35.27,8.52
570,2.845, 2017/11/15 10:45:05.12上午,17.68,4.35,553,47.55,8.3,39.22,11.54,21.7,8.36,35.39,8.49
571,2.85, 2017/11/15 10:45:05.125上午,17.75,4.31,547,47.68,8.24,39.8,11.11,21.75,8.33,35.36,8.43
572,2.855, 2017/11/15 10:45:05.13上午,17.77,4.34,565,47.72,8.28,39.38,10.62,21.77,8.34,35.51,8.48
573,2.86, 2017/11/15 10:45:05.135上午,17.65,4.36,562,47.63,8.39,39.26,10.53,21.77,8.35,35.27,8.52
574,2.865, 2017/11/15 10:45:05.14上午,17.69,4.33,557,47.63,8.26,39.94,10.71,21.82,8.31,35.22,8.48
575,2.87, 2017/11/15 10:45:05.145上午,17.85,4.33,566,47.58,8.37,39.27,10.53,21.74,8.29,35.54,8.48
576,2.875, 2017/11/15 10:45:05.15上午,17.78,4.28,557,47.54,8.34,41.07,9.72,21.78,8.3,35.41,8.39
577,2.88, 2017/11/15 10:45:05.155上午,17.75,4.34,566,47.61,8.39,39.77,10.88,21.81,8.2,35.34,8.5
578,2.885, 2017/11/15 10:45:05.16上午,17.72,4.22,531,47.65,8.25,42.5,8.41,21.79,8.25,35.29,8.25
579,2.89, 2017/11/15 10:45:05.165上午,17.74,4.33,554,47.68,8.24,39.51,11.16,21.71,8.27,35.34,8.48
580,2.895, 2017/11/15 10:45:05.17上午,17.63,4.3,552,47.75,8.32,41.13,9.55,21.67,8.36,35.22,8.4
581,2.9, 2017/11/15 10:45:05.175上午,17.69,4.33,560,47.55,8.32,39.81,11.1,21.72,8.32,35.35,8.46
582,2.905, 2017/11/15 10:45:05.18上午,17.58,4.34,574,47.59,8.36,39.57,10.23,21.88,8.31,35.12,8.47
583,2.91, 2017/11/15 10:45:05.185上午,17.69,4.38,586,47.57,8.36,38.97,11.05,21.75,8.27,35.34,8.56
584,2.915, 2017/11/15 10:45:05.19上午,17.67,4.4,579,47.64,8.38,38.92,11.27,21.71,8.33,35.33,8.6
585,2.92, 2017/11/15 10:45:05.195上午,17.41,4.35,559,47.66,8.27,39.63,11.08,21.71,8.35,34.79,8.49
586,2.925, 2017/11/15 10:45:05.2上午,17.78,4.3,548,47.63,8.25,39.95,10.7,21.75,8.19,35.37,8.43
587,2.93, 2017/11/15 10:45:05.205上午,17.72,4.3,562,47.59,8.19,39.83,10.93,21.78,8.18,35.29,8.42
588,2.935, 2017/11/15 10:45:05.21上午,17.82,4.37,560,47.58,8.41,39.91,10.72,21.7,8.3,35.46,8.55
589,2.94, 2017/11/15 10:45:05.215上午,17.7,4.32,555,47.61,8.38,39.89,10.63,21.79,8.18,35.21,8.46
590,2.945, 2017/11/15 10:45:05.22上午,17.77,4.33,558,47.59,8.41,39.89,10.63,21.72,8.22,35.35,8.49
591,2.95, 2017/11/15 10:45:05.225上午,17.73,4.34,550,47.63,8.4,39.39,10.86,21.69,8.24,35.27,8.49
592,2.955, 2017/11/15 10:45:05.23上午,17.63,4.36,556,47.63,8.41,39.39,10.97,21.69,8.3,35.1,8.53
593,2.96, 2017/11/15 10:45:05.235上午,17.7,4.33,560,47.56,8.37,39.68,10.71,21.75,8.21,35.21,8.49
594,2.965, 2017/11/15 10:45:05.24上午,17.68,4.35,544,47.56,8.35,38.78,11.38,21.61,8.3,35.17,8.52
595,2.97, 2017/11/15 10:45:05.245上午,17.67,4.35,558,47.58,8.37,39.89,10.63,21.66,8.33,35.16,8.52
596,2.975, 2017/11/15 10:45:05.25上午,17.58,4.33,543,47.56,8.38,38.86,11.5,21.65,8.3,34.98,8.49
597,2.98, 2017/11/15 10:45:05.255上午,17.58,4.37,556,47.59,8.38,39.57,10.77,21.57,8.35,35.1,8.54
598,2.985, 2017/11/15 10:45:05.26上午,17.74,4.33,555,47.53,8.32,39.89,10.63,21.69,8.29,35.33,8.48
599,2.99, 2017/11/15 10:45:05.265上午,17.76,4.33,554,47.6,8.36,39.66,10.94,21.76,8.16,35.36,8.47
600,2.995, 2017/11/15 10:45:05.27上午,17.53,4.22,537,47.61,8.22,42.27,8.42,21.6,8.3,34.88,8.27
@@,,,,,,,,,,,,,
